Time,Equipment,Model,SWVersion,LotName,Barcode,Operator,Result,mA,,
2019-01-24 11-21-11-525,Final Test,particle,FinalTest_2018.12.11.0,,Administrator Mode,,PASS,8.8,,
2019-01-24 11-23-06-737,Final Test,particle,FinalTest_2018.12.11.0,,Administrator Mode,,PASS,8.8,,
2019-01-24 11-24-34-115,Final Test,particle,FinalTest_2018.12.11.0,,Administrator Mode,,PASS,8.9,,
2019-01-24 11-40-05-343,Final Test,particle,FinalTest_2018.12.11.0,,Administrator Mode,,PASS,8.9,,
2019-01-24 11-40-34-661,Final Test,particle,FinalTest_2018.12.11.0,,Administrator Mode,,PASS,8.9,,
2019-01-24 11-41-10-426,Final Test,particle,FinalTest_2018.12.11.0,,Administrator Mode,,PASS,8.9,,
