Time,Equipment,Model,SWVersion,LotName,Barcode,Operator,Result,Count,,
2020-10-12 15-10-53-983,DESKTOP-K0JN836,CP1H_C0_V1.00,FinalTest_2020.9.23.0,121020,CP1H 210920 000028,SARA,PASS,0,,
2020-10-12 15-12-17-486,DESKTOP-K0JN836,CP1H_C0_V1.00,FinalTest_2020.9.23.0,121020,CP1H 210920 000057,SARA,PASS,0,,
2020-10-12 15-13-07-159,DESKTOP-K0JN836,CP1H_C0_V1.00,FinalTest_2020.9.23.0,121020,CP1H 210920 000096,SARA,PASS,0,,
2020-10-12 15-14-15-312,DESKTOP-K0JN836,CP1H_C0_V1.00,FinalTest_2020.9.23.0,121020,CP1H 210920 000091,SARA,PASS,0,,
2020-10-12 15-15-11-204,DESKTOP-K0JN836,CP1H_C0_V1.00,FinalTest_2020.9.23.0,121020,CP1H 210920 000127,SARA,PASS,0,,
2020-10-12 15-16-01-480,DESKTOP-K0JN836,CP1H_C0_V1.00,FinalTest_2020.9.23.0,121020,CP1H 210920 000051,SARA,PASS,0,,
2020-10-12 15-16-47-148,DESKTOP-K0JN836,CP1H_C0_V1.00,FinalTest_2020.9.23.0,121020,CP1H 210920 000102,SARA,PASS,0,,
2020-10-12 15-17-41-867,DESKTOP-K0JN836,CP1H_C0_V1.00,FinalTest_2020.9.23.0,121020,CP1H 210920 000128,SARA,PASS,0,,
2020-10-12 15-18-30-535,DESKTOP-K0JN836,CP1H_C0_V1.00,FinalTest_2020.9.23.0,121020,CP1H 210920 000037,SARA,FAIL,1,,
2020-10-12 15-19-15-196,DESKTOP-K0JN836,CP1H_C0_V1.00,FinalTest_2020.9.23.0,121020,CP1H 210920 000037,SARA,PASS,0,,
2020-10-12 15-23-41-728,DESKTOP-K0JN836,CP1H_C0_V1.00,FinalTest_2020.9.23.0,121020,CP1H 210920 000112,SARA,FAIL,1,,
2020-10-12 15-24-21-970,DESKTOP-K0JN836,CP1H_C0_V1.00,FinalTest_2020.9.23.0,121020,CP1H 210920 000112,SARA,PASS,0,,
2020-10-12 15-25-11-769,DESKTOP-K0JN836,CP1H_C0_V1.00,FinalTest_2020.9.23.0,121020,CP1H 100920 000088,SARA,PASS,0,,
2020-10-12 15-26-02-050,DESKTOP-K0JN836,CP1H_C0_V1.00,FinalTest_2020.9.23.0,121020,CP1H 210920 000092,SARA,PASS,0,,
2020-10-12 15-27-06-699,DESKTOP-K0JN836,CP1H_C0_V1.00,FinalTest_2020.9.23.0,121020,CP1H 210920 000135,SARA,PASS,0,,
2020-10-12 15-49-12-449,DESKTOP-K0JN836,CP1H_C0_V1.00,FinalTest_2020.9.23.0,121020,CP1H 210920 000049,SARA,PASS,0,,
2020-10-12 15-50-01-605,DESKTOP-K0JN836,CP1H_C0_V1.00,FinalTest_2020.9.23.0,121020,CP1H 100920 000058,SARA,PASS,0,,
2020-10-12 15-50-47-206,DESKTOP-K0JN836,CP1H_C0_V1.00,FinalTest_2020.9.23.0,121020,CP1H 210920 000107,SARA,PASS,0,,
2020-10-12 15-51-31-001,DESKTOP-K0JN836,CP1H_C0_V1.00,FinalTest_2020.9.23.0,121020,CP1H 210920 000119,SARA,PASS,0,,
2020-10-12 15-52-19-282,DESKTOP-K0JN836,CP1H_C0_V1.00,FinalTest_2020.9.23.0,121020,CP1H 210920 000109,SARA,PASS,0,,
2020-10-12 15-53-28-362,DESKTOP-K0JN836,CP1H_C0_V1.00,FinalTest_2020.9.23.0,121020,CP1H 210920 000111,SARA,FAIL,2,,
2020-10-12 15-54-13-509,DESKTOP-K0JN836,CP1H_C0_V1.00,FinalTest_2020.9.23.0,121020,CP1H 210920 000111,SARA,PASS,0,,
2020-10-12 15-54-58-576,DESKTOP-K0JN836,CP1H_C0_V1.00,FinalTest_2020.9.23.0,121020,CP1H 210920 000108,SARA,PASS,0,,
2020-10-12 15-55-43-538,DESKTOP-K0JN836,CP1H_C0_V1.00,FinalTest_2020.9.23.0,121020,CP1H 210920 000131,SARA,PASS,0,,
2020-10-12 15-56-31-446,DESKTOP-K0JN836,CP1H_C0_V1.00,FinalTest_2020.9.23.0,121020,CP1H 210920 000095,SARA,PASS,0,,
2020-10-12 15-57-23-741,DESKTOP-K0JN836,CP1H_C0_V1.00,FinalTest_2020.9.23.0,121020,CP1H 210920 000160,SARA,PASS,0,,
2020-10-12 15-58-13-725,DESKTOP-K0JN836,CP1H_C0_V1.00,FinalTest_2020.9.23.0,121020,CP1H 210920 000069,SARA,PASS,0,,
2020-10-12 15-58-59-087,DESKTOP-K0JN836,CP1H_C0_V1.00,FinalTest_2020.9.23.0,121020,CP1H 210920 000145,SARA,PASS,0,,
2020-10-12 15-59-44-661,DESKTOP-K0JN836,CP1H_C0_V1.00,FinalTest_2020.9.23.0,121020,CP1H 210920 000148,SARA,PASS,0,,
2020-10-12 16-00-30-044,DESKTOP-K0JN836,CP1H_C0_V1.00,FinalTest_2020.9.23.0,121020,CP1H 210920 000043,SARA,PASS,0,,
2020-10-12 16-04-02-632,DESKTOP-K0JN836,CP1H_C0_V1.00,FinalTest_2020.9.23.0,121020,CP1H 210920 000043,SARA,PASS,0,,
2020-10-12 16-07-02-772,DESKTOP-K0JN836,CP1H_C0_V1.00,FinalTest_2020.9.23.0,121020,CP1H 210920 000136,SARA,PASS,0,,
2020-10-12 16-08-19-577,DESKTOP-K0JN836,CP1H_C0_V1.00,FinalTest_2020.9.23.0,121020,CP1H 210920 000104,SARA,PASS,0,,
2020-10-12 16-09-08-844,DESKTOP-K0JN836,CP1H_C0_V1.00,FinalTest_2020.9.23.0,121020,CP1H 210920 000134,SARA,PASS,0,,
2020-10-12 16-09-54-433,DESKTOP-K0JN836,CP1H_C0_V1.00,FinalTest_2020.9.23.0,121020,CP1H 210920 000099,SARA,PASS,0,,
2020-10-12 16-10-42-918,DESKTOP-K0JN836,CP1H_C0_V1.00,FinalTest_2020.9.23.0,121020,CP1H 100920 000101,SARA,PASS,0,,
2020-10-12 16-11-52-304,DESKTOP-K0JN836,CP1H_C0_V1.00,FinalTest_2020.9.23.0,121020,CP1H 210920 000115,SARA,PASS,0,,
2020-10-12 16-12-40-976,DESKTOP-K0JN836,CP1H_C0_V1.00,FinalTest_2020.9.23.0,121020,CP1H 210920 000103,SARA,FAIL,1,,
2020-10-12 16-13-53-182,DESKTOP-K0JN836,CP1H_C0_V1.00,FinalTest_2020.9.23.0,121020,CP1H 210920 000103,SARA,FAIL,1,,
2020-10-12 16-14-41-955,DESKTOP-K0JN836,CP1H_C0_V1.00,FinalTest_2020.9.23.0,121020,CP1H 210920 000103,SARA,FAIL,1,,
2020-10-12 16-15-32-059,DESKTOP-K0JN836,CP1H_C0_V1.00,FinalTest_2020.9.23.0,121020,CP1H 210920 000159,SARA,PASS,0,,
2020-10-12 16-16-26-663,DESKTOP-K0JN836,CP1H_C0_V1.00,FinalTest_2020.9.23.0,121020,CP1H 210920 000105,SARA,PASS,0,,
2020-10-12 16-17-17-271,DESKTOP-K0JN836,CP1H_C0_V1.00,FinalTest_2020.9.23.0,121020,CP1H 210920 000097,SARA,PASS,0,,
2020-10-12 16-18-04-755,DESKTOP-K0JN836,CP1H_C0_V1.00,FinalTest_2020.9.23.0,121020,CP1H 210920 000087,SARA,PASS,0,,
2020-10-12 16-19-11-766,DESKTOP-K0JN836,CP1H_C0_V1.00,FinalTest_2020.9.23.0,121020,CP1H 210920 000076,SARA,PASS,0,,
2020-10-12 16-19-59-677,DESKTOP-K0JN836,CP1H_C0_V1.00,FinalTest_2020.9.23.0,121020,CP1H 210920 000118,SARA,PASS,0,,
2020-10-12 16-20-47-292,DESKTOP-K0JN836,CP1H_C0_V1.00,FinalTest_2020.9.23.0,121020,CP1H 210920 000164,SARA,PASS,0,,
2020-10-12 16-21-42-998,DESKTOP-K0JN836,CP1H_C0_V1.00,FinalTest_2020.9.23.0,121020,CP1H 210920 000055,SARA,PASS,0,,
2020-10-12 16-22-29-953,DESKTOP-K0JN836,CP1H_C0_V1.00,FinalTest_2020.9.23.0,121020,CP1H 210920 000042,SARA,PASS,0,,
2020-10-12 16-23-34-001,DESKTOP-K0JN836,CP1H_C0_V1.00,FinalTest_2020.9.23.0,121020,CP1H 210920 000126,SARA,FAIL,1,,
2020-10-12 16-24-28-206,DESKTOP-K0JN836,CP1H_C0_V1.00,FinalTest_2020.9.23.0,121020,CP1H 210920 000126,SARA,PASS,0,,
2020-10-12 16-25-11-370,DESKTOP-K0JN836,CP1H_C0_V1.00,FinalTest_2020.9.23.0,121020,CP1H 210920 000050,SARA,PASS,0,,
2020-10-12 16-25-54-291,DESKTOP-K0JN836,CP1H_C0_V1.00,FinalTest_2020.9.23.0,121020,CP1H 210920 000036,SARA,PASS,0,,
2020-10-12 16-26-37-755,DESKTOP-K0JN836,CP1H_C0_V1.00,FinalTest_2020.9.23.0,121020,CP1H 210920 000113,SARA,PASS,0,,
2020-10-12 16-27-27-948,DESKTOP-K0JN836,CP1H_C0_V1.00,FinalTest_2020.9.23.0,121020,CP1H 210920 000059,SARA,PASS,0,,
2020-10-12 16-28-11-952,DESKTOP-K0JN836,CP1H_C0_V1.00,FinalTest_2020.9.23.0,121020,CP1H 210920 000079,SARA,PASS,0,,
2020-10-12 16-28-59-241,DESKTOP-K0JN836,CP1H_C0_V1.00,FinalTest_2020.9.23.0,121020,CP1H 210920 000081,SARA,PASS,0,,
2020-10-12 16-29-46-307,DESKTOP-K0JN836,CP1H_C0_V1.00,FinalTest_2020.9.23.0,121020,CP1H 210920 000074,SARA,PASS,0,,
2020-10-12 16-30-32-289,DESKTOP-K0JN836,CP1H_C0_V1.00,FinalTest_2020.9.23.0,121020,CP1H 210920 000146,SARA,FAIL,1,,
2020-10-12 16-31-15-624,DESKTOP-K0JN836,CP1H_C0_V1.00,FinalTest_2020.9.23.0,121020,CP1H 210920 000146,SARA,FAIL,1,,
2020-10-12 16-32-01-813,DESKTOP-K0JN836,CP1H_C0_V1.00,FinalTest_2020.9.23.0,121020,CP1H 210920 000146,SARA,PASS,0,,
2020-10-12 16-32-53-297,DESKTOP-K0JN836,CP1H_C0_V1.00,FinalTest_2020.9.23.0,121020,CP1H 210920 000067,SARA,PASS,0,,
2020-10-12 16-33-45-379,DESKTOP-K0JN836,CP1H_C0_V1.00,FinalTest_2020.9.23.0,121020,CP1H 210920 000094,SARA,PASS,0,,
2020-10-12 16-34-53-240,DESKTOP-K0JN836,CP1H_C0_V1.00,FinalTest_2020.9.23.0,121020,CP1H 210920 000040,SARA,PASS,0,,
2020-10-12 16-36-27-682,DESKTOP-K0JN836,CP1H_C0_V1.00,FinalTest_2020.9.23.0,121020,CP1H 210920 000056,SARA,PASS,0,,
2020-10-12 16-40-01-516,DESKTOP-K0JN836,CP1H_C0_V1.00,FinalTest_2020.9.23.0,121020,CP1H 100920 000065,SARA,PASS,0,,
2020-10-12 16-40-47-497,DESKTOP-K0JN836,CP1H_C0_V1.00,FinalTest_2020.9.23.0,121020,CP1H 210920 000152,SARA,PASS,0,,
2020-10-12 16-41-36-130,DESKTOP-K0JN836,CP1H_C0_V1.00,FinalTest_2020.9.23.0,121020,CP1H 210920 000098,SARA,PASS,0,,
2020-10-12 16-43-04-223,DESKTOP-K0JN836,CP1H_C0_V1.00,FinalTest_2020.9.23.0,121020,CP1H 210920 000041,SARA,PASS,0,,
2020-10-12 16-44-06-194,DESKTOP-K0JN836,CP1H_C0_V1.00,FinalTest_2020.9.23.0,121020,CP1H 210920 000068,SARA,PASS,0,,
2020-10-12 16-44-52-850,DESKTOP-K0JN836,CP1H_C0_V1.00,FinalTest_2020.9.23.0,121020,CP1H 210920 000121,SARA,PASS,0,,
2020-10-12 16-45-42-116,DESKTOP-K0JN836,CP1H_C0_V1.00,FinalTest_2020.9.23.0,121020,CP1H 210920 000125,SARA,PASS,0,,
2020-10-12 16-46-45-851,DESKTOP-K0JN836,CP1H_C0_V1.00,FinalTest_2020.9.23.0,121020,CP1H 210920 000100,SARA,FAIL,1,,
2020-10-12 16-47-33-728,DESKTOP-K0JN836,CP1H_C0_V1.00,FinalTest_2020.9.23.0,121020,CP1H 210920 000100,SARA,PASS,0,,
2020-10-12 16-48-25-914,DESKTOP-K0JN836,CP1H_C0_V1.00,FinalTest_2020.9.23.0,121020,CP1H 210920 000090,SARA,PASS,0,,
2020-10-12 16-49-12-619,DESKTOP-K0JN836,CP1H_C0_V1.00,FinalTest_2020.9.23.0,121020,CP1H 210920 000070,SARA,FAIL,1,,
2020-10-12 16-49-53-826,DESKTOP-K0JN836,CP1H_C0_V1.00,FinalTest_2020.9.23.0,121020,CP1H 210920 000070,SARA,PASS,0,,
2020-10-12 16-50-48-213,DESKTOP-K0JN836,CP1H_C0_V1.00,FinalTest_2020.9.23.0,121020,CP1H 210920 000047,SARA,PASS,0,,
2020-10-12 16-51-33-798,DESKTOP-K0JN836,CP1H_C0_V1.00,FinalTest_2020.9.23.0,121020,CP1H 210920 000048,SARA,PASS,0,,
2020-10-12 16-52-20-983,DESKTOP-K0JN836,CP1H_C0_V1.00,FinalTest_2020.9.23.0,121020,CP1H 210920 000080,SARA,PASS,0,,
2020-10-12 16-53-07-247,DESKTOP-K0JN836,CP1H_C0_V1.00,FinalTest_2020.9.23.0,121020,CP1H 210920 000053,SARA,PASS,0,,
2020-10-12 16-53-52-662,DESKTOP-K0JN836,CP1H_C0_V1.00,FinalTest_2020.9.23.0,121020,CP1H 210920 000024,SARA,PASS,0,,
2020-10-12 16-57-27-368,DESKTOP-K0JN836,CP1H_C0_V1.00,FinalTest_2020.9.23.0,121020,CP1H 210920 000114,SARA,FAIL,1,,
2020-10-12 16-58-27-077,DESKTOP-K0JN836,CP1H_C0_V1.00,FinalTest_2020.9.23.0,121020,CP1H 210920 000114,SARA,PASS,0,,
2020-10-12 16-59-13-362,DESKTOP-K0JN836,CP1H_C0_V1.00,FinalTest_2020.9.23.0,121020,CP1H 210920 000151,SARA,PASS,0,,
2020-10-12 17-00-08-269,DESKTOP-K0JN836,CP1H_C0_V1.00,FinalTest_2020.9.23.0,121020,CP1H 210920 000264,SARA,PASS,0,,
2020-10-12 17-01-03-677,DESKTOP-K0JN836,CP1H_C0_V1.00,FinalTest_2020.9.23.0,121020,CP1H 210920 000132,SARA,PASS,0,,
2020-10-12 17-02-27-108,DESKTOP-K0JN836,CP1H_C0_V1.00,FinalTest_2020.9.23.0,121020,CP1H 210920 000071,SARA,PASS,0,,
2020-10-12 17-02-56-798,DESKTOP-K0JN836,CP1H_C0_V1.00,FinalTest_2020.9.23.0,121020,CP1H 210920 000071,SARA,PASS,0,,
2020-10-12 17-04-14-582,DESKTOP-K0JN836,CP1H_C0_V1.00,FinalTest_2020.9.23.0,121020,CP1H 100920 000133,SARA,PASS,0,,
2020-10-12 17-05-53-569,DESKTOP-K0JN836,CP1H_C0_V1.00,FinalTest_2020.9.23.0,121020,CP1H 210920 000020,SARA,PASS,0,,
2020-10-12 17-06-37-753,DESKTOP-K0JN836,CP1H_C0_V1.00,FinalTest_2020.9.23.0,121020,CP1H 210920 000178,SARA,PASS,0,,
2020-10-12 17-07-34-184,DESKTOP-K0JN836,CP1H_C0_V1.00,FinalTest_2020.9.23.0,121020,CP1H 100920 000097,SARA,FAIL,2,,
2020-10-12 17-09-13-607,DESKTOP-K0JN836,CP1H_C0_V1.00,FinalTest_2020.9.23.0,121020,CP1H 100920 000097,SARA,PASS,0,,
2020-10-12 17-10-05-921,DESKTOP-K0JN836,CP1H_C0_V1.00,FinalTest_2020.9.23.0,121020,CP1H 210920 000044,SARA,FAIL,1,,
2020-10-12 17-10-50-873,DESKTOP-K0JN836,CP1H_C0_V1.00,FinalTest_2020.9.23.0,121020,CP1H 210920 000044,SARA,PASS,0,,
2020-10-12 17-12-14-805,DESKTOP-K0JN836,CP1H_C0_V1.00,FinalTest_2020.9.23.0,121020,CP1H 210920 000153,SARA,PASS,0,,
2020-10-12 17-13-02-058,DESKTOP-K0JN836,CP1H_C0_V1.00,FinalTest_2020.9.23.0,121020,CP1H 210920 000060,SARA,PASS,0,,
2020-10-12 17-13-56-883,DESKTOP-K0JN836,CP1H_C0_V1.00,FinalTest_2020.9.23.0,121020,CP1H 210920 000179,SARA,PASS,0,,
2020-10-12 17-16-00-620,DESKTOP-K0JN836,CP1H_C0_V1.00,FinalTest_2020.9.23.0,121020,CP1H 210920 000155,SARA,PASS,0,,
2020-10-12 17-17-02-172,DESKTOP-K0JN836,CP1H_C0_V1.00,FinalTest_2020.9.23.0,121020,CP1H 210920 000084,SARA,PASS,0,,
2020-10-12 17-18-24-565,DESKTOP-K0JN836,CP1H_C0_V1.00,FinalTest_2020.9.23.0,121020,CP1H 210920 000031,SARA,PASS,0,,
2020-10-12 17-19-10-149,DESKTOP-K0JN836,CP1H_C0_V1.00,FinalTest_2020.9.23.0,121020,CP1H 210920 000072,SARA,PASS,0,,
2020-10-12 17-20-03-833,DESKTOP-K0JN836,CP1H_C0_V1.00,FinalTest_2020.9.23.0,121020,CP1H 100920 000117,SARA,PASS,0,,
2020-10-12 17-20-51-185,DESKTOP-K0JN836,CP1H_C0_V1.00,FinalTest_2020.9.23.0,121020,CP1H 210920 000293,SARA,PASS,0,,
2020-10-12 17-21-36-342,DESKTOP-K0JN836,CP1H_C0_V1.00,FinalTest_2020.9.23.0,121020,CP1H 210920 000237,SARA,PASS,0,,
2020-10-12 17-22-20-602,DESKTOP-K0JN836,CP1H_C0_V1.00,FinalTest_2020.9.23.0,121020,CP1H 210920 000190,SARA,PASS,0,,
2020-10-12 17-23-08-511,DESKTOP-K0JN836,CP1H_C0_V1.00,FinalTest_2020.9.23.0,121020,CP1H 210920 000219,SARA,PASS,0,,
2020-10-12 17-23-51-568,DESKTOP-K0JN836,CP1H_C0_V1.00,FinalTest_2020.9.23.0,121020,CP1H 210920 000078,SARA,PASS,0,,
2020-10-12 17-25-02-757,DESKTOP-K0JN836,CP1H_C0_V1.00,FinalTest_2020.9.23.0,121020,CP1H 210920 000233,SARA,PASS,0,,
2020-10-12 17-25-48-356,DESKTOP-K0JN836,CP1H_C0_V1.00,FinalTest_2020.9.23.0,121020,CP1H 100920 000046,SARA,PASS,0,,
2020-10-12 17-26-31-615,DESKTOP-K0JN836,CP1H_C0_V1.00,FinalTest_2020.9.23.0,121020,CP1H 210920 000033,SARA,PASS,0,,
2020-10-12 17-27-15-491,DESKTOP-K0JN836,CP1H_C0_V1.00,FinalTest_2020.9.23.0,121020,CP1H 210920 000294,SARA,PASS,0,,
2020-10-12 17-28-03-071,DESKTOP-K0JN836,CP1H_C0_V1.00,FinalTest_2020.9.23.0,121020,CP1H 210920 000214,SARA,PASS,0,,
2020-10-12 17-28-47-421,DESKTOP-K0JN836,CP1H_C0_V1.00,FinalTest_2020.9.23.0,121020,CP1H 210920 000010,SARA,PASS,0,,
2020-10-12 17-29-30-374,DESKTOP-K0JN836,CP1H_C0_V1.00,FinalTest_2020.9.23.0,121020,CP1H 210920 000169,SARA,PASS,0,,
2020-10-12 17-30-22-989,DESKTOP-K0JN836,CP1H_C0_V1.00,FinalTest_2020.9.23.0,121020,CP1H 210920 000283,SARA,PASS,0,,
2020-10-12 17-31-09-973,DESKTOP-K0JN836,CP1H_C0_V1.00,FinalTest_2020.9.23.0,121020,CP1H 210920 000208,SARA,PASS,0,,
