Time,Equipment,Model,SWVersion,LotName,Barcode,Operator,Result,Center X,Center Y,Offset X,Offset Y,,
2020-06-19 08-58-03-286,DESKTOP-K0JN836,CP1H_C0_V1.00,FinalTest_2019.8.5.0,19062020,CP1P 190620 000002,umie,PASS,361,261,1,21,,
2020-06-19 09-03-27-559,DESKTOP-K0JN836,CP1H_C0_V1.00,FinalTest_2019.8.5.0,19062020,CP1P 190620 000001,sara,PASS,360,260,0,20,,
2020-06-19 09-05-05-972,DESKTOP-K0JN836,CP1H_C0_V1.00,FinalTest_2019.8.5.0,19062020,CP1P 190620 000004,sara,PASS,362,260,2,20,,
2020-06-19 09-07-14-501,DESKTOP-K0JN836,CP1H_C0_V1.00,FinalTest_2019.8.5.0,19062020,CP1P 190620 000013,sara,PASS,361,259,1,19,,
2020-06-19 09-07-50-742,DESKTOP-K0JN836,CP1H_C0_V1.00,FinalTest_2019.8.5.0,19062020,CP1P 190620 000013,sara,PASS,362,257,2,17,,
2020-06-19 09-08-42-857,DESKTOP-K0JN836,CP1H_C0_V1.00,FinalTest_2019.8.5.0,19062020,CP1P 190620 000013,sara,PASS,361,258,1,18,,
2020-06-19 09-09-48-914,DESKTOP-K0JN836,CP1H_C0_V1.00,FinalTest_2019.8.5.0,19062020,CP1P 190620 000008,sara,PASS,361,255,1,15,,
2020-06-19 09-19-16-867,DESKTOP-K0JN836,CP1H_C0_V1.00,FinalTest_2019.8.5.0,19062020,CP1P 190620 000008,sara,PASS,361,256,1,16,,
2020-06-19 09-20-15-191,DESKTOP-K0JN836,CP1H_C0_V1.00,FinalTest_2019.8.5.0,19062020,CP1P 190620 000014,sara,PASS,351,256,-9,16,,
2020-06-19 09-21-09-399,DESKTOP-K0JN836,CP1H_C0_V1.00,FinalTest_2019.8.5.0,19062020,CP1P 190620 000012,sara,PASS,359,257,-1,17,,
2020-06-19 09-22-23-823,DESKTOP-K0JN836,CP1H_C0_V1.00,FinalTest_2019.8.5.0,19062020,CP1P 190620 000001,sara,PASS,361,259,1,19,,
2020-06-19 09-23-09-380,DESKTOP-K0JN836,CP1H_C0_V1.00,FinalTest_2019.8.5.0,19062020,CP1P 190620 000001,sara,PASS,360,257,0,17,,
2020-06-19 09-26-19-565,DESKTOP-K0JN836,CP1H_C0_V1.00,FinalTest_2019.8.5.0,19062020,CP1P 190620 000008,sara,PASS,361,258,1,18,,
2020-06-19 09-36-21-350,DESKTOP-K0JN836,CP1H_C0_V1.00,FinalTest_2019.8.5.0,19062020,CP1P 190620 000013,sara,PASS,359,260,-1,20,,
2020-06-19 09-41-15-637,DESKTOP-K0JN836,CP1H_C0_V1.00,FinalTest_2019.8.5.0,19062020,CP1P 190620 000002,sara,PASS,361,260,1,20,,
2020-06-19 09-42-27-813,DESKTOP-K0JN836,CP1H_C0_V1.00,FinalTest_2019.8.5.0,19062020,CP1P 190620 000004,sara,PASS,360,260,0,20,,
2020-06-19 09-43-05-473,DESKTOP-K0JN836,CP1H_C0_V1.00,FinalTest_2019.8.5.0,19062020,CP1P 190620 000004,sara,PASS,360,256,0,16,,
2020-06-19 09-43-49-060,DESKTOP-K0JN836,CP1H_C0_V1.00,FinalTest_2019.8.5.0,19062020,CP1P 190620 000001,sara,PASS,376,264,16,24,,
2020-06-19 09-44-56-149,DESKTOP-K0JN836,CP1H_C0_V1.00,FinalTest_2019.8.5.0,19062020,CP1P 190620 000004,sara,PASS,360,258,0,18,,
2020-06-19 09-45-52-162,DESKTOP-K0JN836,CP1H_C0_V1.00,FinalTest_2019.8.5.0,19062020,CP1P 190620 000008,sara,PASS,361,257,1,17,,
2020-06-19 09-47-05-891,DESKTOP-K0JN836,CP1H_C0_V1.00,FinalTest_2019.8.5.0,19062020,CP1P 190620 000014,sara,PASS,350,259,-10,19,,
2020-06-19 09-49-02-561,DESKTOP-K0JN836,CP1H_C0_V1.00,FinalTest_2019.8.5.0,19062020,CP1P 190620 000014,sara,PASS,349,257,-11,17,,
2020-06-19 09-49-47-641,DESKTOP-K0JN836,CP1H_C0_V1.00,FinalTest_2019.8.5.0,19062020,CP1P 190620 000012,sara,PASS,359,259,-1,19,,
2020-06-19 09-50-46-494,DESKTOP-K0JN836,CP1H_C0_V1.00,FinalTest_2019.8.5.0,19062020,CP1P 190620 000009,sara,PASS,360,256,0,16,,
2020-06-19 09-54-45-021,DESKTOP-K0JN836,CP1H_C0_V1.00,FinalTest_2019.8.5.0,19062020,CP1P 190620 000018,sara,PASS,360,256,0,16,,
2020-06-19 09-57-09-699,DESKTOP-K0JN836,CP1H_C0_V1.00,FinalTest_2019.8.5.0,19062020,CP1P 190620 000020,sara,PASS,362,255,2,15,,
2020-06-19 10-01-17-310,DESKTOP-K0JN836,CP1H_C0_V1.00,FinalTest_2019.8.5.0,19062020,CP1P 190620 000020,sara,PASS,362,256,2,16,,
2020-06-19 10-03-14-577,DESKTOP-K0JN836,CP1H_C0_V1.00,FinalTest_2019.8.5.0,19062020,CP1P 190620 000018,sara,PASS,360,257,0,17,,
2020-06-19 10-03-59-654,DESKTOP-K0JN836,CP1H_C0_V1.00,FinalTest_2019.8.5.0,19062020,CP1P 190620 000018,sara,PASS,363,259,3,19,,
2020-06-19 10-05-33-822,DESKTOP-K0JN836,CP1H_C0_V1.00,FinalTest_2019.8.5.0,19062020,CP1P 190620 000009,sara,PASS,360,256,0,16,,
2020-06-19 10-06-50-735,DESKTOP-K0JN836,CP1H_C0_V1.00,FinalTest_2019.8.5.0,19062020,CP1P 190620 000012,sara,PASS,358,257,-2,17,,
2020-06-19 10-08-24-613,DESKTOP-K0JN836,CP1H_C0_V1.00,FinalTest_2019.8.5.0,19062020,CP1P 190620 000014,sara,PASS,349,257,-11,17,,
2020-06-19 10-09-46-499,DESKTOP-K0JN836,CP1H_C0_V1.00,FinalTest_2019.8.5.0,19062020,CP1P 190620 000010,sara,PASS,365,256,5,16,,
2020-06-19 10-10-35-386,DESKTOP-K0JN836,CP1H_C0_V1.00,FinalTest_2019.8.5.0,19062020,CP1P 190620 000010,sara,PASS,363,255,3,15,,
2020-06-19 10-14-42-465,DESKTOP-K0JN836,CP1H_C0_V1.00,FinalTest_2019.8.5.0,19062020,CP1P 190620 000005,sara,PASS,358,259,-2,19,,
2020-06-19 10-16-41-390,DESKTOP-K0JN836,CP1H_C0_V1.00,FinalTest_2019.8.5.0,19062020,CP1P 190620 000011,sara,PASS,359,253,-1,13,,
2020-06-19 10-18-05-952,DESKTOP-K0JN836,CP1H_C0_V1.00,FinalTest_2019.8.5.0,19062020,CP1P 190620 000006,sara,PASS,361,254,1,14,,
2020-06-19 10-19-55-590,DESKTOP-K0JN836,CP1H_C0_V1.00,FinalTest_2019.8.5.0,19062020,CP1P 190620 000015,sara,PASS,359,255,-1,15,,
2020-06-19 10-22-22-664,DESKTOP-K0JN836,CP1H_C0_V1.00,FinalTest_2019.8.5.0,19062020,CP1P 190620 000025,sara,PASS,360,257,0,17,,
2020-06-19 10-24-15-014,DESKTOP-K0JN836,CP1H_C0_V1.00,FinalTest_2019.8.5.0,19062020,CP1P 190620 000017,sara,PASS,362,255,2,15,,
2020-06-19 10-25-41-642,DESKTOP-K0JN836,CP1H_C0_V1.00,FinalTest_2019.8.5.0,19062020,CP1P 190620 000024,sara,PASS,362,259,2,19,,
2020-06-19 10-26-53-840,DESKTOP-K0JN836,CP1H_C0_V1.00,FinalTest_2019.8.5.0,19062020,CP1P 190620 000022,sara,PASS,363,254,3,14,,
2020-06-19 10-28-28-248,DESKTOP-K0JN836,CP1H_C0_V1.00,FinalTest_2019.8.5.0,19062020,CP1P 190620 000021,sara,PASS,359,258,-1,18,,
2020-06-19 10-30-21-890,DESKTOP-K0JN836,CP1H_C0_V1.00,FinalTest_2019.8.5.0,19062020,CP1P 190620 000023,sara,PASS,358,260,-2,20,,
2020-06-19 10-31-38-904,DESKTOP-K0JN836,CP1H_C0_V1.00,FinalTest_2019.8.5.0,19062020,CP1P 190620 000045,sara,PASS,354,262,-6,22,,
2020-06-19 10-34-46-121,DESKTOP-K0JN836,CP1H_C0_V1.00,FinalTest_2019.8.5.0,19062020,CP1P 190620 000043,sara,PASS,357,257,-3,17,,
2020-06-19 10-35-58-038,DESKTOP-K0JN836,CP1H_C0_V1.00,FinalTest_2019.8.5.0,19062020,CP1P 190620 000057,sara,PASS,353,259,-7,19,,
2020-06-19 10-37-24-089,DESKTOP-K0JN836,CP1H_C0_V1.00,FinalTest_2019.8.5.0,19062020,CP1P 190620 000055,sara,PASS,356,259,-4,19,,
2020-06-19 10-38-32-194,DESKTOP-K0JN836,CP1H_C0_V1.00,FinalTest_2019.8.5.0,19062020,CP1P 190620 000035,sara,PASS,358,253,-2,13,,
2020-06-19 10-39-53-887,DESKTOP-K0JN836,CP1H_C0_V1.00,FinalTest_2019.8.5.0,19062020,CP1P 190620 000034,sara,PASS,357,253,-3,13,,
2020-06-19 10-41-15-004,DESKTOP-K0JN836,CP1H_C0_V1.00,FinalTest_2019.8.5.0,19062020,CP1P 190620 000036,sara,PASS,357,256,-3,16,,
2020-06-19 10-42-20-766,DESKTOP-K0JN836,CP1H_C0_V1.00,FinalTest_2019.8.5.0,19062020,CP1P 190620 000031,sara,PASS,361,260,1,20,,
2020-06-19 10-45-04-540,DESKTOP-K0JN836,CP1H_C0_V1.00,FinalTest_2019.8.5.0,19062020,CP1P 190620 000028,sara,PASS,359,255,-1,15,,
2020-06-19 10-47-17-331,DESKTOP-K0JN836,CP1H_C0_V1.00,FinalTest_2019.8.5.0,19062020,cp1p 190620 000029,sara,PASS,366,257,6,17,,
2020-06-19 10-48-19-864,DESKTOP-K0JN836,CP1H_C0_V1.00,FinalTest_2019.8.5.0,19062020,CP1P 190620 000038,sara,PASS,361,258,1,18,,
2020-06-19 10-49-27-022,DESKTOP-K0JN836,CP1H_C0_V1.00,FinalTest_2019.8.5.0,19062020,CP1P 190620 000030,sara,PASS,354,258,-6,18,,
2020-06-19 10-50-49-160,DESKTOP-K0JN836,CP1H_C0_V1.00,FinalTest_2019.8.5.0,19062020,CP1P 190620 000044,sara,PASS,353,259,-7,19,,
2020-06-19 10-55-40-368,DESKTOP-K0JN836,CP1H_C0_V1.00,FinalTest_2019.8.5.0,19062020,CP1P 190620 000019,sara,PASS,351,258,-9,18,,
2020-06-19 10-57-08-740,DESKTOP-K0JN836,CP1H_C0_V1.00,FinalTest_2019.8.5.0,19062020,CP1P 190620 000041,sara,PASS,361,265,1,25,,
2020-06-19 10-58-25-443,DESKTOP-K0JN836,CP1H_C0_V1.00,FinalTest_2019.8.5.0,19062020,CP1P 190620 000042,sara,PASS,361,256,1,16,,
2020-06-19 11-00-05-255,DESKTOP-K0JN836,CP1H_C0_V1.00,FinalTest_2019.8.5.0,19062020,CP1P 190620 000048,sara,PASS,361,259,1,19,,
2020-06-19 11-01-52-986,DESKTOP-K0JN836,CP1H_C0_V1.00,FinalTest_2019.8.5.0,19062020,CP1P 190620 000016,sara,PASS,358,258,-2,18,,
2020-06-19 11-03-09-398,DESKTOP-K0JN836,CP1H_C0_V1.00,FinalTest_2019.8.5.0,19062020,CP1P 190620 000039,sara,PASS,359,256,-1,16,,
2020-06-19 11-04-16-776,DESKTOP-K0JN836,CP1H_C0_V1.00,FinalTest_2019.8.5.0,19062020,CP1P 190620 000056,sara,PASS,355,263,-5,23,,
2020-06-19 11-06-25-855,DESKTOP-K0JN836,CP1H_C0_V1.00,FinalTest_2019.8.5.0,19062020,CP1P 190620 000050,sara,PASS,360,261,0,21,,
2020-06-19 11-07-41-141,DESKTOP-K0JN836,CP1H_C0_V1.00,FinalTest_2019.8.5.0,19062020,CP1P 190620 000026,sara,PASS,362,259,2,19,,
2020-06-19 11-08-57-929,DESKTOP-K0JN836,CP1H_C0_V1.00,FinalTest_2019.8.5.0,19062020,CP1P 190620 000032,sara,PASS,358,255,-2,15,,
2020-06-19 11-10-06-914,DESKTOP-K0JN836,CP1H_C0_V1.00,FinalTest_2019.8.5.0,19062020,CP1P 190620 000052,sara,PASS,358,259,-2,19,,
2020-06-19 11-12-13-361,DESKTOP-K0JN836,CP1H_C0_V1.00,FinalTest_2019.8.5.0,19062020,CP1P 190620 000040,sara,PASS,360,261,0,21,,
2020-06-19 11-13-27-966,DESKTOP-K0JN836,CP1H_C0_V1.00,FinalTest_2019.8.5.0,19062020,CP1P 190620 000053,sara,PASS,358,259,-2,19,,
2020-06-19 11-15-30-642,DESKTOP-K0JN836,CP1H_C0_V1.00,FinalTest_2019.8.5.0,19062020,CP1P 190620 000047,sara,PASS,351,252,-9,12,,
2020-06-19 11-16-08-926,DESKTOP-K0JN836,CP1H_C0_V1.00,FinalTest_2019.8.5.0,19062020,CP1P 190620 000047,sara,PASS,352,252,-8,12,,
2020-06-19 11-19-19-977,DESKTOP-K0JN836,CP1H_C0_V1.00,FinalTest_2019.8.5.0,19062020,CP1P 190620 000051,sara,PASS,359,258,-1,18,,
2020-06-19 11-23-18-915,DESKTOP-K0JN836,CP1H_C0_V1.00,FinalTest_2019.8.5.0,19062020,CP1P 190620 000049,sara,PASS,360,253,0,13,,
2020-06-19 11-24-50-398,DESKTOP-K0JN836,CP1H_C0_V1.00,FinalTest_2019.8.5.0,19062020,CP1P 190620 000054,sara,PASS,355,262,-5,22,,
2020-06-19 11-26-09-409,DESKTOP-K0JN836,CP1H_C0_V1.00,FinalTest_2019.8.5.0,19062020,CP1P 190620 000072,sara,PASS,358,265,-2,25,,
2020-06-19 11-27-16-481,DESKTOP-K0JN836,CP1H_C0_V1.00,FinalTest_2019.8.5.0,19062020,CP1P 190620 000075,sara,PASS,360,255,0,15,,
2020-06-19 11-28-25-762,DESKTOP-K0JN836,CP1H_C0_V1.00,FinalTest_2019.8.5.0,19062020,CP1P 190620 000077,sara,PASS,357,259,-3,19,,
2020-06-19 11-29-59-745,DESKTOP-K0JN836,CP1H_C0_V1.00,FinalTest_2019.8.5.0,19062020,CP1P 190620 000073,sara,PASS,359,259,-1,19,,
2020-06-19 11-31-00-569,DESKTOP-K0JN836,CP1H_C0_V1.00,FinalTest_2019.8.5.0,19062020,CP1P 190620 000074,sara,PASS,351,260,-9,20,,
2020-06-19 11-32-46-658,DESKTOP-K0JN836,CP1H_C0_V1.00,FinalTest_2019.8.5.0,19062020,CP1P 190620 000076,sara,PASS,360,256,0,16,,
2020-06-19 11-39-11-928,DESKTOP-K0JN836,CP1H_C0_V1.00,FinalTest_2019.8.5.0,19062020,CP1P 190620 000071,sara,PASS,355,257,-5,17,,
2020-06-19 11-40-50-520,DESKTOP-K0JN836,CP1H_C0_V1.00,FinalTest_2019.8.5.0,19062020,CP1P 190620 000068,sara,PASS,350,260,-10,20,,
2020-06-19 11-42-16-401,DESKTOP-K0JN836,CP1H_C0_V1.00,FinalTest_2019.8.5.0,19062020,CP1P 190620 000065,sara,PASS,361,254,1,14,,
2020-06-19 11-43-34-120,DESKTOP-K0JN836,CP1H_C0_V1.00,FinalTest_2019.8.5.0,19062020,CP1P 190620 000070,sara,PASS,357,261,-3,21,,
2020-06-19 11-45-29-787,DESKTOP-K0JN836,CP1H_C0_V1.00,FinalTest_2019.8.5.0,19062020,CP1P 190620 000064,sara,PASS,358,257,-2,17,,
2020-06-19 11-47-07-406,DESKTOP-K0JN836,CP1H_C0_V1.00,FinalTest_2019.8.5.0,19062020,CP1P 190620 000061,sara,PASS,358,258,-2,18,,
2020-06-19 11-49-00-351,DESKTOP-K0JN836,CP1H_C0_V1.00,FinalTest_2019.8.5.0,19062020,CP1P 190620 000060,sara,PASS,359,259,-1,19,,
2020-06-19 11-50-09-315,DESKTOP-K0JN836,CP1H_C0_V1.00,FinalTest_2019.8.5.0,19062020,CP1P 190620 000059,sara,PASS,360,257,0,17,,
2020-06-19 11-53-03-339,DESKTOP-K0JN836,CP1H_C0_V1.00,FinalTest_2019.8.5.0,19062020,CP1P 190620 000066,sara,PASS,359,256,-1,16,,
2020-06-19 11-55-21-023,DESKTOP-K0JN836,CP1H_C0_V1.00,FinalTest_2019.8.5.0,19062020,CP1P 190620 000062,sara,PASS,355,262,-5,22,,
2020-06-19 11-56-48-859,DESKTOP-K0JN836,CP1H_C0_V1.00,FinalTest_2019.8.5.0,19062020,CP1P 190620 000063,sara,PASS,353,258,-7,18,,
2020-06-19 11-58-05-057,DESKTOP-K0JN836,CP1H_C0_V1.00,FinalTest_2019.8.5.0,19062020,CP1P 190620 000058,sara,PASS,346,259,-14,19,,
2020-06-19 12-01-00-439,DESKTOP-K0JN836,CP1H_C0_V1.00,FinalTest_2019.8.5.0,19062020,CP1P 190620 000100,sara,PASS,349,260,-11,20,,
2020-06-19 12-45-06-062,DESKTOP-K0JN836,CP1H_C0_V1.00,FinalTest_2019.8.5.0,19062020,CP1P 190620 000100,sara,PASS,349,260,-11,20,,
2020-06-19 12-48-49-579,DESKTOP-K0JN836,CP1H_C0_V1.00,FinalTest_2019.8.5.0,19062020,CP1P 190620 000069,sara,PASS,354,259,-6,19,,
2020-06-19 12-49-48-200,DESKTOP-K0JN836,CP1H_C0_V1.00,FinalTest_2019.8.5.0,19062020,CP1P 190620 000097,sara,PASS,354,260,-6,20,,
2020-06-19 12-50-53-872,DESKTOP-K0JN836,CP1H_C0_V1.00,FinalTest_2019.8.5.0,19062020,CP1P 190620 000094,sara,PASS,355,260,-5,20,,
2020-06-19 12-53-17-598,DESKTOP-K0JN836,CP1H_C0_V1.00,FinalTest_2019.8.5.0,19062020,CP1P 190620 000096,sara,PASS,360,255,0,15,,
2020-06-19 12-57-00-662,DESKTOP-K0JN836,CP1H_C0_V1.00,FinalTest_2019.8.5.0,19062020,CP1P 190620 000091,sara,PASS,357,254,-3,14,,
2020-06-19 13-02-23-308,DESKTOP-K0JN836,CP1H_C0_V1.00,FinalTest_2019.8.5.0,19062020,CP1P 190620 000067,sara,PASS,349,253,-11,13,,
2020-06-19 13-07-00-539,DESKTOP-K0JN836,CP1H_C0_V1.00,FinalTest_2019.8.5.0,19062020,CP1P 190620 000095,sara,PASS,352,259,-8,19,,
2020-06-19 13-08-22-452,DESKTOP-K0JN836,CP1H_C0_V1.00,FinalTest_2019.8.5.0,19062020,CP1P 190620 000099,sara,PASS,348,254,-12,14,,
2020-06-19 13-09-47-997,DESKTOP-K0JN836,CP1H_C0_V1.00,FinalTest_2019.8.5.0,19062020,CP1P 190620 000078,sara,PASS,355,259,-5,19,,
2020-06-19 13-11-14-435,DESKTOP-K0JN836,CP1H_C0_V1.00,FinalTest_2019.8.5.0,19062020,CP1P 190620 000087,sara,PASS,354,265,-6,25,,
2020-06-19 13-12-35-257,DESKTOP-K0JN836,CP1H_C0_V1.00,FinalTest_2019.8.5.0,19062020,CP1P 190620 000092,sara,PASS,358,257,-2,17,,
2020-06-19 13-13-44-614,DESKTOP-K0JN836,CP1H_C0_V1.00,FinalTest_2019.8.5.0,19062020,CP1P 190620 000089,sara,PASS,358,261,-2,21,,
2020-06-19 13-14-19-865,DESKTOP-K0JN836,CP1H_C0_V1.00,FinalTest_2019.8.5.0,19062020,CP1P 190620 000089,sara,PASS,356,260,-4,20,,
2020-06-19 13-15-26-420,DESKTOP-K0JN836,CP1H_C0_V1.00,FinalTest_2019.8.5.0,19062020,CP1P 190620 000083,sara,PASS,347,258,-13,18,,
2020-06-19 13-16-28-657,DESKTOP-K0JN836,CP1H_C0_V1.00,FinalTest_2019.8.5.0,19062020,CP1P 190620 000084,sara,PASS,352,258,-8,18,,
2020-06-19 13-17-07-716,DESKTOP-K0JN836,CP1H_C0_V1.00,FinalTest_2019.8.5.0,19062020,CP1P 190620 000084,sara,PASS,353,262,-7,22,,
2020-06-19 13-18-09-884,DESKTOP-K0JN836,CP1H_C0_V1.00,FinalTest_2019.8.5.0,19062020,CP1P 190620 000081,sara,PASS,357,254,-3,14,,
2020-06-19 13-21-08-780,DESKTOP-K0JN836,CP1H_C0_V1.00,FinalTest_2019.8.5.0,19062020,CP1P 190620 000093,sara,PASS,357,257,-3,17,,
2020-06-19 13-22-55-613,DESKTOP-K0JN836,CP1H_C0_V1.00,FinalTest_2019.8.5.0,19062020,CP1P 190620 000085,sara,PASS,358,258,-2,18,,
2020-06-19 13-24-06-613,DESKTOP-K0JN836,CP1H_C0_V1.00,FinalTest_2019.8.5.0,19062020,CP1P 190620 000086,sara,PASS,357,264,-3,24,,
2020-06-19 13-25-26-124,DESKTOP-K0JN836,CP1H_C0_V1.00,FinalTest_2019.8.5.0,19062020,CP1P 190620 000098,sara,PASS,361,256,1,16,,
2020-06-19 13-26-13-211,DESKTOP-K0JN836,CP1H_C0_V1.00,FinalTest_2019.8.5.0,19062020,CP1P 190620 000098,sara,PASS,361,257,1,17,,
2020-06-19 13-28-18-885,DESKTOP-K0JN836,CP1H_C0_V1.00,FinalTest_2019.8.5.0,19062020,CP1P 190620 000098,sara,PASS,360,256,0,16,,
2020-06-19 13-29-14-111,DESKTOP-K0JN836,CP1H_C0_V1.00,FinalTest_2019.8.5.0,19062020,CP1P 190620 000088,sara,PASS,359,256,-1,16,,
2020-06-19 13-30-16-929,DESKTOP-K0JN836,CP1H_C0_V1.00,FinalTest_2019.8.5.0,19062020,CP1P 190620 000112,sara,PASS,355,263,-5,23,,
2020-06-19 13-31-22-622,DESKTOP-K0JN836,CP1H_C0_V1.00,FinalTest_2019.8.5.0,19062020,CP1P 190620 000106,sara,PASS,360,260,0,20,,
2020-06-19 13-32-24-728,DESKTOP-K0JN836,CP1H_C0_V1.00,FinalTest_2019.8.5.0,19062020,CP1P 190620 000110,sara,PASS,357,256,-3,16,,
2020-06-19 13-33-25-576,DESKTOP-K0JN836,CP1H_C0_V1.00,FinalTest_2019.8.5.0,19062020,CP1P 190620 000113,sara,PASS,359,259,-1,19,,
2020-06-19 13-34-32-421,DESKTOP-K0JN836,CP1H_C0_V1.00,FinalTest_2019.8.5.0,19062020,CP1P 190620 000116,sara,PASS,358,259,-2,19,,
2020-06-19 13-38-03-549,DESKTOP-K0JN836,CP1H_C0_V1.00,FinalTest_2019.8.5.0,19062020,CP1P 190620 000079,sara,PASS,358,256,-2,16,,
2020-06-19 13-38-52-810,DESKTOP-K0JN836,CP1H_C0_V1.00,FinalTest_2019.8.5.0,19062020,CP1P 190620 000079,sara,PASS,360,253,0,13,,
2020-06-19 13-40-10-449,DESKTOP-K0JN836,CP1H_C0_V1.00,FinalTest_2019.8.5.0,19062020,CP1P 190620 000082,sara,PASS,354,257,-6,17,,
2020-06-19 13-41-04-985,DESKTOP-K0JN836,CP1H_C0_V1.00,FinalTest_2019.8.5.0,19062020,CP1P 190620 000082,sara,PASS,354,258,-6,18,,
2020-06-19 13-41-37-991,DESKTOP-K0JN836,CP1H_C0_V1.00,FinalTest_2019.8.5.0,19062020,CP1P 190620 000082,sara,PASS,354,259,-6,19,,
2020-06-19 13-46-09-888,DESKTOP-K0JN836,CP1H_C0_V1.00,FinalTest_2019.8.5.0,19062020,CP1P 190620 000004,sara,PASS,359,260,-1,20,,
2020-06-19 13-52-16-665,DESKTOP-K0JN836,CP1H_C0_V1.00,FinalTest_2019.8.5.0,19062020,CP1P 190620 000004,sara,PASS,357,257,-3,17,,
2020-06-19 13-53-13-392,DESKTOP-K0JN836,CP1H_C0_V1.00,FinalTest_2019.8.5.0,19062020,CP1P 190620 000008,sara,PASS,358,255,-2,15,,
2020-06-19 13-55-58-787,DESKTOP-K0JN836,CP1H_C0_V1.00,FinalTest_2019.8.5.0,19062020,CP1P 190620 000098,sara,PASS,361,255,1,15,,
2020-06-19 14-01-36-796,DESKTOP-K0JN836,CP1H_C0_V1.00,FinalTest_2019.8.5.0,19062020,CP1P 190620 000118,sara,PASS,360,258,0,18,,
2020-06-19 14-02-40-254,DESKTOP-K0JN836,CP1H_C0_V1.00,FinalTest_2019.8.5.0,19062020,CP1P 190620 000111,sara,PASS,359,255,-1,15,,
2020-06-19 14-03-37-892,DESKTOP-K0JN836,CP1H_C0_V1.00,FinalTest_2019.8.5.0,19062020,CP1P 190620 000090,sara,PASS,354,259,-6,19,,
2020-06-19 14-04-35-513,DESKTOP-K0JN836,CP1H_C0_V1.00,FinalTest_2019.8.5.0,19062020,CP1P 190620 000080,sara,PASS,345,260,-15,20,,
2020-06-19 14-05-46-094,DESKTOP-K0JN836,CP1H_C0_V1.00,FinalTest_2019.8.5.0,19062020,CP1P 190620 000129,sara,PASS,372,237,12,-3,,
2020-06-19 14-07-01-466,DESKTOP-K0JN836,CP1H_C0_V1.00,FinalTest_2019.8.5.0,19062020,CP1P 190620 000126,sara,PASS,355,257,-5,17,,
2020-06-19 15-54-10-273,DESKTOP-K0JN836,CP1H_C0_V1.00,FinalTest_2019.8.5.0,19062020,CP1P 190620 000122,umie,PASS,357,257,-3,17,,
2020-06-19 16-00-22-999,DESKTOP-K0JN836,CP1H_C0_V1.00,FinalTest_2019.8.5.0,19062020,CP1P 190620 000128,umie,PASS,355,265,-5,25,,
2020-06-19 16-02-02-017,DESKTOP-K0JN836,CP1H_C0_V1.00,FinalTest_2019.8.5.0,19062020,CP1P 190620 000128,umie,PASS,354,264,-6,24,,
2020-06-19 16-03-17-204,DESKTOP-K0JN836,CP1H_C0_V1.00,FinalTest_2019.8.5.0,19062020,CP1P 190620 000128,umie,PASS,354,262,-6,22,,
2020-06-19 16-08-16-098,DESKTOP-K0JN836,CP1H_C0_V1.00,FinalTest_2019.8.5.0,19062020,CP1P 190620 000131,umie,PASS,357,257,-3,17,,
2020-06-19 16-11-42-315,DESKTOP-K0JN836,CP1H_C0_V1.00,FinalTest_2019.8.5.0,19062020,CP1P 190620 000119,umie,PASS,361,264,1,24,,
2020-06-19 16-18-06-254,DESKTOP-K0JN836,CP1H_C0_V1.00,FinalTest_2019.8.5.0,19062020,CP1P 190620 000121,umie,PASS,357,262,-3,22,,
2020-06-19 16-19-58-797,DESKTOP-K0JN836,CP1H_C0_V1.00,FinalTest_2019.8.5.0,19062020,CP1P 190620 000120,umie,PASS,357,258,-3,18,,
2020-06-19 16-21-59-486,DESKTOP-K0JN836,CP1H_C0_V1.00,FinalTest_2019.8.5.0,19062020,CP1P 190620 000101,umie,PASS,361,254,1,14,,
2020-06-19 16-22-56-002,DESKTOP-K0JN836,CP1H_C0_V1.00,FinalTest_2019.8.5.0,19062020,CP1P 190620 000101,umie,PASS,362,251,2,11,,
2020-06-19 16-24-04-492,DESKTOP-K0JN836,CP1H_C0_V1.00,FinalTest_2019.8.5.0,19062020,CP1P 190620 000102,umie,PASS,358,257,-2,17,,
2020-06-19 16-25-08-832,DESKTOP-K0JN836,CP1H_C0_V1.00,FinalTest_2019.8.5.0,19062020,CP1P 190620 000123,umie,PASS,360,255,0,15,,
2020-06-19 16-26-17-464,DESKTOP-K0JN836,CP1H_C0_V1.00,FinalTest_2019.8.5.0,19062020,CP1P 190620 000133,umie,PASS,356,264,-4,24,,
2020-06-19 16-27-54-056,DESKTOP-K0JN836,CP1H_C0_V1.00,FinalTest_2019.8.5.0,19062020,CP1P 190620 000130,umie,PASS,360,260,0,20,,
2020-06-19 16-28-57-535,DESKTOP-K0JN836,CP1H_C0_V1.00,FinalTest_2019.8.5.0,19062020,CP1P 190620 000130,umie,PASS,362,265,2,25,,
2020-06-19 16-31-20-242,DESKTOP-K0JN836,CP1H_C0_V1.00,FinalTest_2019.8.5.0,19062020,CP1P 190620 000124,umie,PASS,362,263,2,23,,
2020-06-19 16-32-32-839,DESKTOP-K0JN836,CP1H_C0_V1.00,FinalTest_2019.8.5.0,19062020,CP1P 190620 000104,umie,PASS,359,256,-1,16,,
2020-06-19 16-34-48-389,DESKTOP-K0JN836,CP1H_C0_V1.00,FinalTest_2019.8.5.0,19062020,CP1P 190620 000134,umie,PASS,357,259,-3,19,,
2020-06-19 16-37-50-175,DESKTOP-K0JN836,CP1H_C0_V1.00,FinalTest_2019.8.5.0,19062020,CP1P 190620 000103,umie,PASS,360,257,0,17,,
2020-06-19 16-39-12-708,DESKTOP-K0JN836,CP1H_C0_V1.00,FinalTest_2019.8.5.0,19062020,CP1P 190620 000135,umie,PASS,357,259,-3,19,,
