Time,Equipment,Model,SWVersion,LotName,Barcode,Operator,Result,Red [R],Red [G],Red [B],Green [R],Green [G],Green [B],Blue [R],Blue [G],Blue [B],Black [R],Black [G],Black [B],,
2020-06-12 09-11-48-998,DESKTOP-K0JN836,CP1H_C0_V1.00,FinalTest_2019.8.5.0,120620,CP1H 120620 000001,darsini,PASS,195,27,28,15,61,16,0,37,117,9,9,9,,
2020-06-12 09-12-40-803,DESKTOP-K0JN836,CP1H_C0_V1.00,FinalTest_2019.8.5.0,120620,CP1H 120620 000003,darsini,PASS,194,27,28,14,64,17,0,36,117,9,9,10,,
2020-06-12 09-13-25-895,DESKTOP-K0JN836,CP1H_C0_V1.00,FinalTest_2019.8.5.0,120620,CP1H 120620 000011,darsini,PASS,194,28,27,15,62,15,0,36,116,8,8,8,,
2020-06-12 09-14-21-586,DESKTOP-K0JN836,CP1H_C0_V1.00,FinalTest_2019.8.5.0,120620,CP1H 120620 000010,darsini,PASS,192,30,30,15,63,17,0,37,115,10,10,10,,
2020-06-12 09-15-13-507,DESKTOP-K0JN836,CP1H_C0_V1.00,FinalTest_2019.8.5.0,120620,CP1H 120620 000008,darsini,PASS,191,28,27,19,63,20,0,35,115,10,10,10,,
2020-06-12 09-15-58-857,DESKTOP-K0JN836,CP1H_C0_V1.00,FinalTest_2019.8.5.0,120620,CP1H 120620 000004,darsini,PASS,196,28,29,17,60,17,0,35,116,9,9,9,,
2020-06-12 09-17-23-506,DESKTOP-K0JN836,CP1H_C0_V1.00,FinalTest_2019.8.5.0,120620,CP1H 120620 000007,darsini,PASS,195,27,26,18,64,19,0,36,118,9,9,9,,
2020-06-12 09-18-22-112,DESKTOP-K0JN836,CP1H_C0_V1.00,FinalTest_2019.8.5.0,120620,CP1H 120620 000002,darsini,PASS,194,27,27,13,63,17,0,37,111,8,8,8,,
2020-06-12 09-19-09-729,DESKTOP-K0JN836,CP1H_C0_V1.00,FinalTest_2019.8.5.0,120620,CP1H 120620 000006,darsini,PASS,195,27,27,16,60,17,0,34,115,10,9,10,,
2020-06-12 09-20-11-034,DESKTOP-K0JN836,CP1H_C0_V1.00,FinalTest_2019.8.5.0,120620,CP1H 120620 000009,darsini,PASS,197,29,24,16,62,16,0,37,120,9,9,10,,
2020-06-12 09-21-12-607,DESKTOP-K0JN836,CP1H_C0_V1.00,FinalTest_2019.8.5.0,120620,CP1H 120620 000005,darsini,PASS,192,28,27,16,61,17,0,36,117,9,9,9,,
2020-06-12 09-22-00-780,DESKTOP-K0JN836,CP1H_C0_V1.00,FinalTest_2019.8.5.0,120620,CP1H 120620 000027,darsini,PASS,194,27,27,17,61,17,0,36,116,10,10,10,,
2020-06-12 09-22-52-760,DESKTOP-K0JN836,CP1H_C0_V1.00,FinalTest_2019.8.5.0,120620,CP1H 120620 000013,darsini,PASS,199,26,29,14,63,16,0,36,116,10,10,10,,
2020-06-12 09-23-42-585,DESKTOP-K0JN836,CP1H_C0_V1.00,FinalTest_2019.8.5.0,120620,CP1H 120620 000023,darsini,PASS,198,26,26,19,60,18,0,36,116,10,10,10,,
2020-06-12 09-24-31-359,DESKTOP-K0JN836,CP1H_C0_V1.00,FinalTest_2019.8.5.0,120620,CP1H 120620 000016,darsini,PASS,192,28,33,14,62,19,0,37,117,9,9,9,,
2020-06-12 09-25-25-404,DESKTOP-K0JN836,CP1H_C0_V1.00,FinalTest_2019.8.5.0,120620,CP1H 120620 000019,darsini,PASS,197,27,29,16,63,20,0,36,117,11,10,10,,
2020-06-12 09-26-14-675,DESKTOP-K0JN836,CP1H_C0_V1.00,FinalTest_2019.8.5.0,120620,CP1H 120620 000024,darsini,PASS,193,27,28,11,61,16,0,36,117,9,9,9,,
2020-06-12 09-27-01-820,DESKTOP-K0JN836,CP1H_C0_V1.00,FinalTest_2019.8.5.0,120620,CP1H 120620 000014,darsini,PASS,197,28,30,19,62,19,0,37,117,9,9,9,,
2020-06-12 09-27-51-781,DESKTOP-K0JN836,CP1H_C0_V1.00,FinalTest_2019.8.5.0,120620,CP1H 120620 000015,darsini,PASS,193,29,31,13,62,18,0,36,116,11,11,11,,
2020-06-12 09-28-40-450,DESKTOP-K0JN836,CP1H_C0_V1.00,FinalTest_2019.8.5.0,120620,CP1H 120620 000018,darsini,PASS,192,28,30,16,63,18,0,36,116,9,9,9,,
2020-06-12 09-29-23-807,DESKTOP-K0JN836,CP1H_C0_V1.00,FinalTest_2019.8.5.0,120620,CP1H 120620 000017,darsini,PASS,193,28,23,14,63,16,0,36,117,11,10,11,,
2020-06-12 09-30-09-608,DESKTOP-K0JN836,CP1H_C0_V1.00,FinalTest_2019.8.5.0,120620,CP1H 120620 000022,darsini,PASS,191,26,23,15,62,17,0,36,115,8,8,8,,
2020-06-12 09-30-59-979,DESKTOP-K0JN836,CP1H_C0_V1.00,FinalTest_2019.8.5.0,120620,CP1H 120620 000026,darsini,PASS,192,26,26,17,61,17,0,34,117,10,10,10,,
2020-06-12 09-31-46-147,DESKTOP-K0JN836,CP1H_C0_V1.00,FinalTest_2019.8.5.0,120620,CP1H 120620 000012,darsini,PASS,196,27,30,18,62,19,0,37,115,11,11,11,,
2020-06-12 09-32-44-156,DESKTOP-K0JN836,CP1H_C0_V1.00,FinalTest_2019.8.5.0,120620,CP1H 120620 000025,darsini,PASS,196,28,30,15,63,18,0,37,117,9,9,9,,
2020-06-12 09-33-32-615,DESKTOP-K0JN836,CP1H_C0_V1.00,FinalTest_2019.8.5.0,120620,CP1H 120620 000020,darsini,PASS,195,28,26,15,62,17,0,36,118,9,9,9,,
2020-06-12 09-36-04-554,DESKTOP-K0JN836,CP1H_C0_V1.00,FinalTest_2019.8.5.0,120620,CP1H 120620 000021,darsini,PASS,195,25,28,18,63,18,0,36,116,9,9,9,,
2020-06-12 09-37-50-523,DESKTOP-K0JN836,CP1H_C0_V1.00,FinalTest_2019.8.5.0,120620,CP1H 120620 000036,darsini,PASS,193,33,34,18,61,19,0,36,116,11,11,11,,
2020-06-12 09-39-12-745,DESKTOP-K0JN836,CP1H_C0_V1.00,FinalTest_2019.8.5.0,120620,CP1H 120620 000033,darsini,PASS,190,27,26,17,61,18,0,35,114,9,9,9,,
2020-06-12 09-40-36-610,DESKTOP-K0JN836,CP1H_C0_V1.00,FinalTest_2019.8.5.0,120620,CP1H 120620 000031,darsini,PASS,193,30,28,17,62,17,0,36,117,9,9,9,,
2020-06-12 09-41-59-442,DESKTOP-K0JN836,CP1H_C0_V1.00,FinalTest_2019.8.5.0,120620,CP1H 120620 000030,darsini,PASS,196,27,30,17,62,17,0,37,118,10,10,10,,
2020-06-12 09-43-22-664,DESKTOP-K0JN836,CP1H_C0_V1.00,FinalTest_2019.8.5.0,120620,CP1H 120620 000029,darsini,PASS,195,29,24,18,62,21,0,37,117,9,9,9,,
2020-06-12 09-44-12-971,DESKTOP-K0JN836,CP1H_C0_V1.00,FinalTest_2019.8.5.0,120620,CP1H 120620 000028,darsini,PASS,193,25,27,18,64,21,0,36,118,9,9,9,,
2020-06-12 09-45-05-938,DESKTOP-K0JN836,CP1H_C0_V1.00,FinalTest_2019.8.5.0,120620,CP1H 120620 000038,darsini,PASS,193,28,27,15,63,18,0,36,117,10,10,10,,
2020-06-12 09-46-01-258,DESKTOP-K0JN836,CP1H_C0_V1.00,FinalTest_2019.8.5.0,120620,CP1H 120620 000034,darsini,PASS,195,30,31,19,63,20,0,36,118,13,12,12,,
2020-06-12 09-46-52-859,DESKTOP-K0JN836,CP1H_C0_V1.00,FinalTest_2019.8.5.0,120620,CP1H 120620 000037,darsini,PASS,192,32,30,18,62,17,0,35,116,9,9,9,,
2020-06-12 09-47-36-709,DESKTOP-K0JN836,CP1H_C0_V1.00,FinalTest_2019.8.5.0,120620,CP1H 120620 000035,darsini,PASS,194,27,29,16,61,17,0,35,115,10,10,10,,
2020-06-12 09-48-19-887,DESKTOP-K0JN836,CP1H_C0_V1.00,FinalTest_2019.8.5.0,120620,CP1H 120620 000032,darsini,PASS,195,28,28,16,60,17,0,35,115,10,10,11,,
2020-06-12 09-49-09-060,DESKTOP-K0JN836,CP1H_C0_V1.00,FinalTest_2019.8.5.0,120620,CP1H 120620 000040,darsini,PASS,194,30,27,15,63,17,0,35,116,9,9,10,,
2020-06-12 09-50-09-102,DESKTOP-K0JN836,CP1H_C0_V1.00,FinalTest_2019.8.5.0,120620,CP1H 120620 000060,darsini,PASS,194,24,30,16,62,19,0,36,115,9,9,9,,
2020-06-12 09-50-53-350,DESKTOP-K0JN836,CP1H_C0_V1.00,FinalTest_2019.8.5.0,120620,CP1H 120620 000046,darsini,PASS,194,26,26,19,63,22,0,35,116,9,9,9,,
2020-06-12 09-52-01-709,DESKTOP-K0JN836,CP1H_C0_V1.00,FinalTest_2019.8.5.0,120620,CP1H 120620 000046,darsini,PASS,195,27,27,17,61,19,0,35,117,9,9,8,,
2020-06-12 09-52-44-198,DESKTOP-K0JN836,CP1H_C0_V1.00,FinalTest_2019.8.5.0,120620,CP1H 120620 000042,darsini,PASS,193,26,26,14,62,17,0,36,117,9,9,9,,
2020-06-12 09-53-28-527,DESKTOP-K0JN836,CP1H_C0_V1.00,FinalTest_2019.8.5.0,120620,CP1H 120620 000041,darsini,PASS,196,28,31,15,61,16,0,37,114,12,12,12,,
2020-06-12 09-54-17-318,DESKTOP-K0JN836,CP1H_C0_V1.00,FinalTest_2019.8.5.0,120620,CP1H 120620 000051,darsini,PASS,192,27,26,16,61,17,0,36,115,9,9,9,,
2020-06-12 09-55-27-991,DESKTOP-K0JN836,CP1H_C0_V1.00,FinalTest_2019.8.5.0,120620,CP1H 120620 000052,darsini,PASS,196,26,27,18,61,17,0,35,116,9,9,9,,
2020-06-12 09-56-16-664,DESKTOP-K0JN836,CP1H_C0_V1.00,FinalTest_2019.8.5.0,120620,CP1H 120620 000053,darsini,PASS,195,28,27,14,63,18,0,38,117,9,9,9,,
2020-06-12 09-57-04-202,DESKTOP-K0JN836,CP1H_C0_V1.00,FinalTest_2019.8.5.0,120620,CP1H 120620 000049,darsini,PASS,199,28,30,14,63,18,0,37,117,11,11,11,,
2020-06-12 09-57-56-825,DESKTOP-K0JN836,CP1H_C0_V1.00,FinalTest_2019.8.5.0,120620,CP1H 120620 000056,darsini,PASS,191,27,28,14,62,17,0,35,116,9,9,9,,
2020-06-12 09-58-52-542,DESKTOP-K0JN836,CP1H_C0_V1.00,FinalTest_2019.8.5.0,120620,CP1H 120620 000044,darsini,PASS,194,28,26,13,63,17,0,35,117,8,8,9,,
2020-06-12 09-59-47-259,DESKTOP-K0JN836,CP1H_C0_V1.00,FinalTest_2019.8.5.0,120620,CP1H 120620 000039,darsini,PASS,191,27,28,17,62,18,0,36,117,8,8,8,,
2020-06-12 10-01-27-565,DESKTOP-K0JN836,CP1H_C0_V1.00,FinalTest_2019.8.5.0,120620,CP1H 120620 000047,darsini,PASS,200,26,34,15,62,17,0,37,114,9,9,10,,
2020-06-12 10-02-23-286,DESKTOP-K0JN836,CP1H_C0_V1.00,FinalTest_2019.8.5.0,120620,CP1H 120620 000050,darsini,PASS,193,28,25,17,62,17,0,35,116,10,10,10,,
2020-06-12 10-03-16-877,DESKTOP-K0JN836,CP1H_C0_V1.00,FinalTest_2019.8.5.0,120620,CP1H 120620 000045,darsini,PASS,193,32,31,15,62,18,0,37,116,8,8,8,,
2020-06-12 10-04-21-143,DESKTOP-K0JN836,CP1H_C0_V1.00,FinalTest_2019.8.5.0,120620,CP1H 120620 000055,darsini,PASS,194,28,27,17,60,18,0,36,116,12,12,12,,
2020-06-12 10-05-25-417,DESKTOP-K0JN836,CP1H_C0_V1.00,FinalTest_2019.8.5.0,120620,CP1H 120620 000054,darsini,PASS,193,27,28,15,62,17,0,36,114,14,14,13,,
2020-06-12 10-07-01-082,DESKTOP-K0JN836,CP1H_C0_V1.00,FinalTest_2019.8.5.0,120620,CP1H 120620 000048,darsini,PASS,196,28,28,15,63,16,0,37,118,9,9,9,,
2020-06-12 10-07-51-673,DESKTOP-K0JN836,CP1H_C0_V1.00,FinalTest_2019.8.5.0,120620,CP1H 120620 000048,darsini,PASS,196,28,29,14,63,18,0,38,116,9,9,9,,
2020-06-12 10-09-06-144,DESKTOP-K0JN836,CP1H_C0_V1.00,FinalTest_2019.8.5.0,120620,CP1H 120620 000059,darsini,PASS,196,24,32,16,60,19,0,36,116,9,9,9,,
2020-06-12 10-11-58-342,DESKTOP-K0JN836,CP1H_C0_V1.00,FinalTest_2019.8.5.0,120620,CP1H 120620 000043,darsini,PASS,195,27,28,14,61,19,0,34,114,9,9,9,,
2020-06-12 10-13-43-844,DESKTOP-K0JN836,CP1H_C0_V1.00,FinalTest_2019.8.5.0,120620,CP1H 120620 000057,darsini,PASS,193,27,29,17,61,17,0,35,116,9,9,9,,
2020-06-12 10-14-33-820,DESKTOP-K0JN836,CP1H_C0_V1.00,FinalTest_2019.8.5.0,120620,CP1H 120620 000058,darsini,PASS,194,28,27,19,61,19,0,34,116,10,10,10,,
2020-06-12 10-16-31-374,DESKTOP-K0JN836,CP1H_C0_V1.00,FinalTest_2019.8.5.0,120620,CP1H 120620 000061,darsini,PASS,197,30,30,14,62,17,0,37,115,10,10,10,,
2020-06-12 10-18-47-144,DESKTOP-K0JN836,CP1H_C0_V1.00,FinalTest_2019.8.5.0,120620,CP1H 120620 000067,darsini,PASS,193,31,26,16,63,18,0,35,117,9,9,9,,
2020-06-12 10-19-41-532,DESKTOP-K0JN836,CP1H_C0_V1.00,FinalTest_2019.8.5.0,120620,CP1H 120620 000070,darsini,PASS,194,25,29,16,61,18,0,36,116,9,9,9,,
2020-06-12 10-20-28-418,DESKTOP-K0JN836,CP1H_C0_V1.00,FinalTest_2019.8.5.0,120620,CP1H 120620 000069,darsini,PASS,192,25,27,15,61,16,0,34,116,8,8,8,,
2020-06-12 10-21-16-992,DESKTOP-K0JN836,CP1H_C0_V1.00,FinalTest_2019.8.5.0,120620,CP1H 120620 000063,darsini,PASS,194,29,27,14,61,19,0,37,116,13,13,13,,
2020-06-12 10-22-07-476,DESKTOP-K0JN836,CP1H_C0_V1.00,FinalTest_2019.8.5.0,120620,CP1H 120620 000065,darsini,PASS,193,27,29,16,61,18,0,35,115,11,11,12,,
2020-06-12 10-23-18-645,DESKTOP-K0JN836,CP1H_C0_V1.00,FinalTest_2019.8.5.0,120620,CP1H 120620 000066,darsini,PASS,197,27,34,16,60,17,0,38,115,11,12,11,,
2020-06-12 10-24-08-611,DESKTOP-K0JN836,CP1H_C0_V1.00,FinalTest_2019.8.5.0,120620,CP1H 120620 000062,darsini,PASS,194,27,29,14,61,18,0,37,116,9,9,9,,
2020-06-12 10-24-51-861,DESKTOP-K0JN836,CP1H_C0_V1.00,FinalTest_2019.8.5.0,120620,CP1H 120620 000068,darsini,PASS,194,28,30,16,61,18,0,36,115,9,9,9,,
2020-06-12 10-25-42-762,DESKTOP-K0JN836,CP1H_C0_V1.00,FinalTest_2019.8.5.0,120620,CP1H 120620 000071,darsini,PASS,195,27,29,16,63,19,0,36,117,9,9,9,,
2020-06-12 10-26-32-354,DESKTOP-K0JN836,CP1H_C0_V1.00,FinalTest_2019.8.5.0,120620,CP1H 120620 000064,darsini,PASS,193,26,29,17,61,20,0,37,117,13,13,13,,
2020-06-12 10-27-26-775,DESKTOP-K0JN836,CP1H_C0_V1.00,FinalTest_2019.8.5.0,120620,CP1H 120620 000075,darsini,PASS,198,27,30,16,61,17,0,37,116,8,8,8,,
2020-06-12 10-28-17-154,DESKTOP-K0JN836,CP1H_C0_V1.00,FinalTest_2019.8.5.0,120620,CP1H 120620 000073,darsini,PASS,195,30,28,18,63,19,0,36,116,10,10,10,,
2020-06-12 10-30-14-411,DESKTOP-K0JN836,CP1H_C0_V1.00,FinalTest_2019.8.5.0,120620,CP1H 120620 000072,darsini,PASS,196,28,28,17,62,16,0,37,116,9,9,9,,
2020-06-12 10-31-07-210,DESKTOP-K0JN836,CP1H_C0_V1.00,FinalTest_2019.8.5.0,120620,CP1H 120620 000083,darsini,PASS,195,27,26,15,62,17,0,36,117,10,10,10,,
2020-06-12 10-32-19-453,DESKTOP-K0JN836,CP1H_C0_V1.00,FinalTest_2019.8.5.0,120620,CP1H 120620 000074,darsini,PASS,190,26,28,14,62,15,0,36,114,8,8,8,,
2020-06-12 10-33-09-761,DESKTOP-K0JN836,CP1H_C0_V1.00,FinalTest_2019.8.5.0,120620,CP1H 120620 000084,darsini,PASS,193,28,28,16,61,18,0,36,116,10,10,10,,
2020-06-12 10-34-01-122,DESKTOP-K0JN836,CP1H_C0_V1.00,FinalTest_2019.8.5.0,120620,CP1H 120620 000080,darsini,PASS,194,28,25,18,64,21,0,36,117,9,9,9,,
2020-06-12 10-34-39-971,DESKTOP-K0JN836,CP1H_C0_V1.00,FinalTest_2019.8.5.0,120620,CP1H 120620 000076,darsini,PASS,193,28,27,19,63,19,0,37,116,10,10,10,,
2020-06-12 10-35-31-867,DESKTOP-K0JN836,CP1H_C0_V1.00,FinalTest_2019.8.5.0,120620,CP1H 120620 000078,darsini,PASS,193,27,28,18,63,18,0,35,116,8,9,8,,
2020-06-12 10-36-05-500,DESKTOP-K0JN836,CP1H_C0_V1.00,FinalTest_2019.8.5.0,120620,CP1H 120620 000079,darsini,PASS,195,30,27,18,64,19,0,36,116,9,9,9,,
2020-06-12 10-36-43-289,DESKTOP-K0JN836,CP1H_C0_V1.00,FinalTest_2019.8.5.0,120620,CP1H 120620 000082,darsini,PASS,192,29,26,18,63,18,0,35,116,10,10,10,,
2020-06-12 10-37-25-752,DESKTOP-K0JN836,CP1H_C0_V1.00,FinalTest_2019.8.5.0,120620,CP1H 120620 000087,darsini,PASS,193,27,28,17,62,17,0,35,116,9,9,9,,
2020-06-12 10-38-00-992,DESKTOP-K0JN836,CP1H_C0_V1.00,FinalTest_2019.8.5.0,120620,CP1H 120620 000088,darsini,PASS,194,27,30,18,63,17,0,37,116,9,9,9,,
2020-06-12 10-38-46-934,DESKTOP-K0JN836,CP1H_C0_V1.00,FinalTest_2019.8.5.0,120620,CP1H 120620 000096,darsini,PASS,192,25,26,15,61,17,0,34,115,8,8,8,,
2020-06-12 10-39-30-071,DESKTOP-K0JN836,CP1H_C0_V1.00,FinalTest_2019.8.5.0,120620,CP1H 120620 000091,darsini,PASS,193,28,27,17,62,19,0,36,117,17,17,19,,
2020-06-12 10-40-07-903,DESKTOP-K0JN836,CP1H_C0_V1.00,FinalTest_2019.8.5.0,120620,CP1H 120620 000090,darsini,PASS,196,29,28,17,62,18,0,35,116,18,17,19,,
2020-06-12 10-40-51-075,DESKTOP-K0JN836,CP1H_C0_V1.00,FinalTest_2019.8.5.0,120620,CP1H 120620 000093,darsini,PASS,193,26,27,18,62,16,0,35,115,8,8,8,,
2020-06-12 10-41-34-839,DESKTOP-K0JN836,CP1H_C0_V1.00,FinalTest_2019.8.5.0,120620,CP1H 120620 000085,darsini,PASS,200,28,31,15,63,17,0,39,118,11,11,12,,
2020-06-12 10-42-18-650,DESKTOP-K0JN836,CP1H_C0_V1.00,FinalTest_2019.8.5.0,120620,CP1H 120620 000077,darsini,PASS,192,27,26,16,61,19,0,35,115,8,8,8,,
2020-06-12 10-42-54-940,DESKTOP-K0JN836,CP1H_C0_V1.00,FinalTest_2019.8.5.0,120620,CP1H 120620 000104,darsini,PASS,192,26,27,15,62,18,0,36,117,9,9,9,,
2020-06-12 10-43-35-377,DESKTOP-K0JN836,CP1H_C0_V1.00,FinalTest_2019.8.5.0,120620,CP1H 120620 000095,darsini,PASS,191,29,26,18,62,18,0,35,116,10,10,10,,
2020-06-12 10-44-09-499,DESKTOP-K0JN836,CP1H_C0_V1.00,FinalTest_2019.8.5.0,120620,CP1H 120620 000106,darsini,PASS,191,28,28,17,62,19,0,36,113,10,10,10,,
2020-06-12 10-44-50-861,DESKTOP-K0JN836,CP1H_C0_V1.00,FinalTest_2019.8.5.0,120620,CP1H 120620 000081,darsini,PASS,195,26,28,15,62,19,0,36,115,8,8,9,,
2020-06-12 10-45-59-427,DESKTOP-K0JN836,CP1H_C0_V1.00,FinalTest_2019.8.5.0,120620,CP1H 120620 000109,darsini,PASS,192,27,26,15,61,19,0,34,116,9,9,9,,
2020-06-12 10-46-47-516,DESKTOP-K0JN836,CP1H_C0_V1.00,FinalTest_2019.8.5.0,120620,CP1H 120620 000097,darsini,PASS,191,28,28,18,61,20,0,34,115,9,9,9,,
2020-06-12 10-47-51-746,DESKTOP-K0JN836,CP1H_C0_V1.00,FinalTest_2019.8.5.0,120620,CP1H 120620 000099,darsini,PASS,195,27,29,16,63,17,0,36,117,9,9,9,,
2020-06-12 10-48-29-117,DESKTOP-K0JN836,CP1H_C0_V1.00,FinalTest_2019.8.5.0,120620,CP1H 120620 000101,darsini,PASS,195,27,25,17,62,19,0,36,117,9,9,9,,
2020-06-12 10-49-03-520,DESKTOP-K0JN836,CP1H_C0_V1.00,FinalTest_2019.8.5.0,120620,CP1H 120620 000098,darsini,PASS,194,26,27,17,62,19,0,37,116,9,9,9,,
2020-06-12 10-49-41-239,DESKTOP-K0JN836,CP1H_C0_V1.00,FinalTest_2019.8.5.0,120620,CP1H 120620 000107,darsini,PASS,195,25,29,17,61,21,0,37,117,10,10,10,,
2020-06-12 10-50-29-619,DESKTOP-K0JN836,CP1H_C0_V1.00,FinalTest_2019.8.5.0,120620,CP1H 120620 000100,darsini,PASS,195,29,28,16,61,17,0,36,116,9,9,9,,
2020-06-12 10-51-03-734,DESKTOP-K0JN836,CP1H_C0_V1.00,FinalTest_2019.8.5.0,120620,CP1H 120620 000111,darsini,PASS,196,27,25,16,61,15,0,35,115,9,9,8,,
2020-06-12 10-52-00-091,DESKTOP-K0JN836,CP1H_C0_V1.00,FinalTest_2019.8.5.0,120620,CP1H 120620 000110,darsini,PASS,196,27,30,16,61,18,0,35,115,12,11,12,,
2020-06-12 10-52-39-548,DESKTOP-K0JN836,CP1H_C0_V1.00,FinalTest_2019.8.5.0,120620,CP1H 120620 000108,darsini,PASS,197,27,30,15,62,17,0,36,115,9,9,9,,
2020-06-12 10-53-47-700,DESKTOP-K0JN836,CP1H_C0_V1.00,FinalTest_2019.8.5.0,120620,CP1H 120620 000089,darsini,PASS,196,27,29,15,62,20,0,36,117,10,10,10,,
2020-06-12 10-54-24-741,DESKTOP-K0JN836,CP1H_C0_V1.00,FinalTest_2019.8.5.0,120620,CP1H 120620 000102,darsini,PASS,195,26,27,15,60,17,0,35,115,10,10,10,,
2020-06-12 10-55-08-707,DESKTOP-K0JN836,CP1H_C0_V1.00,FinalTest_2019.8.5.0,120620,CP1H 120620 000103,darsini,PASS,194,27,26,14,63,17,0,36,117,8,8,8,,
2020-06-12 10-55-46-360,DESKTOP-K0JN836,CP1H_C0_V1.00,FinalTest_2019.8.5.0,120620,CP1H 120620 000105,darsini,PASS,193,26,27,12,63,16,0,36,118,8,8,8,,
2020-06-12 10-56-22-003,DESKTOP-K0JN836,CP1H_C0_V1.00,FinalTest_2019.8.5.0,120620,CP1H 120620 000092,darsini,PASS,195,26,26,13,63,16,0,37,115,8,8,8,,
2020-06-12 10-56-56-845,DESKTOP-K0JN836,CP1H_C0_V1.00,FinalTest_2019.8.5.0,120620,CP1H 120620 000086,darsini,PASS,194,28,24,13,62,15,0,35,114,9,9,9,,
2020-06-12 10-57-36-493,DESKTOP-K0JN836,CP1H_C0_V1.00,FinalTest_2019.8.5.0,120620,CP1H 120620 000094,darsini,PASS,195,26,27,13,64,16,0,35,116,8,8,8,,
2020-06-12 10-58-18-311,DESKTOP-K0JN836,CP1H_C0_V1.00,FinalTest_2019.8.5.0,120620,CP1H 120620 000114,darsini,PASS,194,28,27,14,61,16,0,36,115,9,9,10,,
2020-06-12 10-58-58-063,DESKTOP-K0JN836,CP1H_C0_V1.00,FinalTest_2019.8.5.0,120620,CP1H 120620 000112,darsini,PASS,197,26,32,15,61,18,0,36,115,8,8,8,,
2020-06-12 10-59-40-118,DESKTOP-K0JN836,CP1H_C0_V1.00,FinalTest_2019.8.5.0,120620,CP1H 120620 000114,darsini,PASS,192,29,26,13,62,16,0,35,115,8,8,8,,
2020-06-12 11-00-21-367,DESKTOP-K0JN836,CP1H_C0_V1.00,FinalTest_2019.8.5.0,120620,CP1H 120620 000115,darsini,PASS,192,27,29,19,63,18,0,35,116,11,11,11,,
2020-06-12 11-01-05-439,DESKTOP-K0JN836,CP1H_C0_V1.00,FinalTest_2019.8.5.0,120620,CP1H 120620 000118,darsini,PASS,193,30,27,16,60,17,0,35,115,9,9,9,,
2020-06-12 11-01-50-269,DESKTOP-K0JN836,CP1H_C0_V1.00,FinalTest_2019.8.5.0,120620,CP1H 120620 000116,darsini,PASS,193,26,28,15,61,18,0,36,116,11,11,11,,
2020-06-12 11-02-31-633,DESKTOP-K0JN836,CP1H_C0_V1.00,FinalTest_2019.8.5.0,120620,CP1H 120620 000122,darsini,PASS,193,27,26,18,64,21,0,37,117,9,9,9,,
2020-06-12 11-03-13-375,DESKTOP-K0JN836,CP1H_C0_V1.00,FinalTest_2019.8.5.0,120620,CP1H 120620 000123,darsini,PASS,195,27,27,18,63,20,0,35,118,9,9,9,,
2020-06-12 11-03-55-551,DESKTOP-K0JN836,CP1H_C0_V1.00,FinalTest_2019.8.5.0,120620,CP1H 120620 000121,darsini,PASS,195,28,33,16,61,20,0,36,115,10,10,10,,
2020-06-12 11-04-36-595,DESKTOP-K0JN836,CP1H_C0_V1.00,FinalTest_2019.8.5.0,120620,CP1H 120620 000125,darsini,PASS,194,27,26,16,62,18,0,35,116,9,9,9,,
2020-06-12 11-05-53-158,DESKTOP-K0JN836,CP1H_C0_V1.00,FinalTest_2019.8.5.0,120620,CP1H 120620 000124,darsini,PASS,192,31,32,19,62,21,0,36,116,10,10,10,,
2020-06-12 11-06-36-761,DESKTOP-K0JN836,CP1H_C0_V1.00,FinalTest_2019.8.5.0,120620,CP1H 120620 000126,darsini,PASS,196,31,29,18,65,22,0,38,119,15,15,15,,
2020-06-12 11-07-24-219,DESKTOP-K0JN836,CP1H_C0_V1.00,FinalTest_2019.8.5.0,120620,CP1H 120620 000126,darsini,PASS,196,27,31,16,62,18,0,36,116,11,10,10,,
2020-06-12 11-08-16-189,DESKTOP-K0JN836,CP1H_C0_V1.00,FinalTest_2019.8.5.0,120620,CP1H 120620 000127,darsini,PASS,196,26,30,18,62,20,0,35,115,13,13,13,,
2020-06-12 11-09-01-574,DESKTOP-K0JN836,CP1H_C0_V1.00,FinalTest_2019.8.5.0,120620,CP1H 120620 000117,darsini,PASS,194,28,30,14,62,18,0,36,115,10,10,10,,
2020-06-12 11-09-46-646,DESKTOP-K0JN836,CP1H_C0_V1.00,FinalTest_2019.8.5.0,120620,CP1H 120620 000120,darsini,PASS,196,27,29,16,59,17,0,35,116,11,11,11,,
2020-06-12 11-10-50-993,DESKTOP-K0JN836,CP1H_C0_V1.00,FinalTest_2019.8.5.0,120620,CP1H 120620 000120,darsini,PASS,195,27,28,17,60,17,0,35,116,9,9,9,,
2020-06-12 11-11-39-179,DESKTOP-K0JN836,CP1H_C0_V1.00,FinalTest_2019.8.5.0,120620,CP1H 120620 000113,darsini,PASS,195,28,27,15,64,16,0,37,117,10,10,10,,
2020-06-12 11-12-24-529,DESKTOP-K0JN836,CP1H_C0_V1.00,FinalTest_2019.8.5.0,120620,CP1H 120620 000119,darsini,PASS,196,26,32,15,63,19,0,36,115,9,9,9,,
2020-06-12 11-14-21-318,DESKTOP-K0JN836,CP1H_C0_V1.00,FinalTest_2019.8.5.0,120620,CP1H 120620 000145,darsini,PASS,193,30,27,19,62,18,0,36,115,13,13,13,,
2020-06-12 11-15-33-079,DESKTOP-K0JN836,CP1H_C0_V1.00,FinalTest_2019.8.5.0,120620,CP1H 120620 000148,darsini,PASS,194,26,27,15,61,18,0,35,116,7,7,7,,
2020-06-12 11-16-12-104,DESKTOP-K0JN836,CP1H_C0_V1.00,FinalTest_2019.8.5.0,120620,CP1H 120620 000142,darsini,PASS,195,29,31,15,60,19,0,37,116,11,11,11,,
2020-06-12 11-16-54-257,DESKTOP-K0JN836,CP1H_C0_V1.00,FinalTest_2019.8.5.0,120620,CP1H 120620 000136,darsini,PASS,191,29,26,14,62,15,0,36,115,9,8,9,,
2020-06-12 11-17-39-413,DESKTOP-K0JN836,CP1H_C0_V1.00,FinalTest_2019.8.5.0,120620,CP1H 120620 000136,darsini,PASS,193,28,28,14,61,14,0,34,113,8,8,8,,
2020-06-12 11-18-21-257,DESKTOP-K0JN836,CP1H_C0_V1.00,FinalTest_2019.8.5.0,120620,CP1H 120620 000149,darsini,PASS,196,27,27,14,63,18,0,35,117,9,9,9,,
2020-06-12 11-19-00-219,DESKTOP-K0JN836,CP1H_C0_V1.00,FinalTest_2019.8.5.0,120620,CP1H 120620 000150,darsini,PASS,196,30,26,15,61,16,0,36,116,10,10,10,,
2020-06-12 11-19-42-981,DESKTOP-K0JN836,CP1H_C0_V1.00,FinalTest_2019.8.5.0,120620,CP1H 120620 000139,darsini,PASS,199,27,37,16,62,16,0,37,113,9,9,9,,
2020-06-12 11-20-24-616,DESKTOP-K0JN836,CP1H_C0_V1.00,FinalTest_2019.8.5.0,120620,CP1H 120620 000131,darsini,PASS,191,30,26,19,60,18,0,36,114,12,12,12,,
2020-06-12 11-21-07-182,DESKTOP-K0JN836,CP1H_C0_V1.00,FinalTest_2019.8.5.0,120620,CP1H 120620 000143,darsini,PASS,196,29,27,17,63,19,0,36,117,12,11,13,,
2020-06-12 11-21-52-570,DESKTOP-K0JN836,CP1H_C0_V1.00,FinalTest_2019.8.5.0,120620,CP1H 120620 000128,darsini,PASS,196,29,31,15,62,19,0,36,116,9,9,7,,
2020-06-12 11-22-56-299,DESKTOP-K0JN836,CP1H_C0_V1.00,FinalTest_2019.8.5.0,120620,CP1H 120620 000157,darsini,PASS,199,27,31,15,63,18,0,37,118,9,9,9,,
2020-06-12 11-23-40-334,DESKTOP-K0JN836,CP1H_C0_V1.00,FinalTest_2019.8.5.0,120620,CP1H 120620 000140,darsini,PASS,196,29,29,15,62,17,0,35,115,9,9,10,,
2020-06-12 11-24-39-676,DESKTOP-K0JN836,CP1H_C0_V1.00,FinalTest_2019.8.5.0,120620,CP1H 120620 000137,darsini,PASS,194,30,28,15,61,17,0,37,116,11,11,11,,
2020-06-12 11-25-19-208,DESKTOP-K0JN836,CP1H_C0_V1.00,FinalTest_2019.8.5.0,120620,CP1H 120620 000147,darsini,PASS,197,28,27,17,63,17,0,37,119,11,11,11,,
2020-06-12 11-26-00-737,DESKTOP-K0JN836,CP1H_C0_V1.00,FinalTest_2019.8.5.0,120620,CP1H 120620 000144,darsini,PASS,194,29,29,20,62,20,0,34,117,10,10,10,,
2020-06-12 11-26-41-809,DESKTOP-K0JN836,CP1H_C0_V1.00,FinalTest_2019.8.5.0,120620,CP1H 120620 000146,darsini,PASS,193,30,29,17,62,19,0,35,114,8,8,8,,
2020-06-12 11-27-23-219,DESKTOP-K0JN836,CP1H_C0_V1.00,FinalTest_2019.8.5.0,120620,CP1H 120620 000167,darsini,PASS,199,28,31,15,63,17,0,36,117,10,10,10,,
2020-06-12 11-28-16-951,DESKTOP-K0JN836,CP1H_C0_V1.00,FinalTest_2019.8.5.0,120620,CP1H 120620 000132,darsini,PASS,199,26,29,16,62,16,0,38,118,9,9,10,,
2020-06-12 11-29-06-744,DESKTOP-K0JN836,CP1H_C0_V1.00,FinalTest_2019.8.5.0,120620,CP1H 120620 000133,darsini,PASS,195,29,33,19,61,18,0,34,116,12,12,12,,
2020-06-12 11-29-46-392,DESKTOP-K0JN836,CP1H_C0_V1.00,FinalTest_2019.8.5.0,120620,CP1H 120620 000134,darsini,PASS,193,30,27,16,62,15,0,37,115,10,10,9,,
2020-06-12 11-30-28-432,DESKTOP-K0JN836,CP1H_C0_V1.00,FinalTest_2019.8.5.0,120620,CP1H 120620 000141,darsini,PASS,197,27,27,18,61,17,0,35,115,11,11,11,,
2020-06-12 11-31-10-385,DESKTOP-K0JN836,CP1H_C0_V1.00,FinalTest_2019.8.5.0,120620,CP1H 120620 000138,darsini,PASS,195,28,29,15,61,17,0,38,116,9,9,9,,
2020-06-12 11-31-50-035,DESKTOP-K0JN836,CP1H_C0_V1.00,FinalTest_2019.8.5.0,120620,CP1H 120620 000135,darsini,PASS,195,28,30,15,63,18,0,37,117,9,9,9,,
2020-06-12 11-32-34-493,DESKTOP-K0JN836,CP1H_C0_V1.00,FinalTest_2019.8.5.0,120620,CP1H 120620 000130,darsini,PASS,200,27,30,14,62,19,0,37,118,9,9,9,,
2020-06-12 11-33-17-599,DESKTOP-K0JN836,CP1H_C0_V1.00,FinalTest_2019.8.5.0,120620,CP1H 120620 000154,darsini,PASS,194,29,28,15,61,17,0,37,115,14,14,14,,
2020-06-12 11-34-01-330,DESKTOP-K0JN836,CP1H_C0_V1.00,FinalTest_2019.8.5.0,120620,CP1H 120620 000159,darsini,PASS,196,28,32,15,62,17,0,36,114,9,9,9,,
2020-06-12 11-34-40-996,DESKTOP-K0JN836,CP1H_C0_V1.00,FinalTest_2019.8.5.0,120620,CP1H 120620 000162,darsini,PASS,198,28,27,15,61,16,0,36,118,9,9,9,,
2020-06-12 11-35-21-717,DESKTOP-K0JN836,CP1H_C0_V1.00,FinalTest_2019.8.5.0,120620,CP1H 120620 000156,darsini,PASS,195,28,26,16,62,18,0,35,118,10,10,10,,
2020-06-12 11-36-03-071,DESKTOP-K0JN836,CP1H_C0_V1.00,FinalTest_2019.8.5.0,120620,CP1H 120620 000153,darsini,PASS,196,27,26,16,62,19,0,35,117,9,9,9,,
2020-06-12 11-36-50-734,DESKTOP-K0JN836,CP1H_C0_V1.00,FinalTest_2019.8.5.0,120620,CP1H 120620 000158,darsini,PASS,198,28,29,18,66,20,0,36,119,11,11,11,,
2020-06-12 11-37-35-592,DESKTOP-K0JN836,CP1H_C0_V1.00,FinalTest_2019.8.5.0,120620,CP1H 120620 000175,darsini,PASS,194,29,30,13,61,19,0,36,115,10,10,10,,
2020-06-12 11-38-17-559,DESKTOP-K0JN836,CP1H_C0_V1.00,FinalTest_2019.8.5.0,120620,CP1H 120620 000151,darsini,PASS,196,28,28,15,61,16,0,39,116,10,10,10,,
2020-06-12 11-39-00-808,DESKTOP-K0JN836,CP1H_C0_V1.00,FinalTest_2019.8.5.0,120620,CP1H 120620 000155,darsini,PASS,194,28,33,18,61,18,0,39,116,9,9,9,,
2020-06-12 11-39-43-784,DESKTOP-K0JN836,CP1H_C0_V1.00,FinalTest_2019.8.5.0,120620,CP1H 120620 000129,darsini,PASS,198,26,31,14,61,17,0,36,115,9,9,9,,
2020-06-12 11-40-27-329,DESKTOP-K0JN836,CP1H_C0_V1.00,FinalTest_2019.8.5.0,120620,CP1H 120620 000152,darsini,PASS,196,27,29,15,62,21,0,39,117,9,9,9,,
2020-06-12 11-43-18-970,DESKTOP-K0JN836,CP1H_C0_V1.00,FinalTest_2019.8.5.0,120620,CP1H 120620 000169,darsini,PASS,194,28,30,17,62,20,0,36,116,9,9,10,,
2020-06-12 11-44-01-639,DESKTOP-K0JN836,CP1H_C0_V1.00,FinalTest_2019.8.5.0,120620,CP1H 120620 000161,darsini,PASS,194,27,29,17,62,19,0,36,116,10,10,10,,
2020-06-12 11-44-46-731,DESKTOP-K0JN836,CP1H_C0_V1.00,FinalTest_2019.8.5.0,120620,CP1H 120620 000164,darsini,PASS,200,28,30,18,61,20,0,35,114,12,12,12,,
2020-06-12 11-45-31-452,DESKTOP-K0JN836,CP1H_C0_V1.00,FinalTest_2019.8.5.0,120620,CP1H 120620 000172,darsini,PASS,194,28,30,15,62,18,0,35,114,9,9,9,,
2020-06-12 11-46-16-337,DESKTOP-K0JN836,CP1H_C0_V1.00,FinalTest_2019.8.5.0,120620,CP1H 120620 000166,darsini,PASS,197,25,30,14,61,18,0,34,116,8,8,8,,
2020-06-12 11-46-59-290,DESKTOP-K0JN836,CP1H_C0_V1.00,FinalTest_2019.8.5.0,120620,CP1H 120620 000174,darsini,PASS,195,29,33,16,60,18,0,36,114,8,8,8,,
2020-06-12 11-47-51-031,DESKTOP-K0JN836,CP1H_C0_V1.00,FinalTest_2019.8.5.0,120620,CP1H 120620 000170,darsini,PASS,202,24,31,17,62,21,0,35,115,9,9,9,,
2020-06-12 11-49-00-915,DESKTOP-K0JN836,CP1H_C0_V1.00,FinalTest_2019.8.5.0,120620,CP1H 120620 000173,darsini,PASS,195,26,31,18,61,19,0,37,116,9,9,9,,
2020-06-12 11-50-16-399,DESKTOP-K0JN836,CP1H_C0_V1.00,FinalTest_2019.8.5.0,120620,CP1H 120620 000165,darsini,PASS,199,29,32,18,61,19,0,37,117,10,10,10,,
2020-06-12 11-51-22-460,DESKTOP-K0JN836,CP1H_C0_V1.00,FinalTest_2019.8.5.0,120620,CP1H 120620 000168,darsini,PASS,192,29,29,19,62,20,0,35,115,9,9,9,,
2020-06-12 11-52-07-309,DESKTOP-K0JN836,CP1H_C0_V1.00,FinalTest_2019.8.5.0,120620,CP1H 120620 000182,darsini,PASS,195,28,27,15,60,16,0,36,115,9,9,10,,
2020-06-12 11-52-52-396,DESKTOP-K0JN836,CP1H_C0_V1.00,FinalTest_2019.8.5.0,120620,CP1H 120620 000183,darsini,PASS,195,26,30,17,62,18,0,35,115,9,9,9,,
2020-06-12 11-53-43-279,DESKTOP-K0JN836,CP1H_C0_V1.00,FinalTest_2019.8.5.0,120620,CP1H 120620 000179,darsini,PASS,193,30,32,16,62,18,0,39,115,11,11,11,,
2020-06-12 11-54-28-977,DESKTOP-K0JN836,CP1H_C0_V1.00,FinalTest_2019.8.5.0,120620,CP1H 120620 000181,darsini,PASS,196,25,30,17,61,17,0,37,116,11,11,11,,
2020-06-12 11-55-21-526,DESKTOP-K0JN836,CP1H_C0_V1.00,FinalTest_2019.8.5.0,120620,CP1H 120620 000180,darsini,PASS,197,26,28,14,61,17,0,34,117,9,9,9,,
2020-06-12 11-56-08-697,DESKTOP-K0JN836,CP1H_C0_V1.00,FinalTest_2019.8.5.0,120620,CP1H 120620 000177,darsini,PASS,195,27,34,17,62,22,0,37,113,13,13,13,,
2020-06-12 11-56-57-273,DESKTOP-K0JN836,CP1H_C0_V1.00,FinalTest_2019.8.5.0,120620,CP1H 120620 000185,darsini,PASS,199,27,28,13,62,16,0,36,114,8,8,10,,
2020-06-12 11-57-39-737,DESKTOP-K0JN836,CP1H_C0_V1.00,FinalTest_2019.8.5.0,120620,CP1H 120620 000184,darsini,PASS,197,28,29,16,60,19,0,36,117,9,9,9,,
2020-06-12 11-58-23-008,DESKTOP-K0JN836,CP1H_C0_V1.00,FinalTest_2019.8.5.0,120620,CP1H 120620 000178,darsini,PASS,198,28,30,17,60,16,0,34,115,8,8,8,,
2020-06-12 11-59-06-767,DESKTOP-K0JN836,CP1H_C0_V1.00,FinalTest_2019.8.5.0,120620,CP1H 120620 000186,darsini,PASS,196,28,30,15,61,17,0,35,113,8,8,9,,
2020-06-12 11-59-43-076,DESKTOP-K0JN836,CP1H_C0_V1.00,FinalTest_2019.8.5.0,120620,CP1H 120620 000160,darsini,PASS,196,30,33,16,61,18,0,36,113,8,8,9,,
2020-06-12 12-14-29-118,DESKTOP-K0JN836,CP1H_C0_V1.00,FinalTest_2019.8.5.0,120620,CP1H 110320 00059,darsini,PASS,196,29,28,11,63,19,0,35,116,8,8,8,,
2020-06-12 12-39-38-547,DESKTOP-K0JN836,CP1H_C0_V1.00,FinalTest_2019.8.5.0,120620,CP1H 120620 000126,darsini,PASS,197,27,30,17,61,17,0,36,116,12,12,12,,
2020-06-12 12-40-35-880,DESKTOP-K0JN836,CP1H_C0_V1.00,FinalTest_2019.8.5.0,120620,CP1H 120620 000186,darsini,PASS,194,32,36,15,62,19,0,39,115,9,9,10,,
2020-06-12 12-41-21-327,DESKTOP-K0JN836,CP1H_C0_V1.00,FinalTest_2019.8.5.0,120620,CP1H 120620 000163,darsini,PASS,198,25,32,17,62,22,0,37,115,10,10,10,,
2020-06-12 12-42-06-618,DESKTOP-K0JN836,CP1H_C0_V1.00,FinalTest_2019.8.5.0,120620,CP1H 120620 000187,darsini,PASS,193,28,30,15,62,17,0,37,116,10,10,10,,
2020-06-12 12-43-19-718,DESKTOP-K0JN836,CP1H_C0_V1.00,FinalTest_2019.8.5.0,120620,CP1H 120620 000188,darsini,PASS,195,28,27,15,62,19,0,36,117,9,9,9,,
2020-06-12 12-44-05-268,DESKTOP-K0JN836,CP1H_C0_V1.00,FinalTest_2019.8.5.0,120620,CP1H 120620 000196,darsini,PASS,196,25,32,16,61,15,0,36,113,9,9,8,,
2020-06-12 12-44-55-666,DESKTOP-K0JN836,CP1H_C0_V1.00,FinalTest_2019.8.5.0,120620,CP1H 120620 000190,darsini,PASS,194,31,30,17,64,18,0,38,116,9,9,9,,
2020-06-12 12-45-43-846,DESKTOP-K0JN836,CP1H_C0_V1.00,FinalTest_2019.8.5.0,120620,CP1H 120620 000190,darsini,PASS,196,30,30,13,62,14,0,35,115,7,7,7,,
2020-06-12 12-48-38-181,DESKTOP-K0JN836,CP1H_C0_V1.00,FinalTest_2019.8.5.0,120620,CP1H 120620 000193,darsini,PASS,194,27,29,17,62,17,0,35,116,10,10,10,,
2020-06-12 12-49-37-420,DESKTOP-K0JN836,CP1H_C0_V1.00,FinalTest_2019.8.5.0,120620,CP1H 120620 000195,darsini,PASS,198,28,31,14,63,18,0,38,117,11,11,11,,
2020-06-12 12-52-13-610,DESKTOP-K0JN836,CP1H_C0_V1.00,FinalTest_2019.8.5.0,120620,CP1H 120620 000189,darsini,PASS,199,27,29,19,64,21,0,37,119,10,10,10,,
2020-06-12 12-53-02-386,DESKTOP-K0JN836,CP1H_C0_V1.00,FinalTest_2019.8.5.0,120620,CP1H 120620 000217,darsini,PASS,195,26,29,17,64,18,0,35,115,12,12,12,,
2020-06-12 12-54-06-846,DESKTOP-K0JN836,CP1H_C0_V1.00,FinalTest_2019.8.5.0,120620,CP1H 120620 000200,darsini,PASS,197,27,31,16,61,19,0,37,115,8,8,8,,
2020-06-12 12-54-47-684,DESKTOP-K0JN836,CP1H_C0_V1.00,FinalTest_2019.8.5.0,120620,CP1H 120620 000176,darsini,PASS,193,31,22,15,63,19,0,35,116,12,12,13,,
2020-06-12 12-55-31-360,DESKTOP-K0JN836,CP1H_C0_V1.00,FinalTest_2019.8.5.0,120620,CP1H 120620 000201,darsini,FAIL,148,59,19,35,62,30,20,40,94,16,16,16,,
2020-06-12 12-56-28-048,DESKTOP-K0JN836,CP1H_C0_V1.00,FinalTest_2019.8.5.0,120620,CP1H 120620 000198,darsini,PASS,195,26,35,17,63,18,0,38,113,9,9,9,,
2020-06-12 12-57-18-831,DESKTOP-K0JN836,CP1H_C0_V1.00,FinalTest_2019.8.5.0,120620,CP1H 120620 000194,darsini,PASS,193,28,34,17,63,18,0,37,115,9,9,10,,
2020-06-12 12-58-05-910,DESKTOP-K0JN836,CP1H_C0_V1.00,FinalTest_2019.8.5.0,120620,CP1H 120620 000236,darsini,PASS,195,28,28,17,65,20,0,37,118,15,15,15,,
2020-06-12 12-59-36-273,DESKTOP-K0JN836,CP1H_C0_V1.00,FinalTest_2019.8.5.0,120620,CP1H 120620 000192,darsini,PASS,198,25,27,16,63,18,0,38,118,8,8,8,,
2020-06-12 13-01-29-100,DESKTOP-K0JN836,CP1H_C0_V1.00,FinalTest_2019.8.5.0,120620,CP1H 120620 000199,darsini,PASS,198,25,27,16,63,18,0,38,118,8,8,8,,
2020-06-12 13-02-54-621,DESKTOP-K0JN836,CP1H_C0_V1.00,FinalTest_2019.8.5.0,120620,CP1H 120620 000199,darsini,PASS,198,25,27,16,63,18,0,38,118,8,8,8,,
2020-06-12 13-04-06-089,DESKTOP-K0JN836,CP1H_C0_V1.00,FinalTest_2019.8.5.0,120620,CP1H 120620 000197,darsini,PASS,196,27,31,15,61,18,0,37,116,9,9,9,,
2020-06-12 13-04-48-553,DESKTOP-K0JN836,CP1H_C0_V1.00,FinalTest_2019.8.5.0,120620,CP1H 120620 000191,darsini,PASS,195,27,29,13,63,16,0,37,115,9,9,9,,
2020-06-12 13-05-40-043,DESKTOP-K0JN836,CP1H_C0_V1.00,FinalTest_2019.8.5.0,120620,CP1H 120620 000191,darsini,PASS,196,27,30,13,61,15,0,37,113,8,8,8,,
2020-06-12 13-06-28-042,DESKTOP-K0JN836,CP1H_C0_V1.00,FinalTest_2019.8.5.0,120620,CP1H 120620 000221,darsini,PASS,194,26,27,18,64,21,0,36,118,10,10,10,,
2020-06-12 13-07-28-958,DESKTOP-K0JN836,CP1H_C0_V1.00,FinalTest_2019.8.5.0,120620,CP1H 120620 000221,darsini,PASS,195,25,28,15,62,17,0,38,116,9,9,9,,
2020-06-12 13-08-16-858,DESKTOP-K0JN836,CP1H_C0_V1.00,FinalTest_2019.8.5.0,120620,CP1H 120620 000211,darsini,PASS,195,25,28,15,62,17,0,38,116,9,9,9,,
2020-06-12 13-08-53-299,DESKTOP-K0JN836,CP1H_C0_V1.00,FinalTest_2019.8.5.0,120620,CP1H 120620 000211,darsini,PASS,195,25,28,15,62,17,0,38,116,9,9,9,,
2020-06-12 13-09-42-192,DESKTOP-K0JN836,CP1H_C0_V1.00,FinalTest_2019.8.5.0,120620,CP1H 120620 000218,darsini,PASS,199,27,23,14,62,20,0,36,118,9,9,9,,
2020-06-12 13-10-24-859,DESKTOP-K0JN836,CP1H_C0_V1.00,FinalTest_2019.8.5.0,120620,CP1H 120620 000219,darsini,PASS,196,30,31,20,64,22,0,39,117,13,13,13,,
2020-06-12 13-11-12-343,DESKTOP-K0JN836,CP1H_C0_V1.00,FinalTest_2019.8.5.0,120620,CP1H 120620 000220,darsini,PASS,198,27,29,19,60,20,0,37,118,10,10,10,,
2020-06-12 13-11-58-582,DESKTOP-K0JN836,CP1H_C0_V1.00,FinalTest_2019.8.5.0,120620,CP1H 120620 000210,darsini,PASS,193,29,26,15,61,17,0,36,117,16,15,16,,
2020-06-12 13-12-50-087,DESKTOP-K0JN836,CP1H_C0_V1.00,FinalTest_2019.8.5.0,120620,CP1H 120620 000215,darsini,PASS,195,27,31,25,64,26,0,38,119,9,9,9,,
2020-06-12 13-13-35-516,DESKTOP-K0JN836,CP1H_C0_V1.00,FinalTest_2019.8.5.0,120620,CP1H 120620 000215,darsini,PASS,196,27,26,17,61,15,0,35,117,9,9,9,,
2020-06-12 13-14-17-571,DESKTOP-K0JN836,CP1H_C0_V1.00,FinalTest_2019.8.5.0,120620,CP1H 120620 000216,darsini,PASS,197,29,29,15,63,18,0,38,121,8,8,8,,
2020-06-12 13-15-05-860,DESKTOP-K0JN836,CP1H_C0_V1.00,FinalTest_2019.8.5.0,120620,CP1H 120620 000205,darsini,PASS,197,28,27,16,61,19,0,36,118,8,8,8,,
2020-06-12 13-15-48-292,DESKTOP-K0JN836,CP1H_C0_V1.00,FinalTest_2019.8.5.0,120620,CP1H 120620 000203,darsini,PASS,195,27,34,13,62,16,0,37,114,9,9,10,,
2020-06-12 13-16-32-672,DESKTOP-K0JN836,CP1H_C0_V1.00,FinalTest_2019.8.5.0,120620,CP1H 120620 000204,darsini,PASS,195,27,34,13,62,16,0,37,114,9,9,10,,
2020-06-12 13-17-15-773,DESKTOP-K0JN836,CP1H_C0_V1.00,FinalTest_2019.8.5.0,120620,CP1H 120620 000204,darsini,PASS,195,27,34,13,62,16,0,37,114,9,9,10,,
2020-06-12 13-18-04-131,DESKTOP-K0JN836,CP1H_C0_V1.00,FinalTest_2019.8.5.0,120620,CP1H 120620 000206,darsini,PASS,195,27,34,13,62,16,0,37,114,9,9,10,,
2020-06-12 13-18-43-883,DESKTOP-K0JN836,CP1H_C0_V1.00,FinalTest_2019.8.5.0,120620,CP1H 120620 000206,darsini,PASS,195,27,34,13,62,16,0,37,114,9,9,10,,
2020-06-12 13-19-32-951,DESKTOP-K0JN836,CP1H_C0_V1.00,FinalTest_2019.8.5.0,120620,CP1H 120620 000207,darsini,PASS,194,28,32,21,64,21,0,37,116,13,13,13,,
2020-06-12 13-21-17-900,DESKTOP-K0JN836,CP1H_C0_V1.00,FinalTest_2019.8.5.0,120620,120620 000209,darsini,PASS,196,29,29,15,63,19,0,37,120,11,11,11,,
2020-06-12 13-22-16-520,DESKTOP-K0JN836,CP1H_C0_V1.00,FinalTest_2019.8.5.0,120620,CP1H 120620 000208,darsini,PASS,192,26,30,13,63,18,0,37,117,9,9,9,,
2020-06-12 13-23-06-417,DESKTOP-K0JN836,CP1H_C0_V1.00,FinalTest_2019.8.5.0,120620,CP1H 120620 000213,darsini,PASS,193,27,28,13,62,17,0,37,117,8,8,8,,
2020-06-12 13-23-56-189,DESKTOP-K0JN836,CP1H_C0_V1.00,FinalTest_2019.8.5.0,120620,CP1H 120620 000214,darsini,PASS,193,29,30,15,62,20,0,36,115,15,15,16,,
2020-06-12 13-25-04-061,DESKTOP-K0JN836,CP1H_C0_V1.00,FinalTest_2019.8.5.0,120620,CP1H 120620 000212,darsini,PASS,193,29,30,15,62,20,0,36,115,15,15,16,,
2020-06-12 13-26-10-123,DESKTOP-K0JN836,CP1H_C0_V1.00,FinalTest_2019.8.5.0,120620,CP1H 120620 000222,darsini,PASS,194,28,29,17,63,19,0,37,117,10,10,10,,
2020-06-12 13-27-22-517,DESKTOP-K0JN836,CP1H_C0_V1.00,FinalTest_2019.8.5.0,120620,CP1H 120620 000241,darsini,PASS,198,29,29,20,63,19,0,36,117,10,10,10,,
2020-06-12 13-28-29-678,DESKTOP-K0JN836,CP1H_C0_V1.00,FinalTest_2019.8.5.0,120620,CP1H 120620 000237,darsini,PASS,195,26,25,15,61,16,0,34,115,11,11,11,,
2020-06-12 13-29-27-525,DESKTOP-K0JN836,CP1H_C0_V1.00,FinalTest_2019.8.5.0,120620,CP1H 120620 000269,darsini,PASS,198,28,32,15,64,18,0,38,117,13,13,14,,
2020-06-12 13-30-15-757,DESKTOP-K0JN836,CP1H_C0_V1.00,FinalTest_2019.8.5.0,120620,CP1H 120620 000238,darsini,PASS,195,28,25,18,62,17,0,36,119,9,9,9,,
2020-06-12 13-30-58-725,DESKTOP-K0JN836,CP1H_C0_V1.00,FinalTest_2019.8.5.0,120620,CP1H 120620 000240,darsini,PASS,195,26,28,18,60,17,0,36,116,8,8,8,,
2020-06-12 13-31-47-710,DESKTOP-K0JN836,CP1H_C0_V1.00,FinalTest_2019.8.5.0,120620,CP1H 120620 000235,darsini,PASS,195,27,34,18,60,19,0,37,116,8,8,8,,
2020-06-12 13-32-39-607,DESKTOP-K0JN836,CP1H_C0_V1.00,FinalTest_2019.8.5.0,120620,CP1H 120620 000231,darsini,PASS,192,28,24,16,61,17,0,35,119,9,9,9,,
2020-06-12 13-33-22-255,DESKTOP-K0JN836,CP1H_C0_V1.00,FinalTest_2019.8.5.0,120620,CP1H 120620 000232,darsini,PASS,195,26,28,17,63,18,0,36,116,9,10,8,,
2020-06-12 13-34-07-241,DESKTOP-K0JN836,CP1H_C0_V1.00,FinalTest_2019.8.5.0,120620,CP1H 120620 000227,darsini,PASS,195,24,28,18,59,18,0,34,116,9,9,9,,
2020-06-12 13-34-50-397,DESKTOP-K0JN836,CP1H_C0_V1.00,FinalTest_2019.8.5.0,120620,CP1H 120620 000248,darsini,PASS,198,28,31,17,62,20,0,37,117,9,9,9,,
2020-06-12 13-35-35-362,DESKTOP-K0JN836,CP1H_C0_V1.00,FinalTest_2019.8.5.0,120620,CP1H 120620 000252,darsini,PASS,193,27,28,15,61,17,0,37,116,8,8,8,,
2020-06-12 13-36-18-201,DESKTOP-K0JN836,CP1H_C0_V1.00,FinalTest_2019.8.5.0,120620,CP1H 120620 000225,darsini,PASS,196,27,30,14,62,19,0,37,117,10,10,10,,
2020-06-12 13-37-02-185,DESKTOP-K0JN836,CP1H_C0_V1.00,FinalTest_2019.8.5.0,120620,CP1H 120620 000233,darsini,PASS,194,29,32,16,63,18,0,36,115,12,11,11,,
2020-06-12 13-37-47-653,DESKTOP-K0JN836,CP1H_C0_V1.00,FinalTest_2019.8.5.0,120620,CP1H 120620 000230,darsini,PASS,193,25,31,15,63,19,0,35,116,9,9,9,,
2020-06-12 13-38-34-141,DESKTOP-K0JN836,CP1H_C0_V1.00,FinalTest_2019.8.5.0,120620,CP1H 120620 000234,darsini,PASS,196,27,31,20,62,21,0,36,118,11,11,11,,
2020-06-12 13-39-19-912,DESKTOP-K0JN836,CP1H_C0_V1.00,FinalTest_2019.8.5.0,120620,CP1H 120620 000223,darsini,PASS,194,30,28,15,64,16,0,35,115,10,10,10,,
2020-06-12 13-40-04-441,DESKTOP-K0JN836,CP1H_C0_V1.00,FinalTest_2019.8.5.0,120620,CP1H 120620 000224,darsini,PASS,194,27,28,16,63,19,0,38,117,9,9,9,,
2020-06-12 13-40-52-047,DESKTOP-K0JN836,CP1H_C0_V1.00,FinalTest_2019.8.5.0,120620,CP1H 120620 000263,darsini,PASS,195,26,28,17,62,18,0,37,118,9,9,9,,
2020-06-12 13-45-05-311,DESKTOP-K0JN836,CP1H_C0_V1.00,FinalTest_2019.8.5.0,120620,CP1H 120620 000250,darsini,PASS,194,27,32,17,61,18,0,38,114,12,12,12,,
2020-06-12 13-46-01-809,DESKTOP-K0JN836,CP1H_C0_V1.00,FinalTest_2019.8.5.0,120620,CP1H 120620 000267,darsini,PASS,195,28,34,16,62,19,0,35,116,9,9,9,,
2020-06-12 13-46-48-886,DESKTOP-K0JN836,CP1H_C0_V1.00,FinalTest_2019.8.5.0,120620,CP1H 120620 000266,darsini,PASS,195,27,30,18,64,20,0,37,115,12,12,11,,
2020-06-12 13-47-58-850,DESKTOP-K0JN836,CP1H_C0_V1.00,FinalTest_2019.8.5.0,120620,CP1H 120620 000239,darsini,PASS,197,28,28,14,63,17,0,37,116,11,11,11,,
2020-06-12 13-48-55-006,DESKTOP-K0JN836,CP1H_C0_V1.00,FinalTest_2019.8.5.0,120620,CP1H 120620 000239,darsini,PASS,195,27,29,14,61,15,0,36,115,10,10,10,,
2020-06-12 13-49-59-826,DESKTOP-K0JN836,CP1H_C0_V1.00,FinalTest_2019.8.5.0,120620,CP1H 120620 000268,darsini,PASS,194,26,27,18,62,20,0,37,120,9,10,8,,
2020-06-12 13-51-34-775,DESKTOP-K0JN836,CP1H_C0_V1.00,FinalTest_2019.8.5.0,120620,CP1H 120620 000228,darsini,PASS,194,26,27,18,62,20,0,37,120,9,10,8,,
2020-06-12 13-52-20-954,DESKTOP-K0JN836,CP1H_C0_V1.00,FinalTest_2019.8.5.0,120620,CP1H 120620 000228,darsini,PASS,196,25,29,18,60,19,0,34,116,9,9,9,,
2020-06-12 13-53-14-539,DESKTOP-K0JN836,CP1H_C0_V1.00,FinalTest_2019.8.5.0,120620,CP1H 120620 000260,darsini,PASS,197,27,29,14,63,21,0,38,119,9,9,9,,
2020-06-12 13-54-15-263,DESKTOP-K0JN836,CP1H_C0_V1.00,FinalTest_2019.8.5.0,120620,CP1H 120620 000229,darsini,PASS,198,26,29,16,63,16,0,38,118,9,9,8,,
2020-06-12 13-55-06-856,DESKTOP-K0JN836,CP1H_C0_V1.00,FinalTest_2019.8.5.0,120620,CP1H 120620 000239,darsini,PASS,193,27,28,15,61,16,0,36,117,8,8,8,,
2020-06-12 13-56-22-074,DESKTOP-K0JN836,CP1H_C0_V1.00,FinalTest_2019.8.5.0,120620,CP1H 120620 000226,darsini,PASS,196,28,27,15,61,18,0,36,118,13,14,14,,
2020-06-12 13-57-18-574,DESKTOP-K0JN836,CP1H_C0_V1.00,FinalTest_2019.8.5.0,120620,CP1H 120620 000249,darsini,PASS,196,26,29,15,60,17,0,35,116,14,13,15,,
2020-06-12 13-58-19-910,DESKTOP-K0JN836,CP1H_C0_V1.00,FinalTest_2019.8.5.0,120620,CP1H 120620 000251,darsini,PASS,199,28,31,16,63,18,0,37,121,13,13,13,,
2020-06-12 13-59-36-828,DESKTOP-K0JN836,CP1H_C0_V1.00,FinalTest_2019.8.5.0,120620,CP1H 120620 000254,darsini,PASS,199,27,29,15,62,18,0,37,118,11,11,11,,
2020-06-12 14-00-41-900,DESKTOP-K0JN836,CP1H_C0_V1.00,FinalTest_2019.8.5.0,120620,CP1H 120620 000255,darsini,PASS,196,27,28,18,61,15,0,36,115,10,10,10,,
2020-06-12 14-03-08-625,DESKTOP-K0JN836,CP1H_C0_V1.00,FinalTest_2019.8.5.0,120620,CP1H 120620 000288,darsini,PASS,194,32,31,13,62,16,0,35,115,9,9,7,,
2020-06-12 14-03-59-712,DESKTOP-K0JN836,CP1H_C0_V1.00,FinalTest_2019.8.5.0,120620,CP1H 120620 000278,darsini,PASS,196,29,28,18,63,21,0,37,116,13,13,13,,
2020-06-12 14-06-45-113,DESKTOP-K0JN836,CP1H_C0_V1.00,FinalTest_2019.8.5.0,120620,CP1H 120620 000290,darsini,PASS,194,31,28,13,61,16,0,37,118,9,9,8,,
2020-06-12 14-07-33-299,DESKTOP-K0JN836,CP1H_C0_V1.00,FinalTest_2019.8.5.0,120620,CP1H 120620 000265,darsini,PASS,197,25,31,15,62,20,0,36,118,9,10,9,,
2020-06-12 14-08-17-258,DESKTOP-K0JN836,CP1H_C0_V1.00,FinalTest_2019.8.5.0,120620,CP1H 120620 000270,darsini,PASS,194,30,29,17,64,20,0,37,115,9,9,9,,
2020-06-12 14-09-00-226,DESKTOP-K0JN836,CP1H_C0_V1.00,FinalTest_2019.8.5.0,120620,CP1H 120620 000259,darsini,PASS,196,26,29,24,66,31,0,36,117,9,9,9,,
2020-06-12 14-09-42-684,DESKTOP-K0JN836,CP1H_C0_V1.00,FinalTest_2019.8.5.0,120620,CP1H 120620 000247,darsini,PASS,194,25,27,18,62,17,0,36,116,9,9,9,,
2020-06-12 14-10-25-965,DESKTOP-K0JN836,CP1H_C0_V1.00,FinalTest_2019.8.5.0,120620,CP1H 120620 000257,darsini,PASS,195,28,29,15,62,17,0,37,116,11,11,11,,
2020-06-12 14-11-12-020,DESKTOP-K0JN836,CP1H_C0_V1.00,FinalTest_2019.8.5.0,120620,CP1H 120620 000274,darsini,PASS,192,29,26,18,61,19,0,37,119,9,9,9,,
2020-06-12 14-11-55-970,DESKTOP-K0JN836,CP1H_C0_V1.00,FinalTest_2019.8.5.0,120620,CP1H 120620 000246,darsini,PASS,192,26,30,17,61,20,0,36,116,10,10,10,,
2020-06-12 14-12-48-587,DESKTOP-K0JN836,CP1H_C0_V1.00,FinalTest_2019.8.5.0,120620,CP1H 120620 000244,darsini,PASS,195,27,26,15,62,16,0,36,117,8,8,8,,
2020-06-12 14-13-32-943,DESKTOP-K0JN836,CP1H_C0_V1.00,FinalTest_2019.8.5.0,120620,CP1H 120620 000296,darsini,PASS,194,24,31,15,63,20,0,37,119,10,10,11,,
2020-06-12 14-14-22-035,DESKTOP-K0JN836,CP1H_C0_V1.00,FinalTest_2019.8.5.0,120620,CP1H 120620 000299,darsini,PASS,194,24,31,15,63,20,0,37,119,10,10,11,,
2020-06-12 14-14-58-956,DESKTOP-K0JN836,CP1H_C0_V1.00,FinalTest_2019.8.5.0,120620,CP1H 120620 000299,darsini,PASS,194,24,31,15,63,20,0,37,119,10,10,11,,
2020-06-12 14-17-37-955,DESKTOP-K0JN836,CP1H_C0_V1.00,FinalTest_2019.8.5.0,120620,CP1H 120620 000297,darsini,PASS,194,24,31,15,63,20,0,37,119,10,10,11,,
2020-06-12 14-18-59-689,DESKTOP-K0JN836,CP1H_C0_V1.00,FinalTest_2019.8.5.0,120620,CP1H 120620 000287,darsini,PASS,191,25,27,16,63,16,0,34,114,9,9,9,,
2020-06-12 14-19-44-544,DESKTOP-K0JN836,CP1H_C0_V1.00,FinalTest_2019.8.5.0,120620,CP1H 120620 000242,darsini,PASS,192,27,25,16,62,16,0,34,114,9,9,9,,
2020-06-12 14-20-32-842,DESKTOP-K0JN836,CP1H_C0_V1.00,FinalTest_2019.8.5.0,120620,CP1H 120620 000258,darsini,PASS,197,26,27,17,61,15,0,36,117,9,9,9,,
2020-06-12 14-21-24-025,DESKTOP-K0JN836,CP1H_C0_V1.00,FinalTest_2019.8.5.0,120620,CP1H 120620 000291,darsini,PASS,199,27,31,15,62,18,0,38,117,8,8,8,,
2020-06-12 14-22-16-517,DESKTOP-K0JN836,CP1H_C0_V1.00,FinalTest_2019.8.5.0,120620,CP1H 120620 000271,darsini,PASS,198,27,30,16,62,18,0,38,119,9,9,9,,
2020-06-12 14-22-59-664,DESKTOP-K0JN836,CP1H_C0_V1.00,FinalTest_2019.8.5.0,120620,CP1H 120620 000281,darsini,PASS,194,28,25,18,61,18,0,35,119,10,10,10,,
2020-06-12 14-23-43-335,DESKTOP-K0JN836,CP1H_C0_V1.00,FinalTest_2019.8.5.0,120620,CP1H 120620 000276,darsini,PASS,196,30,29,16,62,20,0,35,118,9,9,9,,
2020-06-12 14-24-32-237,DESKTOP-K0JN836,CP1H_C0_V1.00,FinalTest_2019.8.5.0,120620,CP1H 120620 000293,darsini,PASS,194,26,25,17,62,17,0,35,116,8,8,8,,
2020-06-12 14-25-22-904,DESKTOP-K0JN836,CP1H_C0_V1.00,FinalTest_2019.8.5.0,120620,CP1H 120620 000294,darsini,PASS,196,28,31,17,63,20,0,36,116,9,9,9,,
2020-06-12 14-26-09-869,DESKTOP-K0JN836,CP1H_C0_V1.00,FinalTest_2019.8.5.0,120620,CP1H 120620 000273,darsini,PASS,197,27,32,17,60,15,0,38,117,9,9,9,,
2020-06-12 14-26-58-066,DESKTOP-K0JN836,CP1H_C0_V1.00,FinalTest_2019.8.5.0,120620,CP1H 120620 000300,darsini,PASS,196,28,27,17,61,16,0,39,118,15,14,14,,
2020-06-12 14-28-00-693,DESKTOP-K0JN836,CP1H_C0_V1.00,FinalTest_2019.8.5.0,120620,CP1H 120620 000292,darsini,PASS,196,25,29,14,62,16,0,36,116,9,9,9,,
2020-06-12 14-28-48-177,DESKTOP-K0JN836,CP1H_C0_V1.00,FinalTest_2019.8.5.0,120620,CP1H 120620 000272,darsini,PASS,194,27,27,20,65,21,0,35,117,10,10,10,,
2020-06-12 14-29-30-346,DESKTOP-K0JN836,CP1H_C0_V1.00,FinalTest_2019.8.5.0,120620,CP1H 120620 000277,darsini,PASS,199,27,30,17,62,17,0,36,117,9,9,9,,
2020-06-12 14-30-18-211,DESKTOP-K0JN836,CP1H_C0_V1.00,FinalTest_2019.8.5.0,120620,CP1H 120620 000275,darsini,PASS,197,27,31,19,62,18,0,38,117,9,9,9,,
2020-06-12 14-31-04-153,DESKTOP-K0JN836,CP1H_C0_V1.00,FinalTest_2019.8.5.0,120620,CP1H 120620 000279,darsini,PASS,195,24,34,14,64,17,0,39,116,10,10,10,,
2020-06-12 14-31-54-379,DESKTOP-K0JN836,CP1H_C0_V1.00,FinalTest_2019.8.5.0,120620,CP1H 120620 000286,darsini,PASS,196,25,32,17,61,19,0,36,116,10,10,10,,
2020-06-12 14-32-39-225,DESKTOP-K0JN836,CP1H_C0_V1.00,FinalTest_2019.8.5.0,120620,CP1H 120620 000289,darsini,PASS,198,30,29,18,63,21,0,37,117,9,9,9,,
2020-06-12 14-33-22-487,DESKTOP-K0JN836,CP1H_C0_V1.00,FinalTest_2019.8.5.0,120620,CP1H 120620 000261,darsini,PASS,198,25,33,15,61,19,0,38,118,9,9,10,,
2020-06-12 14-34-12-494,DESKTOP-K0JN836,CP1H_C0_V1.00,FinalTest_2019.8.5.0,120620,CP1H 120620 000295,darsini,PASS,196,26,28,17,61,19,0,35,114,10,10,10,,
2020-06-12 14-35-04-697,DESKTOP-K0JN836,CP1H_C0_V1.00,FinalTest_2019.8.5.0,120620,CP1H 120620 000262,darsini,PASS,198,30,29,15,66,19,0,39,119,12,12,12,,
2020-06-12 14-35-49-455,DESKTOP-K0JN836,CP1H_C0_V1.00,FinalTest_2019.8.5.0,120620,CP1H 120620 000256,darsini,PASS,192,29,29,15,63,18,0,38,118,11,11,11,,
2020-06-12 14-36-38-421,DESKTOP-K0JN836,CP1H_C0_V1.00,FinalTest_2019.8.5.0,120620,CP1H 120620 000284,darsini,PASS,198,26,29,14,60,16,0,37,119,8,8,8,,
2020-06-12 14-37-31-517,DESKTOP-K0JN836,CP1H_C0_V1.00,FinalTest_2019.8.5.0,120620,CP1H 120620 000298,darsini,PASS,199,27,31,15,63,17,0,37,114,9,9,9,,
2020-06-12 14-38-20-301,DESKTOP-K0JN836,CP1H_C0_V1.00,FinalTest_2019.8.5.0,120620,CP1H 120620 000264,darsini,PASS,190,27,26,16,63,18,0,35,116,11,11,11,,
2020-06-12 14-39-04-576,DESKTOP-K0JN836,CP1H_C0_V1.00,FinalTest_2019.8.5.0,120620,CP1H 120620 000282,darsini,PASS,197,31,24,17,63,20,0,36,121,9,9,9,,
2020-06-12 14-40-12-668,DESKTOP-K0JN836,CP1H_C0_V1.00,FinalTest_2019.8.5.0,120620,CP1H 120620 000245,darsini,PASS,193,28,26,18,63,19,0,36,117,10,9,10,,
2020-06-12 14-40-59-750,DESKTOP-K0JN836,CP1H_C0_V1.00,FinalTest_2019.8.5.0,120620,CP1H 120620 000243,darsini,PASS,192,27,29,19,65,23,0,38,117,23,23,23,,
2020-06-12 14-41-44-099,DESKTOP-K0JN836,CP1H_C0_V1.00,FinalTest_2019.8.5.0,120620,CP1H 120620 000283,darsini,PASS,193,26,28,16,64,21,0,38,116,13,13,13,,
2020-06-12 14-42-29-460,DESKTOP-K0JN836,CP1H_C0_V1.00,FinalTest_2019.8.5.0,120620,CP1H 120620 000285,darsini,PASS,192,28,26,15,62,19,0,36,115,11,11,12,,
2020-06-12 14-43-27-173,DESKTOP-K0JN836,CP1H_C0_V1.00,FinalTest_2019.8.5.0,120620,CP1H 120620 000280,darsini,PASS,194,27,30,16,62,17,0,39,118,10,10,10,,
2020-06-12 14-46-44-452,DESKTOP-K0JN836,CP1H_C0_V1.00,FinalTest_2019.8.5.0,120620,CP1H 120620 000212,darsini,PASS,194,27,30,16,62,17,0,39,118,10,10,10,,
2020-06-12 14-47-49-415,DESKTOP-K0JN836,CP1H_C0_V1.00,FinalTest_2019.8.5.0,120620,CP1H 120620 000212,darsini,PASS,194,27,30,16,62,17,0,39,118,10,10,10,,
2020-06-12 14-49-49-191,DESKTOP-K0JN836,CP1H_C0_V1.00,FinalTest_2019.8.5.0,120620,CP1H 120620 000199,darsini,PASS,194,27,30,16,62,17,0,39,118,10,10,10,,
2020-06-12 14-51-05-273,DESKTOP-K0JN836,CP1H_C0_V1.00,FinalTest_2019.8.5.0,120620,CP1H 120620 000299,darsini,PASS,194,27,30,16,62,17,0,39,118,10,10,10,,
2020-06-12 14-51-53-869,DESKTOP-K0JN836,CP1H_C0_V1.00,FinalTest_2019.8.5.0,120620,CP1H 120620 000206,darsini,PASS,194,27,30,16,62,17,0,39,118,10,10,10,,
2020-06-12 14-52-38-031,DESKTOP-K0JN836,CP1H_C0_V1.00,FinalTest_2019.8.5.0,120620,CP1H 120620 000297,darsini,PASS,194,27,30,16,62,17,0,39,118,10,10,10,,
2020-06-12 14-53-34-537,DESKTOP-K0JN836,CP1H_C0_V1.00,FinalTest_2019.8.5.0,120620,CP1H 120620 000204,darsini,PASS,194,27,30,16,62,17,0,39,118,10,10,10,,
2020-06-12 14-54-23-751,DESKTOP-K0JN836,CP1H_C0_V1.00,FinalTest_2019.8.5.0,120620,CP1H 120620 000211,darsini,PASS,194,27,30,16,62,17,0,39,118,10,10,10,,
2020-06-12 15-07-20-635,DESKTOP-K0JN836,CP1H_C0_V1.00,FinalTest_2019.8.5.0,120620,CP1H 120620 000328,darsini,PASS,195,26,29,15,61,17,0,37,117,9,9,9,,
2020-06-12 15-08-08-515,DESKTOP-K0JN836,CP1H_C0_V1.00,FinalTest_2019.8.5.0,120620,CP1H 120620 000304,darsini,PASS,200,26,32,16,62,18,0,36,118,10,10,10,,
2020-06-12 15-09-27-621,DESKTOP-K0JN836,CP1H_C0_V1.00,FinalTest_2019.8.5.0,120620,CP1H 120620 000303,darsini,PASS,193,31,28,13,62,15,0,37,119,9,9,9,,
2020-06-12 15-10-30-369,DESKTOP-K0JN836,CP1H_C0_V1.00,FinalTest_2019.8.5.0,120620,CP1H 120620 000312,darsini,PASS,198,26,31,18,62,17,0,36,118,10,10,10,,
2020-06-12 15-11-15-212,DESKTOP-K0JN836,CP1H_C0_V1.00,FinalTest_2019.8.5.0,120620,CP1H 120620 000310,darsini,PASS,199,24,26,15,63,18,0,37,119,11,11,10,,
2020-06-12 15-12-12-949,DESKTOP-K0JN836,CP1H_C0_V1.00,FinalTest_2019.8.5.0,120620,CP1H 120620 000307,darsini,PASS,199,26,32,20,63,23,0,36,117,9,9,9,,
2020-06-12 15-14-00-387,DESKTOP-K0JN836,CP1H_C0_V1.00,FinalTest_2019.8.5.0,120620,CP1H 120620 000311,darsini,PASS,197,27,26,16,60,19,0,36,117,11,11,10,,
2020-06-12 15-14-47-047,DESKTOP-K0JN836,CP1H_C0_V1.00,FinalTest_2019.8.5.0,120620,CP1H 120620 000309,darsini,PASS,195,25,29,17,62,16,0,37,118,10,10,10,,
2020-06-12 15-15-48-650,DESKTOP-K0JN836,CP1H_C0_V1.00,FinalTest_2019.8.5.0,120620,CP1H 120620 000309,darsini,PASS,200,27,26,17,63,19,0,36,120,9,9,9,,
2020-06-12 15-16-55-250,DESKTOP-K0JN836,CP1H_C0_V1.00,FinalTest_2019.8.5.0,120620,CP1H 120620 000305,darsini,PASS,196,29,27,15,63,18,0,38,118,9,9,9,,
2020-06-12 15-17-40-689,DESKTOP-K0JN836,CP1H_C0_V1.00,FinalTest_2019.8.5.0,120620,CP1H 120620 000302,darsini,PASS,193,30,28,15,61,17,0,36,115,10,10,10,,
2020-06-12 15-18-26-254,DESKTOP-K0JN836,CP1H_C0_V1.00,FinalTest_2019.8.5.0,120620,CP1H 120620 000345,darsini,PASS,194,28,29,16,62,19,0,36,116,13,13,14,,
2020-06-12 15-19-12-127,DESKTOP-K0JN836,CP1H_C0_V1.00,FinalTest_2019.8.5.0,120620,CP1H 120620 000308,darsini,PASS,194,26,28,14,63,19,0,36,117,8,8,8,,
2020-06-12 15-20-11-666,DESKTOP-K0JN836,CP1H_C0_V1.00,FinalTest_2019.8.5.0,120620,CP1H 120620 000341,darsini,PASS,199,28,31,19,63,19,0,38,117,13,13,14,,
2020-06-12 15-21-04-164,DESKTOP-K0JN836,CP1H_C0_V1.00,FinalTest_2019.8.5.0,120620,CP1H 120620 000301,darsini,PASS,196,28,27,18,63,16,0,36,116,9,9,9,,
2020-06-12 15-21-50-641,DESKTOP-K0JN836,CP1H_C0_V1.00,FinalTest_2019.8.5.0,120620,CP1H 120620 000319,darsini,PASS,197,26,30,14,62,19,0,37,120,9,9,9,,
2020-06-12 15-22-41-659,DESKTOP-K0JN836,CP1H_C0_V1.00,FinalTest_2019.8.5.0,120620,CP1H 120620 000340,darsini,PASS,197,26,30,14,62,19,0,37,120,9,9,9,,
2020-06-12 15-24-24-144,DESKTOP-K0JN836,CP1H_C0_V1.00,FinalTest_2019.8.5.0,120620,CP1H 120620 000343,darsini,PASS,197,26,30,14,62,19,0,37,120,9,9,9,,
2020-06-12 15-25-21-456,DESKTOP-K0JN836,CP1H_C0_V1.00,FinalTest_2019.8.5.0,120620,CP1H 120620 000353,darsini,PASS,189,29,23,15,61,18,0,35,116,19,19,19,,
2020-06-12 15-26-07-852,DESKTOP-K0JN836,CP1H_C0_V1.00,FinalTest_2019.8.5.0,120620,CP1H 120620 000332,darsini,PASS,195,27,27,16,62,17,0,36,117,9,9,9,,
2020-06-12 15-27-13-178,DESKTOP-K0JN836,CP1H_C0_V1.00,FinalTest_2019.8.5.0,120620,CP1H 120620 000342,darsini,PASS,192,28,27,15,61,19,0,36,114,9,9,9,,
2020-06-12 15-28-18-898,DESKTOP-K0JN836,CP1H_C0_V1.00,FinalTest_2019.8.5.0,120620,CP1H 120620 000306,darsini,PASS,198,27,28,16,63,18,0,38,119,10,10,10,,
2020-06-12 15-28-55-279,DESKTOP-K0JN836,CP1H_C0_V1.00,FinalTest_2019.8.5.0,120620,CP1H 120620 000306,darsini,PASS,197,26,27,15,63,17,0,36,118,9,9,9,,
2020-06-12 15-29-34-030,DESKTOP-K0JN836,CP1H_C0_V1.00,FinalTest_2019.8.5.0,120620,CP1H 120620 000306,darsini,PASS,200,27,29,16,62,17,0,38,119,9,9,9,,
2020-06-12 15-30-21-232,DESKTOP-K0JN836,CP1H_C0_V1.00,FinalTest_2019.8.5.0,120620,CP1H 120620 000317,darsini,PASS,197,28,29,14,62,18,0,36,116,9,9,9,,
2020-06-12 15-31-44-337,DESKTOP-K0JN836,CP1H_C0_V1.00,FinalTest_2019.8.5.0,120620,CP1H 120620 000344,darsini,PASS,193,27,25,17,63,20,0,36,117,11,11,11,,
2020-06-12 15-32-35-626,DESKTOP-K0JN836,CP1H_C0_V1.00,FinalTest_2019.8.5.0,120620,CP1H 120620 000320,darsini,PASS,196,27,29,15,62,18,0,37,116,8,8,8,,
2020-06-12 15-33-23-204,DESKTOP-K0JN836,CP1H_C0_V1.00,FinalTest_2019.8.5.0,120620,CP1H 120620 000347,darsini,PASS,195,27,26,15,60,17,0,35,115,9,9,9,,
2020-06-12 15-34-12-870,DESKTOP-K0JN836,CP1H_C0_V1.00,FinalTest_2019.8.5.0,120620,CP1H 120620 000327,darsini,PASS,195,28,31,15,61,20,0,37,115,12,12,12,,
2020-06-12 15-35-10-821,DESKTOP-K0JN836,CP1H_C0_V1.00,FinalTest_2019.8.5.0,120620,CP1H 120620 000327,darsini,PASS,201,28,31,15,61,18,0,37,119,9,9,9,,
2020-06-12 15-35-56-666,DESKTOP-K0JN836,CP1H_C0_V1.00,FinalTest_2019.8.5.0,120620,CP1H 120620 000316,darsini,PASS,198,27,30,17,61,21,0,38,117,11,11,11,,
2020-06-12 15-36-53-099,DESKTOP-K0JN836,CP1H_C0_V1.00,FinalTest_2019.8.5.0,120620,CP1H 120620 000316,darsini,PASS,198,26,30,16,61,17,0,36,115,9,9,9,,
2020-06-12 15-37-42-798,DESKTOP-K0JN836,CP1H_C0_V1.00,FinalTest_2019.8.5.0,120620,CP1H 120620 000339,darsini,PASS,195,27,27,21,63,21,0,36,117,11,11,11,,
2020-06-12 15-38-30-057,DESKTOP-K0JN836,CP1H_C0_V1.00,FinalTest_2019.8.5.0,120620,CP1H 120620 000360,darsini,PASS,193,30,29,15,63,17,0,39,117,10,10,10,,
2020-06-12 15-39-17-847,DESKTOP-K0JN836,CP1H_C0_V1.00,FinalTest_2019.8.5.0,120620,CP1H 120620 000326,darsini,PASS,198,28,31,16,63,18,0,37,117,9,10,8,,
2020-06-12 15-39-56-256,DESKTOP-K0JN836,CP1H_C0_V1.00,FinalTest_2019.8.5.0,120620,CP1H 120620 000326,darsini,PASS,199,27,30,15,61,18,0,37,118,8,8,9,,
2020-06-12 15-40-48-588,DESKTOP-K0JN836,CP1H_C0_V1.00,FinalTest_2019.8.5.0,120620,CP1H 120620 000321,darsini,PASS,200,27,29,18,62,17,0,35,117,9,9,9,,
2020-06-12 15-41-40-372,DESKTOP-K0JN836,CP1H_C0_V1.00,FinalTest_2019.8.5.0,120620,CP1H 120620 000324,darsini,PASS,193,27,33,15,62,18,0,37,117,9,9,9,,
2020-06-12 15-42-41-540,DESKTOP-K0JN836,CP1H_C0_V1.00,FinalTest_2019.8.5.0,120620,CP1H 120620 000313,darsini,PASS,199,27,31,16,64,19,0,37,118,10,10,10,,
2020-06-12 15-43-26-183,DESKTOP-K0JN836,CP1H_C0_V1.00,FinalTest_2019.8.5.0,120620,CP1H 120620 000334,darsini,PASS,194,28,27,20,63,23,0,34,117,9,9,9,,
2020-06-12 15-44-30-350,DESKTOP-K0JN836,CP1H_C0_V1.00,FinalTest_2019.8.5.0,120620,CP1H 120620 000318,darsini,PASS,198,26,31,17,61,19,0,38,116,12,12,12,,
2020-06-12 15-45-41-467,DESKTOP-K0JN836,CP1H_C0_V1.00,FinalTest_2019.8.5.0,120620,CP1H 120620 000325,darsini,PASS,195,26,27,16,62,19,0,35,115,8,8,8,,
2020-06-12 15-46-30-310,DESKTOP-K0JN836,CP1H_C0_V1.00,FinalTest_2019.8.5.0,120620,CP1H 120620 000323,darsini,PASS,202,26,34,15,63,19,0,38,118,10,10,10,,
2020-06-12 15-47-21-240,DESKTOP-K0JN836,CP1H_C0_V1.00,FinalTest_2019.8.5.0,120620,CP1H 120620 000329,darsini,PASS,199,29,31,16,61,17,0,37,117,9,8,9,,
2020-06-12 15-48-25-165,DESKTOP-K0JN836,CP1H_C0_V1.00,FinalTest_2019.8.5.0,120620,CP1H 120620 000322,darsini,PASS,196,28,29,16,62,18,0,38,117,9,9,10,,
2020-06-12 15-51-57-591,DESKTOP-K0JN836,CP1H_C0_V1.00,FinalTest_2019.8.5.0,120620,CP1H 120620 000335,darsini,PASS,194,26,28,20,62,22,0,35,117,9,9,9,,
2020-06-12 15-52-42-559,DESKTOP-K0JN836,CP1H_C0_V1.00,FinalTest_2019.8.5.0,120620,CP1H 120620 000359,darsini,PASS,198,25,38,18,61,19,0,36,116,10,10,10,,
2020-06-12 15-53-26-036,DESKTOP-K0JN836,CP1H_C0_V1.00,FinalTest_2019.8.5.0,120620,CP1H 120620 000358,darsini,PASS,193,29,27,15,63,19,0,40,119,9,9,9,,
2020-06-12 15-54-17-929,DESKTOP-K0JN836,CP1H_C0_V1.00,FinalTest_2019.8.5.0,120620,CP1H 120620 000316,darsini,PASS,196,30,39,16,62,19,1,42,117,10,10,10,,
2020-06-12 15-55-35-818,DESKTOP-K0JN836,CP1H_C0_V1.00,FinalTest_2019.8.5.0,120620,CP1H 120620 000316,darsini,PASS,196,34,38,26,69,38,0,40,118,18,18,23,,
2020-06-12 15-56-21-685,DESKTOP-K0JN836,CP1H_C0_V1.00,FinalTest_2019.8.5.0,120620,CP1H 120620 000356,darsini,PASS,193,29,26,15,60,16,0,35,117,9,8,8,,
2020-06-12 15-58-18-928,DESKTOP-K0JN836,CP1H_C0_V1.00,FinalTest_2019.8.5.0,120620,CP1H 120620 000346,darsini,PASS,200,30,29,18,63,19,0,40,118,12,12,12,,
2020-06-12 15-59-04-266,DESKTOP-K0JN836,CP1H_C0_V1.00,FinalTest_2019.8.5.0,120620,CP1H 120620 000355,darsini,PASS,194,29,25,16,64,19,0,37,117,10,10,10,,
2020-06-12 15-59-48-369,DESKTOP-K0JN836,CP1H_C0_V1.00,FinalTest_2019.8.5.0,120620,CP1H 120620 000331,darsini,PASS,195,29,29,18,62,20,0,37,118,9,9,9,,
2020-06-12 16-00-40-177,DESKTOP-K0JN836,CP1H_C0_V1.00,FinalTest_2019.8.5.0,120620,CP1H 120620 000336,darsini,PASS,195,28,27,16,61,19,0,35,117,10,10,10,,
2020-06-12 16-01-33-499,DESKTOP-K0JN836,CP1H_C0_V1.00,FinalTest_2019.8.5.0,120620,CP1H 120620 000330,darsini,PASS,202,27,28,17,63,18,0,36,116,8,8,8,,
2020-06-12 16-02-50-902,DESKTOP-K0JN836,CP1H_C0_V1.00,FinalTest_2019.8.5.0,120620,CP1H 120620 000354,darsini,PASS,197,29,30,16,63,18,0,37,116,9,9,9,,
2020-06-12 16-03-37-966,DESKTOP-K0JN836,CP1H_C0_V1.00,FinalTest_2019.8.5.0,120620,CP1H 120620 000333,darsini,PASS,196,26,31,14,64,18,0,38,118,9,9,9,,
2020-06-12 16-04-42-007,DESKTOP-K0JN836,CP1H_C0_V1.00,FinalTest_2019.8.5.0,120620,CP1H 120620 000338,darsini,PASS,196,28,26,15,62,16,0,36,116,10,10,10,,
2020-06-12 16-05-27-598,DESKTOP-K0JN836,CP1H_C0_V1.00,FinalTest_2019.8.5.0,120620,CP1H 120620 000352,darsini,PASS,195,29,30,18,62,19,0,38,118,12,12,12,,
2020-06-12 16-06-09-967,DESKTOP-K0JN836,CP1H_C0_V1.00,FinalTest_2019.8.5.0,120620,CP1H 120620 000348,darsini,PASS,194,26,28,17,61,18,0,35,116,9,9,9,,
2020-06-12 16-06-53-251,DESKTOP-K0JN836,CP1H_C0_V1.00,FinalTest_2019.8.5.0,120620,CP1H 120620 000315,darsini,PASS,200,28,28,16,61,16,0,38,120,9,9,9,,
2020-06-12 16-07-40-781,DESKTOP-K0JN836,CP1H_C0_V1.00,FinalTest_2019.8.5.0,120620,CP1H 120620 000350,darsini,PASS,195,27,29,14,61,16,0,35,115,8,8,8,,
2020-06-12 16-08-28-856,DESKTOP-K0JN836,CP1H_C0_V1.00,FinalTest_2019.8.5.0,120620,CP1H 120620 000349,darsini,PASS,194,27,30,15,62,19,0,37,115,10,10,10,,
2020-06-12 16-09-13-816,DESKTOP-K0JN836,CP1H_C0_V1.00,FinalTest_2019.8.5.0,120620,CP1H 120620 000357,darsini,PASS,196,26,30,13,62,16,0,37,115,8,8,8,,
2020-06-12 16-10-02-917,DESKTOP-K0JN836,CP1H_C0_V1.00,FinalTest_2019.8.5.0,120620,CP1H 120620 000351,darsini,PASS,197,24,30,14,62,17,0,39,118,9,9,9,,
2020-06-12 16-11-26-459,DESKTOP-K0JN836,CP1H_C0_V1.00,FinalTest_2019.8.5.0,120620,CP1H 120620 000351,darsini,PASS,197,23,27,16,62,18,0,37,118,9,9,9,,
2020-06-12 16-12-49-170,DESKTOP-K0JN836,CP1H_C0_V1.00,FinalTest_2019.8.5.0,120620,CP1H 120620 000337,darsini,PASS,196,27,29,16,63,19,0,36,118,9,9,10,,
2020-06-12 16-13-35-967,DESKTOP-K0JN836,CP1H_C0_V1.00,FinalTest_2019.8.5.0,120620,CP1H 120620 000314,darsini,PASS,197,27,27,14,64,18,0,38,117,9,9,9,,
