Time,Equipment,Model,SWVersion,LotName,Barcode,Operator,Result,C1,C2,C3,C4,S1,S2,S3,S4,S5,S6,S7,S8,,
2019-01-30 11-19-36-977,123,CP1H_190130,FinalTest_2019.1.31.0,555,Empty,5,EMPTY,2,2,0,0,0,0,0,0,0,0,X,X,,
2019-01-30 11-23-52-780,123,CP1H_190130,FinalTest_2019.1.31.0,555,Empty,5,EMPTY,2,2,0,0,0,0,0,0,0,0,X,X,,
