Time,Equipment,Model,SWVersion,LotName,Barcode,Operator,Result,Left ? Center,Right ? Center,Top ? Center,Bottom ? Center,,
2019-01-30 11-19-36-977,123,CP1H_190130,FinalTest_2019.1.31.0,555,Empty,5,FAIL,0.00,0.00,0.00,0.00,,
2019-01-30 11-23-52-780,123,CP1H_190130,FinalTest_2019.1.31.0,555,Empty,5,FAIL,0.00,0.00,0.00,0.00,,
