Time,Equipment,Model,SWVersion,LotName,Barcode,Operator,Result,,
2019-01-30 11-19-36-977,123,CP1H_190130,FinalTest_2019.1.31.0,555,Empty,5,EMPTY,,
2019-01-30 11-23-52-780,123,CP1H_190130,FinalTest_2019.1.31.0,555,Empty,5,EMPTY,,
