Time,Equipment,Model,SWVersion,LotName,Barcode,Operator,Result,C1,C2,C3,C4,S1,S2,S3,S4,S5,S6,S7,S8,,
2020-10-19 11-06-13-739,DESKTOP-K0JN836,CP1H_C0_V1.00,FinalTest_2020.9.23.0,191020,CP1H 191020 000054,interjit,PASS,496,496,497,496,X,X,X,X,X,X,X,X,,
2020-10-19 11-06-13-739,DESKTOP-K0JN836,CP1H_C0_V1.00,FinalTest_2020.9.23.0,191020,CP1H 191020 000054,interjit,PASS,496,496,497,496,X,X,X,X,X,X,X,X,,
2020-10-19 11-08-06-455,DESKTOP-K0JN836,CP1H_C0_V1.00,FinalTest_2020.9.23.0,191020,CP1H 191020 000047,interjit,PASS,496,497,496,496,X,X,X,X,X,X,X,X,,
2020-10-19 11-08-06-455,DESKTOP-K0JN836,CP1H_C0_V1.00,FinalTest_2020.9.23.0,191020,CP1H 191020 000047,interjit,PASS,496,497,496,496,X,X,X,X,X,X,X,X,,
2020-10-19 11-11-06-995,DESKTOP-K0JN836,CP1H_C0_V1.00,FinalTest_2020.9.23.0,191020,CP1H 191020 000055,interjit,PASS,497,497,496,496,X,X,X,X,X,X,X,X,,
2020-10-19 11-11-06-995,DESKTOP-K0JN836,CP1H_C0_V1.00,FinalTest_2020.9.23.0,191020,CP1H 191020 000055,interjit,PASS,497,497,496,496,X,X,X,X,X,X,X,X,,
2020-10-19 11-13-08-537,DESKTOP-K0JN836,CP1H_C0_V1.00,FinalTest_2020.9.23.0,191020,CP1H 191020 000044,interjit,PASS,497,497,496,496,X,X,X,X,X,X,X,X,,
2020-10-19 11-13-08-537,DESKTOP-K0JN836,CP1H_C0_V1.00,FinalTest_2020.9.23.0,191020,CP1H 191020 000044,interjit,PASS,497,497,496,496,X,X,X,X,X,X,X,X,,
2020-10-19 11-14-57-056,DESKTOP-K0JN836,CP1H_C0_V1.00,FinalTest_2020.9.23.0,191020,CP1H 191020 000051,interjit,PASS,497,497,496,496,X,X,X,X,X,X,X,X,,
2020-10-19 11-14-57-056,DESKTOP-K0JN836,CP1H_C0_V1.00,FinalTest_2020.9.23.0,191020,CP1H 191020 000051,interjit,PASS,497,497,496,496,X,X,X,X,X,X,X,X,,
2020-10-19 11-16-35-483,DESKTOP-K0JN836,CP1H_C0_V1.00,FinalTest_2020.9.23.0,191020,CP1H 191020 000046,interjit,PASS,497,496,497,496,X,X,X,X,X,X,X,X,,
2020-10-19 11-16-35-483,DESKTOP-K0JN836,CP1H_C0_V1.00,FinalTest_2020.9.23.0,191020,CP1H 191020 000046,interjit,PASS,497,496,497,496,X,X,X,X,X,X,X,X,,
2020-10-19 11-18-17-853,DESKTOP-K0JN836,CP1H_C0_V1.00,FinalTest_2020.9.23.0,191020,CP1H 191020 000053,interjit,PASS,497,496,497,496,X,X,X,X,X,X,X,X,,
2020-10-19 11-19-24-024,DESKTOP-K0JN836,CP1H_C0_V1.00,FinalTest_2020.9.23.0,191020,CP1H 191020 000053,interjit,PASS,497,496,497,496,X,X,X,X,X,X,X,X,,
2020-10-19 11-21-32-586,DESKTOP-K0JN836,CP1H_C0_V1.00,FinalTest_2020.9.23.0,191020,CP1H 191020 000040,interjit,PASS,497,497,495,496,X,X,X,X,X,X,X,X,,
2020-10-19 11-21-32-586,DESKTOP-K0JN836,CP1H_C0_V1.00,FinalTest_2020.9.23.0,191020,CP1H 191020 000040,interjit,PASS,497,497,495,496,X,X,X,X,X,X,X,X,,
2020-10-19 11-23-09-996,DESKTOP-K0JN836,CP1H_C0_V1.00,FinalTest_2020.9.23.0,191020,CP1H 191020 000061,interjit,PASS,497,497,497,496,X,X,X,X,X,X,X,X,,
2020-10-19 11-23-09-996,DESKTOP-K0JN836,CP1H_C0_V1.00,FinalTest_2020.9.23.0,191020,CP1H 191020 000061,interjit,PASS,497,497,497,496,X,X,X,X,X,X,X,X,,
2020-10-19 11-24-47-418,DESKTOP-K0JN836,CP1H_C0_V1.00,FinalTest_2020.9.23.0,191020,CP1H 191020 000075,interjit,PASS,497,497,496,496,X,X,X,X,X,X,X,X,,
2020-10-19 11-24-47-418,DESKTOP-K0JN836,CP1H_C0_V1.00,FinalTest_2020.9.23.0,191020,CP1H 191020 000075,interjit,PASS,497,497,496,496,X,X,X,X,X,X,X,X,,
2020-10-19 11-26-42-853,DESKTOP-K0JN836,CP1H_C0_V1.00,FinalTest_2020.9.23.0,191020,CP1H 191020 000076,interjit,PASS,497,497,434,496,X,X,X,X,X,X,X,X,,
2020-10-19 11-26-42-853,DESKTOP-K0JN836,CP1H_C0_V1.00,FinalTest_2020.9.23.0,191020,CP1H 191020 000076,interjit,PASS,497,497,434,496,X,X,X,X,X,X,X,X,,
2020-10-19 11-28-17-998,DESKTOP-K0JN836,CP1H_C0_V1.00,FinalTest_2020.9.23.0,191020,CP1H 191020 000068,interjit,PASS,497,497,496,496,X,X,X,X,X,X,X,X,,
2020-10-19 11-28-17-998,DESKTOP-K0JN836,CP1H_C0_V1.00,FinalTest_2020.9.23.0,191020,CP1H 191020 000068,interjit,PASS,497,497,496,496,X,X,X,X,X,X,X,X,,
2020-10-19 11-29-53-944,DESKTOP-K0JN836,CP1H_C0_V1.00,FinalTest_2020.9.23.0,191020,CP1H 191020 000071,interjit,PASS,497,497,496,496,X,X,X,X,X,X,X,X,,
2020-10-19 11-29-53-944,DESKTOP-K0JN836,CP1H_C0_V1.00,FinalTest_2020.9.23.0,191020,CP1H 191020 000071,interjit,PASS,497,497,496,496,X,X,X,X,X,X,X,X,,
2020-10-19 11-31-42-821,DESKTOP-K0JN836,CP1H_C0_V1.00,FinalTest_2020.9.23.0,191020,CP1H 191020 000066,interjit,PASS,494,496,496,493,X,X,X,X,X,X,X,X,,
2020-10-19 11-31-42-821,DESKTOP-K0JN836,CP1H_C0_V1.00,FinalTest_2020.9.23.0,191020,CP1H 191020 000066,interjit,PASS,494,496,496,493,X,X,X,X,X,X,X,X,,
2020-10-19 11-34-21-612,DESKTOP-K0JN836,CP1H_C0_V1.00,FinalTest_2020.9.23.0,191020,CP1H 191020 000060,interjit,PASS,497,497,496,496,X,X,X,X,X,X,X,X,,
2020-10-19 11-34-21-612,DESKTOP-K0JN836,CP1H_C0_V1.00,FinalTest_2020.9.23.0,191020,CP1H 191020 000060,interjit,PASS,497,497,496,496,X,X,X,X,X,X,X,X,,
2020-10-19 11-35-50-483,DESKTOP-K0JN836,CP1H_C0_V1.00,FinalTest_2020.9.23.0,191020,CP1H 191020 000065,interjit,PASS,497,497,496,496,X,X,X,X,X,X,X,X,,
2020-10-19 11-35-50-483,DESKTOP-K0JN836,CP1H_C0_V1.00,FinalTest_2020.9.23.0,191020,CP1H 191020 000065,interjit,PASS,497,497,496,496,X,X,X,X,X,X,X,X,,
2020-10-19 11-37-54-576,DESKTOP-K0JN836,CP1H_C0_V1.00,FinalTest_2020.9.23.0,191020,CP1H 191020 000048,interjit,PASS,494,497,496,496,X,X,X,X,X,X,X,X,,
2020-10-19 11-37-54-576,DESKTOP-K0JN836,CP1H_C0_V1.00,FinalTest_2020.9.23.0,191020,CP1H 191020 000048,interjit,PASS,494,497,496,496,X,X,X,X,X,X,X,X,,
2020-10-19 11-39-26-357,DESKTOP-K0JN836,CP1H_C0_V1.00,FinalTest_2020.9.23.0,191020,CP1H 191020 000093,interjit,PASS,497,497,496,496,X,X,X,X,X,X,X,X,,
2020-10-19 11-39-26-357,DESKTOP-K0JN836,CP1H_C0_V1.00,FinalTest_2020.9.23.0,191020,CP1H 191020 000093,interjit,PASS,497,497,496,496,X,X,X,X,X,X,X,X,,
2020-10-19 11-41-34-464,DESKTOP-K0JN836,CP1H_C0_V1.00,FinalTest_2020.9.23.0,191020,CP1H 191020 000073,interjit,PASS,497,497,496,496,X,X,X,X,X,X,X,X,,
2020-10-19 11-41-34-464,DESKTOP-K0JN836,CP1H_C0_V1.00,FinalTest_2020.9.23.0,191020,CP1H 191020 000073,interjit,PASS,497,497,496,496,X,X,X,X,X,X,X,X,,
2020-10-19 11-43-11-686,DESKTOP-K0JN836,CP1H_C0_V1.00,FinalTest_2020.9.23.0,191020,CP1H 191020 000043,interjit,PASS,497,494,496,496,X,X,X,X,X,X,X,X,,
2020-10-19 11-43-11-686,DESKTOP-K0JN836,CP1H_C0_V1.00,FinalTest_2020.9.23.0,191020,CP1H 191020 000043,interjit,PASS,497,494,496,496,X,X,X,X,X,X,X,X,,
2020-10-19 11-45-16-313,DESKTOP-K0JN836,CP1H_C0_V1.00,FinalTest_2020.9.23.0,191020,CP1H 191020 000098,interjit,PASS,497,496,493,496,X,X,X,X,X,X,X,X,,
2020-10-19 11-45-16-313,DESKTOP-K0JN836,CP1H_C0_V1.00,FinalTest_2020.9.23.0,191020,CP1H 191020 000098,interjit,PASS,497,496,493,496,X,X,X,X,X,X,X,X,,
2020-10-19 11-46-50-916,DESKTOP-K0JN836,CP1H_C0_V1.00,FinalTest_2020.9.23.0,191020,CP1H 191020 000097,interjit,PASS,497,497,496,496,X,X,X,X,X,X,X,X,,
2020-10-19 11-46-50-916,DESKTOP-K0JN836,CP1H_C0_V1.00,FinalTest_2020.9.23.0,191020,CP1H 191020 000097,interjit,PASS,497,497,496,496,X,X,X,X,X,X,X,X,,
2020-10-19 11-48-31-871,DESKTOP-K0JN836,CP1H_C0_V1.00,FinalTest_2020.9.23.0,191020,CP1H 191020 000057,interjit,PASS,482,454,458,496,X,X,X,X,X,X,X,X,,
2020-10-19 11-48-31-871,DESKTOP-K0JN836,CP1H_C0_V1.00,FinalTest_2020.9.23.0,191020,CP1H 191020 000057,interjit,PASS,482,454,458,496,X,X,X,X,X,X,X,X,,
2020-10-19 11-49-53-381,DESKTOP-K0JN836,CP1H_C0_V1.00,FinalTest_2020.9.23.0,191020,CP1H 191020 000077,interjit,PASS,497,496,496,496,X,X,X,X,X,X,X,X,,
2020-10-19 11-49-53-381,DESKTOP-K0JN836,CP1H_C0_V1.00,FinalTest_2020.9.23.0,191020,CP1H 191020 000077,interjit,PASS,497,496,496,496,X,X,X,X,X,X,X,X,,
2020-10-19 11-51-29-777,DESKTOP-K0JN836,CP1H_C0_V1.00,FinalTest_2020.9.23.0,191020,CP1H 191020 000063,interjit,PASS,497,497,496,496,X,X,X,X,X,X,X,X,,
2020-10-19 11-51-29-777,DESKTOP-K0JN836,CP1H_C0_V1.00,FinalTest_2020.9.23.0,191020,CP1H 191020 000063,interjit,PASS,497,497,496,496,X,X,X,X,X,X,X,X,,
2020-10-19 11-53-08-080,DESKTOP-K0JN836,CP1H_C0_V1.00,FinalTest_2020.9.23.0,191020,CP1H 191020 000080,interjit,PASS,403,491,402,410,X,X,X,X,X,X,X,X,,
2020-10-19 11-53-08-080,DESKTOP-K0JN836,CP1H_C0_V1.00,FinalTest_2020.9.23.0,191020,CP1H 191020 000080,interjit,PASS,403,491,402,410,X,X,X,X,X,X,X,X,,
2020-10-19 11-54-45-525,DESKTOP-K0JN836,CP1H_C0_V1.00,FinalTest_2020.9.23.0,191020,CP1H 191020 000096,interjit,PASS,497,497,496,494,X,X,X,X,X,X,X,X,,
2020-10-19 11-54-45-525,DESKTOP-K0JN836,CP1H_C0_V1.00,FinalTest_2020.9.23.0,191020,CP1H 191020 000096,interjit,PASS,497,497,496,494,X,X,X,X,X,X,X,X,,
2020-10-19 11-56-27-144,DESKTOP-K0JN836,CP1H_C0_V1.00,FinalTest_2020.9.23.0,191020,CP1H 191020 000095,interjit,PASS,497,497,496,496,X,X,X,X,X,X,X,X,,
2020-10-19 11-56-27-144,DESKTOP-K0JN836,CP1H_C0_V1.00,FinalTest_2020.9.23.0,191020,CP1H 191020 000095,interjit,PASS,497,497,496,496,X,X,X,X,X,X,X,X,,
2020-10-19 12-41-31-756,DESKTOP-K0JN836,CP1H_C0_V1.00,FinalTest_2020.9.23.0,191020,CP1H 191020 000062,interjit,PASS,497,497,496,496,X,X,X,X,X,X,X,X,,
2020-10-19 12-41-31-756,DESKTOP-K0JN836,CP1H_C0_V1.00,FinalTest_2020.9.23.0,191020,CP1H 191020 000062,interjit,PASS,497,497,496,496,X,X,X,X,X,X,X,X,,
2020-10-19 12-45-40-369,DESKTOP-K0JN836,CP1H_C0_V1.00,FinalTest_2020.9.23.0,191020,CP1H 191020 000079,interjit,PASS,497,497,496,492,X,X,X,X,X,X,X,X,,
2020-10-19 12-45-40-369,DESKTOP-K0JN836,CP1H_C0_V1.00,FinalTest_2020.9.23.0,191020,CP1H 191020 000079,interjit,PASS,497,497,496,492,X,X,X,X,X,X,X,X,,
2020-10-19 12-48-49-317,DESKTOP-K0JN836,CP1H_C0_V1.00,FinalTest_2020.9.23.0,191020,CP1H 191020 000067,interjit,PASS,497,497,496,496,X,X,X,X,X,X,X,X,,
2020-10-19 12-48-49-317,DESKTOP-K0JN836,CP1H_C0_V1.00,FinalTest_2020.9.23.0,191020,CP1H 191020 000067,interjit,PASS,497,497,496,496,X,X,X,X,X,X,X,X,,
2020-10-19 12-50-15-905,DESKTOP-K0JN836,CP1H_C0_V1.00,FinalTest_2020.9.23.0,191020,CP1H 191020 000064,interjit,PASS,497,497,496,496,X,X,X,X,X,X,X,X,,
2020-10-19 12-50-51-021,DESKTOP-K0JN836,CP1H_C0_V1.00,FinalTest_2020.9.23.0,191020,CP1H 191020 000064,interjit,PASS,497,497,495,496,X,X,X,X,X,X,X,X,,
2020-10-19 12-50-51-021,DESKTOP-K0JN836,CP1H_C0_V1.00,FinalTest_2020.9.23.0,191020,CP1H 191020 000064,interjit,PASS,497,497,495,496,X,X,X,X,X,X,X,X,,
2020-10-19 12-53-12-302,DESKTOP-K0JN836,CP1H_C0_V1.00,FinalTest_2020.9.23.0,191020,CP1H 191020 000092,interjit,PASS,497,496,496,496,X,X,X,X,X,X,X,X,,
2020-10-19 12-53-12-302,DESKTOP-K0JN836,CP1H_C0_V1.00,FinalTest_2020.9.23.0,191020,CP1H 191020 000092,interjit,PASS,497,496,496,496,X,X,X,X,X,X,X,X,,
2020-10-19 12-55-03-305,DESKTOP-K0JN836,CP1H_C0_V1.00,FinalTest_2020.9.23.0,191020,CP1H 191020 000070,interjit,PASS,497,496,493,496,X,X,X,X,X,X,X,X,,
2020-10-19 12-55-03-305,DESKTOP-K0JN836,CP1H_C0_V1.00,FinalTest_2020.9.23.0,191020,CP1H 191020 000070,interjit,PASS,497,496,493,496,X,X,X,X,X,X,X,X,,
2020-10-19 12-58-14-621,DESKTOP-K0JN836,CP1H_C0_V1.00,FinalTest_2020.9.23.0,191020,CP1H 191020 000039,interjit,PASS,497,496,493,493,X,X,X,X,X,X,X,X,,
2020-10-19 12-58-14-621,DESKTOP-K0JN836,CP1H_C0_V1.00,FinalTest_2020.9.23.0,191020,CP1H 191020 000039,interjit,PASS,497,496,493,493,X,X,X,X,X,X,X,X,,
2020-10-19 13-00-03-965,DESKTOP-K0JN836,CP1H_C0_V1.00,FinalTest_2020.9.23.0,191020,CP1H 191020 000041,interjit,PASS,497,497,496,496,X,X,X,X,X,X,X,X,,
2020-10-19 13-00-03-965,DESKTOP-K0JN836,CP1H_C0_V1.00,FinalTest_2020.9.23.0,191020,CP1H 191020 000041,interjit,PASS,497,497,496,496,X,X,X,X,X,X,X,X,,
2020-10-19 13-01-50-319,DESKTOP-K0JN836,CP1H_C0_V1.00,FinalTest_2020.9.23.0,191020,CP1H 191020 000036,interjit,PASS,497,497,496,492,X,X,X,X,X,X,X,X,,
2020-10-19 13-01-50-319,DESKTOP-K0JN836,CP1H_C0_V1.00,FinalTest_2020.9.23.0,191020,CP1H 191020 000036,interjit,PASS,497,497,496,492,X,X,X,X,X,X,X,X,,
2020-10-19 13-04-05-252,DESKTOP-K0JN836,CP1H_C0_V1.00,FinalTest_2020.9.23.0,191020,CP1H 191020 000033,interjit,PASS,497,496,496,493,X,X,X,X,X,X,X,X,,
2020-10-19 13-04-05-252,DESKTOP-K0JN836,CP1H_C0_V1.00,FinalTest_2020.9.23.0,191020,CP1H 191020 000033,interjit,PASS,497,496,496,493,X,X,X,X,X,X,X,X,,
2020-10-19 13-05-59-939,DESKTOP-K0JN836,CP1H_C0_V1.00,FinalTest_2020.9.23.0,191020,CP1H 191020 000027,interjit,PASS,497,497,496,496,X,X,X,X,X,X,X,X,,
2020-10-19 13-05-59-939,DESKTOP-K0JN836,CP1H_C0_V1.00,FinalTest_2020.9.23.0,191020,CP1H 191020 000027,interjit,PASS,497,497,496,496,X,X,X,X,X,X,X,X,,
2020-10-19 13-07-28-611,DESKTOP-K0JN836,CP1H_C0_V1.00,FinalTest_2020.9.23.0,191020,CP1H 191020 000074,interjit,PASS,497,497,496,496,X,X,X,X,X,X,X,X,,
2020-10-19 13-07-28-611,DESKTOP-K0JN836,CP1H_C0_V1.00,FinalTest_2020.9.23.0,191020,CP1H 191020 000074,interjit,PASS,497,497,496,496,X,X,X,X,X,X,X,X,,
2020-10-19 13-09-15-086,DESKTOP-K0JN836,CP1H_C0_V1.00,FinalTest_2020.9.23.0,191020,CP1H 191020 000031,interjit,PASS,497,496,496,497,X,X,X,X,X,X,X,X,,
2020-10-19 13-09-15-086,DESKTOP-K0JN836,CP1H_C0_V1.00,FinalTest_2020.9.23.0,191020,CP1H 191020 000031,interjit,PASS,497,496,496,497,X,X,X,X,X,X,X,X,,
2020-10-19 13-10-42-956,DESKTOP-K0JN836,CP1H_C0_V1.00,FinalTest_2020.9.23.0,191020,CP1H 191020 000034,interjit,PASS,497,495,496,496,X,X,X,X,X,X,X,X,,
2020-10-19 13-10-42-956,DESKTOP-K0JN836,CP1H_C0_V1.00,FinalTest_2020.9.23.0,191020,CP1H 191020 000034,interjit,PASS,497,495,496,496,X,X,X,X,X,X,X,X,,
2020-10-19 13-15-58-683,DESKTOP-K0JN836,CP1H_C0_V1.00,FinalTest_2020.9.23.0,191020,CP1H 191020 000045,interjit,PASS,497,497,495,496,X,X,X,X,X,X,X,X,,
2020-10-19 13-15-58-683,DESKTOP-K0JN836,CP1H_C0_V1.00,FinalTest_2020.9.23.0,191020,CP1H 191020 000045,interjit,PASS,497,497,495,496,X,X,X,X,X,X,X,X,,
2020-10-19 13-18-00-077,DESKTOP-K0JN836,CP1H_C0_V1.00,FinalTest_2020.9.23.0,191020,CP1H 191020 000029,interjit,PASS,497,495,496,497,X,X,X,X,X,X,X,X,,
2020-10-19 13-18-00-077,DESKTOP-K0JN836,CP1H_C0_V1.00,FinalTest_2020.9.23.0,191020,CP1H 191020 000029,interjit,PASS,497,495,496,497,X,X,X,X,X,X,X,X,,
2020-10-19 13-19-36-688,DESKTOP-K0JN836,CP1H_C0_V1.00,FinalTest_2020.9.23.0,191020,CP1H 191020 000069,interjit,PASS,485,497,461,492,X,X,X,X,X,X,X,X,,
2020-10-19 13-19-36-688,DESKTOP-K0JN836,CP1H_C0_V1.00,FinalTest_2020.9.23.0,191020,CP1H 191020 000069,interjit,PASS,485,497,461,492,X,X,X,X,X,X,X,X,,
2020-10-19 13-21-02-602,DESKTOP-K0JN836,CP1H_C0_V1.00,FinalTest_2020.9.23.0,191020,CP1H 191020 000078,interjit,PASS,497,496,496,493,X,X,X,X,X,X,X,X,,
2020-10-19 13-21-02-602,DESKTOP-K0JN836,CP1H_C0_V1.00,FinalTest_2020.9.23.0,191020,CP1H 191020 000078,interjit,PASS,497,496,496,493,X,X,X,X,X,X,X,X,,
2020-10-19 13-22-59-161,DESKTOP-K0JN836,CP1H_C0_V1.00,FinalTest_2020.9.23.0,191020,CP1H 191020 000084,interjit,PASS,497,496,487,496,X,X,X,X,X,X,X,X,,
2020-10-19 13-22-59-161,DESKTOP-K0JN836,CP1H_C0_V1.00,FinalTest_2020.9.23.0,191020,CP1H 191020 000084,interjit,PASS,497,496,487,496,X,X,X,X,X,X,X,X,,
2020-10-19 13-24-44-766,DESKTOP-K0JN836,CP1H_C0_V1.00,FinalTest_2020.9.23.0,191020,CP1H 191020 000100,interjit,PASS,497,494,496,496,X,X,X,X,X,X,X,X,,
2020-10-19 13-24-44-766,DESKTOP-K0JN836,CP1H_C0_V1.00,FinalTest_2020.9.23.0,191020,CP1H 191020 000100,interjit,PASS,497,494,496,496,X,X,X,X,X,X,X,X,,
2020-10-19 13-26-47-594,DESKTOP-K0JN836,CP1H_C0_V1.00,FinalTest_2020.9.23.0,191020,CP1H 191020 000106,interjit,PASS,497,497,496,496,X,X,X,X,X,X,X,X,,
2020-10-19 13-26-47-594,DESKTOP-K0JN836,CP1H_C0_V1.00,FinalTest_2020.9.23.0,191020,CP1H 191020 000106,interjit,PASS,497,497,496,496,X,X,X,X,X,X,X,X,,
2020-10-19 13-28-43-777,DESKTOP-K0JN836,CP1H_C0_V1.00,FinalTest_2020.9.23.0,191020,CP1H 191020 000105,interjit,PASS,497,497,496,496,X,X,X,X,X,X,X,X,,
2020-10-19 13-28-43-777,DESKTOP-K0JN836,CP1H_C0_V1.00,FinalTest_2020.9.23.0,191020,CP1H 191020 000105,interjit,PASS,497,497,496,496,X,X,X,X,X,X,X,X,,
2020-10-19 13-30-45-479,DESKTOP-K0JN836,CP1H_C0_V1.00,FinalTest_2020.9.23.0,191020,CP1H 191020 000082,interjit,PASS,497,497,497,496,X,X,X,X,X,X,X,X,,
2020-10-19 13-30-45-479,DESKTOP-K0JN836,CP1H_C0_V1.00,FinalTest_2020.9.23.0,191020,CP1H 191020 000082,interjit,PASS,497,497,497,496,X,X,X,X,X,X,X,X,,
2020-10-19 13-32-59-832,DESKTOP-K0JN836,CP1H_C0_V1.00,FinalTest_2020.9.23.0,191020,CP1H 191020 000108,interjit,PASS,497,497,496,496,X,X,X,X,X,X,X,X,,
2020-10-19 13-32-59-832,DESKTOP-K0JN836,CP1H_C0_V1.00,FinalTest_2020.9.23.0,191020,CP1H 191020 000108,interjit,PASS,497,497,496,496,X,X,X,X,X,X,X,X,,
2020-10-19 13-35-46-206,DESKTOP-K0JN836,CP1H_C0_V1.00,FinalTest_2020.9.23.0,191020,CP1H 191020 000108,interjit,PASS,497,494,497,497,X,X,X,X,X,X,X,X,,
2020-10-19 13-35-46-206,DESKTOP-K0JN836,CP1H_C0_V1.00,FinalTest_2020.9.23.0,191020,CP1H 191020 000108,interjit,PASS,497,494,497,497,X,X,X,X,X,X,X,X,,
2020-10-19 13-36-38-169,DESKTOP-K0JN836,CP1H_C0_V1.00,FinalTest_2020.9.23.0,191020,CP1H 191020 000108,interjit,PASS,497,497,496,496,X,X,X,X,X,X,X,X,,
2020-10-19 13-36-38-169,DESKTOP-K0JN836,CP1H_C0_V1.00,FinalTest_2020.9.23.0,191020,CP1H 191020 000108,interjit,PASS,497,497,496,496,X,X,X,X,X,X,X,X,,
2020-10-19 13-38-28-298,DESKTOP-K0JN836,CP1H_C0_V1.00,FinalTest_2020.9.23.0,191020,CP1H 191020 000110,interjit,PASS,497,497,496,496,X,X,X,X,X,X,X,X,,
2020-10-19 13-38-28-298,DESKTOP-K0JN836,CP1H_C0_V1.00,FinalTest_2020.9.23.0,191020,CP1H 191020 000110,interjit,PASS,497,497,496,496,X,X,X,X,X,X,X,X,,
2020-10-19 13-40-04-336,DESKTOP-K0JN836,CP1H_C0_V1.00,FinalTest_2020.9.23.0,191020,CP1H 191020 000117,interjit,PASS,497,497,496,495,X,X,X,X,X,X,X,X,,
2020-10-19 13-40-04-336,DESKTOP-K0JN836,CP1H_C0_V1.00,FinalTest_2020.9.23.0,191020,CP1H 191020 000117,interjit,PASS,497,497,496,495,X,X,X,X,X,X,X,X,,
2020-10-19 13-41-40-104,DESKTOP-K0JN836,CP1H_C0_V1.00,FinalTest_2020.9.23.0,191020,CP1H 191020 000112,interjit,PASS,497,496,496,496,X,X,X,X,X,X,X,X,,
2020-10-19 13-41-40-104,DESKTOP-K0JN836,CP1H_C0_V1.00,FinalTest_2020.9.23.0,191020,CP1H 191020 000112,interjit,PASS,497,496,496,496,X,X,X,X,X,X,X,X,,
2020-10-19 13-43-50-899,DESKTOP-K0JN836,CP1H_C0_V1.00,FinalTest_2020.9.23.0,191020,CP1H 191020 000114,interjit,PASS,497,494,495,496,X,X,X,X,X,X,X,X,,
2020-10-19 13-43-50-899,DESKTOP-K0JN836,CP1H_C0_V1.00,FinalTest_2020.9.23.0,191020,CP1H 191020 000114,interjit,PASS,497,494,495,496,X,X,X,X,X,X,X,X,,
2020-10-19 13-47-13-488,DESKTOP-K0JN836,CP1H_C0_V1.00,FinalTest_2020.9.23.0,191020,CP1H 191020 000119,interjit,PASS,497,496,481,496,X,X,X,X,X,X,X,X,,
2020-10-19 13-47-13-488,DESKTOP-K0JN836,CP1H_C0_V1.00,FinalTest_2020.9.23.0,191020,CP1H 191020 000119,interjit,PASS,497,496,481,496,X,X,X,X,X,X,X,X,,
2020-10-19 13-48-47-025,DESKTOP-K0JN836,CP1H_C0_V1.00,FinalTest_2020.9.23.0,191020,CP1H 191020 000118,interjit,PASS,497,497,496,496,X,X,X,X,X,X,X,X,,
2020-10-19 13-48-47-025,DESKTOP-K0JN836,CP1H_C0_V1.00,FinalTest_2020.9.23.0,191020,CP1H 191020 000118,interjit,PASS,497,497,496,496,X,X,X,X,X,X,X,X,,
2020-10-19 13-50-24-588,DESKTOP-K0JN836,CP1H_C0_V1.00,FinalTest_2020.9.23.0,191020,CP1H 191020 000109,interjit,PASS,497,497,497,497,X,X,X,X,X,X,X,X,,
2020-10-19 13-50-24-588,DESKTOP-K0JN836,CP1H_C0_V1.00,FinalTest_2020.9.23.0,191020,CP1H 191020 000109,interjit,PASS,497,497,497,497,X,X,X,X,X,X,X,X,,
2020-10-19 13-52-10-289,DESKTOP-K0JN836,CP1H_C0_V1.00,FinalTest_2020.9.23.0,191020,CP1H 191020 000111,interjit,PASS,497,497,496,496,X,X,X,X,X,X,X,X,,
2020-10-19 13-52-10-289,DESKTOP-K0JN836,CP1H_C0_V1.00,FinalTest_2020.9.23.0,191020,CP1H 191020 000111,interjit,PASS,497,497,496,496,X,X,X,X,X,X,X,X,,
2020-10-19 14-02-55-622,DESKTOP-K0JN836,CP1H_C0_V1.00,FinalTest_2020.9.23.0,191020,CP1H 191020 000115,interjit,PASS,497,497,497,496,X,X,X,X,X,X,X,X,,
2020-10-19 14-02-55-622,DESKTOP-K0JN836,CP1H_C0_V1.00,FinalTest_2020.9.23.0,191020,CP1H 191020 000115,interjit,PASS,497,497,497,496,X,X,X,X,X,X,X,X,,
2020-10-19 14-04-53-292,DESKTOP-K0JN836,CP1H_C0_V1.00,FinalTest_2020.9.23.0,191020,CP1H 191020 000116,interjit,PASS,497,497,496,496,X,X,X,X,X,X,X,X,,
2020-10-19 14-04-53-292,DESKTOP-K0JN836,CP1H_C0_V1.00,FinalTest_2020.9.23.0,191020,CP1H 191020 000116,interjit,PASS,497,497,496,496,X,X,X,X,X,X,X,X,,
2020-10-19 14-06-15-846,DESKTOP-K0JN836,CP1H_C0_V1.00,FinalTest_2020.9.23.0,191020,CP1H 191020 000102,interjit,PASS,390,456,385,464,X,X,X,X,X,X,X,X,,
2020-10-19 14-06-15-846,DESKTOP-K0JN836,CP1H_C0_V1.00,FinalTest_2020.9.23.0,191020,CP1H 191020 000102,interjit,PASS,390,456,385,464,X,X,X,X,X,X,X,X,,
2020-10-19 14-07-11-934,DESKTOP-K0JN836,CP1H_C0_V1.00,FinalTest_2020.9.23.0,191020,CP1H 191020 000102,interjit,PASS,392,450,383,476,X,X,X,X,X,X,X,X,,
2020-10-19 14-07-11-934,DESKTOP-K0JN836,CP1H_C0_V1.00,FinalTest_2020.9.23.0,191020,CP1H 191020 000102,interjit,PASS,392,450,383,476,X,X,X,X,X,X,X,X,,
2020-10-19 14-09-08-077,DESKTOP-K0JN836,CP1H_C0_V1.00,FinalTest_2020.9.23.0,191020,CP1H 191020 000104,interjit,PASS,496,497,474,495,X,X,X,X,X,X,X,X,,
2020-10-19 14-09-08-077,DESKTOP-K0JN836,CP1H_C0_V1.00,FinalTest_2020.9.23.0,191020,CP1H 191020 000104,interjit,PASS,496,497,474,495,X,X,X,X,X,X,X,X,,
2020-10-19 14-10-56-764,DESKTOP-K0JN836,CP1H_C0_V1.00,FinalTest_2020.9.23.0,191020,CP1H 191020 000101,interjit,PASS,497,497,496,496,X,X,X,X,X,X,X,X,,
2020-10-19 14-10-56-764,DESKTOP-K0JN836,CP1H_C0_V1.00,FinalTest_2020.9.23.0,191020,CP1H 191020 000101,interjit,PASS,497,497,496,496,X,X,X,X,X,X,X,X,,
2020-10-19 14-12-37-284,DESKTOP-K0JN836,CP1H_C0_V1.00,FinalTest_2020.9.23.0,191020,CP1H 191020 000103,interjit,PASS,497,496,496,496,X,X,X,X,X,X,X,X,,
2020-10-19 14-12-37-284,DESKTOP-K0JN836,CP1H_C0_V1.00,FinalTest_2020.9.23.0,191020,CP1H 191020 000103,interjit,PASS,497,496,496,496,X,X,X,X,X,X,X,X,,
2020-10-19 14-15-54-865,DESKTOP-K0JN836,CP1H_C0_V1.00,FinalTest_2020.9.23.0,191020,CP1H 191020 000113,interjit,PASS,497,497,496,496,X,X,X,X,X,X,X,X,,
2020-10-19 14-15-54-865,DESKTOP-K0JN836,CP1H_C0_V1.00,FinalTest_2020.9.23.0,191020,CP1H 191020 000113,interjit,PASS,497,497,496,496,X,X,X,X,X,X,X,X,,
2020-10-19 14-18-38-393,DESKTOP-K0JN836,CP1H_C0_V1.00,FinalTest_2020.9.23.0,191020,CP1H 191020 000099,interjit,PASS,497,496,496,496,X,X,X,X,X,X,X,X,,
2020-10-19 14-18-38-393,DESKTOP-K0JN836,CP1H_C0_V1.00,FinalTest_2020.9.23.0,191020,CP1H 191020 000099,interjit,PASS,497,496,496,496,X,X,X,X,X,X,X,X,,
2020-10-19 14-21-46-230,DESKTOP-K0JN836,CP1H_C0_V1.00,FinalTest_2020.9.23.0,191020,CP1H 191020 000058,interjit,PASS,497,495,496,496,X,X,X,X,X,X,X,X,,
2020-10-19 14-21-46-230,DESKTOP-K0JN836,CP1H_C0_V1.00,FinalTest_2020.9.23.0,191020,CP1H 191020 000058,interjit,PASS,497,495,496,496,X,X,X,X,X,X,X,X,,
2020-10-19 14-25-54-034,DESKTOP-K0JN836,CP1H_C0_V1.00,FinalTest_2020.9.23.0,191020,CP1H 191020 000059,interjit,PASS,478,497,467,496,X,X,X,X,X,X,X,X,,
2020-10-19 14-25-54-034,DESKTOP-K0JN836,CP1H_C0_V1.00,FinalTest_2020.9.23.0,191020,CP1H 191020 000059,interjit,PASS,478,497,467,496,X,X,X,X,X,X,X,X,,
2020-10-19 14-28-24-011,DESKTOP-K0JN836,CP1H_C0_V1.00,FinalTest_2020.9.23.0,191020,CP1H 191020 000085,interjit,PASS,497,497,493,496,X,X,X,X,X,X,X,X,,
2020-10-19 14-28-24-011,DESKTOP-K0JN836,CP1H_C0_V1.00,FinalTest_2020.9.23.0,191020,CP1H 191020 000085,interjit,PASS,497,497,493,496,X,X,X,X,X,X,X,X,,
2020-10-19 14-29-19-632,DESKTOP-K0JN836,CP1H_C0_V1.00,FinalTest_2020.9.23.0,191020,CP1H 191020 000085,interjit,PASS,497,496,496,496,X,X,X,X,X,X,X,X,,
2020-10-19 14-29-19-632,DESKTOP-K0JN836,CP1H_C0_V1.00,FinalTest_2020.9.23.0,191020,CP1H 191020 000085,interjit,PASS,497,496,496,496,X,X,X,X,X,X,X,X,,
2020-10-19 14-31-08-019,DESKTOP-K0JN836,CP1H_C0_V1.00,FinalTest_2020.9.23.0,191020,CP1H 191020 000035,interjit,PASS,497,497,496,496,X,X,X,X,X,X,X,X,,
2020-10-19 14-31-08-019,DESKTOP-K0JN836,CP1H_C0_V1.00,FinalTest_2020.9.23.0,191020,CP1H 191020 000035,interjit,PASS,497,497,496,496,X,X,X,X,X,X,X,X,,
2020-10-19 14-32-31-190,DESKTOP-K0JN836,CP1H_C0_V1.00,FinalTest_2020.9.23.0,191020,CP1H 191020 000042,interjit,PASS,497,496,496,496,X,X,X,X,X,X,X,X,,
2020-10-19 14-32-31-190,DESKTOP-K0JN836,CP1H_C0_V1.00,FinalTest_2020.9.23.0,191020,CP1H 191020 000042,interjit,PASS,497,496,496,496,X,X,X,X,X,X,X,X,,
2020-10-19 14-34-32-475,DESKTOP-K0JN836,CP1H_C0_V1.00,FinalTest_2020.9.23.0,191020,CP1H 191020 000088,interjit,PASS,497,497,496,496,X,X,X,X,X,X,X,X,,
2020-10-19 14-34-32-475,DESKTOP-K0JN836,CP1H_C0_V1.00,FinalTest_2020.9.23.0,191020,CP1H 191020 000088,interjit,PASS,497,497,496,496,X,X,X,X,X,X,X,X,,
2020-10-19 14-36-21-387,DESKTOP-K0JN836,CP1H_C0_V1.00,FinalTest_2020.9.23.0,191020,CP1H 191020 000086,interjit,FAIL,0,218,0,0,X,X,X,X,X,X,X,X,,
2020-10-19 14-36-21-387,DESKTOP-K0JN836,CP1H_C0_V1.00,FinalTest_2020.9.23.0,191020,CP1H 191020 000086,interjit,FAIL,0,218,0,0,X,X,X,X,X,X,X,X,,
2020-10-19 14-37-01-909,DESKTOP-K0JN836,CP1H_C0_V1.00,FinalTest_2020.9.23.0,191020,CP1H 191020 000086,interjit,FAIL,335,250,0,0,X,X,X,X,X,X,X,X,,
2020-10-19 14-37-01-909,DESKTOP-K0JN836,CP1H_C0_V1.00,FinalTest_2020.9.23.0,191020,CP1H 191020 000086,interjit,FAIL,335,250,0,0,X,X,X,X,X,X,X,X,,
2020-10-19 14-39-00-419,DESKTOP-K0JN836,CP1H_C0_V1.00,FinalTest_2020.9.23.0,191020,CP1H 191020 000038,interjit,PASS,497,496,496,497,X,X,X,X,X,X,X,X,,
2020-10-19 14-39-00-419,DESKTOP-K0JN836,CP1H_C0_V1.00,FinalTest_2020.9.23.0,191020,CP1H 191020 000038,interjit,PASS,497,496,496,497,X,X,X,X,X,X,X,X,,
2020-10-19 14-42-41-401,DESKTOP-K0JN836,CP1H_C0_V1.00,FinalTest_2020.9.23.0,191020,CP1H 191020 000025,interjit,PASS,497,497,458,496,X,X,X,X,X,X,X,X,,
2020-10-19 14-42-41-401,DESKTOP-K0JN836,CP1H_C0_V1.00,FinalTest_2020.9.23.0,191020,CP1H 191020 000025,interjit,PASS,497,497,458,496,X,X,X,X,X,X,X,X,,
2020-10-19 14-46-19-224,DESKTOP-K0JN836,CP1H_C0_V1.00,FinalTest_2020.9.23.0,191020,,interjit,PASS,497,497,458,496,X,X,X,X,X,X,X,X,,
2020-10-19 14-46-20-723,DESKTOP-K0JN836,CP1H_C0_V1.00,FinalTest_2020.9.23.0,191020,,interjit,PASS,497,497,458,496,X,X,X,X,X,X,X,X,,
2020-10-19 14-46-29-321,DESKTOP-K0JN836,CP1H_C0_V1.00,FinalTest_2020.9.23.0,191020,CP1H 191020 0000107,interjit,PASS,497,496,496,496,X,X,X,X,X,X,X,X,,
2020-10-19 14-46-29-321,DESKTOP-K0JN836,CP1H_C0_V1.00,FinalTest_2020.9.23.0,191020,CP1H 191020 0000107,interjit,PASS,497,496,496,496,X,X,X,X,X,X,X,X,,
2020-10-19 14-48-27-765,DESKTOP-K0JN836,CP1H_C0_V1.00,FinalTest_2020.9.23.0,191020,CP1H 191020 000072,interjit,PASS,497,496,496,496,X,X,X,X,X,X,X,X,,
2020-10-19 14-48-27-765,DESKTOP-K0JN836,CP1H_C0_V1.00,FinalTest_2020.9.23.0,191020,CP1H 191020 000072,interjit,PASS,497,496,496,496,X,X,X,X,X,X,X,X,,
2020-10-19 14-49-53-519,DESKTOP-K0JN836,CP1H_C0_V1.00,FinalTest_2020.9.23.0,191020,,interjit,PASS,497,496,496,496,X,X,X,X,X,X,X,X,,
2020-10-19 14-50-01-885,DESKTOP-K0JN836,CP1H_C0_V1.00,FinalTest_2020.9.23.0,191020,CP1H 191020 000081,interjit,PASS,497,496,496,496,X,X,X,X,X,X,X,X,,
2020-10-19 14-50-01-885,DESKTOP-K0JN836,CP1H_C0_V1.00,FinalTest_2020.9.23.0,191020,CP1H 191020 000081,interjit,PASS,497,496,496,496,X,X,X,X,X,X,X,X,,
2020-10-19 14-51-56-186,DESKTOP-K0JN836,CP1H_C0_V1.00,FinalTest_2020.9.23.0,191020,CP1H 191020 000024,interjit,PASS,497,497,496,496,X,X,X,X,X,X,X,X,,
2020-10-19 14-51-56-186,DESKTOP-K0JN836,CP1H_C0_V1.00,FinalTest_2020.9.23.0,191020,CP1H 191020 000024,interjit,PASS,497,497,496,496,X,X,X,X,X,X,X,X,,
2020-10-19 14-53-25-592,DESKTOP-K0JN836,CP1H_C0_V1.00,FinalTest_2020.9.23.0,191020,CP1H 191020 000026,interjit,PASS,497,497,497,496,X,X,X,X,X,X,X,X,,
2020-10-19 14-53-25-592,DESKTOP-K0JN836,CP1H_C0_V1.00,FinalTest_2020.9.23.0,191020,CP1H 191020 000026,interjit,PASS,497,497,497,496,X,X,X,X,X,X,X,X,,
2020-10-19 14-54-58-971,DESKTOP-K0JN836,CP1H_C0_V1.00,FinalTest_2020.9.23.0,191020,CP1H 191020 000021,interjit,PASS,497,496,496,496,X,X,X,X,X,X,X,X,,
2020-10-19 14-54-58-971,DESKTOP-K0JN836,CP1H_C0_V1.00,FinalTest_2020.9.23.0,191020,CP1H 191020 000021,interjit,PASS,497,496,496,496,X,X,X,X,X,X,X,X,,
2020-10-19 14-57-28-421,DESKTOP-K0JN836,CP1H_C0_V1.00,FinalTest_2020.9.23.0,191020,CP1H 191020 000028,interjit,PASS,497,497,497,496,X,X,X,X,X,X,X,X,,
2020-10-19 14-57-28-421,DESKTOP-K0JN836,CP1H_C0_V1.00,FinalTest_2020.9.23.0,191020,CP1H 191020 000028,interjit,PASS,497,497,497,496,X,X,X,X,X,X,X,X,,
2020-10-19 14-59-11-990,DESKTOP-K0JN836,CP1H_C0_V1.00,FinalTest_2020.9.23.0,191020,,interjit,PASS,497,497,497,496,X,X,X,X,X,X,X,X,,
2020-10-19 14-59-22-640,DESKTOP-K0JN836,CP1H_C0_V1.00,FinalTest_2020.9.23.0,191020,CP1H 191020 000089,interjit,PASS,497,497,496,495,X,X,X,X,X,X,X,X,,
2020-10-19 14-59-22-640,DESKTOP-K0JN836,CP1H_C0_V1.00,FinalTest_2020.9.23.0,191020,CP1H 191020 000089,interjit,PASS,497,497,496,495,X,X,X,X,X,X,X,X,,
2020-10-19 15-00-54-668,DESKTOP-K0JN836,CP1H_C0_V1.00,FinalTest_2020.9.23.0,191020,CP1H 191020 000030,interjit,PASS,497,496,496,492,X,X,X,X,X,X,X,X,,
2020-10-19 15-00-54-668,DESKTOP-K0JN836,CP1H_C0_V1.00,FinalTest_2020.9.23.0,191020,CP1H 191020 000030,interjit,PASS,497,496,496,492,X,X,X,X,X,X,X,X,,
2020-10-19 15-02-11-864,DESKTOP-K0JN836,CP1H_C0_V1.00,FinalTest_2020.9.23.0,191020,CP1H 191020 000052,interjit,PASS,497,496,496,496,X,X,X,X,X,X,X,X,,
2020-10-19 15-02-11-864,DESKTOP-K0JN836,CP1H_C0_V1.00,FinalTest_2020.9.23.0,191020,CP1H 191020 000052,interjit,PASS,497,496,496,496,X,X,X,X,X,X,X,X,,
2020-10-19 15-03-40-561,DESKTOP-K0JN836,CP1H_C0_V1.00,FinalTest_2020.9.23.0,191020,CP1H 191020 000005,interjit,PASS,497,496,496,496,X,X,X,X,X,X,X,X,,
2020-10-19 15-03-40-561,DESKTOP-K0JN836,CP1H_C0_V1.00,FinalTest_2020.9.23.0,191020,CP1H 191020 000005,interjit,PASS,497,496,496,496,X,X,X,X,X,X,X,X,,
2020-10-19 15-04-49-190,DESKTOP-K0JN836,CP1H_C0_V1.00,FinalTest_2020.9.23.0,191020,CP1H 191020 000049,interjit,PASS,497,497,496,496,X,X,X,X,X,X,X,X,,
2020-10-19 15-04-49-190,DESKTOP-K0JN836,CP1H_C0_V1.00,FinalTest_2020.9.23.0,191020,CP1H 191020 000049,interjit,PASS,497,497,496,496,X,X,X,X,X,X,X,X,,
2020-10-19 15-06-01-244,DESKTOP-K0JN836,CP1H_C0_V1.00,FinalTest_2020.9.23.0,191020,CP1H 191020 000050,interjit,PASS,497,496,493,496,X,X,X,X,X,X,X,X,,
2020-10-19 15-06-01-244,DESKTOP-K0JN836,CP1H_C0_V1.00,FinalTest_2020.9.23.0,191020,CP1H 191020 000050,interjit,PASS,497,496,493,496,X,X,X,X,X,X,X,X,,
2020-10-19 15-07-16-432,DESKTOP-K0JN836,CP1H_C0_V1.00,FinalTest_2020.9.23.0,191020,CP1H 191020 000004,interjit,PASS,497,496,493,496,X,X,X,X,X,X,X,X,,
2020-10-19 15-07-16-432,DESKTOP-K0JN836,CP1H_C0_V1.00,FinalTest_2020.9.23.0,191020,CP1H 191020 000004,interjit,PASS,497,496,493,496,X,X,X,X,X,X,X,X,,
2020-10-19 15-08-19-272,DESKTOP-K0JN836,CP1H_C0_V1.00,FinalTest_2020.9.23.0,191020,CP1H 191020 000032,interjit,PASS,497,497,496,478,X,X,X,X,X,X,X,X,,
2020-10-19 15-08-19-272,DESKTOP-K0JN836,CP1H_C0_V1.00,FinalTest_2020.9.23.0,191020,CP1H 191020 000032,interjit,PASS,497,497,496,478,X,X,X,X,X,X,X,X,,
2020-10-19 15-09-26-601,DESKTOP-K0JN836,CP1H_C0_V1.00,FinalTest_2020.9.23.0,191020,CP1H 101920 000003,interjit,PASS,481,497,434,496,X,X,X,X,X,X,X,X,,
2020-10-19 15-09-26-601,DESKTOP-K0JN836,CP1H_C0_V1.00,FinalTest_2020.9.23.0,191020,CP1H 101920 000003,interjit,PASS,481,497,434,496,X,X,X,X,X,X,X,X,,
2020-10-19 15-10-41-255,DESKTOP-K0JN836,CP1H_C0_V1.00,FinalTest_2020.9.23.0,191020,CP1H 191020 000016,interjit,PASS,494,497,497,496,X,X,X,X,X,X,X,X,,
2020-10-19 15-10-41-255,DESKTOP-K0JN836,CP1H_C0_V1.00,FinalTest_2020.9.23.0,191020,CP1H 191020 000016,interjit,PASS,494,497,497,496,X,X,X,X,X,X,X,X,,
2020-10-19 15-12-10-334,DESKTOP-K0JN836,CP1H_C0_V1.00,FinalTest_2020.9.23.0,191020,CP1H 191020 000013,interjit,PASS,497,496,496,496,X,X,X,X,X,X,X,X,,
2020-10-19 15-12-10-334,DESKTOP-K0JN836,CP1H_C0_V1.00,FinalTest_2020.9.23.0,191020,CP1H 191020 000013,interjit,PASS,497,496,496,496,X,X,X,X,X,X,X,X,,
2020-10-19 15-13-09-372,DESKTOP-K0JN836,CP1H_C0_V1.00,FinalTest_2020.9.23.0,191020,CP1H 191020 000011,interjit,PASS,496,497,496,495,X,X,X,X,X,X,X,X,,
2020-10-19 15-13-09-372,DESKTOP-K0JN836,CP1H_C0_V1.00,FinalTest_2020.9.23.0,191020,CP1H 191020 000011,interjit,PASS,496,497,496,495,X,X,X,X,X,X,X,X,,
2020-10-19 15-14-09-602,DESKTOP-K0JN836,CP1H_C0_V1.00,FinalTest_2020.9.23.0,191020,CP1H 191020 000010,interjit,PASS,497,496,496,496,X,X,X,X,X,X,X,X,,
2020-10-19 15-14-09-602,DESKTOP-K0JN836,CP1H_C0_V1.00,FinalTest_2020.9.23.0,191020,CP1H 191020 000010,interjit,PASS,497,496,496,496,X,X,X,X,X,X,X,X,,
2020-10-19 15-17-16-176,DESKTOP-K0JN836,CP1H_C0_V1.00,FinalTest_2020.9.23.0,191020,CP1H 191020 000002,interjit,PASS,440,400,452,495,X,X,X,X,X,X,X,X,,
2020-10-19 15-17-16-176,DESKTOP-K0JN836,CP1H_C0_V1.00,FinalTest_2020.9.23.0,191020,CP1H 191020 000002,interjit,PASS,440,400,452,495,X,X,X,X,X,X,X,X,,
2020-10-19 15-18-40-680,DESKTOP-K0JN836,CP1H_C0_V1.00,FinalTest_2020.9.23.0,191020,CP1H 191020 000006,interjit,PASS,494,494,496,496,X,X,X,X,X,X,X,X,,
2020-10-19 15-18-40-680,DESKTOP-K0JN836,CP1H_C0_V1.00,FinalTest_2020.9.23.0,191020,CP1H 191020 000006,interjit,PASS,494,494,496,496,X,X,X,X,X,X,X,X,,
2020-10-19 15-20-13-251,DESKTOP-K0JN836,CP1H_C0_V1.00,FinalTest_2020.9.23.0,191020,CP1H 191020 000009,interjit,PASS,497,494,496,496,X,X,X,X,X,X,X,X,,
2020-10-19 15-20-13-251,DESKTOP-K0JN836,CP1H_C0_V1.00,FinalTest_2020.9.23.0,191020,CP1H 191020 000009,interjit,PASS,497,494,496,496,X,X,X,X,X,X,X,X,,
2020-10-19 15-21-55-222,DESKTOP-K0JN836,CP1H_C0_V1.00,FinalTest_2020.9.23.0,191020,CP1H 191020 000007,interjit,PASS,497,497,496,493,X,X,X,X,X,X,X,X,,
2020-10-19 15-21-55-222,DESKTOP-K0JN836,CP1H_C0_V1.00,FinalTest_2020.9.23.0,191020,CP1H 191020 000007,interjit,PASS,497,497,496,493,X,X,X,X,X,X,X,X,,
2020-10-19 15-24-23-355,DESKTOP-K0JN836,CP1H_C0_V1.00,FinalTest_2020.9.23.0,191020,CP1H 191020 000001,interjit,PASS,497,496,496,496,X,X,X,X,X,X,X,X,,
2020-10-19 15-24-23-355,DESKTOP-K0JN836,CP1H_C0_V1.00,FinalTest_2020.9.23.0,191020,CP1H 191020 000001,interjit,PASS,497,496,496,496,X,X,X,X,X,X,X,X,,
2020-10-19 15-26-38-864,DESKTOP-K0JN836,CP1H_C0_V1.00,FinalTest_2020.9.23.0,191020,CP1H 191020 000015,interjit,PASS,497,497,495,496,X,X,X,X,X,X,X,X,,
2020-10-19 15-26-38-864,DESKTOP-K0JN836,CP1H_C0_V1.00,FinalTest_2020.9.23.0,191020,CP1H 191020 000015,interjit,PASS,497,497,495,496,X,X,X,X,X,X,X,X,,
2020-10-19 15-28-41-361,DESKTOP-K0JN836,CP1H_C0_V1.00,FinalTest_2020.9.23.0,191020,CP1H 191020 000020,interjit,PASS,497,496,496,495,X,X,X,X,X,X,X,X,,
2020-10-19 15-28-41-361,DESKTOP-K0JN836,CP1H_C0_V1.00,FinalTest_2020.9.23.0,191020,CP1H 191020 000020,interjit,PASS,497,496,496,495,X,X,X,X,X,X,X,X,,
2020-10-19 15-52-03-603,DESKTOP-K0JN836,CP1H_C0_V1.00,FinalTest_2020.9.23.0,191020,CP1H 191020 000012,interjit,PASS,497,483,496,496,X,X,X,X,X,X,X,X,,
2020-10-19 15-52-03-603,DESKTOP-K0JN836,CP1H_C0_V1.00,FinalTest_2020.9.23.0,191020,CP1H 191020 000012,interjit,PASS,497,483,496,496,X,X,X,X,X,X,X,X,,
2020-10-19 15-53-17-326,DESKTOP-K0JN836,CP1H_C0_V1.00,FinalTest_2020.9.23.0,191020,CP1H 191020 000008,interjit,PASS,497,496,481,496,X,X,X,X,X,X,X,X,,
2020-10-19 15-53-17-326,DESKTOP-K0JN836,CP1H_C0_V1.00,FinalTest_2020.9.23.0,191020,CP1H 191020 000008,interjit,PASS,497,496,481,496,X,X,X,X,X,X,X,X,,
2020-10-19 15-54-42-611,DESKTOP-K0JN836,CP1H_C0_V1.00,FinalTest_2020.9.23.0,191020,CP1H 191020 000014,interjit,PASS,497,497,496,493,X,X,X,X,X,X,X,X,,
2020-10-19 15-54-42-611,DESKTOP-K0JN836,CP1H_C0_V1.00,FinalTest_2020.9.23.0,191020,CP1H 191020 000014,interjit,PASS,497,497,496,493,X,X,X,X,X,X,X,X,,
2020-10-19 15-55-50-869,DESKTOP-K0JN836,CP1H_C0_V1.00,FinalTest_2020.9.23.0,191020,CP1H 191020 000017,interjit,PASS,497,497,496,496,X,X,X,X,X,X,X,X,,
2020-10-19 15-55-50-869,DESKTOP-K0JN836,CP1H_C0_V1.00,FinalTest_2020.9.23.0,191020,CP1H 191020 000017,interjit,PASS,497,497,496,496,X,X,X,X,X,X,X,X,,
2020-10-19 15-57-06-737,DESKTOP-K0JN836,CP1H_C0_V1.00,FinalTest_2020.9.23.0,191020,CP1H 191020 000018,interjit,PASS,497,496,496,496,X,X,X,X,X,X,X,X,,
2020-10-19 15-57-06-737,DESKTOP-K0JN836,CP1H_C0_V1.00,FinalTest_2020.9.23.0,191020,CP1H 191020 000018,interjit,PASS,497,496,496,496,X,X,X,X,X,X,X,X,,
2020-10-19 15-58-18-110,DESKTOP-K0JN836,CP1H_C0_V1.00,FinalTest_2020.9.23.0,191020,CP1H 191020 000019,interjit,PASS,497,496,496,496,X,X,X,X,X,X,X,X,,
2020-10-19 15-58-18-110,DESKTOP-K0JN836,CP1H_C0_V1.00,FinalTest_2020.9.23.0,191020,CP1H 191020 000019,interjit,PASS,497,496,496,496,X,X,X,X,X,X,X,X,,
2020-10-19 16-00-04-687,DESKTOP-K0JN836,CP1H_C0_V1.00,FinalTest_2020.9.23.0,191020,CP1H 191020 000037,interjit,PASS,497,497,496,496,X,X,X,X,X,X,X,X,,
2020-10-19 16-00-04-687,DESKTOP-K0JN836,CP1H_C0_V1.00,FinalTest_2020.9.23.0,191020,CP1H 191020 000037,interjit,PASS,497,497,496,496,X,X,X,X,X,X,X,X,,
2020-10-19 16-01-15-006,DESKTOP-K0JN836,CP1H_C0_V1.00,FinalTest_2020.9.23.0,191020,CP1H 191020 000022,interjit,PASS,497,496,496,496,X,X,X,X,X,X,X,X,,
2020-10-19 16-01-15-006,DESKTOP-K0JN836,CP1H_C0_V1.00,FinalTest_2020.9.23.0,191020,CP1H 191020 000022,interjit,PASS,497,496,496,496,X,X,X,X,X,X,X,X,,
2020-10-19 16-02-57-236,DESKTOP-K0JN836,CP1H_C0_V1.00,FinalTest_2020.9.23.0,191020,CP1H 191020 000023,interjit,PASS,497,496,496,496,X,X,X,X,X,X,X,X,,
2020-10-19 16-02-57-236,DESKTOP-K0JN836,CP1H_C0_V1.00,FinalTest_2020.9.23.0,191020,CP1H 191020 000023,interjit,PASS,497,496,496,496,X,X,X,X,X,X,X,X,,
