Time,Equipment,Model,SWVersion,LotName,Barcode,Operator,Result,Initalize,Current,CenterPoint,Rotate,Color,Reverse,EIAJ,Angle,Blackspot,Particle,DefectPixel,Brightness,IR Filter,Finalize,,
2019-02-28 15-54-57-481,DESKTOP-K0JN836,CP1H_190130,FinalTest_2019.2.14.0,12,Empty,id,PASS,PASS,PASS,PASS,PASS,PASS,PASS,PASS,PASS,PASS,X,PASS,PASS,PASS,PASS,,
2019-02-28 15-58-23-209,DESKTOP-K0JN836,CP1H_190130,FinalTest_2019.2.14.0,12,Empty,id,PASS,PASS,PASS,PASS,PASS,PASS,PASS,PASS,PASS,PASS,X,PASS,PASS,PASS,PASS,,
