Time,Equipment,Model,SWVersion,LotName,Barcode,Operator,Result,State,,
2020-06-22 12-47-44-541,DESKTOP-K0JN836,CP1H_C0_V1.00,FinalTest_2019.8.5.0,22062020,CP1P 220620 000026,vvvv,PASS,Original,,
2020-06-22 12-48-35-212,DESKTOP-K0JN836,CP1H_C0_V1.00,FinalTest_2019.8.5.0,22062020,CP1P 220620 000026,vvvv,PASS,Original,,
2020-06-22 12-49-41-989,DESKTOP-K0JN836,CP1H_C0_V1.00,FinalTest_2019.8.5.0,22062020,CP1P 220620 000023,vvvv,PASS,Original,,
2020-06-22 12-51-27-411,DESKTOP-K0JN836,CP1H_C0_V1.00,FinalTest_2019.8.5.0,22062020,CP1P 220620 000021,vvvv,PASS,Original,,
2020-06-22 13-17-54-410,DESKTOP-K0JN836,CP1H_C0_V1.00,FinalTest_2019.8.5.0,22062020,CP1P 220620 000028,vvvv,PASS,Original,,
2020-06-22 13-18-40-395,DESKTOP-K0JN836,CP1H_C0_V1.00,FinalTest_2019.8.5.0,22062020,CP1P 220620 000041,vvvv,PASS,Original,,
2020-06-22 13-19-14-933,DESKTOP-K0JN836,CP1H_C0_V1.00,FinalTest_2019.8.5.0,22062020,CP1P 220620 000041,vvvv,PASS,Original,,
2020-06-22 13-19-58-713,DESKTOP-K0JN836,CP1H_C0_V1.00,FinalTest_2019.8.5.0,22062020,CP1P 220620 000031,vvvv,PASS,Original,,
2020-06-22 13-20-42-490,DESKTOP-K0JN836,CP1H_C0_V1.00,FinalTest_2019.8.5.0,22062020,CP1P 220620 000032,vvvv,PASS,Original,,
2020-06-22 13-21-33-882,DESKTOP-K0JN836,CP1H_C0_V1.00,FinalTest_2019.8.5.0,22062020,CP1P 220620 000054,vvvv,PASS,Original,,
2020-06-22 13-22-22-246,DESKTOP-K0JN836,CP1H_C0_V1.00,FinalTest_2019.8.5.0,22062020,CP1P 220620 000034,vvvv,PASS,Original,,
2020-06-22 13-23-10-677,DESKTOP-K0JN836,CP1H_C0_V1.00,FinalTest_2019.8.5.0,22062020,CP1P 220620 000035,vvvv,PASS,Original,,
2020-06-22 13-23-43-096,DESKTOP-K0JN836,CP1H_C0_V1.00,FinalTest_2019.8.5.0,22062020,CP1P 220620 000035,vvvv,PASS,Original,,
2020-06-22 13-24-33-559,DESKTOP-K0JN836,CP1H_C0_V1.00,FinalTest_2019.8.5.0,22062020,CP1P 220620 000036,vvvv,PASS,Original,,
2020-06-22 13-25-17-868,DESKTOP-K0JN836,CP1H_C0_V1.00,FinalTest_2019.8.5.0,22062020,CP1P 220620 000055,vvvv,PASS,Original,,
2020-06-22 13-28-12-601,DESKTOP-K0JN836,CP1H_C0_V1.00,FinalTest_2019.8.5.0,22062020,CP1P 220620 000037,sara,PASS,Original,,
2020-06-22 13-28-57-078,DESKTOP-K0JN836,CP1H_C0_V1.00,FinalTest_2019.8.5.0,22062020,CP1P 220620 000051,sara,PASS,Original,,
2020-06-22 13-29-45-379,DESKTOP-K0JN836,CP1H_C0_V1.00,FinalTest_2019.8.5.0,22062020,CP1P 220620 000030,sara,PASS,Original,,
2020-06-22 13-30-22-308,DESKTOP-K0JN836,CP1H_C0_V1.00,FinalTest_2019.8.5.0,22062020,CP1P 220620 000030,sara,PASS,Original,,
2020-06-22 13-31-11-989,DESKTOP-K0JN836,CP1H_C0_V1.00,FinalTest_2019.8.5.0,22062020,CP1P 220620 000029,sara,PASS,Original,,
2020-06-22 13-32-03-012,DESKTOP-K0JN836,CP1H_C0_V1.00,FinalTest_2019.8.5.0,22062020,CP1P 220620 000007,sara,PASS,Original,,
2020-06-22 13-32-51-245,DESKTOP-K0JN836,CP1H_C0_V1.00,FinalTest_2019.8.5.0,22062020,CP1P 220620 000025,sara,PASS,Original,,
2020-06-22 13-33-36-373,DESKTOP-K0JN836,CP1H_C0_V1.00,FinalTest_2019.8.5.0,22062020,CP1P 220620 000008,sara,PASS,Original,,
2020-06-22 13-34-21-715,DESKTOP-K0JN836,CP1H_C0_V1.00,FinalTest_2019.8.5.0,22062020,CP1P 220620 000002,sara,PASS,Original,,
2020-06-22 13-35-09-312,DESKTOP-K0JN836,CP1H_C0_V1.00,FinalTest_2019.8.5.0,22062020,CP1P 220620 000006,sara,PASS,Original,,
2020-06-22 13-35-58-065,DESKTOP-K0JN836,CP1H_C0_V1.00,FinalTest_2019.8.5.0,22062020,CP1P 220620 000022,sara,PASS,Original,,
2020-06-22 13-36-47-541,DESKTOP-K0JN836,CP1H_C0_V1.00,FinalTest_2019.8.5.0,22062020,CP1P 220620 000016,sara,PASS,Original,,
2020-06-22 13-37-38-351,DESKTOP-K0JN836,CP1H_C0_V1.00,FinalTest_2019.8.5.0,22062020,CP1P 220620 000012,sara,PASS,Original,,
2020-06-22 13-38-24-585,DESKTOP-K0JN836,CP1H_C0_V1.00,FinalTest_2019.8.5.0,22062020,CP1P 220620 000011,sara,PASS,Original,,
2020-06-22 13-39-09-955,DESKTOP-K0JN836,CP1H_C0_V1.00,FinalTest_2019.8.5.0,22062020,CP1P 220620 000017,sara,PASS,Original,,
2020-06-22 13-39-57-345,DESKTOP-K0JN836,CP1H_C0_V1.00,FinalTest_2019.8.5.0,22062020,CP1P 220620 000013,sara,PASS,Original,,
2020-06-22 13-40-42-893,DESKTOP-K0JN836,CP1H_C0_V1.00,FinalTest_2019.8.5.0,22062020,CP1P 220620 000005,sara,PASS,Original,,
2020-06-22 13-41-31-281,DESKTOP-K0JN836,CP1H_C0_V1.00,FinalTest_2019.8.5.0,22062020,CP1P 220620 000004,sara,PASS,Original,,
2020-06-22 13-42-17-053,DESKTOP-K0JN836,CP1H_C0_V1.00,FinalTest_2019.8.5.0,22062020,CP1P 220620 000027,sara,PASS,Original,,
2020-06-22 13-43-06-431,DESKTOP-K0JN836,CP1H_C0_V1.00,FinalTest_2019.8.5.0,22062020,CP1P 220620 000015,sara,PASS,Original,,
2020-06-22 13-43-50-698,DESKTOP-K0JN836,CP1H_C0_V1.00,FinalTest_2019.8.5.0,22062020,CP1P 220620 000003,sara,PASS,Original,,
2020-06-22 13-44-36-358,DESKTOP-K0JN836,CP1H_C0_V1.00,FinalTest_2019.8.5.0,22062020,CP1P 220620 000001,sara,PASS,Original,,
2020-06-22 13-45-22-733,DESKTOP-K0JN836,CP1H_C0_V1.00,FinalTest_2019.8.5.0,22062020,CP1P 220620 000018,sara,PASS,Original,,
2020-06-22 13-46-07-697,DESKTOP-K0JN836,CP1H_C0_V1.00,FinalTest_2019.8.5.0,22062020,CP1P 220620 000018,sara,PASS,Original,,
2020-06-22 13-48-22-208,DESKTOP-K0JN836,CP1H_C0_V1.00,FinalTest_2019.8.5.0,22062020,CP1P 220620 000019,sara,PASS,Original,,
2020-06-22 13-49-09-071,DESKTOP-K0JN836,CP1H_C0_V1.00,FinalTest_2019.8.5.0,22062020,CP1P 220620 000024,sara,PASS,Original,,
2020-06-22 13-50-00-232,DESKTOP-K0JN836,CP1H_C0_V1.00,FinalTest_2019.8.5.0,22062020,CP1P 220620 000020,sara,PASS,Original,,
2020-06-22 13-50-32-660,DESKTOP-K0JN836,CP1H_C0_V1.00,FinalTest_2019.8.5.0,22062020,CP1P 220620 000020,sara,PASS,Original,,
2020-06-22 13-51-25-460,DESKTOP-K0JN836,CP1H_C0_V1.00,FinalTest_2019.8.5.0,22062020,CP1P 220620 000010,sara,PASS,Original,,
2020-06-22 13-53-14-738,DESKTOP-K0JN836,CP1H_C0_V1.00,FinalTest_2019.8.5.0,22062020,CP1P 220620 000014,sara,PASS,Original,,
2020-06-22 13-55-31-609,DESKTOP-K0JN836,CP1H_C0_V1.00,FinalTest_2019.8.5.0,22062020,CP1P 220620 000009,sara,PASS,Original,,
2020-06-22 13-56-07-975,DESKTOP-K0JN836,CP1H_C0_V1.00,FinalTest_2019.8.5.0,22062020,CP1P 220620 000009,sara,PASS,Original,,
2020-06-22 14-00-12-802,DESKTOP-K0JN836,CP1H_C0_V1.00,FinalTest_2019.8.5.0,22062020,CP1P 220620 000053,sara,PASS,Original,,
2020-06-22 14-01-00-100,DESKTOP-K0JN836,CP1H_C0_V1.00,FinalTest_2019.8.5.0,22062020,CP1P 220620 000038,sara,PASS,Original,,
2020-06-22 14-01-43-252,DESKTOP-K0JN836,CP1H_C0_V1.00,FinalTest_2019.8.5.0,22062020,CP1P 220620 000047,sara,PASS,Original,,
2020-06-22 14-02-31-135,DESKTOP-K0JN836,CP1H_C0_V1.00,FinalTest_2019.8.5.0,22062020,CP1P 220620 000043,sara,PASS,Original,,
2020-06-22 14-03-04-269,DESKTOP-K0JN836,CP1H_C0_V1.00,FinalTest_2019.8.5.0,22062020,CP1P 220620 000043,sara,PASS,Original,,
2020-06-22 14-03-50-559,DESKTOP-K0JN836,CP1H_C0_V1.00,FinalTest_2019.8.5.0,22062020,CP1P 220620 000046,sara,PASS,Original,,
2020-06-22 14-04-35-700,DESKTOP-K0JN836,CP1H_C0_V1.00,FinalTest_2019.8.5.0,22062020,CP1P 220620 000040,sara,PASS,Original,,
2020-06-22 14-05-21-374,DESKTOP-K0JN836,CP1H_C0_V1.00,FinalTest_2019.8.5.0,22062020,CP1P 220620 000044,sara,PASS,Original,,
2020-06-22 14-06-08-360,DESKTOP-K0JN836,CP1H_C0_V1.00,FinalTest_2019.8.5.0,22062020,CP1P 220620 000042,sara,PASS,Original,,
2020-06-22 14-06-52-662,DESKTOP-K0JN836,CP1H_C0_V1.00,FinalTest_2019.8.5.0,22062020,CP1P 220620 000049,sara,PASS,Original,,
2020-06-22 14-07-39-205,DESKTOP-K0JN836,CP1H_C0_V1.00,FinalTest_2019.8.5.0,22062020,CP1P 220620 000050,sara,PASS,Original,,
2020-06-22 14-08-23-472,DESKTOP-K0JN836,CP1H_C0_V1.00,FinalTest_2019.8.5.0,22062020,CP1P 220620 000045,sara,PASS,Original,,
2020-06-22 14-09-10-135,DESKTOP-K0JN836,CP1H_C0_V1.00,FinalTest_2019.8.5.0,22062020,CP1P 220620 000048,sara,PASS,Original,,
2020-06-22 14-09-57-730,DESKTOP-K0JN836,CP1H_C0_V1.00,FinalTest_2019.8.5.0,22062020,CP1P 220620 000052,sara,PASS,Original,,
2020-06-22 14-10-43-335,DESKTOP-K0JN836,CP1H_C0_V1.00,FinalTest_2019.8.5.0,22062020,CP1P 220620 000052,sara,PASS,Original,,
2020-06-22 14-11-30-896,DESKTOP-K0JN836,CP1H_C0_V1.00,FinalTest_2019.8.5.0,22062020,CP1P 220620 000039,sara,PASS,Original,,
2020-06-22 14-41-09-613,DESKTOP-K0JN836,CP1H_C0_V1.00,FinalTest_2019.8.5.0,22062020,CP1P 220620 000077,sara,PASS,Original,,
2020-06-22 14-41-52-963,DESKTOP-K0JN836,CP1H_C0_V1.00,FinalTest_2019.8.5.0,22062020,CP1P 220620 000058,sara,PASS,Original,,
2020-06-22 14-42-31-105,DESKTOP-K0JN836,CP1H_C0_V1.00,FinalTest_2019.8.5.0,22062020,CP1P 220620 000058,sara,PASS,Original,,
2020-06-22 14-43-18-766,DESKTOP-K0JN836,CP1H_C0_V1.00,FinalTest_2019.8.5.0,22062020,CP1P 220620 000064,sara,PASS,Original,,
2020-06-22 14-44-16-791,DESKTOP-K0JN836,CP1H_C0_V1.00,FinalTest_2019.8.5.0,22062020,CP1P 220620 000056,sara,PASS,Original,,
2020-06-22 14-45-01-464,DESKTOP-K0JN836,CP1H_C0_V1.00,FinalTest_2019.8.5.0,22062020,CP1P 220620 000074,sara,PASS,Original,,
2020-06-22 14-45-38-805,DESKTOP-K0JN836,CP1H_C0_V1.00,FinalTest_2019.8.5.0,22062020,CP1P 220620 000074,sara,PASS,Original,,
2020-06-22 14-48-37-595,DESKTOP-K0JN836,CP1H_C0_V1.00,FinalTest_2019.8.5.0,22062020,CP1P 220620 000060,sara,PASS,Original,,
2020-06-22 14-49-39-425,DESKTOP-K0JN836,CP1H_C0_V1.00,FinalTest_2019.8.5.0,22062020,CP1P 220620 000059,sara,PASS,Original,,
2020-06-22 14-50-40-879,DESKTOP-K0JN836,CP1H_C0_V1.00,FinalTest_2019.8.5.0,22062020,CP1P 220620 000057,sara,PASS,Original,,
2020-06-22 14-51-46-726,DESKTOP-K0JN836,CP1H_C0_V1.00,FinalTest_2019.8.5.0,22062020,CP1P 220620 000063,sara,PASS,Original,,
2020-06-22 14-52-54-579,DESKTOP-K0JN836,CP1H_C0_V1.00,FinalTest_2019.8.5.0,22062020,CP1P 220620 000062,sara,PASS,Original,,
2020-06-22 14-53-40-211,DESKTOP-K0JN836,CP1H_C0_V1.00,FinalTest_2019.8.5.0,22062020,CP1P 220620 000078,sara,PASS,Original,,
2020-06-22 14-55-34-659,DESKTOP-K0JN836,CP1H_C0_V1.00,FinalTest_2019.8.5.0,22062020,CP1P 220620 000061,sara,PASS,Original,,
2020-06-22 14-56-54-105,DESKTOP-K0JN836,CP1H_C0_V1.00,FinalTest_2019.8.5.0,22062020,CP1P 220620 000075,sara,PASS,Original,,
2020-06-22 14-57-51-090,DESKTOP-K0JN836,CP1H_C0_V1.00,FinalTest_2019.8.5.0,22062020,CP1P 220620 000073,sara,PASS,Original,,
2020-06-22 14-58-38-642,DESKTOP-K0JN836,CP1H_C0_V1.00,FinalTest_2019.8.5.0,22062020,CP1P 220620 000076,sara,PASS,Original,,
2020-06-22 14-59-27-261,DESKTOP-K0JN836,CP1H_C0_V1.00,FinalTest_2019.8.5.0,22062020,CP1P 220620 000067,sara,PASS,Original,,
2020-06-22 15-00-17-268,DESKTOP-K0JN836,CP1H_C0_V1.00,FinalTest_2019.8.5.0,22062020,CP1P 220620 000072,sara,PASS,Original,,
2020-06-22 15-01-19-995,DESKTOP-K0JN836,CP1H_C0_V1.00,FinalTest_2019.8.5.0,22062020,CP1P 220620 000071,sara,PASS,Original,,
2020-06-22 15-01-57-135,DESKTOP-K0JN836,CP1H_C0_V1.00,FinalTest_2019.8.5.0,22062020,CP1P 220620 000071,sara,PASS,Original,,
2020-06-22 15-04-39-351,DESKTOP-K0JN836,CP1H_C0_V1.00,FinalTest_2019.8.5.0,22062020,CP1P 220620 000071,sara,PASS,Original,,
2020-06-22 15-05-28-218,DESKTOP-K0JN836,CP1H_C0_V1.00,FinalTest_2019.8.5.0,22062020,CP1P 220620 000069,sara,PASS,Original,,
2020-06-22 15-09-47-613,DESKTOP-K0JN836,CP1H_C0_V1.00,FinalTest_2019.8.5.0,22062020,CP1P 220620 000070,sara,PASS,Original,,
2020-06-22 15-10-32-465,DESKTOP-K0JN836,CP1H_C0_V1.00,FinalTest_2019.8.5.0,22062020,CP1P 220620 000079,sara,PASS,Original,,
2020-06-22 15-11-17-832,DESKTOP-K0JN836,CP1H_C0_V1.00,FinalTest_2019.8.5.0,22062020,CP1P 220620 000065,sara,PASS,Original,,
2020-06-22 15-11-53-386,DESKTOP-K0JN836,CP1H_C0_V1.00,FinalTest_2019.8.5.0,22062020,CP1P 220620 000065,sara,PASS,Original,,
2020-06-22 15-14-47-736,DESKTOP-K0JN836,CP1H_C0_V1.00,FinalTest_2019.8.5.0,22062020,CP1P 220620 000066,sara,PASS,Original,,
2020-06-22 15-15-52-584,DESKTOP-K0JN836,CP1H_C0_V1.00,FinalTest_2019.8.5.0,22062020,CP1P 220620 000068,sara,PASS,Original,,
2020-06-22 15-16-52-423,DESKTOP-K0JN836,CP1H_C0_V1.00,FinalTest_2019.8.5.0,22062020,CP1P 220620 000068,sara,PASS,Original,,
2020-06-22 15-18-07-304,DESKTOP-K0JN836,CP1H_C0_V1.00,FinalTest_2019.8.5.0,22062020,CP1P 220620 000096,sara,PASS,Original,,
2020-06-22 15-22-14-872,DESKTOP-K0JN836,CP1H_C0_V1.00,FinalTest_2019.8.5.0,22062020,CP1P 220620 000091,sara,PASS,Original,,
2020-06-22 15-23-19-734,DESKTOP-K0JN836,CP1H_C0_V1.00,FinalTest_2019.8.5.0,22062020,CP1P 220620 000097,sara,PASS,Original,,
2020-06-22 15-24-13-222,DESKTOP-K0JN836,CP1H_C0_V1.00,FinalTest_2019.8.5.0,22062020,CP1P 220620 000097,sara,PASS,Original,,
2020-06-22 15-25-09-049,DESKTOP-K0JN836,CP1H_C0_V1.00,FinalTest_2019.8.5.0,22062020,CP1P 220620 000097,sara,PASS,Original,,
2020-06-22 15-26-15-224,DESKTOP-K0JN836,CP1H_C0_V1.00,FinalTest_2019.8.5.0,22062020,CP1P 220620 000098,sara,PASS,Original,,
2020-06-22 15-27-05-520,DESKTOP-K0JN836,CP1H_C0_V1.00,FinalTest_2019.8.5.0,22062020,CP1P 220620 000087,sara,PASS,Original,,
2020-06-22 15-27-37-126,DESKTOP-K0JN836,CP1H_C0_V1.00,FinalTest_2019.8.5.0,22062020,CP1P 220620 000087,sara,PASS,Original,,
2020-06-22 15-28-11-960,DESKTOP-K0JN836,CP1H_C0_V1.00,FinalTest_2019.8.5.0,22062020,CP1P 220620 000087,sara,PASS,Original,,
2020-06-22 15-29-07-739,DESKTOP-K0JN836,CP1H_C0_V1.00,FinalTest_2019.8.5.0,22062020,CP1P 220620 000092,sara,PASS,Original,,
2020-06-22 15-29-51-524,DESKTOP-K0JN836,CP1H_C0_V1.00,FinalTest_2019.8.5.0,22062020,CP1P 220620 000086,sara,PASS,Original,,
2020-06-22 15-50-07-187,DESKTOP-K0JN836,CP1H_C0_V1.00,FinalTest_2019.8.5.0,22062020,CP1P 220620 000088,sara,PASS,Original,,
2020-06-22 15-50-53-051,DESKTOP-K0JN836,CP1H_C0_V1.00,FinalTest_2019.8.5.0,22062020,CP1P 220620 000099,sara,PASS,Original,,
2020-06-22 15-51-59-598,DESKTOP-K0JN836,CP1H_C0_V1.00,FinalTest_2019.8.5.0,22062020,CP1P 220620 000090,sara,PASS,Original,,
2020-06-22 15-52-40-272,DESKTOP-K0JN836,CP1H_C0_V1.00,FinalTest_2019.8.5.0,22062020,CP1P 220620 000083,sara,PASS,Original,,
2020-06-22 15-53-36-893,DESKTOP-K0JN836,CP1H_C0_V1.00,FinalTest_2019.8.5.0,22062020,CP1P 220620 000084,sara,PASS,Original,,
2020-06-22 15-54-19-382,DESKTOP-K0JN836,CP1H_C0_V1.00,FinalTest_2019.8.5.0,22062020,CP1P 220620 000093,sara,PASS,Original,,
2020-06-22 15-55-28-433,DESKTOP-K0JN836,CP1H_C0_V1.00,FinalTest_2019.8.5.0,22062020,CP1P 220620 000085,sara,PASS,Original,,
2020-06-22 15-56-15-821,DESKTOP-K0JN836,CP1H_C0_V1.00,FinalTest_2019.8.5.0,22062020,CP1P 220620 000094,sara,PASS,Original,,
2020-06-22 15-57-04-271,DESKTOP-K0JN836,CP1H_C0_V1.00,FinalTest_2019.8.5.0,22062020,CP1P 220620 000082,sara,PASS,Original,,
2020-06-22 15-58-06-878,DESKTOP-K0JN836,CP1H_C0_V1.00,FinalTest_2019.8.5.0,22062020,CP1P 220620 000089,sara,PASS,Original,,
2020-06-22 15-59-00-796,DESKTOP-K0JN836,CP1H_C0_V1.00,FinalTest_2019.8.5.0,22062020,CP1P 220620 000100,sara,PASS,Original,,
2020-06-22 15-59-45-076,DESKTOP-K0JN836,CP1H_C0_V1.00,FinalTest_2019.8.5.0,22062020,CP1P 220620 000095,sara,PASS,Original,,
2020-06-22 16-00-21-015,DESKTOP-K0JN836,CP1H_C0_V1.00,FinalTest_2019.8.5.0,22062020,CP1P 220620 000095,sara,PASS,Original,,
2020-06-22 16-01-19-231,DESKTOP-K0JN836,CP1H_C0_V1.00,FinalTest_2019.8.5.0,22062020,CP1P 220620 000081,sara,PASS,Original,,
2020-06-22 16-02-03-914,DESKTOP-K0JN836,CP1H_C0_V1.00,FinalTest_2019.8.5.0,22062020,CP1P 220620 000080,sara,PASS,Original,,
2020-06-22 16-04-28-550,DESKTOP-K0JN836,CP1H_C0_V1.00,FinalTest_2019.8.5.0,22062020,CP1P 220620 000080,sara,PASS,Original,,
2020-06-22 16-05-16-283,DESKTOP-K0JN836,CP1H_C0_V1.00,FinalTest_2019.8.5.0,22062020,CP1P 220620 000033,sara,PASS,Original,,
2020-06-22 16-07-02-082,DESKTOP-K0JN836,CP1H_C0_V1.00,FinalTest_2019.8.5.0,22062020,CP1P 220620 000129,sara,PASS,Original,,
2020-06-22 16-07-58-394,DESKTOP-K0JN836,CP1H_C0_V1.00,FinalTest_2019.8.5.0,22062020,CP1P 220620 000139,sara,PASS,Original,,
2020-06-22 16-08-41-537,DESKTOP-K0JN836,CP1H_C0_V1.00,FinalTest_2019.8.5.0,22062020,CP1P 220620 000104,sara,PASS,Original,,
2020-06-22 16-10-15-215,DESKTOP-K0JN836,CP1H_C0_V1.00,FinalTest_2019.8.5.0,22062020,CP1P 220620 000104,sara,PASS,Original,,
2020-06-22 16-10-59-387,DESKTOP-K0JN836,CP1H_C0_V1.00,FinalTest_2019.8.5.0,22062020,CP1P 220620 000111,sara,PASS,Original,,
2020-06-22 16-11-41-840,DESKTOP-K0JN836,CP1H_C0_V1.00,FinalTest_2019.8.5.0,22062020,CP1P 220620 000112,sara,PASS,Original,,
2020-06-22 16-12-27-304,DESKTOP-K0JN836,CP1H_C0_V1.00,FinalTest_2019.8.5.0,22062020,CP1P 220620 000113,sara,PASS,Original,,
2020-06-22 16-13-17-706,DESKTOP-K0JN836,CP1H_C0_V1.00,FinalTest_2019.8.5.0,22062020,CP1P 220620 000108,sara,PASS,Original,,
2020-06-22 16-14-12-625,DESKTOP-K0JN836,CP1H_C0_V1.00,FinalTest_2019.8.5.0,22062020,CP1P 220620 000107,sara,PASS,Original,,
2020-06-22 16-14-59-810,DESKTOP-K0JN836,CP1H_C0_V1.00,FinalTest_2019.8.5.0,22062020,CP1P 220620 000132,sara,PASS,Original,,
2020-06-22 16-15-45-599,DESKTOP-K0JN836,CP1H_C0_V1.00,FinalTest_2019.8.5.0,22062020,CP1P 220620 000132,sara,PASS,Original,,
2020-06-22 16-16-36-389,DESKTOP-K0JN836,CP1H_C0_V1.00,FinalTest_2019.8.5.0,22062020,CP1P 220620 000128,sara,PASS,Original,,
2020-06-22 16-17-24-468,DESKTOP-K0JN836,CP1H_C0_V1.00,FinalTest_2019.8.5.0,22062020,CP1P 220620 000130,sara,PASS,Original,,
2020-06-22 16-18-08-844,DESKTOP-K0JN836,CP1H_C0_V1.00,FinalTest_2019.8.5.0,22062020,CP1P 220620 000136,sara,PASS,Original,,
2020-06-22 16-18-54-199,DESKTOP-K0JN836,CP1H_C0_V1.00,FinalTest_2019.8.5.0,22062020,CP1P 220620 000105,sara,PASS,Original,,
2020-06-22 16-19-29-511,DESKTOP-K0JN836,CP1H_C0_V1.00,FinalTest_2019.8.5.0,22062020,CP1P 220620 000105,sara,PASS,Original,,
2020-06-22 16-20-24-054,DESKTOP-K0JN836,CP1H_C0_V1.00,FinalTest_2019.8.5.0,22062020,CP1P 220620 000138,sara,PASS,Original,,
2020-06-22 16-21-09-821,DESKTOP-K0JN836,CP1H_C0_V1.00,FinalTest_2019.8.5.0,22062020,CP1P 220620 000126,sara,PASS,Original,,
2020-06-22 16-21-57-310,DESKTOP-K0JN836,CP1H_C0_V1.00,FinalTest_2019.8.5.0,22062020,CP1P 220620 000137,sara,PASS,Original,,
2020-06-22 16-22-41-848,DESKTOP-K0JN836,CP1H_C0_V1.00,FinalTest_2019.8.5.0,22062020,CP1P 220620 000131,sara,PASS,Original,,
2020-06-22 16-23-35-290,DESKTOP-K0JN836,CP1H_C0_V1.00,FinalTest_2019.8.5.0,22062020,CP1P 220620 000145,sara,PASS,Original,,
2020-06-22 16-24-33-623,DESKTOP-K0JN836,CP1H_C0_V1.00,FinalTest_2019.8.5.0,22062020,CP1P 220620 000146,sara,PASS,Original,,
2020-06-22 16-25-51-017,DESKTOP-K0JN836,CP1H_C0_V1.00,FinalTest_2019.8.5.0,22062020,CP1P 220620 000146,sara,PASS,Original,,
2020-06-22 16-26-50-749,DESKTOP-K0JN836,CP1H_C0_V1.00,FinalTest_2019.8.5.0,22062020,CP1P 220620 000140,sara,PASS,Original,,
2020-06-22 16-27-35-720,DESKTOP-K0JN836,CP1H_C0_V1.00,FinalTest_2019.8.5.0,22062020,CP1P 220620 000133,sara,PASS,Original,,
2020-06-22 16-28-18-319,DESKTOP-K0JN836,CP1H_C0_V1.00,FinalTest_2019.8.5.0,22062020,CP1P 220620 000135,sara,PASS,Original,,
2020-06-22 16-29-03-971,DESKTOP-K0JN836,CP1H_C0_V1.00,FinalTest_2019.8.5.0,22062020,CP1P 220620 000143,sara,PASS,Original,,
2020-06-22 16-30-48-510,DESKTOP-K0JN836,CP1H_C0_V1.00,FinalTest_2019.8.5.0,22062020,CP1P 220620 000143,sara,PASS,Original,,
2020-06-22 16-31-37-519,DESKTOP-K0JN836,CP1H_C0_V1.00,FinalTest_2019.8.5.0,22062020,CP1P 220620 000141,sara,PASS,Original,,
2020-06-22 16-34-26-463,DESKTOP-K0JN836,CP1H_C0_V1.00,FinalTest_2019.8.5.0,22062020,CP1P 220620 000114,sara,PASS,Original,,
2020-06-22 16-35-11-323,DESKTOP-K0JN836,CP1H_C0_V1.00,FinalTest_2019.8.5.0,22062020,CP1P 220620 000121,sara,PASS,Original,,
2020-06-22 16-35-54-366,DESKTOP-K0JN836,CP1H_C0_V1.00,FinalTest_2019.8.5.0,22062020,CP1P 220620 000127,sara,PASS,Original,,
2020-06-22 16-36-37-941,DESKTOP-K0JN836,CP1H_C0_V1.00,FinalTest_2019.8.5.0,22062020,CP1P 220620 000117,sara,PASS,Original,,
2020-06-22 16-37-23-509,DESKTOP-K0JN836,CP1H_C0_V1.00,FinalTest_2019.8.5.0,22062020,CP1P 220620 000106,sara,PASS,Original,,
2020-06-22 16-38-12-889,DESKTOP-K0JN836,CP1H_C0_V1.00,FinalTest_2019.8.5.0,22062020,CP1P 220620 000125,sara,PASS,Original,,
2020-06-22 16-38-57-811,DESKTOP-K0JN836,CP1H_C0_V1.00,FinalTest_2019.8.5.0,22062020,CP1P 220620 000119,sara,PASS,Original,,
2020-06-22 16-39-48-624,DESKTOP-K0JN836,CP1H_C0_V1.00,FinalTest_2019.8.5.0,22062020,CP1P 220620 000103,sara,PASS,Original,,
2020-06-22 16-40-43-452,DESKTOP-K0JN836,CP1H_C0_V1.00,FinalTest_2019.8.5.0,22062020,CP1P 220620 000109,sara,PASS,Original,,
2020-06-22 16-41-28-005,DESKTOP-K0JN836,CP1H_C0_V1.00,FinalTest_2019.8.5.0,22062020,CP1P 220620 000144,sara,PASS,Original,,
2020-06-22 16-42-14-970,DESKTOP-K0JN836,CP1H_C0_V1.00,FinalTest_2019.8.5.0,22062020,CP1P 220620 000142,sara,PASS,Original,,
2020-06-22 16-43-00-825,DESKTOP-K0JN836,CP1H_C0_V1.00,FinalTest_2019.8.5.0,22062020,CP1P 220620 000123,sara,PASS,Original,,
2020-06-22 16-43-57-554,DESKTOP-K0JN836,CP1H_C0_V1.00,FinalTest_2019.8.5.0,22062020,CP1P 220620 000118,sara,PASS,Original,,
2020-06-22 16-44-42-712,DESKTOP-K0JN836,CP1H_C0_V1.00,FinalTest_2019.8.5.0,22062020,CP1P 220620 000102,sara,PASS,Original,,
2020-06-22 16-45-31-461,DESKTOP-K0JN836,CP1H_C0_V1.00,FinalTest_2019.8.5.0,22062020,CP1P 220620 000101,sara,PASS,Original,,
2020-06-22 16-46-16-339,DESKTOP-K0JN836,CP1H_C0_V1.00,FinalTest_2019.8.5.0,22062020,CP1P 220620 000115,sara,PASS,Original,,
2020-06-22 16-46-59-477,DESKTOP-K0JN836,CP1H_C0_V1.00,FinalTest_2019.8.5.0,22062020,CP1P 220620 000120,sara,PASS,Original,,
2020-06-22 16-47-42-852,DESKTOP-K0JN836,CP1H_C0_V1.00,FinalTest_2019.8.5.0,22062020,CP1P 220620 000122,sara,PASS,Original,,
2020-06-22 16-48-32-233,DESKTOP-K0JN836,CP1H_C0_V1.00,FinalTest_2019.8.5.0,22062020,CP1P 220620 000110,sara,PASS,Original,,
2020-06-22 16-49-21-727,DESKTOP-K0JN836,CP1H_C0_V1.00,FinalTest_2019.8.5.0,22062020,CP1P 220620 000147,sara,PASS,Original,,
2020-06-22 16-50-16-018,DESKTOP-K0JN836,CP1H_C0_V1.00,FinalTest_2019.8.5.0,22062020,CP1P 220620 000134,sara,PASS,Original,,
2020-06-22 16-51-49-478,DESKTOP-K0JN836,CP1H_C0_V1.00,FinalTest_2019.8.5.0,22062020,CP1P 220620 000116,sara,PASS,Original,,
2020-06-22 16-52-19-396,DESKTOP-K0JN836,CP1H_C0_V1.00,FinalTest_2019.8.5.0,22062020,CP1P 220620 000116,sara,PASS,Original,,
2020-06-22 16-53-12-296,DESKTOP-K0JN836,CP1H_C0_V1.00,FinalTest_2019.8.5.0,22062020,CP1P 220620 000124,sara,PASS,Original,,
2020-06-22 16-53-52-159,DESKTOP-K0JN836,CP1H_C0_V1.00,FinalTest_2019.8.5.0,22062020,CP1P 220620 000124,sara,PASS,Original,,
2020-06-22 16-55-06-571,DESKTOP-K0JN836,CP1H_C0_V1.00,FinalTest_2019.8.5.0,22062020,CP1P 220620 000155,sara,PASS,Original,,
2020-06-22 16-56-06-891,DESKTOP-K0JN836,CP1H_C0_V1.00,FinalTest_2019.8.5.0,22062020,CP1P 220620 000151,sara,PASS,Original,,
2020-06-22 16-56-56-568,DESKTOP-K0JN836,CP1H_C0_V1.00,FinalTest_2019.8.5.0,22062020,CP1P 220620 000150,sara,PASS,Original,,
2020-06-22 16-57-43-343,DESKTOP-K0JN836,CP1H_C0_V1.00,FinalTest_2019.8.5.0,22062020,CP1P 220620 000150,sara,PASS,Original,,
2020-06-22 16-58-33-742,DESKTOP-K0JN836,CP1H_C0_V1.00,FinalTest_2019.8.5.0,22062020,CP1P 220620 000266,sara,PASS,Original,,
2020-06-22 16-59-37-418,DESKTOP-K0JN836,CP1H_C0_V1.00,FinalTest_2019.8.5.0,22062020,CP1P 220620 000166,sara,PASS,Original,,
2020-06-22 17-00-12-324,DESKTOP-K0JN836,CP1H_C0_V1.00,FinalTest_2019.8.5.0,22062020,CP1P 220620 000166,sara,PASS,Original,,
2020-06-22 17-00-51-168,DESKTOP-K0JN836,CP1H_C0_V1.00,FinalTest_2019.8.5.0,22062020,CP1P 220620 000166,sara,PASS,Original,,
2020-06-22 17-01-46-751,DESKTOP-K0JN836,CP1H_C0_V1.00,FinalTest_2019.8.5.0,22062020,CP1P 220620 000154,sara,PASS,Original,,
2020-06-22 17-02-54-833,DESKTOP-K0JN836,CP1H_C0_V1.00,FinalTest_2019.8.5.0,22062020,CP1P 220620 000184,sara,PASS,Original,,
2020-06-22 17-03-43-997,DESKTOP-K0JN836,CP1H_C0_V1.00,FinalTest_2019.8.5.0,22062020,CP1P 220620 000149,sara,PASS,Original,,
2020-06-22 17-04-27-468,DESKTOP-K0JN836,CP1H_C0_V1.00,FinalTest_2019.8.5.0,22062020,CP1P 220620 000178,sara,PASS,Original,,
2020-06-22 17-05-19-552,DESKTOP-K0JN836,CP1H_C0_V1.00,FinalTest_2019.8.5.0,22062020,CP1P 220620 000171,sara,PASS,Original,,
2020-06-22 17-06-03-009,DESKTOP-K0JN836,CP1H_C0_V1.00,FinalTest_2019.8.5.0,22062020,CP1P 220620 000180,sara,PASS,Original,,
2020-06-22 17-06-49-368,DESKTOP-K0JN836,CP1H_C0_V1.00,FinalTest_2019.8.5.0,22062020,CP1P 220620 000177,sara,PASS,Original,,
2020-06-22 17-07-37-054,DESKTOP-K0JN836,CP1H_C0_V1.00,FinalTest_2019.8.5.0,22062020,CP1P 220620 000148,sara,PASS,Original,,
2020-06-22 17-08-22-251,DESKTOP-K0JN836,CP1H_C0_V1.00,FinalTest_2019.8.5.0,22062020,CP1P 220620 000156,sara,PASS,Original,,
2020-06-22 17-09-15-641,DESKTOP-K0JN836,CP1H_C0_V1.00,FinalTest_2019.8.5.0,22062020,CP1P 220620 000162,sara,PASS,Original,,
2020-06-22 17-09-53-487,DESKTOP-K0JN836,CP1H_C0_V1.00,FinalTest_2019.8.5.0,22062020,CP1P 220620 000162,sara,PASS,Original,,
2020-06-22 17-10-42-085,DESKTOP-K0JN836,CP1H_C0_V1.00,FinalTest_2019.8.5.0,22062020,CP1P 220620 000179,sara,PASS,Original,,
2020-06-22 17-11-43-616,DESKTOP-K0JN836,CP1H_C0_V1.00,FinalTest_2019.8.5.0,22062020,CP1P 220620 000248,sara,PASS,Original,,
2020-06-22 17-12-27-475,DESKTOP-K0JN836,CP1H_C0_V1.00,FinalTest_2019.8.5.0,22062020,CP1P 220620 000157,sara,PASS,Original,,
2020-06-22 17-13-02-601,DESKTOP-K0JN836,CP1H_C0_V1.00,FinalTest_2019.8.5.0,22062020,CP1P 220620 000157,sara,PASS,Original,,
2020-06-22 17-13-46-975,DESKTOP-K0JN836,CP1H_C0_V1.00,FinalTest_2019.8.5.0,22062020,CP1P 220620 000152,sara,PASS,Original,,
2020-06-22 17-14-30-541,DESKTOP-K0JN836,CP1H_C0_V1.00,FinalTest_2019.8.5.0,22062020,CP1P 220620 000175,sara,PASS,Original,,
2020-06-22 17-15-17-513,DESKTOP-K0JN836,CP1H_C0_V1.00,FinalTest_2019.8.5.0,22062020,CP1P 220620 000168,sara,PASS,Original,,
2020-06-22 17-16-09-041,DESKTOP-K0JN836,CP1H_C0_V1.00,FinalTest_2019.8.5.0,22062020,CP1P 220620 000173,sara,PASS,Original,,
2020-06-22 17-17-02-325,DESKTOP-K0JN836,CP1H_C0_V1.00,FinalTest_2019.8.5.0,22062020,CP1P 220620 000176,sara,PASS,Original,,
2020-06-22 17-17-47-396,DESKTOP-K0JN836,CP1H_C0_V1.00,FinalTest_2019.8.5.0,22062020,CP1P 220620 000159,sara,PASS,Original,,
2020-06-22 17-18-35-059,DESKTOP-K0JN836,CP1H_C0_V1.00,FinalTest_2019.8.5.0,22062020,CP1P 220620 000160,sara,PASS,Original,,
2020-06-22 17-19-21-946,DESKTOP-K0JN836,CP1H_C0_V1.00,FinalTest_2019.8.5.0,22062020,CP1P 220620 000186,sara,PASS,Original,,
2020-06-22 17-19-55-071,DESKTOP-K0JN836,CP1H_C0_V1.00,FinalTest_2019.8.5.0,22062020,CP1P 220620 000186,sara,PASS,Original,,
2020-06-22 17-20-54-617,DESKTOP-K0JN836,CP1H_C0_V1.00,FinalTest_2019.8.5.0,22062020,CP1P 220620 000189,sara,PASS,Original,,
2020-06-22 17-21-37-252,DESKTOP-K0JN836,CP1H_C0_V1.00,FinalTest_2019.8.5.0,22062020,CP1P 220620 000188,sara,PASS,Original,,
2020-06-22 17-22-21-536,DESKTOP-K0JN836,CP1H_C0_V1.00,FinalTest_2019.8.5.0,22062020,CP1P 220620 000182,sara,PASS,Original,,
2020-06-22 17-23-30-898,DESKTOP-K0JN836,CP1H_C0_V1.00,FinalTest_2019.8.5.0,22062020,CP1P 220620 000161,sara,PASS,Original,,
2020-06-22 17-24-14-865,DESKTOP-K0JN836,CP1H_C0_V1.00,FinalTest_2019.8.5.0,22062020,CP1P 220620 000196,sara,PASS,Original,,
2020-06-22 17-25-06-949,DESKTOP-K0JN836,CP1H_C0_V1.00,FinalTest_2019.8.5.0,22062020,CP1P 220620 000187,sara,PASS,Original,,
2020-06-22 17-25-49-727,DESKTOP-K0JN836,CP1H_C0_V1.00,FinalTest_2019.8.5.0,22062020,CP1P 220620 000169,sara,PASS,Original,,
2020-06-22 17-26-33-082,DESKTOP-K0JN836,CP1H_C0_V1.00,FinalTest_2019.8.5.0,22062020,CP1P 220620 000181,sara,PASS,Original,,
2020-06-22 17-27-17-446,DESKTOP-K0JN836,CP1H_C0_V1.00,FinalTest_2019.8.5.0,22062020,CP1P 220620 000174,sara,PASS,Original,,
2020-06-22 17-28-02-406,DESKTOP-K0JN836,CP1H_C0_V1.00,FinalTest_2019.8.5.0,22062020,CP1P 220620 000194,sara,PASS,Original,,
