Time,Equipment,Model,SWVersion,LotName,Barcode,Operator,Result,Side 1,Side 2,Side 3,Side 4,,
2020-10-13 08-25-07-901,DESKTOP-K0JN836,CP1H_C0_V1.00,FinalTest_2020.9.23.0,131020,CP1H 210920 000188,sara,PASS,73.85,72.82,77.95,77.44,,
2020-10-13 08-26-02-788,DESKTOP-K0JN836,CP1H_C0_V1.00,FinalTest_2020.9.23.0,131020,CP1H 210920 000258,sara,PASS,76.41,70.77,80.00,74.87,,
2020-10-13 08-27-01-770,DESKTOP-K0JN836,CP1H_C0_V1.00,FinalTest_2020.9.23.0,131020,CP1H 210920 000007,sara,PASS,76.41,70.77,80.00,74.87,,
2020-10-13 08-27-46-101,DESKTOP-K0JN836,CP1H_C0_V1.00,FinalTest_2020.9.23.0,131020,CP1H 210920 000007,sara,PASS,76.41,70.77,80.00,74.87,,
2020-10-13 08-28-29-508,DESKTOP-K0JN836,CP1H_C0_V1.00,FinalTest_2020.9.23.0,131020,CP1H 210920 000007,sara,PASS,76.41,70.77,80.00,74.87,,
2020-10-13 08-29-16-499,DESKTOP-K0JN836,CP1H_C0_V1.00,FinalTest_2020.9.23.0,131020,CP1H 210920 000207,sara,PASS,73.23,74.24,76.26,77.78,,
2020-10-13 08-30-50-230,DESKTOP-K0JN836,CP1H_C0_V1.00,FinalTest_2020.9.23.0,131020,CP1H 210920 000239,sara,PASS,75.00,75.52,76.04,77.08,,
2020-10-13 08-31-45-199,DESKTOP-K0JN836,CP1H_C0_V1.00,FinalTest_2020.9.23.0,131020,CP1H 210920 000255,sara,PASS,74.61,75.65,75.65,77.20,,
2020-10-13 08-32-42-451,DESKTOP-K0JN836,CP1H_C0_V1.00,FinalTest_2020.9.23.0,131020,CP1H 210920 000116,sara,PASS,74.75,73.27,77.72,77.23,,
2020-10-13 08-33-33-336,DESKTOP-K0JN836,CP1H_C0_V1.00,FinalTest_2020.9.23.0,131020,CP1H 210920 000093,sara,PASS,74.09,75.13,75.65,77.72,,
2020-10-13 08-34-20-618,DESKTOP-K0JN836,CP1H_C0_V1.00,FinalTest_2020.9.23.0,131020,CP1H 210920 000261,sara,PASS,74.74,73.71,77.84,76.80,,
2020-10-13 08-35-01-151,DESKTOP-K0JN836,CP1H_C0_V1.00,FinalTest_2020.9.23.0,131020,CP1H 210920 000156,sara,PASS,75.92,73.30,79.06,76.96,,
2020-10-13 08-35-44-938,DESKTOP-K0JN836,CP1H_C0_V1.00,FinalTest_2020.9.23.0,131020,CP1H 210920 000003,sara,PASS,75.92,73.30,79.06,76.96,,
2020-10-13 08-36-33-918,DESKTOP-K0JN836,CP1H_C0_V1.00,FinalTest_2020.9.23.0,131020,CP1H 210920 000003,sara,PASS,74.74,73.68,77.89,77.37,,
2020-10-13 08-37-18-182,DESKTOP-K0JN836,CP1H_C0_V1.00,FinalTest_2020.9.23.0,131020,CP1H 210920 000166,sara,PASS,73.58,75.65,76.17,78.76,,
2020-10-13 08-38-10-473,DESKTOP-K0JN836,CP1H_C0_V1.00,FinalTest_2020.9.23.0,131020,CP1H 210920 000117,sara,PASS,74.87,73.30,77.49,76.44,,
2020-10-13 08-38-58-969,DESKTOP-K0JN836,CP1H_C0_V1.00,FinalTest_2020.9.23.0,131020,CP1H 210920 000243,sara,PASS,74.24,75.25,76.26,77.78,,
2020-10-13 08-39-42-935,DESKTOP-K0JN836,CP1H_C0_V1.00,FinalTest_2020.9.23.0,131020,CP1H 210920 000246,sara,PASS,76.65,72.08,78.68,75.13,,
2020-10-13 08-40-26-702,DESKTOP-K0JN836,CP1H_C0_V1.00,FinalTest_2020.9.23.0,131020,CP1H 210920 000295,sara,PASS,75.52,71.88,79.69,76.04,,
2020-10-13 08-41-18-902,DESKTOP-K0JN836,CP1H_C0_V1.00,FinalTest_2020.9.23.0,131020,CP1H 210920 000206,sara,PASS,73.33,77.44,73.85,78.46,,
2020-10-13 08-42-05-754,DESKTOP-K0JN836,CP1H_C0_V1.00,FinalTest_2020.9.23.0,131020,CP1H 210920 000199,sara,PASS,74.61,75.13,76.17,77.20,,
2020-10-13 08-42-54-540,DESKTOP-K0JN836,CP1H_C0_V1.00,FinalTest_2020.9.23.0,131020,CP1H 210920 000225,sara,PASS,73.96,75.00,77.08,78.65,,
2020-10-13 08-43-43-114,DESKTOP-K0JN836,CP1H_C0_V1.00,FinalTest_2020.9.23.0,131020,CP1H 100920 000139,sara,PASS,73.96,75.00,77.08,78.65,,
2020-10-13 08-44-18-152,DESKTOP-K0JN836,CP1H_C0_V1.00,FinalTest_2020.9.23.0,131020,CP1H 100920 000139,sara,PASS,73.96,75.00,77.08,78.65,,
2020-10-13 08-45-00-502,DESKTOP-K0JN836,CP1H_C0_V1.00,FinalTest_2020.9.23.0,131020,CP1H 210920 000297,sara,PASS,73.10,76.14,74.62,78.17,,
2020-10-13 08-45-57-636,DESKTOP-K0JN836,CP1H_C0_V1.00,FinalTest_2020.9.23.0,131020,CP1H 210920 000009,sara,PASS,73.02,74.60,76.72,78.84,,
2020-10-13 08-46-41-221,DESKTOP-K0JN836,CP1H_C0_V1.00,FinalTest_2020.9.23.0,131020,CP1H 210920 000278,sara,PASS,75.13,73.58,77.72,77.20,,
2020-10-13 08-47-26-791,DESKTOP-K0JN836,CP1H_C0_V1.00,FinalTest_2020.9.23.0,131020,CP1H 210920 000168,sara,PASS,75.38,73.85,78.46,76.92,,
2020-10-13 08-48-07-958,DESKTOP-K0JN836,CP1H_C0_V1.00,FinalTest_2020.9.23.0,131020,CP1H 210920 000174,sara,PASS,74.48,76.56,75.00,77.08,,
2020-10-13 08-48-56-029,DESKTOP-K0JN836,CP1H_C0_V1.00,FinalTest_2020.9.23.0,131020,CP1H 210920 000082,sara,PASS,74.11,76.14,75.13,78.17,,
2020-10-13 09-01-10-983,DESKTOP-K0JN836,CP1H_C0_V1.00,FinalTest_2020.9.23.0,131020,CP1H 210920 000082,sara,PASS,73.47,76.02,75.00,78.06,,
2020-10-13 09-01-58-865,DESKTOP-K0JN836,CP1H_C0_V1.00,FinalTest_2020.9.23.0,131020,CP1H 210920 000223,sara,PASS,73.47,76.02,75.00,78.06,,
2020-10-13 09-02-53-266,DESKTOP-K0JN836,CP1H_C0_V1.00,FinalTest_2020.9.23.0,131020,CP1H 210920 000223,sara,PASS,73.47,76.02,75.00,78.06,,
2020-10-13 09-03-38-820,DESKTOP-K0JN836,CP1H_C0_V1.00,FinalTest_2020.9.23.0,131020,CP1H 210920 000223,sara,PASS,73.47,76.02,75.00,78.06,,
2020-10-13 09-04-23-882,DESKTOP-K0JN836,CP1H_C0_V1.00,FinalTest_2020.9.23.0,131020,CP1H 210920 000288,sara,PASS,74.24,74.75,76.26,77.78,,
2020-10-13 09-05-22-089,DESKTOP-K0JN836,CP1H_C0_V1.00,FinalTest_2020.9.23.0,131020,CP1H 210920 000241,sara,PASS,75.88,71.86,79.90,75.88,,
2020-10-13 09-06-15-058,DESKTOP-K0JN836,CP1H_C0_V1.00,FinalTest_2020.9.23.0,131020,CP1H 210920 000209,sara,PASS,75.53,74.47,77.13,76.60,,
2020-10-13 09-06-57-119,DESKTOP-K0JN836,CP1H_C0_V1.00,FinalTest_2020.9.23.0,131020,CP1H 210920 000083,sara,PASS,75.53,74.47,77.13,76.60,,
2020-10-13 09-10-02-281,DESKTOP-K0JN836,CP1H_C0_V1.00,FinalTest_2020.9.23.0,131020,CP1H 210920 000083,sara,PASS,74.21,75.26,76.32,77.89,,
2020-10-13 09-10-51-846,DESKTOP-K0JN836,CP1H_C0_V1.00,FinalTest_2020.9.23.0,131020,CP1H 210920 000218,sara,PASS,72.92,76.04,75.00,78.65,,
2020-10-13 09-11-44-222,DESKTOP-K0JN836,CP1H_C0_V1.00,FinalTest_2020.9.23.0,131020,CP1H 210920 000247,sara,PASS,73.54,76.72,74.07,77.78,,
2020-10-13 09-20-43-241,DESKTOP-K0JN836,CP1H_C0_V1.00,FinalTest_2020.9.23.0,131020,CP1H 210920 000216,sara,PASS,74.61,75.65,75.65,77.20,,
2020-10-13 09-21-29-885,DESKTOP-K0JN836,CP1H_C0_V1.00,FinalTest_2020.9.23.0,131020,CP1H 210920 000274,sara,PASS,74.61,75.65,75.65,77.20,,
2020-10-13 09-25-08-703,DESKTOP-K0JN836,CP1H_C0_V1.00,FinalTest_2020.9.23.0,131020,CP1H 210920 000274,sara,PASS,75.00,75.52,76.04,77.08,,
2020-10-13 09-26-09-231,DESKTOP-K0JN836,CP1H_C0_V1.00,FinalTest_2020.9.23.0,131020,CP1H 210920 000215,sara,PASS,75.00,75.52,76.04,77.08,,
2020-10-13 09-27-00-900,DESKTOP-K0JN836,CP1H_C0_V1.00,FinalTest_2020.9.23.0,131020,CP1H 210920 000215,sara,PASS,75.38,75.38,77.39,76.88,,
2020-10-13 09-27-48-275,DESKTOP-K0JN836,CP1H_C0_V1.00,FinalTest_2020.9.23.0,131020,CP1H 210920 000015,sara,PASS,74.33,75.40,75.94,77.54,,
2020-10-13 09-28-32-654,DESKTOP-K0JN836,CP1H_C0_V1.00,FinalTest_2020.9.23.0,131020,CP1H 210920 000271,sara,PASS,74.87,75.38,75.90,76.92,,
2020-10-13 09-29-18-124,DESKTOP-K0JN836,CP1H_C0_V1.00,FinalTest_2020.9.23.0,131020,CP1H 210920 000217,sara,PASS,75.26,74.21,77.89,77.89,,
2020-10-13 09-29-59-908,DESKTOP-K0JN836,CP1H_C0_V1.00,FinalTest_2020.9.23.0,131020,CP1H 100920 000102,sara,PASS,75.00,72.45,78.57,77.04,,
2020-10-13 09-30-49-470,DESKTOP-K0JN836,CP1H_C0_V1.00,FinalTest_2020.9.23.0,131020,CP1H 210920 000016,sara,PASS,73.74,75.25,76.26,78.79,,
2020-10-13 09-31-41-798,DESKTOP-K0JN836,CP1H_C0_V1.00,FinalTest_2020.9.23.0,131020,CP1H 210920 000171,sara,PASS,74.48,75.52,75.52,77.08,,
2020-10-13 09-32-27-982,DESKTOP-K0JN836,CP1H_C0_V1.00,FinalTest_2020.9.23.0,131020,CP1H 210920 000002,sara,PASS,74.62,74.62,76.65,77.16,,
2020-10-13 09-33-13-862,DESKTOP-K0JN836,CP1H_C0_V1.00,FinalTest_2020.9.23.0,131020,CP1H 210920 000220,sara,PASS,73.00,78.50,73.50,80.00,,
2020-10-13 09-33-54-047,DESKTOP-K0JN836,CP1H_C0_V1.00,FinalTest_2020.9.23.0,131020,CP1H 210920 000249,sara,PASS,74.74,74.21,77.37,77.37,,
2020-10-13 09-34-35-012,DESKTOP-K0JN836,CP1H_C0_V1.00,FinalTest_2020.9.23.0,131020,CP1H 210920 000005,sara,PASS,75.13,74.11,77.66,77.16,,
2020-10-13 09-35-16-653,DESKTOP-K0JN836,CP1H_C0_V1.00,FinalTest_2020.9.23.0,131020,CP1H 210920 000180,sara,PASS,75.90,72.82,78.46,76.41,,
2020-10-13 09-36-04-411,DESKTOP-K0JN836,CP1H_C0_V1.00,FinalTest_2020.9.23.0,131020,CP1H 210920 000019,sara,PASS,73.82,74.35,76.96,78.01,,
2020-10-13 09-36-48-607,DESKTOP-K0JN836,CP1H_C0_V1.00,FinalTest_2020.9.23.0,131020,CP1H 210920 000176,sara,PASS,72.16,76.29,75.26,80.41,,
2020-10-13 09-37-31-329,DESKTOP-K0JN836,CP1H_C0_V1.00,FinalTest_2020.9.23.0,131020,CP1H 210920 000011,sara,PASS,74.49,73.98,77.55,78.06,,
2020-10-13 09-38-12-899,DESKTOP-K0JN836,CP1H_C0_V1.00,FinalTest_2020.9.23.0,131020,CP1H 210920 000170,sara,PASS,75.65,72.54,78.76,76.17,,
2020-10-13 09-39-03-683,DESKTOP-K0JN836,CP1H_C0_V1.00,FinalTest_2020.9.23.0,131020,CP1H 210920 000212,sara,PASS,75.25,74.24,77.27,76.77,,
2020-10-13 09-39-58-270,DESKTOP-K0JN836,CP1H_C0_V1.00,FinalTest_2020.9.23.0,131020,CP1H 210920 000189,sara,PASS,74.35,74.35,76.44,76.96,,
2020-10-13 09-40-41-476,DESKTOP-K0JN836,CP1H_C0_V1.00,FinalTest_2020.9.23.0,131020,CP1H 210920 000204,sara,PASS,73.98,75.51,76.02,78.06,,
2020-10-13 09-41-27-817,DESKTOP-K0JN836,CP1H_C0_V1.00,FinalTest_2020.9.23.0,131020,CP1H 210920 000235,sara,PASS,76.00,74.00,77.50,76.00,,
2020-10-13 09-42-10-706,DESKTOP-K0JN836,CP1H_C0_V1.00,FinalTest_2020.9.23.0,131020,CP1H 210920 000202,sara,PASS,73.82,74.87,76.96,78.53,,
2020-10-13 09-42-53-370,DESKTOP-K0JN836,CP1H_C0_V1.00,FinalTest_2020.9.23.0,131020,CP1H 210920 000227,sara,PASS,73.80,75.40,76.47,78.61,,
2020-10-13 09-44-19-569,DESKTOP-K0JN836,CP1H_C0_V1.00,FinalTest_2020.9.23.0,131020,CP1H 210920 000291,sara,PASS,74.36,74.87,75.90,77.44,,
2020-10-13 09-45-09-893,DESKTOP-K0JN836,CP1H_C0_V1.00,FinalTest_2020.9.23.0,131020,CP1H 210920 000183,sara,PASS,73.98,75.00,76.02,77.55,,
2020-10-13 09-45-59-881,DESKTOP-K0JN836,CP1H_C0_V1.00,FinalTest_2020.9.23.0,131020,CP1H 210920 000167,sara,PASS,74.61,73.58,77.72,77.20,,
2020-10-13 09-47-08-227,DESKTOP-K0JN836,CP1H_C0_V1.00,FinalTest_2020.9.23.0,131020,CP1H 210920 000276,sara,PASS,75.26,73.68,77.89,76.84,,
2020-10-13 09-57-22-274,DESKTOP-K0JN836,CP1H_C0_V1.00,FinalTest_2020.9.23.0,131020,CP1H 300920 000056,sara,PASS,74.07,74.07,76.72,77.78,,
2020-10-13 09-58-08-348,DESKTOP-K0JN836,CP1H_C0_V1.00,FinalTest_2020.9.23.0,131020,CP1H 300920 000055,sara,PASS,73.33,77.44,74.87,79.49,,
2020-10-13 09-58-52-912,DESKTOP-K0JN836,CP1H_C0_V1.00,FinalTest_2020.9.23.0,131020,CP1H 300920 000058,sara,PASS,72.02,77.20,73.58,79.27,,
2020-10-13 09-59-38-882,DESKTOP-K0JN836,CP1H_C0_V1.00,FinalTest_2020.9.23.0,131020,CP1H 300920 000057,sara,PASS,74.07,74.07,77.25,78.31,,
2020-10-13 10-00-21-650,DESKTOP-K0JN836,CP1H_C0_V1.00,FinalTest_2020.9.23.0,131020,CP1H 300920 000074,sara,PASS,74.36,75.90,75.90,77.95,,
2020-10-13 10-10-07-002,DESKTOP-K0JN836,CP1H_C0_V1.00,FinalTest_2020.9.23.0,131020,CP1H 300920 000081,sara,PASS,74.36,75.90,75.90,77.95,,
2020-10-13 10-10-45-730,DESKTOP-K0JN836,CP1H_C0_V1.00,FinalTest_2020.9.23.0,131020,CP1H 300920 000081,sara,PASS,74.36,75.90,75.90,77.95,,
2020-10-13 10-11-32-216,DESKTOP-K0JN836,CP1H_C0_V1.00,FinalTest_2020.9.23.0,131020,CP1H 300920 000059,sara,PASS,72.92,75.00,76.04,79.17,,
2020-10-13 10-12-15-033,DESKTOP-K0JN836,CP1H_C0_V1.00,FinalTest_2020.9.23.0,131020,CP1H 300920 000080,sara,PASS,72.73,76.47,75.40,79.68,,
2020-10-13 10-13-02-448,DESKTOP-K0JN836,CP1H_C0_V1.00,FinalTest_2020.9.23.0,131020,CP1H 300920 000064,sara,PASS,72.59,75.63,75.63,79.19,,
2020-10-13 10-13-46-542,DESKTOP-K0JN836,CP1H_C0_V1.00,FinalTest_2020.9.23.0,131020,CP1H 300920 000075,sara,PASS,74.11,74.62,76.65,78.17,,
2020-10-13 10-14-29-817,DESKTOP-K0JN836,CP1H_C0_V1.00,FinalTest_2020.9.23.0,131020,CP1H 300920 000065,sara,PASS,73.80,74.33,77.01,78.07,,
2020-10-13 10-15-11-987,DESKTOP-K0JN836,CP1H_C0_V1.00,FinalTest_2020.9.23.0,131020,CP1H 300920 000096,sara,PASS,75.27,73.12,77.96,75.81,,
2020-10-13 10-15-53-738,DESKTOP-K0JN836,CP1H_C0_V1.00,FinalTest_2020.9.23.0,131020,CP1H 300920 000060,sara,PASS,75.39,73.82,76.44,75.92,,
2020-10-13 10-16-35-919,DESKTOP-K0JN836,CP1H_C0_V1.00,FinalTest_2020.9.23.0,131020,CP1H 300920 000076,sara,PASS,74.87,72.73,78.61,76.47,,
2020-10-13 10-17-19-156,DESKTOP-K0JN836,CP1H_C0_V1.00,FinalTest_2020.9.23.0,131020,CP1H 300920 000072,sara,PASS,74.74,73.68,77.37,77.37,,
2020-10-13 10-18-01-019,DESKTOP-K0JN836,CP1H_C0_V1.00,FinalTest_2020.9.23.0,131020,CP1H 300920 000078,sara,PASS,75.63,73.60,77.66,76.14,,
2020-10-13 10-18-43-323,DESKTOP-K0JN836,CP1H_C0_V1.00,FinalTest_2020.9.23.0,131020,CP1H 300920 000077,sara,PASS,74.35,76.44,75.39,78.01,,
2020-10-13 10-19-29-044,DESKTOP-K0JN836,CP1H_C0_V1.00,FinalTest_2020.9.23.0,131020,CP1H 300920 000071,sara,PASS,74.87,75.88,75.38,77.39,,
2020-10-13 10-20-12-029,DESKTOP-K0JN836,CP1H_C0_V1.00,FinalTest_2020.9.23.0,131020,CP1H 300920 000063,sara,PASS,75.63,72.59,78.68,76.14,,
2020-10-13 10-20-54-748,DESKTOP-K0JN836,CP1H_C0_V1.00,FinalTest_2020.9.23.0,131020,CP1H 300920 000069,sara,PASS,73.74,74.24,77.27,78.28,,
2020-10-13 10-21-42-280,DESKTOP-K0JN836,CP1H_C0_V1.00,FinalTest_2020.9.23.0,131020,CP1H 300920 000062,sara,PASS,72.54,75.13,75.13,78.76,,
2020-10-13 10-24-58-232,DESKTOP-K0JN836,CP1H_C0_V1.00,FinalTest_2020.9.23.0,131020,CP1H 300920 000095,sara,PASS,74.36,75.38,76.41,77.95,,
2020-10-13 10-25-39-688,DESKTOP-K0JN836,CP1H_C0_V1.00,FinalTest_2020.9.23.0,131020,CP1H 300920 000079,sara,PASS,74.62,75.63,75.13,76.65,,
2020-10-13 10-26-20-622,DESKTOP-K0JN836,CP1H_C0_V1.00,FinalTest_2020.9.23.0,131020,CP1H 300920 000070,sara,PASS,73.10,76.14,74.62,78.17,,
2020-10-13 10-27-03-695,DESKTOP-K0JN836,CP1H_C0_V1.00,FinalTest_2020.9.23.0,131020,CP1H 300920 000094,sara,PASS,74.36,74.36,76.92,77.44,,
2020-10-13 10-27-49-665,DESKTOP-K0JN836,CP1H_C0_V1.00,FinalTest_2020.9.23.0,131020,CP1H 300920 000073,sara,PASS,75.00,75.00,76.02,77.04,,
2020-10-13 10-28-31-436,DESKTOP-K0JN836,CP1H_C0_V1.00,FinalTest_2020.9.23.0,131020,CP1H 300920 000061,sara,PASS,73.87,72.86,77.89,77.39,,
2020-10-13 10-29-14-497,DESKTOP-K0JN836,CP1H_C0_V1.00,FinalTest_2020.9.23.0,131020,CP1H 300920 000068,sara,PASS,75.92,72.25,79.06,75.39,,
2020-10-13 10-29-56-067,DESKTOP-K0JN836,CP1H_C0_V1.00,FinalTest_2020.9.23.0,131020,CP1H 300920 000067,sara,PASS,73.71,76.29,74.74,77.84,,
2020-10-13 10-30-44-616,DESKTOP-K0JN836,CP1H_C0_V1.00,FinalTest_2020.9.23.0,131020,CP1H 300920 000066,sara,PASS,75.50,72.00,79.00,76.50,,
2020-10-13 10-31-24-976,DESKTOP-K0JN836,CP1H_C0_V1.00,FinalTest_2020.9.23.0,131020,CP1H 300920 000164,sara,PASS,75.88,73.37,78.39,76.88,,
2020-10-13 10-32-08-644,DESKTOP-K0JN836,CP1H_C0_V1.00,FinalTest_2020.9.23.0,131020,CP1H 300920 000100,sara,PASS,74.23,73.71,77.84,77.84,,
2020-10-13 10-32-51-518,DESKTOP-K0JN836,CP1H_C0_V1.00,FinalTest_2020.9.23.0,131020,CP1H 300920 000102,sara,PASS,74.23,75.77,75.26,77.32,,
2020-10-13 10-33-32-789,DESKTOP-K0JN836,CP1H_C0_V1.00,FinalTest_2020.9.23.0,131020,CP1H 300920 000152,sara,PASS,74.49,75.00,76.02,77.55,,
2020-10-13 10-34-18-040,DESKTOP-K0JN836,CP1H_C0_V1.00,FinalTest_2020.9.23.0,131020,CP1H 300920 000144,sara,PASS,74.62,73.10,78.68,77.16,,
2020-10-13 10-35-01-496,DESKTOP-K0JN836,CP1H_C0_V1.00,FinalTest_2020.9.23.0,131020,CP1H 300920 000146,sara,PASS,74.33,74.33,76.47,77.01,,
2020-10-13 10-35-44-159,DESKTOP-K0JN836,CP1H_C0_V1.00,FinalTest_2020.9.23.0,131020,CP1H 300920 000104,sara,PASS,74.47,73.94,77.66,77.13,,
2020-10-13 10-36-25-621,DESKTOP-K0JN836,CP1H_C0_V1.00,FinalTest_2020.9.23.0,131020,CP1H 300920 000097,sara,PASS,75.53,73.40,78.19,76.06,,
2020-10-13 10-37-16-137,DESKTOP-K0JN836,CP1H_C0_V1.00,FinalTest_2020.9.23.0,131020,CP1H 300920 000157,sara,PASS,74.87,74.35,76.44,76.44,,
2020-10-13 10-42-08-909,DESKTOP-K0JN836,CP1H_C0_V1.00,FinalTest_2020.9.23.0,131020,CP1H 300920 000147,sara,PASS,73.96,75.00,76.56,78.13,,
2020-10-13 10-42-54-670,DESKTOP-K0JN836,CP1H_C0_V1.00,FinalTest_2020.9.23.0,131020,CP1H 300920 000099,sara,PASS,73.96,73.96,77.60,77.60,,
2020-10-13 10-43-35-639,DESKTOP-K0JN836,CP1H_C0_V1.00,FinalTest_2020.9.23.0,131020,CP1H 300920 000167,sara,PASS,75.77,72.68,78.87,76.29,,
2020-10-13 10-44-16-383,DESKTOP-K0JN836,CP1H_C0_V1.00,FinalTest_2020.9.23.0,131020,CP1H 300920 000130,sara,PASS,73.02,75.13,76.19,78.84,,
2020-10-13 10-45-06-474,DESKTOP-K0JN836,CP1H_C0_V1.00,FinalTest_2020.9.23.0,131020,CP1H 300920 000133,sara,PASS,73.30,75.39,75.92,78.53,,
2020-10-13 10-45-47-904,DESKTOP-K0JN836,CP1H_C0_V1.00,FinalTest_2020.9.23.0,131020,CP1H 300920 000159,sara,PASS,74.36,74.87,76.41,77.44,,
2020-10-13 10-46-28-708,DESKTOP-K0JN836,CP1H_C0_V1.00,FinalTest_2020.9.23.0,131020,CP1H 300920 000127,sara,PASS,75.26,72.63,78.95,75.79,,
2020-10-13 10-47-14-289,DESKTOP-K0JN836,CP1H_C0_V1.00,FinalTest_2020.9.23.0,131020,CP1H 300920 000103,sara,PASS,73.71,73.71,77.32,78.35,,
2020-10-13 10-48-00-613,DESKTOP-K0JN836,CP1H_C0_V1.00,FinalTest_2020.9.23.0,131020,CP1H 300920 000119,sara,PASS,76.14,73.10,78.68,76.65,,
2020-10-13 10-48-44-503,DESKTOP-K0JN836,CP1H_C0_V1.00,FinalTest_2020.9.23.0,131020,CP1H 300920 000141,sara,PASS,76.17,72.02,78.76,75.13,,
2020-10-13 10-49-27-143,DESKTOP-K0JN836,CP1H_C0_V1.00,FinalTest_2020.9.23.0,131020,CP1H 300920 000112,sara,PASS,74.21,74.21,77.37,77.89,,
2020-10-13 10-50-10-298,DESKTOP-K0JN836,CP1H_C0_V1.00,FinalTest_2020.9.23.0,131020,CP1H 300920 000108,sara,PASS,75.13,72.59,78.68,76.65,,
2020-10-13 10-50-57-573,DESKTOP-K0JN836,CP1H_C0_V1.00,FinalTest_2020.9.23.0,131020,CP1H 300920 000106,sara,PASS,75.00,73.96,77.60,77.08,,
2020-10-13 10-51-48-362,DESKTOP-K0JN836,CP1H_C0_V1.00,FinalTest_2020.9.23.0,131020,CP1H 300920 000126,sara,PASS,74.48,75.00,77.08,78.13,,
2020-10-13 10-52-33-350,DESKTOP-K0JN836,CP1H_C0_V1.00,FinalTest_2020.9.23.0,131020,CP1H 300920 000120,sara,PASS,73.96,75.52,76.04,78.65,,
2020-10-13 10-53-17-797,DESKTOP-K0JN836,CP1H_C0_V1.00,FinalTest_2020.9.23.0,131020,CP1H 300920 000110,sara,PASS,73.94,73.94,77.66,78.19,,
2020-10-13 10-54-19-943,DESKTOP-K0JN836,CP1H_C0_V1.00,FinalTest_2020.9.23.0,131020,CP1H 300920 000111,sara,PASS,72.68,75.77,75.77,79.38,,
2020-10-13 10-55-04-801,DESKTOP-K0JN836,CP1H_C0_V1.00,FinalTest_2020.9.23.0,131020,CP1H 300920 000105,sara,PASS,72.82,75.90,74.87,78.46,,
2020-10-13 10-55-49-560,DESKTOP-K0JN836,CP1H_C0_V1.00,FinalTest_2020.9.23.0,131020,CP1H 300920 000109,sara,PASS,74.61,73.58,77.20,77.20,,
2020-10-13 10-56-35-283,DESKTOP-K0JN836,CP1H_C0_V1.00,FinalTest_2020.9.23.0,131020,CP1H 300920 000115,sara,PASS,73.85,75.38,75.90,78.46,,
2020-10-13 10-57-21-770,DESKTOP-K0JN836,CP1H_C0_V1.00,FinalTest_2020.9.23.0,131020,CP1H 300920 000118,sara,PASS,73.60,74.62,77.16,78.17,,
2020-10-13 10-58-09-183,DESKTOP-K0JN836,CP1H_C0_V1.00,FinalTest_2020.9.23.0,131020,CP1H 300920 000145,sara,PASS,75.00,73.96,77.60,77.08,,
2020-10-13 10-58-54-119,DESKTOP-K0JN836,CP1H_C0_V1.00,FinalTest_2020.9.23.0,131020,CP1H 300920 000121,sara,PASS,75.79,71.05,81.05,76.84,,
2020-10-13 10-59-35-854,DESKTOP-K0JN836,CP1H_C0_V1.00,FinalTest_2020.9.23.0,131020,CP1H 300920 000151,sara,PASS,75.00,73.98,78.06,78.06,,
2020-10-13 11-00-18-058,DESKTOP-K0JN836,CP1H_C0_V1.00,FinalTest_2020.9.23.0,131020,CP1H 300920 000137,sara,PASS,75.00,74.48,76.04,76.04,,
2020-10-13 11-01-47-502,DESKTOP-K0JN836,CP1H_C0_V1.00,FinalTest_2020.9.23.0,131020,CP1H 300920 000134,sara,PASS,72.96,75.51,76.02,79.08,,
2020-10-13 11-02-32-484,DESKTOP-K0JN836,CP1H_C0_V1.00,FinalTest_2020.9.23.0,131020,CP1H 300920 000101,sara,PASS,73.94,75.00,76.60,78.72,,
2020-10-13 11-03-15-465,DESKTOP-K0JN836,CP1H_C0_V1.00,FinalTest_2020.9.23.0,131020,CP1H 300920 000124,sara,PASS,74.36,73.85,78.46,78.46,,
2020-10-13 11-03-58-052,DESKTOP-K0JN836,CP1H_C0_V1.00,FinalTest_2020.9.23.0,131020,CP1H 300920 000123,sara,PASS,73.58,75.13,76.68,79.27,,
2020-10-13 11-04-41-582,DESKTOP-K0JN836,CP1H_C0_V1.00,FinalTest_2020.9.23.0,131020,CP1H 300920 000131,sara,PASS,75.90,71.28,79.49,75.90,,
2020-10-13 11-05-25-559,DESKTOP-K0JN836,CP1H_C0_V1.00,FinalTest_2020.9.23.0,131020,CP1H 300920 000136,sara,PASS,75.52,73.96,77.60,77.08,,
2020-10-13 11-06-13-203,DESKTOP-K0JN836,CP1H_C0_V1.00,FinalTest_2020.9.23.0,131020,CP1H 300920 000128,sara,PASS,74.87,74.33,76.47,76.47,,
2020-10-13 11-06-59-272,DESKTOP-K0JN836,CP1H_C0_V1.00,FinalTest_2020.9.23.0,131020,CP1H 300920 000122,sara,PASS,74.60,75.66,76.19,77.78,,
2020-10-13 11-07-42-960,DESKTOP-K0JN836,CP1H_C0_V1.00,FinalTest_2020.9.23.0,131020,CP1H 300920 000129,sara,PASS,73.51,77.30,74.05,78.92,,
2020-10-13 11-08-31-992,DESKTOP-K0JN836,CP1H_C0_V1.00,FinalTest_2020.9.23.0,131020,CP1H 300920 000150,sara,PASS,73.76,76.73,74.75,78.22,,
2020-10-13 11-09-23-526,DESKTOP-K0JN836,CP1H_C0_V1.00,FinalTest_2020.9.23.0,131020,CP1H 300920 000162,sara,PASS,75.50,75.00,76.50,76.50,,
2020-10-13 11-10-06-449,DESKTOP-K0JN836,CP1H_C0_V1.00,FinalTest_2020.9.23.0,131020,CP1H 300920 000138,sara,PASS,74.74,74.23,77.32,77.84,,
2020-10-13 11-10-49-531,DESKTOP-K0JN836,CP1H_C0_V1.00,FinalTest_2020.9.23.0,131020,CP1H 300920 000114,sara,PASS,75.13,74.62,76.65,77.16,,
2020-10-13 11-11-46-387,DESKTOP-K0JN836,CP1H_C0_V1.00,FinalTest_2020.9.23.0,131020,CP1H 300920 000082,sara,PASS,75.13,73.58,77.20,76.17,,
2020-10-13 11-12-26-746,DESKTOP-K0JN836,CP1H_C0_V1.00,FinalTest_2020.9.23.0,131020,CP1H 300920 000084,sara,PASS,75.13,72.02,78.76,76.17,,
2020-10-13 11-13-11-511,DESKTOP-K0JN836,CP1H_C0_V1.00,FinalTest_2020.9.23.0,131020,CP1H 300920 000086,sara,PASS,75.00,72.92,78.65,77.08,,
2020-10-13 11-13-54-899,DESKTOP-K0JN836,CP1H_C0_V1.00,FinalTest_2020.9.23.0,131020,CP1H 300920 000088,sara,PASS,73.68,76.84,74.74,78.42,,
2020-10-13 11-14-37-985,DESKTOP-K0JN836,CP1H_C0_V1.00,FinalTest_2020.9.23.0,131020,CP1H 300920 000085,sara,PASS,74.35,74.87,76.44,77.49,,
2020-10-13 11-15-19-546,DESKTOP-K0JN836,CP1H_C0_V1.00,FinalTest_2020.9.23.0,131020,CP1H 300920 000087,sara,PASS,75.76,74.24,77.78,76.77,,
2020-10-13 11-16-05-224,DESKTOP-K0JN836,CP1H_C0_V1.00,FinalTest_2020.9.23.0,131020,CP1H 300920 000117,sara,PASS,74.35,73.82,77.49,78.01,,
2020-10-13 11-16-49-183,DESKTOP-K0JN836,CP1H_C0_V1.00,FinalTest_2020.9.23.0,131020,CP1H 300920 000113,sara,PASS,73.51,74.05,76.76,77.84,,
2020-10-13 11-17-32-855,DESKTOP-K0JN836,CP1H_C0_V1.00,FinalTest_2020.9.23.0,131020,CP1H 300920 000083,sara,PASS,73.44,75.00,76.04,78.13,,
2020-10-13 11-18-17-429,DESKTOP-K0JN836,CP1H_C0_V1.00,FinalTest_2020.9.23.0,131020,CP1H 300920 000116,sara,PASS,75.25,73.23,78.79,77.27,,
2020-10-13 11-19-04-400,DESKTOP-K0JN836,CP1H_C0_V1.00,FinalTest_2020.9.23.0,131020,CP1H 300920 000090,sara,PASS,74.74,74.21,77.37,77.37,,
2020-10-13 11-19-49-392,DESKTOP-K0JN836,CP1H_C0_V1.00,FinalTest_2020.9.23.0,131020,CP1H 300920 000092,sara,PASS,75.00,74.00,77.50,77.00,,
2020-10-13 11-20-35-260,DESKTOP-K0JN836,CP1H_C0_V1.00,FinalTest_2020.9.23.0,131020,CP1H 300920 000168,sara,PASS,74.36,76.41,75.90,78.46,,
2020-10-13 11-21-20-612,DESKTOP-K0JN836,CP1H_C0_V1.00,FinalTest_2020.9.23.0,131020,CP1H 300920 000132,sara,PASS,73.44,76.56,73.96,78.65,,
2020-10-13 11-22-49-823,DESKTOP-K0JN836,CP1H_C0_V1.00,FinalTest_2020.9.23.0,131020,CP1H 300920 000125,sara,PASS,75.65,74.09,77.72,76.17,,
2020-10-13 11-23-34-458,DESKTOP-K0JN836,CP1H_C0_V1.00,FinalTest_2020.9.23.0,131020,CP1H 300920 000143,sara,PASS,74.49,73.98,78.06,78.06,,
2020-10-13 11-24-19-086,DESKTOP-K0JN836,CP1H_C0_V1.00,FinalTest_2020.9.23.0,131020,CP1H 300920 000089,sara,PASS,74.07,76.72,75.13,78.31,,
2020-10-13 11-25-06-208,DESKTOP-K0JN836,CP1H_C0_V1.00,FinalTest_2020.9.23.0,131020,CP1H 300920 000148,sara,PASS,74.07,76.72,75.13,78.31,,
2020-10-13 11-25-39-997,DESKTOP-K0JN836,CP1H_C0_V1.00,FinalTest_2020.9.23.0,131020,CP1H 300920 000148,sara,PASS,74.07,76.72,75.13,78.31,,
2020-10-13 11-26-15-844,DESKTOP-K0JN836,CP1H_C0_V1.00,FinalTest_2020.9.23.0,131020,CP1H 300920 000154,sara,PASS,75.14,74.05,77.84,76.76,,
2020-10-13 11-27-01-603,DESKTOP-K0JN836,CP1H_C0_V1.00,FinalTest_2020.9.23.0,131020,CP1H 300920 000156,sara,PASS,74.36,72.82,78.46,77.44,,
2020-10-13 11-31-59-488,DESKTOP-K0JN836,CP1H_C0_V1.00,FinalTest_2020.9.23.0,131020,CP1H 300920 000153,sara,PASS,74.33,73.80,77.01,77.54,,
2020-10-13 11-32-43-566,DESKTOP-K0JN836,CP1H_C0_V1.00,FinalTest_2020.9.23.0,131020,CP1H 300920 000165,sara,PASS,74.74,72.63,77.37,76.32,,
2020-10-13 11-33-28-644,DESKTOP-K0JN836,CP1H_C0_V1.00,FinalTest_2020.9.23.0,131020,CP1H 300920 000155,sara,PASS,74.75,76.77,74.75,77.27,,
2020-10-13 11-34-19-648,DESKTOP-K0JN836,CP1H_C0_V1.00,FinalTest_2020.9.23.0,131020,CP1H 300920 000149,sara,PASS,74.75,76.77,74.75,77.27,,
2020-10-13 11-36-54-872,DESKTOP-K0JN836,CP1H_C0_V1.00,FinalTest_2020.9.23.0,131020,CP1H 300920 000149,sara,PASS,73.06,75.13,76.68,79.27,,
2020-10-13 11-37-46-592,DESKTOP-K0JN836,CP1H_C0_V1.00,FinalTest_2020.9.23.0,131020,CP1H 300920 000171,sara,PASS,73.71,74.23,76.29,77.84,,
2020-10-13 11-38-37-655,DESKTOP-K0JN836,CP1H_C0_V1.00,FinalTest_2020.9.23.0,131020,CP1H 300920 000142,sara,PASS,75.13,74.61,77.20,77.72,,
2020-10-13 11-39-21-955,DESKTOP-K0JN836,CP1H_C0_V1.00,FinalTest_2020.9.23.0,131020,CP1H 300920 000093,sara,PASS,75.00,73.98,77.55,77.04,,
2020-10-13 11-40-03-031,DESKTOP-K0JN836,CP1H_C0_V1.00,FinalTest_2020.9.23.0,131020,CP1H 300920 000091,sara,PASS,74.59,73.51,78.38,77.30,,
2020-10-13 11-41-13-345,DESKTOP-K0JN836,CP1H_C0_V1.00,FinalTest_2020.9.23.0,131020,CP1H 300920 000139,sara,PASS,74.61,73.06,78.24,77.20,,
2020-10-13 11-42-13-142,DESKTOP-K0JN836,CP1H_C0_V1.00,FinalTest_2020.9.23.0,131020,CP1H 300920 000140,sara,PASS,74.09,75.65,75.65,77.72,,
2020-10-13 11-42-56-010,DESKTOP-K0JN836,CP1H_C0_V1.00,FinalTest_2020.9.23.0,131020,CP1H 300920 000166,sara,PASS,76.41,72.82,78.97,75.90,,
2020-10-13 11-43-39-145,DESKTOP-K0JN836,CP1H_C0_V1.00,FinalTest_2020.9.23.0,131020,CP1H 300920 000169,sara,PASS,74.11,75.13,76.14,77.66,,
2020-10-13 11-44-21-205,DESKTOP-K0JN836,CP1H_C0_V1.00,FinalTest_2020.9.23.0,131020,CP1H 300920 000161,sara,PASS,74.32,73.77,78.14,78.14,,
2020-10-13 11-45-06-186,DESKTOP-K0JN836,CP1H_C0_V1.00,FinalTest_2020.9.23.0,131020,CP1H 300920 000160,sara,PASS,73.82,74.87,76.44,78.53,,
2020-10-13 11-45-52-268,DESKTOP-K0JN836,CP1H_C0_V1.00,FinalTest_2020.9.23.0,131020,CP1H 300920 000163,sara,PASS,75.94,71.66,80.75,76.47,,
2020-10-13 11-46-31-750,DESKTOP-K0JN836,CP1H_C0_V1.00,FinalTest_2020.9.23.0,131020,CP1H 300920 000158,sara,PASS,72.73,77.78,73.74,79.29,,
2020-10-13 11-47-12-308,DESKTOP-K0JN836,CP1H_C0_V1.00,FinalTest_2020.9.23.0,131020,CP1H 300920 000170,sara,PASS,74.09,75.65,75.65,77.72,,
2020-10-13 11-47-54-783,DESKTOP-K0JN836,CP1H_C0_V1.00,FinalTest_2020.9.23.0,131020,CP1H 300920 000135,sara,PASS,76.14,71.57,80.20,76.14,,
2020-10-13 11-57-32-350,DESKTOP-K0JN836,CP1H_C0_V1.00,FinalTest_2020.9.23.0,131020,CP1H 300920 000107,sara,PASS,75.26,72.16,79.38,76.29,,
2020-10-13 11-58-15-825,DESKTOP-K0JN836,CP1H_C0_V1.00,FinalTest_2020.9.23.0,131020,CP1H 300920 000098,sara,PASS,74.74,73.71,77.84,76.80,,
2020-10-13 12-43-22-078,DESKTOP-K0JN836,CP1H_C0_V1.00,FinalTest_2020.9.23.0,131020,CP1H 131020 000068,sara,PASS,73.58,74.61,77.20,78.24,,
2020-10-13 12-44-12-936,DESKTOP-K0JN836,CP1H_C0_V1.00,FinalTest_2020.9.23.0,131020,CP1H 131020 000117,sara,PASS,73.54,73.54,77.25,77.78,,
2020-10-13 12-45-00-723,DESKTOP-K0JN836,CP1H_C0_V1.00,FinalTest_2020.9.23.0,131020,CP1H 131020 000107,sara,PASS,73.98,76.53,75.00,78.06,,
2020-10-13 12-45-45-510,DESKTOP-K0JN836,CP1H_C0_V1.00,FinalTest_2020.9.23.0,131020,CP1H 131020 000095,sara,PASS,74.47,72.34,78.19,77.13,,
2020-10-13 12-46-33-179,DESKTOP-K0JN836,CP1H_C0_V1.00,FinalTest_2020.9.23.0,131020,CP1H 131020 000057,sara,PASS,75.90,71.28,79.49,75.38,,
2020-10-13 12-47-16-835,DESKTOP-K0JN836,CP1H_C0_V1.00,FinalTest_2020.9.23.0,131020,CP1H 131020 000059,sara,PASS,75.77,71.65,79.38,75.77,,
2020-10-13 12-48-03-086,DESKTOP-K0JN836,CP1H_C0_V1.00,FinalTest_2020.9.23.0,131020,CP1H 131020 000052,sara,PASS,75.77,71.65,79.38,75.77,,
2020-10-13 12-48-50-315,DESKTOP-K0JN836,CP1H_C0_V1.00,FinalTest_2020.9.23.0,131020,CP1H 131020 000052,sara,PASS,75.77,71.65,79.38,75.77,,
2020-10-13 12-49-42-368,DESKTOP-K0JN836,CP1H_C0_V1.00,FinalTest_2020.9.23.0,131020,CP1H 131020 000056,sara,PASS,75.51,71.94,79.08,76.02,,
2020-10-13 12-50-23-828,DESKTOP-K0JN836,CP1H_C0_V1.00,FinalTest_2020.9.23.0,131020,CP1H 131020 000101,sara,PASS,75.26,71.05,80.00,76.32,,
2020-10-13 12-51-09-691,DESKTOP-K0JN836,CP1H_C0_V1.00,FinalTest_2020.9.23.0,131020,CP1H 131020 000055,sara,PASS,74.47,72.87,78.19,77.13,,
2020-10-13 12-51-51-656,DESKTOP-K0JN836,CP1H_C0_V1.00,FinalTest_2020.9.23.0,131020,CP1H 131020 000086,sara,PASS,71.89,74.05,76.22,78.92,,
2020-10-13 12-52-34-302,DESKTOP-K0JN836,CP1H_C0_V1.00,FinalTest_2020.9.23.0,131020,CP1H 131020 000084,sara,PASS,73.54,76.72,74.60,78.31,,
2020-10-13 12-53-20-796,DESKTOP-K0JN836,CP1H_C0_V1.00,FinalTest_2020.9.23.0,131020,CP1H 131020 000105,sara,PASS,73.06,75.65,75.65,78.76,,
2020-10-13 12-54-02-090,DESKTOP-K0JN836,CP1H_C0_V1.00,FinalTest_2020.9.23.0,131020,CP1H 131020 000093,sara,PASS,73.40,77.66,73.94,78.19,,
2020-10-13 12-54-50-979,DESKTOP-K0JN836,CP1H_C0_V1.00,FinalTest_2020.9.23.0,131020,CP1H 131020 000096,sara,PASS,73.16,76.32,75.26,78.42,,
2020-10-13 12-55-37-844,DESKTOP-K0JN836,CP1H_C0_V1.00,FinalTest_2020.9.23.0,131020,CP1H 131020 000054,sara,PASS,74.07,72.49,78.84,77.78,,
2020-10-13 12-56-22-835,DESKTOP-K0JN836,CP1H_C0_V1.00,FinalTest_2020.9.23.0,131020,CP1H 131020 000053,sara,PASS,75.26,73.68,77.89,76.84,,
2020-10-13 12-57-07-621,DESKTOP-K0JN836,CP1H_C0_V1.00,FinalTest_2020.9.23.0,131020,CP1H 131020 000126,sara,PASS,75.65,73.06,78.24,76.68,,
2020-10-13 12-57-51-239,DESKTOP-K0JN836,CP1H_C0_V1.00,FinalTest_2020.9.23.0,131020,CP1H 131020 000112,sara,PASS,75.65,73.06,78.24,76.68,,
2020-10-13 13-00-57-625,DESKTOP-K0JN836,CP1H_C0_V1.00,FinalTest_2020.9.23.0,131020,CP1H 131020 000112,sara,PASS,75.65,73.06,78.24,76.68,,
2020-10-13 13-01-39-913,DESKTOP-K0JN836,CP1H_C0_V1.00,FinalTest_2020.9.23.0,131020,CP1H 131020 000130,sara,PASS,72.96,73.98,77.04,79.08,,
2020-10-13 13-02-23-880,DESKTOP-K0JN836,CP1H_C0_V1.00,FinalTest_2020.9.23.0,131020,CP1H 131020 000067,sara,PASS,76.80,72.16,80.41,75.77,,
2020-10-13 13-03-21-693,DESKTOP-K0JN836,CP1H_C0_V1.00,FinalTest_2020.9.23.0,131020,CP1H 131020 000065,sara,PASS,74.23,74.23,76.29,77.84,,
2020-10-13 13-04-09-882,DESKTOP-K0JN836,CP1H_C0_V1.00,FinalTest_2020.9.23.0,131020,CP1H 131020 000092,sara,PASS,75.13,73.06,77.72,76.17,,
2020-10-13 13-04-56-324,DESKTOP-K0JN836,CP1H_C0_V1.00,FinalTest_2020.9.23.0,131020,CP1H 131020 000119,sara,PASS,74.87,73.82,77.49,76.96,,
2020-10-13 13-05-41-255,DESKTOP-K0JN836,CP1H_C0_V1.00,FinalTest_2020.9.23.0,131020,CP1H 131020 000063,sara,PASS,74.36,73.33,78.46,77.95,,
2020-10-13 13-06-29-136,DESKTOP-K0JN836,CP1H_C0_V1.00,FinalTest_2020.9.23.0,131020,CP1H 131020 000083,sara,PASS,73.96,73.96,77.08,77.60,,
2020-10-13 13-07-13-172,DESKTOP-K0JN836,CP1H_C0_V1.00,FinalTest_2020.9.23.0,131020,CP1H 131020 000098,sara,PASS,75.63,73.10,78.68,76.65,,
2020-10-13 13-07-55-768,DESKTOP-K0JN836,CP1H_C0_V1.00,FinalTest_2020.9.23.0,131020,CP1H 131020 000120,sara,PASS,72.04,75.27,75.81,79.57,,
2020-10-13 13-08-43-254,DESKTOP-K0JN836,CP1H_C0_V1.00,FinalTest_2020.9.23.0,131020,CP1H 131020 000097,sara,PASS,74.87,71.79,79.49,76.92,,
2020-10-13 13-09-27-693,DESKTOP-K0JN836,CP1H_C0_V1.00,FinalTest_2020.9.23.0,131020,CP1H 131020 000099,sara,PASS,74.87,72.77,78.53,76.96,,
2020-10-13 13-10-20-466,DESKTOP-K0JN836,CP1H_C0_V1.00,FinalTest_2020.9.23.0,131020,CP1H 131020 000109,sara,PASS,76.12,71.64,79.60,76.12,,
2020-10-13 13-12-09-877,DESKTOP-K0JN836,CP1H_C0_V1.00,FinalTest_2020.9.23.0,131020,CP1H 131020 000070,sara,PASS,71.65,75.77,74.74,79.38,,
2020-10-13 13-13-03-899,DESKTOP-K0JN836,CP1H_C0_V1.00,FinalTest_2020.9.23.0,131020,CP1H 131020 000104,sara,PASS,74.36,72.82,78.46,76.92,,
2020-10-13 13-13-47-146,DESKTOP-K0JN836,CP1H_C0_V1.00,FinalTest_2020.9.23.0,131020,CP1H 131020 000058,sara,PASS,73.82,73.82,78.01,78.01,,
2020-10-13 13-14-33-928,DESKTOP-K0JN836,CP1H_C0_V1.00,FinalTest_2020.9.23.0,131020,CP1H 131020 000032,sara,PASS,75.00,74.49,77.55,77.55,,
2020-10-13 13-15-20-614,DESKTOP-K0JN836,CP1H_C0_V1.00,FinalTest_2020.9.23.0,131020,CP1H 131020 000114,sara,PASS,74.09,75.65,76.17,77.72,,
2020-10-13 13-16-04-077,DESKTOP-K0JN836,CP1H_C0_V1.00,FinalTest_2020.9.23.0,131020,CP1H 131020 000051,sara,PASS,73.68,75.79,75.79,78.42,,
2020-10-13 13-16-57-269,DESKTOP-K0JN836,CP1H_C0_V1.00,FinalTest_2020.9.23.0,131020,CP1H 131020 000106,sara,PASS,73.30,75.39,75.92,78.53,,
2020-10-13 13-17-41-940,DESKTOP-K0JN836,CP1H_C0_V1.00,FinalTest_2020.9.23.0,131020,CP1H 131020 000090,sara,PASS,74.11,73.60,77.16,77.16,,
2020-10-13 13-20-03-929,DESKTOP-K0JN836,CP1H_C0_V1.00,FinalTest_2020.9.23.0,131020,CP1H 131020 000072,sara,PASS,74.74,74.23,77.32,77.32,,
2020-10-13 13-20-50-494,DESKTOP-K0JN836,CP1H_C0_V1.00,FinalTest_2020.9.23.0,131020,CP1H 131020 000089,sara,PASS,73.20,73.20,76.80,78.35,,
2020-10-13 13-21-33-180,DESKTOP-K0JN836,CP1H_C0_V1.00,FinalTest_2020.9.23.0,131020,CP1H 131020 000131,sara,PASS,73.58,75.13,75.65,78.24,,
2020-10-13 13-22-19-951,DESKTOP-K0JN836,CP1H_C0_V1.00,FinalTest_2020.9.23.0,131020,CP1H 131020 000060,sara,PASS,74.61,73.06,77.72,77.20,,
2020-10-13 13-23-03-637,DESKTOP-K0JN836,CP1H_C0_V1.00,FinalTest_2020.9.23.0,131020,CP1H 131020 000064,sara,PASS,73.47,75.00,75.51,78.06,,
2020-10-13 13-23-46-666,DESKTOP-K0JN836,CP1H_C0_V1.00,FinalTest_2020.9.23.0,131020,CP1H 131020 000069,sara,PASS,73.47,75.00,75.51,78.06,,
2020-10-13 13-24-25-435,DESKTOP-K0JN836,CP1H_C0_V1.00,FinalTest_2020.9.23.0,131020,CP1H 131020 000069,sara,PASS,73.47,75.00,75.51,78.06,,
2020-10-13 13-25-12-097,DESKTOP-K0JN836,CP1H_C0_V1.00,FinalTest_2020.9.23.0,131020,CP1H 131020 000061,sara,PASS,74.47,71.81,78.72,76.60,,
2020-10-13 13-25-56-126,DESKTOP-K0JN836,CP1H_C0_V1.00,FinalTest_2020.9.23.0,131020,CP1H 131020 000066,sara,PASS,74.48,74.48,76.56,77.60,,
2020-10-13 13-26-40-543,DESKTOP-K0JN836,CP1H_C0_V1.00,FinalTest_2020.9.23.0,131020,CP1H 131020 000088,sara,PASS,73.58,73.58,77.72,78.76,,
2020-10-13 13-27-26-015,DESKTOP-K0JN836,CP1H_C0_V1.00,FinalTest_2020.9.23.0,131020,CP1H 131020 000100,sara,PASS,75.00,71.28,79.79,77.13,,
2020-10-13 13-28-12-064,DESKTOP-K0JN836,CP1H_C0_V1.00,FinalTest_2020.9.23.0,131020,CP1H 131020 000118,sara,PASS,73.96,76.04,76.04,78.65,,
2020-10-13 13-28-52-438,DESKTOP-K0JN836,CP1H_C0_V1.00,FinalTest_2020.9.23.0,131020,CP1H 131020 000108,sara,PASS,74.49,72.96,78.57,77.04,,
2020-10-13 13-29-37-352,DESKTOP-K0JN836,CP1H_C0_V1.00,FinalTest_2020.9.23.0,131020,CP1H 131020 000124,sara,PASS,73.06,75.13,76.68,79.79,,
2020-10-13 13-30-20-287,DESKTOP-K0JN836,CP1H_C0_V1.00,FinalTest_2020.9.23.0,131020,CP1H 131020 000082,sara,PASS,73.82,73.82,76.96,77.49,,
2020-10-13 13-31-04-744,DESKTOP-K0JN836,CP1H_C0_V1.00,FinalTest_2020.9.23.0,131020,CP1H 131020 000102,sara,PASS,73.96,75.52,75.52,78.13,,
2020-10-13 13-31-50-319,DESKTOP-K0JN836,CP1H_C0_V1.00,FinalTest_2020.9.23.0,131020,CP1H 131020 000127,sara,PASS,73.80,75.40,76.47,79.14,,
2020-10-13 13-32-38-011,DESKTOP-K0JN836,CP1H_C0_V1.00,FinalTest_2020.9.23.0,131020,CP1H 131020 000123,sara,PASS,72.40,77.08,75.00,80.21,,
2020-10-13 13-33-26-561,DESKTOP-K0JN836,CP1H_C0_V1.00,FinalTest_2020.9.23.0,131020,CP1H 131020 000125,sara,PASS,73.60,75.63,75.63,78.68,,
2020-10-13 13-34-06-968,DESKTOP-K0JN836,CP1H_C0_V1.00,FinalTest_2020.9.23.0,131020,CP1H 131020 000122,sara,PASS,73.51,74.05,77.30,78.38,,
2020-10-13 13-35-02-048,DESKTOP-K0JN836,CP1H_C0_V1.00,FinalTest_2020.9.23.0,131020,CP1H 131020 000129,sara,PASS,74.09,74.09,77.72,78.24,,
2020-10-13 13-35-44-310,DESKTOP-K0JN836,CP1H_C0_V1.00,FinalTest_2020.9.23.0,131020,CP1H 131020 000121,sara,PASS,76.56,71.88,79.69,75.52,,
2020-10-13 13-36-31-386,DESKTOP-K0JN836,CP1H_C0_V1.00,FinalTest_2020.9.23.0,131020,CP1H 131020 000040,sara,PASS,73.54,74.07,77.25,78.31,,
2020-10-13 13-37-21-175,DESKTOP-K0JN836,CP1H_C0_V1.00,FinalTest_2020.9.23.0,131020,CP1H 131020 000033,sara,PASS,73.74,73.74,76.77,77.78,,
2020-10-13 13-38-06-748,DESKTOP-K0JN836,CP1H_C0_V1.00,FinalTest_2020.9.23.0,131020,CP1H 131020 000034,sara,PASS,74.36,73.85,77.95,77.95,,
2020-10-13 13-38-50-819,DESKTOP-K0JN836,CP1H_C0_V1.00,FinalTest_2020.9.23.0,131020,CP1H 131020 000037,sara,PASS,74.24,76.26,75.76,78.79,,
