Time,Equipment,Model,SWVersion,LotName,Barcode,Operator,Result,mA,,
2019-01-22 17-05-16-507,Final Test,Default,FinalTest_2018.12.11.0,,Administrator Mode,,PASS,53,,
2019-01-22 17-06-10-336,Final Test,Default,FinalTest_2018.12.11.0,,Administrator Mode,,PASS,54,,
2019-01-22 17-56-08-620,Final Test,Default,FinalTest_2018.12.11.0,,Administrator Mode,,PASS,54,,
2019-01-22 17-57-45-657,Final Test,Default,FinalTest_2018.12.11.0,,Administrator Mode,,PASS,53,,
2019-01-22 17-59-13-503,Final Test,Default,FinalTest_2018.12.11.0,,Administrator Mode,,PASS,54,,
2019-01-22 17-59-38-042,Final Test,Default,FinalTest_2018.12.11.0,,Administrator Mode,,PASS,54,,
2019-01-22 18-00-03-766,Final Test,Default,FinalTest_2018.12.11.0,,Administrator Mode,,PASS,54,,
2019-01-22 18-00-46-764,Final Test,Default,FinalTest_2018.12.11.0,,Administrator Mode,,PASS,53,,
2019-01-22 18-01-11-588,Final Test,Default,FinalTest_2018.12.11.0,,Administrator Mode,,PASS,54,,
2019-01-22 18-01-38-004,Final Test,Default,FinalTest_2018.12.11.0,,Administrator Mode,,PASS,54,,
2019-01-22 18-02-44-433,Final Test,Default,FinalTest_2018.12.11.0,,Administrator Mode,,PASS,53,,
2019-01-22 18-03-08-742,Final Test,Default,FinalTest_2018.12.11.0,,Administrator Mode,,PASS,54,,
2019-01-22 18-04-27-496,Final Test,Default,FinalTest_2018.12.11.0,,Administrator Mode,,PASS,54,,
2019-01-22 18-11-36-046,Final Test,Default,FinalTest_2018.12.11.0,,Administrator Mode,,PASS,54,,
2019-01-22 20-13-54-138,Final Test,Default,FinalTest_2018.12.11.0,,Administrator Mode,,PASS,55,,
2019-01-22 20-14-32-936,Final Test,Default,FinalTest_2018.12.11.0,,Administrator Mode,,PASS,53,,
2019-01-22 20-15-07-367,Final Test,Default,FinalTest_2018.12.11.0,,Administrator Mode,,PASS,55,,
2019-01-22 20-15-31-247,Final Test,Default,FinalTest_2018.12.11.0,,Administrator Mode,,PASS,54,,
2019-01-22 20-15-53-821,Final Test,Default,FinalTest_2018.12.11.0,,Administrator Mode,,PASS,54,,
2019-01-22 20-16-21-045,Final Test,Default,FinalTest_2018.12.11.0,,Administrator Mode,,PASS,54,,
2019-01-22 20-17-36-301,Final Test,Default,FinalTest_2018.12.11.0,,Administrator Mode,,PASS,54,,
2019-01-22 20-23-19-561,Final Test,Default,FinalTest_2018.12.11.0,,Administrator Mode,,PASS,58,,
2019-01-22 20-24-09-815,Final Test,Default,FinalTest_2018.12.11.0,,Administrator Mode,,PASS,55,,
