Time,Equipment,Model,SWVersion,LotName,Barcode,Operator,Result,Count,,
2020-06-16 08-39-16-947,DESKTOP-K0JN836,CP1H_C0_V1.00,FinalTest_2019.8.5.0,160620,CP1H 160620 000009,darsini,PASS,0,,
2020-06-16 08-40-07-980,DESKTOP-K0JN836,CP1H_C0_V1.00,FinalTest_2019.8.5.0,160620,CP1H 160620 000008,darsini,PASS,0,,
2020-06-16 08-41-03-453,DESKTOP-K0JN836,CP1H_C0_V1.00,FinalTest_2019.8.5.0,160620,CP1H 160620 000010,darsini,PASS,0,,
2020-06-16 08-41-54-028,DESKTOP-K0JN836,CP1H_C0_V1.00,FinalTest_2019.8.5.0,160620,CP1H 160620 000007,darsini,PASS,0,,
2020-06-16 08-42-40-490,DESKTOP-K0JN836,CP1H_C0_V1.00,FinalTest_2019.8.5.0,160620,CP1H 160620 000005,darsini,PASS,0,,
2020-06-16 08-43-32-080,DESKTOP-K0JN836,CP1H_C0_V1.00,FinalTest_2019.8.5.0,160620,CP1H 160620 000002,darsini,PASS,0,,
2020-06-16 08-44-19-968,DESKTOP-K0JN836,CP1H_C0_V1.00,FinalTest_2019.8.5.0,160620,CP1H 160620 000001,darsini,PASS,0,,
2020-06-16 08-45-12-874,DESKTOP-K0JN836,CP1H_C0_V1.00,FinalTest_2019.8.5.0,160620,CP1H 160620 000003,darsini,PASS,0,,
2020-06-16 08-46-01-071,DESKTOP-K0JN836,CP1H_C0_V1.00,FinalTest_2019.8.5.0,160620,CP1H 160620 000004,darsini,PASS,0,,
2020-06-16 08-46-56-396,DESKTOP-K0JN836,CP1H_C0_V1.00,FinalTest_2019.8.5.0,160620,CP1H 160620 000006,darsini,PASS,0,,
2020-06-16 08-53-55-578,DESKTOP-K0JN836,CP1H_C0_V1.00,FinalTest_2019.8.5.0,160620,CP1H 160620 000021,darsini,FAIL,1,,
2020-06-16 08-54-41-054,DESKTOP-K0JN836,CP1H_C0_V1.00,FinalTest_2019.8.5.0,160620,CP1H 160620 000021,darsini,PASS,0,,
2020-06-16 08-55-34-052,DESKTOP-K0JN836,CP1H_C0_V1.00,FinalTest_2019.8.5.0,160620,CP1H 160620 000020,darsini,PASS,0,,
2020-06-16 08-56-20-841,DESKTOP-K0JN836,CP1H_C0_V1.00,FinalTest_2019.8.5.0,160620,CP1H 160620 000019,darsini,FAIL,1,,
2020-06-16 08-57-13-949,DESKTOP-K0JN836,CP1H_C0_V1.00,FinalTest_2019.8.5.0,160620,CP1H 160620 000019,darsini,FAIL,1,,
2020-06-16 08-58-07-742,DESKTOP-K0JN836,CP1H_C0_V1.00,FinalTest_2019.8.5.0,160620,CP1H 160620 000018,darsini,PASS,0,,
2020-06-16 08-58-53-642,DESKTOP-K0JN836,CP1H_C0_V1.00,FinalTest_2019.8.5.0,160620,CP1H 160620 000017,darsini,PASS,0,,
2020-06-16 09-00-00-113,DESKTOP-K0JN836,CP1H_C0_V1.00,FinalTest_2019.8.5.0,160620,CP1H 160620 000022,darsini,PASS,0,,
2020-06-16 09-00-48-286,DESKTOP-K0JN836,CP1H_C0_V1.00,FinalTest_2019.8.5.0,160620,CP1H 160620 000015,darsini,PASS,0,,
2020-06-16 09-01-41-815,DESKTOP-K0JN836,CP1H_C0_V1.00,FinalTest_2019.8.5.0,160620,CP1H 160620 000016,darsini,PASS,0,,
2020-06-16 09-02-35-309,DESKTOP-K0JN836,CP1H_C0_V1.00,FinalTest_2019.8.5.0,160620,CP1H 160620 000013,darsini,PASS,0,,
2020-06-16 09-04-25-435,DESKTOP-K0JN836,CP1H_C0_V1.00,FinalTest_2019.8.5.0,160620,CP1H 160620 000025,darsini,PASS,0,,
2020-06-16 09-05-13-306,DESKTOP-K0JN836,CP1H_C0_V1.00,FinalTest_2019.8.5.0,160620,CP1H 160620 000023,darsini,PASS,0,,
2020-06-16 09-06-05-404,DESKTOP-K0JN836,CP1H_C0_V1.00,FinalTest_2019.8.5.0,160620,CP1H 160620 000014,darsini,PASS,0,,
2020-06-16 09-07-03-329,DESKTOP-K0JN836,CP1H_C0_V1.00,FinalTest_2019.8.5.0,160620,CP1H 160620 000012,darsini,PASS,0,,
2020-06-16 09-07-53-251,DESKTOP-K0JN836,CP1H_C0_V1.00,FinalTest_2019.8.5.0,160620,CP1H 160620 000011,darsini,PASS,0,,
2020-06-16 09-08-42-446,DESKTOP-K0JN836,CP1H_C0_V1.00,FinalTest_2019.8.5.0,160620,CP1H 160620 000024,darsini,PASS,0,,
2020-06-16 09-29-13-799,DESKTOP-K0JN836,CP1H_C0_V1.00,FinalTest_2019.8.5.0,160620,CP1H 160620 000032,darsini,PASS,0,,
2020-06-16 09-29-59-162,DESKTOP-K0JN836,CP1H_C0_V1.00,FinalTest_2019.8.5.0,160620,CP1H 160620 000031,darsini,PASS,0,,
2020-06-16 09-30-50-178,DESKTOP-K0JN836,CP1H_C0_V1.00,FinalTest_2019.8.5.0,160620,CP1H 160620 000028,darsini,PASS,0,,
2020-06-16 09-31-31-718,DESKTOP-K0JN836,CP1H_C0_V1.00,FinalTest_2019.8.5.0,160620,CP1H 160620 000029,darsini,PASS,0,,
2020-06-16 09-32-16-090,DESKTOP-K0JN836,CP1H_C0_V1.00,FinalTest_2019.8.5.0,160620,CP1H 160620 000027,darsini,PASS,0,,
2020-06-16 09-32-46-617,DESKTOP-K0JN836,CP1H_C0_V1.00,FinalTest_2019.8.5.0,160620,CP1H 160620 000027,darsini,PASS,0,,
2020-06-16 09-33-33-416,DESKTOP-K0JN836,CP1H_C0_V1.00,FinalTest_2019.8.5.0,160620,CP1H 160620 000035,darsini,PASS,0,,
2020-06-16 09-34-16-191,DESKTOP-K0JN836,CP1H_C0_V1.00,FinalTest_2019.8.5.0,160620,CP1H 160620 000030,darsini,PASS,0,,
2020-06-16 09-34-59-855,DESKTOP-K0JN836,CP1H_C0_V1.00,FinalTest_2019.8.5.0,160620,CP1H 160620 000033,darsini,PASS,0,,
2020-06-16 09-35-51-586,DESKTOP-K0JN836,CP1H_C0_V1.00,FinalTest_2019.8.5.0,160620,CP1H 160620 000034,darsini,PASS,0,,
2020-06-16 09-36-41-992,DESKTOP-K0JN836,CP1H_C0_V1.00,FinalTest_2019.8.5.0,160620,CP1H 160620 000036,darsini,PASS,0,,
2020-06-16 09-37-21-956,DESKTOP-K0JN836,CP1H_C0_V1.00,FinalTest_2019.8.5.0,160620,CP1H 160620 000037,darsini,PASS,0,,
2020-06-16 09-38-08-380,DESKTOP-K0JN836,CP1H_C0_V1.00,FinalTest_2019.8.5.0,160620,CP1H 160620 000026,darsini,PASS,0,,
2020-06-16 09-38-43-128,DESKTOP-K0JN836,CP1H_C0_V1.00,FinalTest_2019.8.5.0,160620,CP1H 160620 000026,darsini,PASS,0,,
2020-06-16 09-39-29-395,DESKTOP-K0JN836,CP1H_C0_V1.00,FinalTest_2019.8.5.0,160620,CP1H 160620 000038,darsini,PASS,0,,
2020-06-16 09-48-39-493,DESKTOP-K0JN836,CP1H_C0_V1.00,FinalTest_2019.8.5.0,160620,CP1H 160620 000019,darsini,PASS,0,,
2020-06-16 09-49-49-868,DESKTOP-K0JN836,CP1H_C0_V1.00,FinalTest_2019.8.5.0,160620,CP1H 160620 000039,darsini,PASS,0,,
2020-06-16 09-50-46-210,DESKTOP-K0JN836,CP1H_C0_V1.00,FinalTest_2019.8.5.0,160620,CP1H 160620 000041,darsini,PASS,0,,
2020-06-16 09-51-30-247,DESKTOP-K0JN836,CP1H_C0_V1.00,FinalTest_2019.8.5.0,160620,CP1H 160620 000048,darsini,PASS,0,,
2020-06-16 09-52-05-582,DESKTOP-K0JN836,CP1H_C0_V1.00,FinalTest_2019.8.5.0,160620,CP1H 160620 000048,darsini,PASS,0,,
2020-06-16 09-52-48-562,DESKTOP-K0JN836,CP1H_C0_V1.00,FinalTest_2019.8.5.0,160620,CP1H 160620 000042,darsini,PASS,0,,
2020-06-16 09-53-33-956,DESKTOP-K0JN836,CP1H_C0_V1.00,FinalTest_2019.8.5.0,160620,CP1H 160620 000044,darsini,PASS,0,,
2020-06-16 09-54-19-019,DESKTOP-K0JN836,CP1H_C0_V1.00,FinalTest_2019.8.5.0,160620,CP1H 160620 000043,darsini,PASS,0,,
2020-06-16 09-55-00-780,DESKTOP-K0JN836,CP1H_C0_V1.00,FinalTest_2019.8.5.0,160620,CP1H 160620 000047,darsini,PASS,0,,
2020-06-16 09-58-08-400,DESKTOP-K0JN836,CP1H_C0_V1.00,FinalTest_2019.8.5.0,160620,CP1H 160620 000045,darsini,PASS,0,,
2020-06-16 09-58-38-193,DESKTOP-K0JN836,CP1H_C0_V1.00,FinalTest_2019.8.5.0,160620,CP1H 160620 000045,darsini,PASS,0,,
2020-06-16 09-59-24-573,DESKTOP-K0JN836,CP1H_C0_V1.00,FinalTest_2019.8.5.0,160620,CP1H 160620 000040,darsini,PASS,0,,
2020-06-16 10-00-08-661,DESKTOP-K0JN836,CP1H_C0_V1.00,FinalTest_2019.8.5.0,160620,CP1H 160620 000049,darsini,PASS,0,,
2020-06-16 10-00-50-791,DESKTOP-K0JN836,CP1H_C0_V1.00,FinalTest_2019.8.5.0,160620,CP1H 160620 000046,darsini,PASS,0,,
2020-06-16 10-06-39-939,DESKTOP-K0JN836,CP1H_C0_V1.00,FinalTest_2019.8.5.0,160620,CP1H 160620 000057,darsini,PASS,0,,
2020-06-16 10-07-21-487,DESKTOP-K0JN836,CP1H_C0_V1.00,FinalTest_2019.8.5.0,160620,CP1H 160620 000059,darsini,PASS,0,,
2020-06-16 10-08-10-794,DESKTOP-K0JN836,CP1H_C0_V1.00,FinalTest_2019.8.5.0,160620,CP1H 160620 000060,darsini,PASS,0,,
2020-06-16 10-08-54-562,DESKTOP-K0JN836,CP1H_C0_V1.00,FinalTest_2019.8.5.0,160620,CP1H 160620 000056,darsini,PASS,0,,
2020-06-16 10-10-53-332,DESKTOP-K0JN836,CP1H_C0_V1.00,FinalTest_2019.8.5.0,160620,CP1H 160620 000054,darsini,PASS,0,,
2020-06-16 10-16-07-145,DESKTOP-K0JN836,CP1H_C0_V1.00,FinalTest_2019.8.5.0,160620,CP1H 160620 000051,darsini,PASS,0,,
2020-06-16 10-16-54-295,DESKTOP-K0JN836,CP1H_C0_V1.00,FinalTest_2019.8.5.0,160620,CP1H 160620 000058,darsini,PASS,0,,
2020-06-16 10-17-38-101,DESKTOP-K0JN836,CP1H_C0_V1.00,FinalTest_2019.8.5.0,160620,CP1H 160620 000052,darsini,PASS,0,,
2020-06-16 10-18-20-648,DESKTOP-K0JN836,CP1H_C0_V1.00,FinalTest_2019.8.5.0,160620,CP1H 160620 000053,darsini,PASS,0,,
2020-06-16 10-19-03-306,DESKTOP-K0JN836,CP1H_C0_V1.00,FinalTest_2019.8.5.0,160620,CP1H 160620 000055,darsini,PASS,0,,
2020-06-16 10-19-55-416,DESKTOP-K0JN836,CP1H_C0_V1.00,FinalTest_2019.8.5.0,160620,CP1H 160620 000082,darsini,PASS,0,,
2020-06-16 10-20-38-956,DESKTOP-K0JN836,CP1H_C0_V1.00,FinalTest_2019.8.5.0,160620,CP1H 160620 000061,darsini,PASS,0,,
2020-06-16 10-21-23-439,DESKTOP-K0JN836,CP1H_C0_V1.00,FinalTest_2019.8.5.0,160620,CP1H 160620 000075,darsini,FAIL,1,,
2020-06-16 10-24-09-622,DESKTOP-K0JN836,CP1H_C0_V1.00,FinalTest_2019.8.5.0,160620,CP1H 160620 000075,darsini,PASS,0,,
2020-06-16 10-24-53-978,DESKTOP-K0JN836,CP1H_C0_V1.00,FinalTest_2019.8.5.0,160620,CP1H 160620 000050,darsini,PASS,0,,
2020-06-16 10-25-37-856,DESKTOP-K0JN836,CP1H_C0_V1.00,FinalTest_2019.8.5.0,160620,CP1H 160620 000084,darsini,PASS,0,,
2020-06-16 10-26-46-226,DESKTOP-K0JN836,CP1H_C0_V1.00,FinalTest_2019.8.5.0,160620,CP1H 160620 000068,darsini,PASS,0,,
2020-06-16 10-27-28-577,DESKTOP-K0JN836,CP1H_C0_V1.00,FinalTest_2019.8.5.0,160620,CP1H 160620 000078,darsini,PASS,0,,
2020-06-16 10-28-12-967,DESKTOP-K0JN836,CP1H_C0_V1.00,FinalTest_2019.8.5.0,160620,CP1H 160620 000013,darsini,PASS,0,,
2020-06-16 10-34-16-380,DESKTOP-K0JN836,CP1H_C0_V1.00,FinalTest_2019.8.5.0,160620,CP1H 160620 000079,sara,PASS,0,,
2020-06-16 10-35-40-105,DESKTOP-K0JN836,CP1H_C0_V1.00,FinalTest_2019.8.5.0,160620,CP1H 160620 000083,sara,PASS,0,,
2020-06-16 10-36-22-006,DESKTOP-K0JN836,CP1H_C0_V1.00,FinalTest_2019.8.5.0,160620,CP1H 160620 000081,sara,PASS,0,,
2020-06-16 10-37-06-784,DESKTOP-K0JN836,CP1H_C0_V1.00,FinalTest_2019.8.5.0,160620,CP1H 160620 000080,sara,PASS,0,,
2020-06-16 10-37-53-664,DESKTOP-K0JN836,CP1H_C0_V1.00,FinalTest_2019.8.5.0,160620,CP1H 160620 000067,sara,PASS,0,,
2020-06-16 10-38-39-333,DESKTOP-K0JN836,CP1H_C0_V1.00,FinalTest_2019.8.5.0,160620,CP1H 160620 000066,sara,PASS,0,,
2020-06-16 10-39-23-401,DESKTOP-K0JN836,CP1H_C0_V1.00,FinalTest_2019.8.5.0,160620,CP1H 160620 000077,sara,PASS,0,,
2020-06-16 10-40-13-178,DESKTOP-K0JN836,CP1H_C0_V1.00,FinalTest_2019.8.5.0,160620,CP1H 160620 000076,sara,PASS,0,,
2020-06-16 10-45-33-148,DESKTOP-K0JN836,CP1H_C0_V1.00,FinalTest_2019.8.5.0,160620,CP1H 160620 000062,sara,PASS,0,,
2020-06-16 10-46-16-530,DESKTOP-K0JN836,CP1H_C0_V1.00,FinalTest_2019.8.5.0,160620,CP1H 160620 000072,sara,PASS,0,,
2020-06-16 10-47-01-592,DESKTOP-K0JN836,CP1H_C0_V1.00,FinalTest_2019.8.5.0,160620,CP1H 160620 000071,sara,PASS,0,,
2020-06-16 10-47-45-775,DESKTOP-K0JN836,CP1H_C0_V1.00,FinalTest_2019.8.5.0,160620,CP1H 160620 000073,sara,PASS,0,,
2020-06-16 10-48-31-463,DESKTOP-K0JN836,CP1H_C0_V1.00,FinalTest_2019.8.5.0,160620,CP1H 160620 000069,sara,PASS,0,,
2020-06-16 10-49-19-735,DESKTOP-K0JN836,CP1H_C0_V1.00,FinalTest_2019.8.5.0,160620,CP1H 160620 000065,sara,PASS,0,,
2020-06-16 10-50-05-815,DESKTOP-K0JN836,CP1H_C0_V1.00,FinalTest_2019.8.5.0,160620,CP1H 160620 000070,sara,PASS,0,,
2020-06-16 10-50-48-573,DESKTOP-K0JN836,CP1H_C0_V1.00,FinalTest_2019.8.5.0,160620,CP1H 160620 000063,sara,PASS,0,,
2020-06-16 10-51-30-621,DESKTOP-K0JN836,CP1H_C0_V1.00,FinalTest_2019.8.5.0,160620,CP1H 160620 000064,sara,PASS,0,,
2020-06-16 10-52-13-643,DESKTOP-K0JN836,CP1H_C0_V1.00,FinalTest_2019.8.5.0,160620,CP1H 160620 000074,sara,PASS,0,,
2020-06-16 10-52-56-552,DESKTOP-K0JN836,CP1H_C0_V1.00,FinalTest_2019.8.5.0,160620,CP1H 160620 000085,sara,PASS,0,,
2020-06-16 10-53-53-037,DESKTOP-K0JN836,CP1H_C0_V1.00,FinalTest_2019.8.5.0,160620,CP1H 160620 000086,sara,PASS,0,,
2020-06-16 10-54-27-480,DESKTOP-K0JN836,CP1H_C0_V1.00,FinalTest_2019.8.5.0,160620,CP1H 160620 000086,sara,PASS,0,,
2020-06-16 10-55-14-765,DESKTOP-K0JN836,CP1H_C0_V1.00,FinalTest_2019.8.5.0,160620,CP1H 160620 000106,sara,PASS,0,,
2020-06-16 10-56-00-423,DESKTOP-K0JN836,CP1H_C0_V1.00,FinalTest_2019.8.5.0,160620,CP1H 160620 000097,sara,PASS,0,,
2020-06-16 10-57-26-278,DESKTOP-K0JN836,CP1H_C0_V1.00,FinalTest_2019.8.5.0,160620,CP1H 160620 000096,sara,PASS,0,,
2020-06-16 10-58-11-665,DESKTOP-K0JN836,CP1H_C0_V1.00,FinalTest_2019.8.5.0,160620,CP1H 160620 000095,sara,FAIL,1,,
2020-06-16 10-59-19-531,DESKTOP-K0JN836,CP1H_C0_V1.00,FinalTest_2019.8.5.0,160620,CP1H 160620 000095,sara,PASS,0,,
2020-06-16 11-00-20-169,DESKTOP-K0JN836,CP1H_C0_V1.00,FinalTest_2019.8.5.0,160620,CP1H 160620 000107,sara,PASS,0,,
2020-06-16 11-01-23-637,DESKTOP-K0JN836,CP1H_C0_V1.00,FinalTest_2019.8.5.0,160620,CP1H 160620 000089,sara,PASS,0,,
2020-06-16 11-02-41-669,DESKTOP-K0JN836,CP1H_C0_V1.00,FinalTest_2019.8.5.0,160620,CP1H 160620 000093,sara,PASS,0,,
2020-06-16 11-03-25-851,DESKTOP-K0JN836,CP1H_C0_V1.00,FinalTest_2019.8.5.0,160620,CP1H 160620 000088,sara,PASS,0,,
2020-06-16 11-04-07-282,DESKTOP-K0JN836,CP1H_C0_V1.00,FinalTest_2019.8.5.0,160620,CP1H 160620 000087,sara,PASS,0,,
2020-06-16 11-04-57-163,DESKTOP-K0JN836,CP1H_C0_V1.00,FinalTest_2019.8.5.0,160620,CP1H 160620 000092,sara,PASS,0,,
2020-06-16 11-05-35-611,DESKTOP-K0JN836,CP1H_C0_V1.00,FinalTest_2019.8.5.0,160620,CP1H 160620 000092,sara,PASS,0,,
2020-06-16 11-06-11-761,DESKTOP-K0JN836,CP1H_C0_V1.00,FinalTest_2019.8.5.0,160620,CP1H 160620 000092,sara,PASS,0,,
2020-06-16 11-07-00-455,DESKTOP-K0JN836,CP1H_C0_V1.00,FinalTest_2019.8.5.0,160620,CP1H 160620 000099,sara,PASS,0,,
2020-06-16 11-07-34-590,DESKTOP-K0JN836,CP1H_C0_V1.00,FinalTest_2019.8.5.0,160620,CP1H 160620 000099,sara,PASS,0,,
2020-06-16 11-08-18-849,DESKTOP-K0JN836,CP1H_C0_V1.00,FinalTest_2019.8.5.0,160620,CP1H 160620 000098,sara,PASS,0,,
2020-06-16 11-09-05-317,DESKTOP-K0JN836,CP1H_C0_V1.00,FinalTest_2019.8.5.0,160620,CP1H 160620 000104,sara,PASS,0,,
2020-06-16 11-09-48-686,DESKTOP-K0JN836,CP1H_C0_V1.00,FinalTest_2019.8.5.0,160620,CP1H 160620 000100,sara,PASS,0,,
2020-06-16 11-10-39-086,DESKTOP-K0JN836,CP1H_C0_V1.00,FinalTest_2019.8.5.0,160620,CP1H 160620 000103,sara,PASS,0,,
2020-06-16 11-11-17-671,DESKTOP-K0JN836,CP1H_C0_V1.00,FinalTest_2019.8.5.0,160620,CP1H 160620 000103,sara,PASS,0,,
2020-06-16 11-13-29-787,DESKTOP-K0JN836,CP1H_C0_V1.00,FinalTest_2019.8.5.0,160620,CP1H 160620 000101,sara,PASS,0,,
2020-06-16 11-14-12-633,DESKTOP-K0JN836,CP1H_C0_V1.00,FinalTest_2019.8.5.0,160620,CP1H 160620 000091,sara,PASS,0,,
2020-06-16 11-14-55-088,DESKTOP-K0JN836,CP1H_C0_V1.00,FinalTest_2019.8.5.0,160620,CP1H 160620 000105,sara,PASS,0,,
2020-06-16 11-15-39-067,DESKTOP-K0JN836,CP1H_C0_V1.00,FinalTest_2019.8.5.0,160620,CP1H 160620 000090,sara,PASS,0,,
2020-06-16 11-16-21-112,DESKTOP-K0JN836,CP1H_C0_V1.00,FinalTest_2019.8.5.0,160620,CP1H 160620 000108,sara,PASS,0,,
2020-06-16 11-17-05-884,DESKTOP-K0JN836,CP1H_C0_V1.00,FinalTest_2019.8.5.0,160620,CP1H 160620 000094,sara,PASS,0,,
2020-06-16 11-17-51-848,DESKTOP-K0JN836,CP1H_C0_V1.00,FinalTest_2019.8.5.0,160620,CP1H 160620 000102,sara,PASS,0,,
2020-06-16 11-21-15-750,DESKTOP-K0JN836,CP1H_C0_V1.00,FinalTest_2019.8.5.0,160620,CP1H 160620 000130,sara,PASS,0,,
2020-06-16 11-22-01-075,DESKTOP-K0JN836,CP1H_C0_V1.00,FinalTest_2019.8.5.0,160620,CP1H 160620 000133,sara,PASS,0,,
2020-06-16 11-22-43-270,DESKTOP-K0JN836,CP1H_C0_V1.00,FinalTest_2019.8.5.0,160620,CP1H 160620 000125,sara,PASS,0,,
2020-06-16 11-23-25-921,DESKTOP-K0JN836,CP1H_C0_V1.00,FinalTest_2019.8.5.0,160620,CP1H 160620 000114,sara,PASS,0,,
2020-06-16 11-24-07-972,DESKTOP-K0JN836,CP1H_C0_V1.00,FinalTest_2019.8.5.0,160620,CP1H 160620 000127,sara,PASS,0,,
2020-06-16 11-24-50-525,DESKTOP-K0JN836,CP1H_C0_V1.00,FinalTest_2019.8.5.0,160620,CP1H 160620 000121,sara,PASS,0,,
2020-06-16 11-25-34-390,DESKTOP-K0JN836,CP1H_C0_V1.00,FinalTest_2019.8.5.0,160620,CP1H 160620 000129,sara,PASS,0,,
2020-06-16 11-26-17-099,DESKTOP-K0JN836,CP1H_C0_V1.00,FinalTest_2019.8.5.0,160620,CP1H 160620 000128,sara,PASS,0,,
2020-06-16 11-27-37-317,DESKTOP-K0JN836,CP1H_C0_V1.00,FinalTest_2019.8.5.0,160620,CP1H 160620 000132,sara,PASS,0,,
2020-06-16 11-30-11-703,DESKTOP-K0JN836,CP1H_C0_V1.00,FinalTest_2019.8.5.0,160620,CP1H 160620 000131,sara,PASS,0,,
2020-06-16 11-30-46-505,DESKTOP-K0JN836,CP1H_C0_V1.00,FinalTest_2019.8.5.0,160620,CP1H 160620 000131,sara,PASS,0,,
2020-06-16 11-31-28-773,DESKTOP-K0JN836,CP1H_C0_V1.00,FinalTest_2019.8.5.0,160620,CP1H 160620 000126,sara,PASS,0,,
2020-06-16 11-32-12-357,DESKTOP-K0JN836,CP1H_C0_V1.00,FinalTest_2019.8.5.0,160620,CP1H 160620 000116,sara,PASS,0,,
2020-06-16 11-33-09-961,DESKTOP-K0JN836,CP1H_C0_V1.00,FinalTest_2019.8.5.0,160620,CP1H 160620 000124,sara,PASS,0,,
2020-06-16 11-34-39-329,DESKTOP-K0JN836,CP1H_C0_V1.00,FinalTest_2019.8.5.0,160620,CP1H 160620 000120,sara,PASS,0,,
2020-06-16 11-35-30-240,DESKTOP-K0JN836,CP1H_C0_V1.00,FinalTest_2019.8.5.0,160620,CP1H 160620 000113,sara,PASS,0,,
2020-06-16 11-38-52-111,DESKTOP-K0JN836,CP1H_C0_V1.00,FinalTest_2019.8.5.0,160620,CP1H 160620 000123,sara,PASS,0,,
2020-06-16 11-39-34-269,DESKTOP-K0JN836,CP1H_C0_V1.00,FinalTest_2019.8.5.0,160620,CP1H 160620 000117,sara,PASS,0,,
2020-06-16 11-40-15-034,DESKTOP-K0JN836,CP1H_C0_V1.00,FinalTest_2019.8.5.0,160620,CP1H 160620 000115,sara,PASS,0,,
2020-06-16 11-43-40-826,DESKTOP-K0JN836,CP1H_C0_V1.00,FinalTest_2019.8.5.0,160620,CP1H 160620 000109,sara,PASS,0,,
2020-06-16 11-44-23-366,DESKTOP-K0JN836,CP1H_C0_V1.00,FinalTest_2019.8.5.0,160620,CP1H 160620 000110,sara,PASS,0,,
2020-06-16 11-45-05-192,DESKTOP-K0JN836,CP1H_C0_V1.00,FinalTest_2019.8.5.0,160620,CP1H 160620 000111,sara,PASS,0,,
2020-06-16 11-45-48-504,DESKTOP-K0JN836,CP1H_C0_V1.00,FinalTest_2019.8.5.0,160620,CP1H 160620 000118,sara,PASS,0,,
2020-06-16 11-46-30-267,DESKTOP-K0JN836,CP1H_C0_V1.00,FinalTest_2019.8.5.0,160620,CP1H 160620 000119,sara,PASS,0,,
2020-06-16 11-47-12-491,DESKTOP-K0JN836,CP1H_C0_V1.00,FinalTest_2019.8.5.0,160620,CP1H 160620 000112,sara,PASS,0,,
2020-06-16 11-47-55-137,DESKTOP-K0JN836,CP1H_C0_V1.00,FinalTest_2019.8.5.0,160620,CP1H 160620 000122,sara,PASS,0,,
2020-06-16 11-48-47-144,DESKTOP-K0JN836,CP1H_C0_V1.00,FinalTest_2019.8.5.0,160620,CP1H 160620 000147,sara,PASS,0,,
2020-06-16 11-49-17-856,DESKTOP-K0JN836,CP1H_C0_V1.00,FinalTest_2019.8.5.0,160620,CP1H 160620 000147,sara,PASS,0,,
2020-06-16 11-50-00-415,DESKTOP-K0JN836,CP1H_C0_V1.00,FinalTest_2019.8.5.0,160620,CP1H 160620 000145,sara,PASS,0,,
2020-06-16 11-50-45-278,DESKTOP-K0JN836,CP1H_C0_V1.00,FinalTest_2019.8.5.0,160620,CP1H 160620 000149,sara,PASS,0,,
2020-06-16 11-51-18-911,DESKTOP-K0JN836,CP1H_C0_V1.00,FinalTest_2019.8.5.0,160620,CP1H 160620 000149,sara,PASS,0,,
2020-06-16 11-52-01-175,DESKTOP-K0JN836,CP1H_C0_V1.00,FinalTest_2019.8.5.0,160620,CP1H 160620 000150,sara,PASS,0,,
2020-06-16 11-52-42-929,DESKTOP-K0JN836,CP1H_C0_V1.00,FinalTest_2019.8.5.0,160620,CP1H 160620 000159,sara,PASS,0,,
2020-06-16 11-54-51-870,DESKTOP-K0JN836,CP1H_C0_V1.00,FinalTest_2019.8.5.0,160620,CP1H 160620 000160,sara,PASS,0,,
2020-06-16 11-55-42-089,DESKTOP-K0JN836,CP1H_C0_V1.00,FinalTest_2019.8.5.0,160620,CP1H 160620 000146,sara,PASS,0,,
2020-06-16 11-56-29-344,DESKTOP-K0JN836,CP1H_C0_V1.00,FinalTest_2019.8.5.0,160620,CP1H 160620 000158,sara,PASS,0,,
2020-06-16 11-57-11-592,DESKTOP-K0JN836,CP1H_C0_V1.00,FinalTest_2019.8.5.0,160620,CP1H 160620 000148,sara,PASS,0,,
2020-06-16 11-57-54-991,DESKTOP-K0JN836,CP1H_C0_V1.00,FinalTest_2019.8.5.0,160620,CP1H 160620 000152,sara,PASS,0,,
2020-06-16 11-58-40-137,DESKTOP-K0JN836,CP1H_C0_V1.00,FinalTest_2019.8.5.0,160620,CP1H 160620 000138,sara,PASS,0,,
2020-06-16 11-59-15-092,DESKTOP-K0JN836,CP1H_C0_V1.00,FinalTest_2019.8.5.0,160620,CP1H 160620 000138,sara,PASS,0,,
2020-06-16 12-38-21-153,DESKTOP-K0JN836,CP1H_C0_V1.00,FinalTest_2019.8.5.0,160620,CP1H 160620 000137,umie,PASS,0,,
2020-06-16 12-39-54-447,DESKTOP-K0JN836,CP1H_C0_V1.00,FinalTest_2019.8.5.0,160620,CP1H 160620 000134,umie,PASS,0,,
2020-06-16 12-41-41-975,DESKTOP-K0JN836,CP1H_C0_V1.00,FinalTest_2019.8.5.0,160620,CP1H 160620 000144,umie,PASS,0,,
2020-06-16 12-42-52-383,DESKTOP-K0JN836,CP1H_C0_V1.00,FinalTest_2019.8.5.0,160620,CP1H 160620 000151,umie,PASS,0,,
2020-06-16 12-44-02-224,DESKTOP-K0JN836,CP1H_C0_V1.00,FinalTest_2019.8.5.0,160620,CP1H 160620 000140,umie,PASS,0,,
2020-06-16 12-45-11-404,DESKTOP-K0JN836,CP1H_C0_V1.00,FinalTest_2019.8.5.0,160620,CP1H 160620 000143,umie,PASS,0,,
2020-06-16 12-46-20-676,DESKTOP-K0JN836,CP1H_C0_V1.00,FinalTest_2019.8.5.0,160620,CP1H 160620 000154,umie,PASS,0,,
2020-06-16 12-47-33-479,DESKTOP-K0JN836,CP1H_C0_V1.00,FinalTest_2019.8.5.0,160620,CP1H 160620 000139,umie,PASS,0,,
2020-06-16 12-49-22-531,DESKTOP-K0JN836,CP1H_C0_V1.00,FinalTest_2019.8.5.0,160620,CP1H 160620 000135,umie,PASS,0,,
2020-06-16 12-50-54-691,DESKTOP-K0JN836,CP1H_C0_V1.00,FinalTest_2019.8.5.0,160620,CP1H 160620 000153,umie,PASS,0,,
2020-06-16 12-52-29-391,DESKTOP-K0JN836,CP1H_C0_V1.00,FinalTest_2019.8.5.0,160620,CP1H 160620 000155,umie,PASS,0,,
2020-06-16 12-53-54-627,DESKTOP-K0JN836,CP1H_C0_V1.00,FinalTest_2019.8.5.0,160620,CP1H 160620 000157,umie,PASS,0,,
2020-06-16 12-55-29-712,DESKTOP-K0JN836,CP1H_C0_V1.00,FinalTest_2019.8.5.0,160620,CP1H 160620 000165,umie,PASS,0,,
2020-06-16 12-57-11-340,DESKTOP-K0JN836,CP1H_C0_V1.00,FinalTest_2019.8.5.0,160620,CP1H 160620 000166,umie,PASS,0,,
2020-06-16 13-02-13-005,DESKTOP-K0JN836,CP1H_C0_V1.00,FinalTest_2019.8.5.0,160620,CP1H 160620 000169,umie,PASS,0,,
2020-06-16 13-03-41-490,DESKTOP-K0JN836,CP1H_C0_V1.00,FinalTest_2019.8.5.0,160620,CP1H 160620 000179,umie,PASS,0,,
2020-06-16 13-05-20-888,DESKTOP-K0JN836,CP1H_C0_V1.00,FinalTest_2019.8.5.0,160620,CP1H 160620 000172,umie,PASS,0,,
2020-06-16 13-06-38-610,DESKTOP-K0JN836,CP1H_C0_V1.00,FinalTest_2019.8.5.0,160620,CP1H 160620 000162,umie,PASS,0,,
2020-06-16 13-07-58-332,DESKTOP-K0JN836,CP1H_C0_V1.00,FinalTest_2019.8.5.0,160620,CP1H 160620 000171,umie,PASS,0,,
2020-06-16 13-10-13-506,DESKTOP-K0JN836,CP1H_C0_V1.00,FinalTest_2019.8.5.0,160620,CP1H 160620 000161,umie,PASS,0,,
2020-06-16 13-11-52-323,DESKTOP-K0JN836,CP1H_C0_V1.00,FinalTest_2019.8.5.0,160620,CP1H 160620 000136,umie,PASS,0,,
2020-06-16 13-13-33-841,DESKTOP-K0JN836,CP1H_C0_V1.00,FinalTest_2019.8.5.0,160620,CP1H 160620 000168,umie,PASS,0,,
2020-06-16 13-14-59-582,DESKTOP-K0JN836,CP1H_C0_V1.00,FinalTest_2019.8.5.0,160620,CP1H 160620 000176,umie,PASS,0,,
2020-06-16 13-16-09-430,DESKTOP-K0JN836,CP1H_C0_V1.00,FinalTest_2019.8.5.0,160620,CP1H 160620 000178,umie,PASS,0,,
2020-06-16 13-17-19-124,DESKTOP-K0JN836,CP1H_C0_V1.00,FinalTest_2019.8.5.0,160620,CP1H 160620 000177,umie,PASS,0,,
2020-06-16 13-18-22-682,DESKTOP-K0JN836,CP1H_C0_V1.00,FinalTest_2019.8.5.0,160620,CP1H 160620 000173,umie,PASS,0,,
2020-06-16 13-21-01-070,DESKTOP-K0JN836,CP1H_C0_V1.00,FinalTest_2019.8.5.0,160620,CP1H 160620 000180,umie,PASS,0,,
2020-06-16 13-22-09-452,DESKTOP-K0JN836,CP1H_C0_V1.00,FinalTest_2019.8.5.0,160620,CP1H 160620 000141,umie,PASS,0,,
2020-06-16 13-23-59-197,DESKTOP-K0JN836,CP1H_C0_V1.00,FinalTest_2019.8.5.0,160620,CP1H 160620 000156,umie,PASS,0,,
2020-06-16 13-25-15-217,DESKTOP-K0JN836,CP1H_C0_V1.00,FinalTest_2019.8.5.0,160620,CP1H 160620 000142,umie,PASS,0,,
2020-06-16 13-26-27-595,DESKTOP-K0JN836,CP1H_C0_V1.00,FinalTest_2019.8.5.0,160620,CP1H 160620 000190,umie,PASS,0,,
2020-06-16 13-27-44-707,DESKTOP-K0JN836,CP1H_C0_V1.00,FinalTest_2019.8.5.0,160620,CP1H 160620 000193,umie,PASS,0,,
2020-06-16 13-29-29-759,DESKTOP-K0JN836,CP1H_C0_V1.00,FinalTest_2019.8.5.0,160620,CP1H 160620 000182,umie,PASS,0,,
2020-06-16 13-30-42-137,DESKTOP-K0JN836,CP1H_C0_V1.00,FinalTest_2019.8.5.0,160620,CP1H 160620 000191,umie,PASS,0,,
2020-06-16 13-31-54-627,DESKTOP-K0JN836,CP1H_C0_V1.00,FinalTest_2019.8.5.0,160620,CP1H 160620 000181,umie,PASS,0,,
2020-06-16 13-33-03-206,DESKTOP-K0JN836,CP1H_C0_V1.00,FinalTest_2019.8.5.0,160620,CP1H 160620 000184,umie,PASS,0,,
2020-06-16 13-34-02-546,DESKTOP-K0JN836,CP1H_C0_V1.00,FinalTest_2019.8.5.0,160620,CP1H 160620 000185,umie,PASS,0,,
2020-06-16 13-35-07-095,DESKTOP-K0JN836,CP1H_C0_V1.00,FinalTest_2019.8.5.0,160620,CP1H 160620 000186,umie,PASS,0,,
2020-06-16 13-36-16-770,DESKTOP-K0JN836,CP1H_C0_V1.00,FinalTest_2019.8.5.0,160620,CP1H 160620 000187,umie,PASS,0,,
2020-06-16 13-37-25-653,DESKTOP-K0JN836,CP1H_C0_V1.00,FinalTest_2019.8.5.0,160620,CP1H 160620 000183,umie,PASS,0,,
2020-06-16 13-38-36-541,DESKTOP-K0JN836,CP1H_C0_V1.00,FinalTest_2019.8.5.0,160620,CP1H 160620 000200,umie,PASS,0,,
2020-06-16 13-39-56-854,DESKTOP-K0JN836,CP1H_C0_V1.00,FinalTest_2019.8.5.0,160620,CP1H 160620 000188,umie,PASS,0,,
2020-06-16 13-41-12-361,DESKTOP-K0JN836,CP1H_C0_V1.00,FinalTest_2019.8.5.0,160620,CP1H 160620 000175,umie,PASS,0,,
2020-06-16 13-42-31-776,DESKTOP-K0JN836,CP1H_C0_V1.00,FinalTest_2019.8.5.0,160620,CP1H 160620 000189,umie,PASS,0,,
2020-06-16 13-43-42-972,DESKTOP-K0JN836,CP1H_C0_V1.00,FinalTest_2019.8.5.0,160620,CP1H 160620 000174,umie,PASS,0,,
2020-06-16 13-50-38-242,DESKTOP-K0JN836,CP1H_C0_V1.00,FinalTest_2019.8.5.0,160620,CP1H 160620 000149,umie,PASS,0,,
2020-06-16 13-53-34-669,DESKTOP-K0JN836,CP1H_C0_V1.00,FinalTest_2019.8.5.0,160620,CP1H 160620 000149,sara,PASS,0,,
2020-06-16 13-55-46-366,DESKTOP-K0JN836,CP1H_C0_V1.00,FinalTest_2019.8.5.0,160620,CP1H 160620 000198,sara,PASS,0,,
2020-06-16 13-56-55-562,DESKTOP-K0JN836,CP1H_C0_V1.00,FinalTest_2019.8.5.0,160620,CP1H 160620 000199,sara,PASS,0,,
2020-06-16 13-58-09-783,DESKTOP-K0JN836,CP1H_C0_V1.00,FinalTest_2019.8.5.0,160620,CP1H 160620 000192,sara,PASS,0,,
2020-06-16 13-59-37-918,DESKTOP-K0JN836,CP1H_C0_V1.00,FinalTest_2019.8.5.0,160620,CP1H 160620 000195,sara,PASS,0,,
2020-06-16 14-01-04-784,DESKTOP-K0JN836,CP1H_C0_V1.00,FinalTest_2019.8.5.0,160620,CP1H 160620 000164,sara,PASS,0,,
2020-06-16 14-02-23-675,DESKTOP-K0JN836,CP1H_C0_V1.00,FinalTest_2019.8.5.0,160620,CP1H 160620 000194,sara,PASS,0,,
2020-06-16 14-04-54-543,DESKTOP-K0JN836,CP1H_C0_V1.00,FinalTest_2019.8.5.0,160620,CP1H 160620 000197,sara,PASS,0,,
2020-06-16 14-07-36-413,DESKTOP-K0JN836,CP1H_C0_V1.00,FinalTest_2019.8.5.0,160620,CP1H 160620 000170,sara,PASS,0,,
2020-06-16 14-09-51-419,DESKTOP-K0JN836,CP1H_C0_V1.00,FinalTest_2019.8.5.0,160620,CP1H 160620 000163,sara,PASS,0,,
2020-06-16 14-10-57-282,DESKTOP-K0JN836,CP1H_C0_V1.00,FinalTest_2019.8.5.0,160620,CP1H 160620 000167,sara,PASS,0,,
2020-06-16 14-11-58-709,DESKTOP-K0JN836,CP1H_C0_V1.00,FinalTest_2019.8.5.0,160620,CP1H 160620 000196,sara,PASS,0,,
2020-06-16 14-13-21-853,DESKTOP-K0JN836,CP1H_C0_V1.00,FinalTest_2019.8.5.0,160620,CP1H 160620 000233,sara,PASS,0,,
2020-06-16 14-14-34-861,DESKTOP-K0JN836,CP1H_C0_V1.00,FinalTest_2019.8.5.0,160620,CP1H 160620 000234,sara,PASS,0,,
2020-06-16 14-15-52-861,DESKTOP-K0JN836,CP1H_C0_V1.00,FinalTest_2019.8.5.0,160620,CP1H 160620 000235,sara,PASS,0,,
2020-06-16 14-17-13-083,DESKTOP-K0JN836,CP1H_C0_V1.00,FinalTest_2019.8.5.0,160620,CP1H 160620 000236,sara,PASS,0,,
2020-06-16 14-18-30-809,DESKTOP-K0JN836,CP1H_C0_V1.00,FinalTest_2019.8.5.0,160620,CP1H 160620 000232,sara,PASS,0,,
2020-06-16 14-19-42-888,DESKTOP-K0JN836,CP1H_C0_V1.00,FinalTest_2019.8.5.0,160620,CP1H 160620 000231,sara,PASS,0,,
2020-06-16 14-21-01-516,DESKTOP-K0JN836,CP1H_C0_V1.00,FinalTest_2019.8.5.0,160620,CP1H 160620 000237,sara,PASS,0,,
2020-06-16 14-22-37-194,DESKTOP-K0JN836,CP1H_C0_V1.00,FinalTest_2019.8.5.0,160620,CP1H 160620 000228,sara,PASS,0,,
2020-06-16 14-24-26-318,DESKTOP-K0JN836,CP1H_C0_V1.00,FinalTest_2019.8.5.0,160620,CP1H 160620 000226,sara,PASS,0,,
2020-06-16 14-25-39-836,DESKTOP-K0JN836,CP1H_C0_V1.00,FinalTest_2019.8.5.0,160620,CP1H 160620 000222,sara,PASS,0,,
2020-06-16 14-27-41-017,DESKTOP-K0JN836,CP1H_C0_V1.00,FinalTest_2019.8.5.0,160620,CP1H 160620 000202,sara,PASS,0,,
2020-06-16 14-28-48-589,DESKTOP-K0JN836,CP1H_C0_V1.00,FinalTest_2019.8.5.0,160620,CP1H 160620 000201,sara,PASS,0,,
2020-06-16 14-29-54-846,DESKTOP-K0JN836,CP1H_C0_V1.00,FinalTest_2019.8.5.0,160620,CP1H 160620 000219,sara,PASS,0,,
2020-06-16 14-31-27-032,DESKTOP-K0JN836,CP1H_C0_V1.00,FinalTest_2019.8.5.0,160620,CP1H 160620 000224,sara,PASS,0,,
2020-06-16 14-33-28-923,DESKTOP-K0JN836,CP1H_C0_V1.00,FinalTest_2019.8.5.0,160620,CP1H 160620 000214,sara,PASS,0,,
2020-06-16 14-35-06-435,DESKTOP-K0JN836,CP1H_C0_V1.00,FinalTest_2019.8.5.0,160620,CP1H 160620 000218,sara,PASS,0,,
2020-06-16 14-36-35-703,DESKTOP-K0JN836,CP1H_C0_V1.00,FinalTest_2019.8.5.0,160620,CP1H 160620 000205,sara,PASS,0,,
2020-06-16 14-37-44-147,DESKTOP-K0JN836,CP1H_C0_V1.00,FinalTest_2019.8.5.0,160620,CP1H 160620 000204,sara,PASS,0,,
2020-06-16 14-38-52-515,DESKTOP-K0JN836,CP1H_C0_V1.00,FinalTest_2019.8.5.0,160620,CP1H 160620 000209,sara,PASS,0,,
2020-06-16 14-39-54-563,DESKTOP-K0JN836,CP1H_C0_V1.00,FinalTest_2019.8.5.0,160620,CP1H 160620 000225,sara,PASS,0,,
2020-06-16 14-40-59-346,DESKTOP-K0JN836,CP1H_C0_V1.00,FinalTest_2019.8.5.0,160620,CP1H 160620 000230,sara,PASS,0,,
2020-06-16 14-44-28-452,DESKTOP-K0JN836,CP1H_C0_V1.00,FinalTest_2019.8.5.0,160620,CP1H 160620 000230,umie,PASS,0,,
2020-06-16 14-45-36-567,DESKTOP-K0JN836,CP1H_C0_V1.00,FinalTest_2019.8.5.0,160620,CP1H 160620 000223,umie,PASS,0,,
2020-06-16 14-46-48-845,DESKTOP-K0JN836,CP1H_C0_V1.00,FinalTest_2019.8.5.0,160620,CP1H 160620 000221,umie,PASS,0,,
2020-06-16 14-48-04-858,DESKTOP-K0JN836,CP1H_C0_V1.00,FinalTest_2019.8.5.0,160620,CP1H 160620 000229,umie,PASS,0,,
2020-06-16 14-49-18-153,DESKTOP-K0JN836,CP1H_C0_V1.00,FinalTest_2019.8.5.0,160620,CP1H 160620 000227,umie,PASS,0,,
2020-06-16 14-50-40-085,DESKTOP-K0JN836,CP1H_C0_V1.00,FinalTest_2019.8.5.0,160620,CP1H 160620 000208,umie,PASS,0,,
2020-06-16 14-51-45-154,DESKTOP-K0JN836,CP1H_C0_V1.00,FinalTest_2019.8.5.0,160620,CP1H 160620 000207,umie,PASS,0,,
2020-06-16 14-52-47-790,DESKTOP-K0JN836,CP1H_C0_V1.00,FinalTest_2019.8.5.0,160620,CP1H 160620 000203,umie,PASS,0,,
2020-06-16 14-54-04-711,DESKTOP-K0JN836,CP1H_C0_V1.00,FinalTest_2019.8.5.0,160620,CP1H 160620 000206,umie,PASS,0,,
2020-06-16 14-55-16-295,DESKTOP-K0JN836,CP1H_C0_V1.00,FinalTest_2019.8.5.0,160620,CP1H 160620 000210,umie,PASS,0,,
2020-06-16 14-56-35-606,DESKTOP-K0JN836,CP1H_C0_V1.00,FinalTest_2019.8.5.0,160620,CP1H 160620 000215,umie,PASS,0,,
2020-06-16 14-57-40-068,DESKTOP-K0JN836,CP1H_C0_V1.00,FinalTest_2019.8.5.0,160620,CP1H 160620 000212,umie,PASS,0,,
2020-06-16 14-59-56-241,DESKTOP-K0JN836,CP1H_C0_V1.00,FinalTest_2019.8.5.0,160620,CP1H 160620 000211,umie,PASS,0,,
2020-06-16 15-00-57-900,DESKTOP-K0JN836,CP1H_C0_V1.00,FinalTest_2019.8.5.0,160620,CP1H 160620 000213,umie,PASS,0,,
2020-06-16 15-02-11-985,DESKTOP-K0JN836,CP1H_C0_V1.00,FinalTest_2019.8.5.0,160620,CP1H 160620 000217,umie,PASS,0,,
2020-06-16 15-03-25-902,DESKTOP-K0JN836,CP1H_C0_V1.00,FinalTest_2019.8.5.0,160620,CP1H 160620 000220,umie,PASS,0,,
2020-06-16 15-04-51-787,DESKTOP-K0JN836,CP1H_C0_V1.00,FinalTest_2019.8.5.0,160620,CP1H 160620 000216,umie,PASS,0,,
2020-06-16 15-10-23-672,DESKTOP-K0JN836,CP1H_C0_V1.00,FinalTest_2019.8.5.0,160620,CP1H 160620 000218,umie,PASS,0,,
2020-06-16 15-11-20-401,DESKTOP-K0JN836,CP1H_C0_V1.00,FinalTest_2019.8.5.0,160620,CP1H 160620 000218,umie,PASS,0,,
2020-06-16 15-12-44-199,DESKTOP-K0JN836,CP1H_C0_V1.00,FinalTest_2019.8.5.0,160620,CP1H 160620 000115,umie,PASS,0,,
2020-06-16 15-13-29-880,DESKTOP-K0JN836,CP1H_C0_V1.00,FinalTest_2019.8.5.0,160620,CP1H 160620 000115,umie,PASS,0,,
2020-06-16 15-14-32-823,DESKTOP-K0JN836,CP1H_C0_V1.00,FinalTest_2019.8.5.0,160620,CP1H 160620 000115,umie,PASS,0,,
2020-06-16 15-16-11-710,DESKTOP-K0JN836,CP1H_C0_V1.00,FinalTest_2019.8.5.0,160620,CP1H 160620 000038,umie,PASS,0,,
2020-06-16 15-17-26-520,DESKTOP-K0JN836,CP1H_C0_V1.00,FinalTest_2019.8.5.0,160620,CP1H 160620 000166,umie,PASS,0,,
2020-06-16 15-20-11-822,DESKTOP-K0JN836,CP1H_C0_V1.00,FinalTest_2019.8.5.0,160620,CP1H 160620 000013,umie,PASS,0,,
2020-06-16 15-21-11-942,DESKTOP-K0JN836,CP1H_C0_V1.00,FinalTest_2019.8.5.0,160620,CP1H 160620 000013,umie,PASS,0,,
2020-06-16 15-22-24-599,DESKTOP-K0JN836,CP1H_C0_V1.00,FinalTest_2019.8.5.0,160620,CP1H 160620 000013,umie,PASS,0,,
2020-06-16 15-26-01-892,DESKTOP-K0JN836,CP1H_C0_V1.00,FinalTest_2019.8.5.0,160620,CP1H 160620 000048,umie,PASS,0,,
2020-06-16 15-26-53-275,DESKTOP-K0JN836,CP1H_C0_V1.00,FinalTest_2019.8.5.0,160620,CP1H 160620 000048,umie,PASS,0,,
2020-06-16 15-27-58-940,DESKTOP-K0JN836,CP1H_C0_V1.00,FinalTest_2019.8.5.0,160620,CP1H 160620 000220,umie,PASS,0,,
2020-06-16 15-28-49-654,DESKTOP-K0JN836,CP1H_C0_V1.00,FinalTest_2019.8.5.0,160620,CP1H 160620 000220,umie,PASS,0,,
2020-06-16 15-30-21-698,DESKTOP-K0JN836,CP1H_C0_V1.00,FinalTest_2019.8.5.0,160620,CP1H 160620 000212,umie,PASS,0,,
2020-06-16 15-48-47-700,DESKTOP-K0JN836,CP1H_C0_V1.00,FinalTest_2019.8.5.0,160620,CP1H 160620 000212,umie,PASS,0,,
2020-06-16 15-50-04-896,DESKTOP-K0JN836,CP1H_C0_V1.00,FinalTest_2019.8.5.0,160620,CP1H 160620 000212,umie,PASS,0,,
2020-06-16 15-50-57-191,DESKTOP-K0JN836,CP1H_C0_V1.00,FinalTest_2019.8.5.0,160620,CP1H 160620 000212,umie,PASS,0,,
2020-06-16 15-54-53-773,DESKTOP-K0JN836,CP1H_C0_V1.00,FinalTest_2019.8.5.0,160620,CP1H 160620 000086,umie,PASS,0,,
2020-06-16 15-55-46-275,DESKTOP-K0JN836,CP1H_C0_V1.00,FinalTest_2019.8.5.0,160620,CP1H 160620 000086,umie,PASS,0,,
2020-06-16 15-56-55-470,DESKTOP-K0JN836,CP1H_C0_V1.00,FinalTest_2019.8.5.0,160620,CP1H 160620 000045,umie,PASS,0,,
2020-06-16 15-59-06-095,DESKTOP-K0JN836,CP1H_C0_V1.00,FinalTest_2019.8.5.0,160620,CP1H 160620 000170,umie,PASS,0,,
2020-06-16 16-00-05-216,DESKTOP-K0JN836,CP1H_C0_V1.00,FinalTest_2019.8.5.0,160620,CP1H 160620 000170,umie,PASS,0,,
2020-06-16 16-01-41-807,DESKTOP-K0JN836,CP1H_C0_V1.00,FinalTest_2019.8.5.0,160620,CP1H 160620 000027,umie,PASS,0,,
2020-06-16 16-02-54-104,DESKTOP-K0JN836,CP1H_C0_V1.00,FinalTest_2019.8.5.0,160620,CP1H 160620 000230,umie,PASS,0,,
