Time,Equipment,Model,SWVersion,LotName,Barcode,Operator,Result,Side 1,Side 2,Side 3,Side 4,,
2020-06-15 08-40-18-819,DESKTOP-K0JN836,CP1H_C0_V1.00,FinalTest_2019.8.5.0,150620,CP1P 030620 000025,d,EMPTY,0.00,0.00,0.00,0.00,,
2020-06-15 08-40-58-938,DESKTOP-K0JN836,CP1H_C0_V1.00,FinalTest_2019.8.5.0,150620,CP1P 030620 000025,d,EMPTY,0.00,0.00,0.00,0.00,,
2020-06-15 08-41-55-380,DESKTOP-K0JN836,CP1H_C0_V1.00,FinalTest_2019.8.5.0,150620,CP1P 040620 000162,d,EMPTY,0.00,0.00,0.00,0.00,,
2020-06-15 08-42-55-619,DESKTOP-K0JN836,CP1H_C0_V1.00,FinalTest_2019.8.5.0,150620,CP1P 040620 000162,d,EMPTY,0.00,0.00,0.00,0.00,,
2020-06-15 08-43-37-877,DESKTOP-K0JN836,CP1H_C0_V1.00,FinalTest_2019.8.5.0,150620,CP1P 030620 000050,d,EMPTY,0.00,0.00,0.00,0.00,,
2020-06-15 08-47-38-870,DESKTOP-K0JN836,CP1H_C0_V1.00,FinalTest_2019.8.5.0,150620,CP1P 020620 000053,d,EMPTY,0.00,0.00,0.00,0.00,,
2020-06-15 08-49-19-704,DESKTOP-K0JN836,CP1H_C0_V1.00,FinalTest_2019.8.5.0,150620,CP1P 040620 000153,d,EMPTY,0.00,0.00,0.00,0.00,,
2020-06-15 08-50-13-793,DESKTOP-K0JN836,CP1H_C0_V1.00,FinalTest_2019.8.5.0,150620,CP1P 040620 000063,d,EMPTY,0.00,0.00,0.00,0.00,,
2020-06-15 08-51-01-792,DESKTOP-K0JN836,CP1H_C0_V1.00,FinalTest_2019.8.5.0,150620,CP1P 040620 000095,d,EMPTY,0.00,0.00,0.00,0.00,,
2020-06-15 08-52-01-014,DESKTOP-K0JN836,CP1H_C0_V1.00,FinalTest_2019.8.5.0,150620,CP1P 040620 000155,d,PASS,75.53,73.40,77.13,75.00,,
2020-06-15 08-52-50-214,DESKTOP-K0JN836,CP1H_C0_V1.00,FinalTest_2019.8.5.0,150620,CP1P 040620 000146,d,PASS,73.12,73.12,76.88,77.96,,
2020-06-15 08-54-42-290,DESKTOP-K0JN836,CP1H_C0_V1.00,FinalTest_2019.8.5.0,150620,CP1P 030620 000068,d,PASS,73.12,73.12,76.88,77.96,,
2020-06-15 08-55-33-375,DESKTOP-K0JN836,CP1H_C0_V1.00,FinalTest_2019.8.5.0,150620,CP1P 030620 000089,d,PASS,73.58,69.43,80.83,76.17,,
2020-06-15 08-56-23-960,DESKTOP-K0JN836,CP1H_C0_V1.00,FinalTest_2019.8.5.0,150620,CP1P 040620 000135,d,PASS,73.58,69.43,80.83,76.17,,
2020-06-15 08-57-07-429,DESKTOP-K0JN836,CP1H_C0_V1.00,FinalTest_2019.8.5.0,150620,CP1P 040620 000085,d,PASS,73.96,70.31,80.73,77.60,,
2020-06-15 08-57-54-199,DESKTOP-K0JN836,CP1H_C0_V1.00,FinalTest_2019.8.5.0,150620,CP1P 030620 000081,d,PASS,73.33,70.77,79.49,77.44,,
2020-06-15 08-58-43-971,DESKTOP-K0JN836,CP1H_C0_V1.00,FinalTest_2019.8.5.0,150620,CP1P 040620 000133,d,PASS,73.33,70.77,79.49,77.44,,
2020-06-15 09-16-57-418,DESKTOP-K0JN836,CP1H_C0_V1.00,FinalTest_2019.8.5.0,150620,CP1H 150620 000004,d,PASS,72.63,76.84,73.16,78.42,,
2020-06-15 09-17-41-662,DESKTOP-K0JN836,CP1H_C0_V1.00,FinalTest_2019.8.5.0,150620,CP1H 150620 000008,d,PASS,72.63,76.84,73.16,78.42,,
2020-06-15 09-18-19-990,DESKTOP-K0JN836,CP1H_C0_V1.00,FinalTest_2019.8.5.0,150620,CP1H 150620 000008,d,PASS,72.63,76.84,73.16,78.42,,
2020-06-15 09-21-04-752,DESKTOP-K0JN836,CP1H_C0_V1.00,FinalTest_2019.8.5.0,150620,CP1H 150620 000008,darsini,EMPTY,0.00,0.00,0.00,0.00,,
2020-06-15 09-22-11-508,DESKTOP-K0JN836,CP1H_C0_V1.00,FinalTest_2019.8.5.0,150620,CP1H 150620 000006,darsini,PASS,69.31,72.49,70.37,75.66,,
2020-06-15 09-22-55-885,DESKTOP-K0JN836,CP1H_C0_V1.00,FinalTest_2019.8.5.0,150620,CP1H 150620 000011,darsini,PASS,72.58,77.96,72.58,78.49,,
2020-06-15 09-23-38-242,DESKTOP-K0JN836,CP1H_C0_V1.00,FinalTest_2019.8.5.0,150620,CP1H 150620 000001,darsini,PASS,73.47,75.51,75.00,77.55,,
2020-06-15 09-24-32-350,DESKTOP-K0JN836,CP1H_C0_V1.00,FinalTest_2019.8.5.0,150620,CP1H 150620 000005,darsini,PASS,73.47,75.51,75.00,77.55,,
2020-06-15 09-25-12-804,DESKTOP-K0JN836,CP1H_C0_V1.00,FinalTest_2019.8.5.0,150620,CP1H 150620 000005,darsini,PASS,73.47,75.51,75.00,77.55,,
2020-06-15 09-25-47-752,DESKTOP-K0JN836,CP1H_C0_V1.00,FinalTest_2019.8.5.0,150620,CP1H 150620 000005,darsini,PASS,73.47,75.51,75.00,77.55,,
2020-06-15 09-26-29-370,DESKTOP-K0JN836,CP1H_C0_V1.00,FinalTest_2019.8.5.0,150620,CP1H 150620 000013,darsini,PASS,71.43,74.60,75.13,78.84,,
2020-06-15 09-27-18-908,DESKTOP-K0JN836,CP1H_C0_V1.00,FinalTest_2019.8.5.0,150620,CP1H 150620 000007,darsini,PASS,73.47,76.02,74.49,77.04,,
2020-06-15 09-28-03-509,DESKTOP-K0JN836,CP1H_C0_V1.00,FinalTest_2019.8.5.0,150620,CP1H 150620 000009,darsini,PASS,73.82,72.77,76.96,76.44,,
2020-06-15 09-29-01-018,DESKTOP-K0JN836,CP1H_C0_V1.00,FinalTest_2019.8.5.0,150620,CP1H 150620 000012,darsini,PASS,72.63,77.37,72.63,77.89,,
2020-06-15 09-29-47-785,DESKTOP-K0JN836,CP1H_C0_V1.00,FinalTest_2019.8.5.0,150620,CP1H 150620 000003,darsini,PASS,71.35,78.38,71.89,80.00,,
2020-06-15 09-30-42-392,DESKTOP-K0JN836,CP1H_C0_V1.00,FinalTest_2019.8.5.0,150620,CP1H 150620 000022,darsini,PASS,73.16,74.74,75.26,77.37,,
2020-06-15 09-31-25-121,DESKTOP-K0JN836,CP1H_C0_V1.00,FinalTest_2019.8.5.0,150620,CP1H 150620 000020,darsini,PASS,71.50,76.50,73.00,79.00,,
2020-06-15 09-32-06-670,DESKTOP-K0JN836,CP1H_C0_V1.00,FinalTest_2019.8.5.0,150620,CP1H 150620 000021,darsini,PASS,73.33,75.38,74.36,77.44,,
2020-06-15 09-32-49-938,DESKTOP-K0JN836,CP1H_C0_V1.00,FinalTest_2019.8.5.0,150620,CP1H 150620 000017,darsini,PASS,74.07,74.60,75.13,76.19,,
2020-06-15 09-33-33-398,DESKTOP-K0JN836,CP1H_C0_V1.00,FinalTest_2019.8.5.0,150620,CP1H 150620 000019,darsini,PASS,73.26,74.33,75.40,77.01,,
2020-06-15 09-34-18-020,DESKTOP-K0JN836,CP1H_C0_V1.00,FinalTest_2019.8.5.0,150620,CP1H 150620 000025,darsini,PASS,73.58,73.58,76.68,77.20,,
2020-06-15 09-35-03-364,DESKTOP-K0JN836,CP1H_C0_V1.00,FinalTest_2019.8.5.0,150620,CP1H 150620 000018,darsini,PASS,71.43,76.72,73.02,78.84,,
2020-06-15 09-35-45-634,DESKTOP-K0JN836,CP1H_C0_V1.00,FinalTest_2019.8.5.0,150620,CP1H 150620 000015,darsini,PASS,72.40,75.52,75.00,79.17,,
2020-06-15 09-36-40-058,DESKTOP-K0JN836,CP1H_C0_V1.00,FinalTest_2019.8.5.0,150620,CP1H 150620 000014,darsini,PASS,72.04,76.34,73.66,79.03,,
2020-06-15 09-37-27-821,DESKTOP-K0JN836,CP1H_C0_V1.00,FinalTest_2019.8.5.0,150620,CP1H 150620 000016,darsini,PASS,74.07,74.60,74.60,76.19,,
2020-06-15 09-38-15-495,DESKTOP-K0JN836,CP1H_C0_V1.00,FinalTest_2019.8.5.0,150620,CP1H 150620 000010,darsini,PASS,72.77,77.49,72.77,78.01,,
2020-06-15 09-39-02-793,DESKTOP-K0JN836,CP1H_C0_V1.00,FinalTest_2019.8.5.0,150620,CP1H 150620 000002,darsini,PASS,72.77,77.49,72.77,78.01,,
2020-06-15 09-39-43-539,DESKTOP-K0JN836,CP1H_C0_V1.00,FinalTest_2019.8.5.0,150620,CP1H 150620 000002,darsini,PASS,72.77,77.49,72.77,78.01,,
2020-06-15 09-40-38-164,DESKTOP-K0JN836,CP1H_C0_V1.00,FinalTest_2019.8.5.0,150620,CP1H 150620 000038,darsini,PASS,72.34,76.06,73.40,77.66,,
2020-06-15 09-41-25-559,DESKTOP-K0JN836,CP1H_C0_V1.00,FinalTest_2019.8.5.0,150620,CP1H 150620 000034,darsini,PASS,73.20,76.80,73.20,78.35,,
2020-06-15 09-42-09-629,DESKTOP-K0JN836,CP1H_C0_V1.00,FinalTest_2019.8.5.0,150620,CP1H 150620 000035,darsini,PASS,71.81,76.06,73.40,78.19,,
2020-06-15 09-42-53-988,DESKTOP-K0JN836,CP1H_C0_V1.00,FinalTest_2019.8.5.0,150620,CP1H 150620 000044,darsini,PASS,71.21,76.77,73.23,79.80,,
2020-06-15 09-43-38-996,DESKTOP-K0JN836,CP1H_C0_V1.00,FinalTest_2019.8.5.0,150620,CP1H 150620 000033,darsini,PASS,73.54,76.19,74.60,77.78,,
2020-06-15 09-44-20-635,DESKTOP-K0JN836,CP1H_C0_V1.00,FinalTest_2019.8.5.0,150620,CP1H 150620 000040,darsini,PASS,73.54,76.19,74.60,77.78,,
2020-06-15 09-45-07-316,DESKTOP-K0JN836,CP1H_C0_V1.00,FinalTest_2019.8.5.0,150620,CP1H 150620 000024,darsini,PASS,72.73,75.40,74.87,78.61,,
2020-06-15 09-45-51-173,DESKTOP-K0JN836,CP1H_C0_V1.00,FinalTest_2019.8.5.0,150620,CP1H 150620 000029,darsini,PASS,72.54,72.54,77.20,77.72,,
2020-06-15 09-46-34-371,DESKTOP-K0JN836,CP1H_C0_V1.00,FinalTest_2019.8.5.0,150620,CP1H 150620 000028,darsini,PASS,73.94,72.34,77.66,76.60,,
2020-06-15 09-47-18-309,DESKTOP-K0JN836,CP1H_C0_V1.00,FinalTest_2019.8.5.0,150620,CP1H 150620 000030,darsini,PASS,74.47,72.87,77.13,76.06,,
2020-06-15 09-48-02-382,DESKTOP-K0JN836,CP1H_C0_V1.00,FinalTest_2019.8.5.0,150620,CP1H 150620 000026,darsini,PASS,73.30,75.92,73.82,76.96,,
2020-06-15 09-48-53-663,DESKTOP-K0JN836,CP1H_C0_V1.00,FinalTest_2019.8.5.0,150620,CP1H 150620 000027,darsini,PASS,74.47,76.60,73.40,76.06,,
2020-06-15 09-49-37-926,DESKTOP-K0JN836,CP1H_C0_V1.00,FinalTest_2019.8.5.0,150620,CP1H 150620 000023,darsini,PASS,72.86,74.37,75.88,77.89,,
2020-06-15 09-50-34-559,DESKTOP-K0JN836,CP1H_C0_V1.00,FinalTest_2019.8.5.0,150620,CP1H 150620 000042,darsini,PASS,72.92,72.92,77.08,77.60,,
2020-06-15 09-51-18-240,DESKTOP-K0JN836,CP1H_C0_V1.00,FinalTest_2019.8.5.0,150620,CP1H 150620 000043,darsini,PASS,72.92,72.92,77.08,77.60,,
2020-06-15 09-52-09-541,DESKTOP-K0JN836,CP1H_C0_V1.00,FinalTest_2019.8.5.0,150620,CP1H 150620 000031,darsini,PASS,73.33,73.85,75.90,77.44,,
2020-06-15 09-52-54-893,DESKTOP-K0JN836,CP1H_C0_V1.00,FinalTest_2019.8.5.0,150620,CP1H 150620 000045,darsini,PASS,72.77,73.30,76.44,77.49,,
2020-06-15 09-53-41-973,DESKTOP-K0JN836,CP1H_C0_V1.00,FinalTest_2019.8.5.0,150620,CP1H 150620 000039,darsini,PASS,73.02,74.60,75.13,77.78,,
2020-06-15 09-54-24-630,DESKTOP-K0JN836,CP1H_C0_V1.00,FinalTest_2019.8.5.0,150620,CP1H 150620 000037,darsini,PASS,72.77,75.92,74.87,78.53,,
2020-06-15 09-55-08-953,DESKTOP-K0JN836,CP1H_C0_V1.00,FinalTest_2019.8.5.0,150620,CP1H 150620 000032,darsini,PASS,72.31,76.92,73.33,78.46,,
2020-06-15 09-55-56-616,DESKTOP-K0JN836,CP1H_C0_V1.00,FinalTest_2019.8.5.0,150620,CP1H 150620 000036,darsini,PASS,71.88,76.04,73.44,78.65,,
2020-06-15 09-56-42-791,DESKTOP-K0JN836,CP1H_C0_V1.00,FinalTest_2019.8.5.0,150620,CP1H 150620 000041,darsini,PASS,74.48,71.88,78.13,76.04,,
2020-06-15 09-57-31-068,DESKTOP-K0JN836,CP1H_C0_V1.00,FinalTest_2019.8.5.0,150620,CP1H 150620 000051,darsini,PASS,71.50,76.17,73.58,79.27,,
2020-06-15 09-58-17-940,DESKTOP-K0JN836,CP1H_C0_V1.00,FinalTest_2019.8.5.0,150620,CP1H 150620 000046,darsini,PASS,71.73,75.92,73.82,79.06,,
2020-06-15 09-59-02-225,DESKTOP-K0JN836,CP1H_C0_V1.00,FinalTest_2019.8.5.0,150620,CP1H 150620 000058,darsini,PASS,72.16,75.26,74.74,78.87,,
2020-06-15 09-59-45-690,DESKTOP-K0JN836,CP1H_C0_V1.00,FinalTest_2019.8.5.0,150620,CP1H 150620 000059,darsini,PASS,72.16,75.26,74.74,78.87,,
2020-06-15 10-00-36-387,DESKTOP-K0JN836,CP1H_C0_V1.00,FinalTest_2019.8.5.0,150620,CP1H 150620 000059,darsini,PASS,72.92,75.52,75.00,77.60,,
2020-06-15 10-01-19-663,DESKTOP-K0JN836,CP1H_C0_V1.00,FinalTest_2019.8.5.0,150620,CP1H 150620 000048,darsini,PASS,71.58,76.32,73.16,78.95,,
2020-06-15 10-02-07-017,DESKTOP-K0JN836,CP1H_C0_V1.00,FinalTest_2019.8.5.0,150620,CP1H 150620 000054,darsini,PASS,71.58,76.32,73.16,78.95,,
2020-06-15 10-02-42-539,DESKTOP-K0JN836,CP1H_C0_V1.00,FinalTest_2019.8.5.0,150620,CP1H 150620 000054,darsini,PASS,71.58,76.32,73.16,78.95,,
2020-06-15 10-03-34-079,DESKTOP-K0JN836,CP1H_C0_V1.00,FinalTest_2019.8.5.0,150620,CP1H 150620 000053,darsini,PASS,73.94,73.40,76.06,76.60,,
2020-06-15 10-04-24-284,DESKTOP-K0JN836,CP1H_C0_V1.00,FinalTest_2019.8.5.0,150620,CP1H 150620 000052,darsini,PASS,71.28,76.06,73.94,79.79,,
2020-06-15 10-05-10-172,DESKTOP-K0JN836,CP1H_C0_V1.00,FinalTest_2019.8.5.0,150620,CP1H 150620 000057,darsini,PASS,71.86,77.39,73.37,79.40,,
2020-06-15 10-06-04-361,DESKTOP-K0JN836,CP1H_C0_V1.00,FinalTest_2019.8.5.0,150620,CP1H 150620 000056,darsini,PASS,73.53,74.51,75.00,76.96,,
2020-06-15 10-06-50-630,DESKTOP-K0JN836,CP1H_C0_V1.00,FinalTest_2019.8.5.0,150620,CP1H 150620 000055,darsini,PASS,72.25,74.87,74.87,77.49,,
2020-06-15 10-07-35-125,DESKTOP-K0JN836,CP1H_C0_V1.00,FinalTest_2019.8.5.0,150620,CP1H 150620 000049,darsini,PASS,74.23,73.71,77.32,77.32,,
2020-06-15 10-08-16-744,DESKTOP-K0JN836,CP1H_C0_V1.00,FinalTest_2019.8.5.0,150620,CP1H 150620 000060,darsini,PASS,71.81,73.40,76.60,78.72,,
2020-06-15 10-08-59-710,DESKTOP-K0JN836,CP1H_C0_V1.00,FinalTest_2019.8.5.0,150620,CP1H 150620 000047,darsini,PASS,71.81,73.40,76.60,78.72,,
2020-06-15 10-09-33-933,DESKTOP-K0JN836,CP1H_C0_V1.00,FinalTest_2019.8.5.0,150620,CP1H 150620 000047,darsini,PASS,71.81,73.40,76.60,78.72,,
2020-06-15 10-10-25-540,DESKTOP-K0JN836,CP1H_C0_V1.00,FinalTest_2019.8.5.0,150620,CP1H 150620 000050,darsini,PASS,70.71,76.26,73.23,79.80,,
2020-06-15 10-11-13-533,DESKTOP-K0JN836,CP1H_C0_V1.00,FinalTest_2019.8.5.0,150620,CP1H 150620 000069,darsini,PASS,71.94,76.02,73.98,79.59,,
2020-06-15 10-12-01-410,DESKTOP-K0JN836,CP1H_C0_V1.00,FinalTest_2019.8.5.0,150620,CP1H 150620 000072,darsini,PASS,72.77,73.30,76.44,78.01,,
2020-06-15 10-13-02-858,DESKTOP-K0JN836,CP1H_C0_V1.00,FinalTest_2019.8.5.0,150620,CP1H 150620 000073,darsini,PASS,72.73,75.94,73.80,77.54,,
2020-06-15 10-13-49-331,DESKTOP-K0JN836,CP1H_C0_V1.00,FinalTest_2019.8.5.0,150620,CP1H 150620 000071,darsini,PASS,73.51,76.22,74.05,77.30,,
2020-06-15 10-14-36-122,DESKTOP-K0JN836,CP1H_C0_V1.00,FinalTest_2019.8.5.0,150620,CP1H 150620 000074,darsini,PASS,72.49,75.13,75.13,78.31,,
2020-06-15 10-15-19-277,DESKTOP-K0JN836,CP1H_C0_V1.00,FinalTest_2019.8.5.0,150620,CP1H 150620 000065,darsini,PASS,72.77,74.35,74.87,76.96,,
2020-06-15 10-16-09-690,DESKTOP-K0JN836,CP1H_C0_V1.00,FinalTest_2019.8.5.0,150620,CP1H 150620 000061,darsini,PASS,71.88,76.56,73.96,79.17,,
2020-06-15 10-16-55-230,DESKTOP-K0JN836,CP1H_C0_V1.00,FinalTest_2019.8.5.0,150620,CP1H 150620 000062,darsini,PASS,71.66,75.40,74.33,78.07,,
2020-06-15 10-17-44-595,DESKTOP-K0JN836,CP1H_C0_V1.00,FinalTest_2019.8.5.0,150620,CP1H 150620 000068,darsini,PASS,72.73,73.80,75.94,77.54,,
2020-06-15 10-18-54-272,DESKTOP-K0JN836,CP1H_C0_V1.00,FinalTest_2019.8.5.0,150620,CP1H 150620 000067,darsini,PASS,72.77,75.39,75.39,78.53,,
2020-06-15 10-19-42-996,DESKTOP-K0JN836,CP1H_C0_V1.00,FinalTest_2019.8.5.0,150620,CP1H 150620 000064,darsini,PASS,72.92,77.08,72.92,77.60,,
2020-06-15 10-20-25-638,DESKTOP-K0JN836,CP1H_C0_V1.00,FinalTest_2019.8.5.0,150620,CP1H 150620 000070,darsini,PASS,72.92,77.08,72.92,77.60,,
2020-06-15 10-21-07-382,DESKTOP-K0JN836,CP1H_C0_V1.00,FinalTest_2019.8.5.0,150620,CP1H 150620 000070,darsini,PASS,72.92,77.08,72.92,77.60,,
2020-06-15 10-22-04-202,DESKTOP-K0JN836,CP1H_C0_V1.00,FinalTest_2019.8.5.0,150620,CP1H 150620 000075,darsini,PASS,72.34,75.53,74.47,79.26,,
2020-06-15 10-22-52-260,DESKTOP-K0JN836,CP1H_C0_V1.00,FinalTest_2019.8.5.0,150620,CP1H 150620 000066,darsini,PASS,72.40,73.96,76.56,78.65,,
2020-06-15 10-23-45-177,DESKTOP-K0JN836,CP1H_C0_V1.00,FinalTest_2019.8.5.0,150620,CP1H 150620 000063,darsini,PASS,72.40,73.96,76.56,78.65,,
2020-06-15 10-31-16-698,DESKTOP-K0JN836,CP1H_C0_V1.00,FinalTest_2019.8.5.0,150620,CP1H 150620 000002,darsini,PASS,73.33,75.90,74.36,77.95,,
2020-06-15 10-38-37-896,DESKTOP-K0JN836,CP1H_C0_V1.00,FinalTest_2019.8.5.0,150620,CP1H 150620 000079,darsini,PASS,72.31,75.38,74.36,77.95,,
2020-06-15 10-39-20-461,DESKTOP-K0JN836,CP1H_C0_V1.00,FinalTest_2019.8.5.0,150620,CP1H 150620 000087,darsini,PASS,71.94,76.53,73.47,79.08,,
2020-06-15 10-40-07-190,DESKTOP-K0JN836,CP1H_C0_V1.00,FinalTest_2019.8.5.0,150620,CP1H 150620 000084,darsini,PASS,72.92,74.48,76.04,77.60,,
2020-06-15 10-40-58-020,DESKTOP-K0JN836,CP1H_C0_V1.00,FinalTest_2019.8.5.0,150620,CP1H 150620 000085,darsini,PASS,72.25,74.35,75.39,78.01,,
2020-06-15 10-41-45-510,DESKTOP-K0JN836,CP1H_C0_V1.00,FinalTest_2019.8.5.0,150620,CP1H 150620 000089,darsini,PASS,72.25,75.39,74.87,79.06,,
2020-06-15 10-42-39-032,DESKTOP-K0JN836,CP1H_C0_V1.00,FinalTest_2019.8.5.0,150620,CP1H 150620 000088,darsini,PASS,72.02,76.17,74.09,78.76,,
2020-06-15 10-43-29-101,DESKTOP-K0JN836,CP1H_C0_V1.00,FinalTest_2019.8.5.0,150620,CP1H 150620 000083,darsini,PASS,72.02,76.17,74.09,78.76,,
2020-06-15 10-46-07-351,DESKTOP-K0JN836,CP1H_C0_V1.00,FinalTest_2019.8.5.0,150620,CP1H 150620 000078, darsini,PASS,72.02,76.17,74.09,78.76,,
2020-06-15 10-47-02-680,DESKTOP-K0JN836,CP1H_C0_V1.00,FinalTest_2019.8.5.0,150620,CP1H 150620 000086, darsini,PASS,70.83,77.60,72.40,80.21,,
2020-06-15 10-48-40-592,DESKTOP-K0JN836,CP1H_C0_V1.00,FinalTest_2019.8.5.0,150620,CP1H 150620 000081, darsini,PASS,73.54,74.60,75.66,77.25,,
2020-06-15 10-49-28-053,DESKTOP-K0JN836,CP1H_C0_V1.00,FinalTest_2019.8.5.0,150620,CP1H 150620 000076, darsini,PASS,74.23,73.71,76.80,76.80,,
2020-06-15 10-50-15-130,DESKTOP-K0JN836,CP1H_C0_V1.00,FinalTest_2019.8.5.0,150620,CP1H 150620 000082, darsini,PASS,71.57,74.11,76.14,79.19,,
2020-06-15 10-51-00-687,DESKTOP-K0JN836,CP1H_C0_V1.00,FinalTest_2019.8.5.0,150620,CP1H 150620 000080, darsini,PASS,71.43,77.78,73.02,79.89,,
2020-06-15 10-51-57-710,DESKTOP-K0JN836,CP1H_C0_V1.00,FinalTest_2019.8.5.0,150620,CP1H 150620 000077, darsini,PASS,72.22,74.24,75.76,78.79,,
2020-06-15 10-59-28-982,DESKTOP-K0JN836,CP1H_C0_V1.00,FinalTest_2019.8.5.0,150620,CP1H 150620 000100, darsini,PASS,70.71,78.28,72.22,80.30,,
2020-06-15 11-00-20-867,DESKTOP-K0JN836,CP1H_C0_V1.00,FinalTest_2019.8.5.0,150620,CP1H 150620 000095, darsini,PASS,71.43,74.60,75.13,78.84,,
2020-06-15 11-01-27-811,DESKTOP-K0JN836,CP1H_C0_V1.00,FinalTest_2019.8.5.0,150620,CP1H 150620 000092, darsini,PASS,71.43,74.60,75.13,78.84,,
2020-06-15 11-02-18-997,DESKTOP-K0JN836,CP1H_C0_V1.00,FinalTest_2019.8.5.0,150620,CP1H 150620 000104, darsini,PASS,72.28,73.76,76.24,77.72,,
2020-06-15 11-03-11-432,DESKTOP-K0JN836,CP1H_C0_V1.00,FinalTest_2019.8.5.0,150620,CP1H 150620 000090, darsini,PASS,73.68,72.63,77.37,76.84,,
2020-06-15 11-03-54-988,DESKTOP-K0JN836,CP1H_C0_V1.00,FinalTest_2019.8.5.0,150620,CP1H 150620 000102, darsini,PASS,72.96,73.98,76.53,78.06,,
2020-06-15 11-04-43-533,DESKTOP-K0JN836,CP1H_C0_V1.00,FinalTest_2019.8.5.0,150620,CP1H 150620 000093, darsini,PASS,74.48,72.40,78.13,76.56,,
2020-06-15 11-05-27-732,DESKTOP-K0JN836,CP1H_C0_V1.00,FinalTest_2019.8.5.0,150620,CP1H 150620 000094, darsini,PASS,73.54,75.13,75.66,77.78,,
2020-06-15 11-06-16-906,DESKTOP-K0JN836,CP1H_C0_V1.00,FinalTest_2019.8.5.0,150620,CP1H 150620 000096, darsini,PASS,73.02,75.13,75.13,77.78,,
2020-06-15 11-07-02-700,DESKTOP-K0JN836,CP1H_C0_V1.00,FinalTest_2019.8.5.0,150620,CP1H 150620 000098, darsini,PASS,72.25,77.49,73.30,79.06,,
2020-06-15 11-08-47-134,DESKTOP-K0JN836,CP1H_C0_V1.00,FinalTest_2019.8.5.0,150620,CP1H 150620 000097, darsini,PASS,72.25,77.49,73.30,79.06,,
2020-06-15 11-09-38-921,DESKTOP-K0JN836,CP1H_C0_V1.00,FinalTest_2019.8.5.0,150620,CP1H 150620 000099, darsini,PASS,72.08,75.63,75.13,79.19,,
2020-06-15 11-10-24-485,DESKTOP-K0JN836,CP1H_C0_V1.00,FinalTest_2019.8.5.0,150620,CP1H 150620 000091, darsini,PASS,72.82,76.41,73.85,77.95,,
2020-06-15 11-11-13-992,DESKTOP-K0JN836,CP1H_C0_V1.00,FinalTest_2019.8.5.0,150620,CP1H 150620 000105, darsini,PASS,72.82,76.41,73.85,77.95,,
2020-06-15 11-12-15-842,DESKTOP-K0JN836,CP1H_C0_V1.00,FinalTest_2019.8.5.0,150620,CP1H 150620 000105, darsini,PASS,72.82,76.41,73.85,77.95,,
2020-06-15 11-13-07-027,DESKTOP-K0JN836,CP1H_C0_V1.00,FinalTest_2019.8.5.0,150620,CP1H 150620 000101, darsini,PASS,73.06,73.58,76.68,77.20,,
2020-06-15 11-13-51-816,DESKTOP-K0JN836,CP1H_C0_V1.00,FinalTest_2019.8.5.0,150620,CP1H 150620 000108, darsini,PASS,73.47,73.98,76.02,77.55,,
2020-06-15 11-14-36-684,DESKTOP-K0JN836,CP1H_C0_V1.00,FinalTest_2019.8.5.0,150620,CP1H 150620 000107, darsini,PASS,73.02,75.66,75.13,77.78,,
2020-06-15 11-15-19-916,DESKTOP-K0JN836,CP1H_C0_V1.00,FinalTest_2019.8.5.0,150620,CP1H 150620 000103, darsini,PASS,73.23,74.75,75.76,77.78,,
2020-06-15 11-16-15-270,DESKTOP-K0JN836,CP1H_C0_V1.00,FinalTest_2019.8.5.0,150620,CP1H 150620 000106, darsini,PASS,73.94,75.53,73.94,76.60,,
2020-06-15 11-19-03-884,DESKTOP-K0JN836,CP1H_C0_V1.00,FinalTest_2019.8.5.0,150620,CP1H 150620 000105,d,PASS,71.88,76.04,74.48,80.21,,
2020-06-15 11-20-45-693,DESKTOP-K0JN836,CP1H_C0_V1.00,FinalTest_2019.8.5.0,150620,CP1H 150620 000097,darsini,PASS,74.61,72.02,78.76,76.68,,
2020-06-15 11-21-55-683,DESKTOP-K0JN836,CP1H_C0_V1.00,FinalTest_2019.8.5.0,150620,CP1H 150620 000109,darsini,PASS,71.43,76.72,73.02,79.37,,
2020-06-15 11-22-38-222,DESKTOP-K0JN836,CP1H_C0_V1.00,FinalTest_2019.8.5.0,150620,CP1H 150620 000110,darsini,PASS,72.49,74.07,75.13,77.25,,
2020-06-15 11-23-25-078,DESKTOP-K0JN836,CP1H_C0_V1.00,FinalTest_2019.8.5.0,150620,CP1H 150620 000114,darsini,PASS,71.94,77.04,73.47,79.08,,
2020-06-15 11-24-13-977,DESKTOP-K0JN836,CP1H_C0_V1.00,FinalTest_2019.8.5.0,150620,CP1H 150620 000111,darsini,PASS,72.82,73.33,76.41,77.44,,
2020-06-15 11-25-02-070,DESKTOP-K0JN836,CP1H_C0_V1.00,FinalTest_2019.8.5.0,150620,CP1H 150620 000113,darsini,PASS,70.83,76.56,73.96,79.69,,
2020-06-15 11-25-48-347,DESKTOP-K0JN836,CP1H_C0_V1.00,FinalTest_2019.8.5.0,150620,CP1H 150620 000115,darsini,PASS,72.73,74.33,75.94,78.61,,
2020-06-15 11-26-33-316,DESKTOP-K0JN836,CP1H_C0_V1.00,FinalTest_2019.8.5.0,150620,CP1H 150620 000112,darsini,PASS,73.66,73.12,76.88,76.88,,
2020-06-15 11-27-20-083,DESKTOP-K0JN836,CP1H_C0_V1.00,FinalTest_2019.8.5.0,150620,CP1H 150620 000116,darsini,PASS,73.06,76.17,73.58,77.72,,
2020-06-15 11-28-05-069,DESKTOP-K0JN836,CP1H_C0_V1.00,FinalTest_2019.8.5.0,150620,CP1H 150620 000117,darsini,PASS,74.47,73.40,76.06,75.53,,
2020-06-15 11-30-42-320,DESKTOP-K0JN836,CP1H_C0_V1.00,FinalTest_2019.8.5.0,150620,CP1H 150620 000126,darsini,PASS,70.21,73.40,76.60,80.85,,
2020-06-15 11-31-24-481,DESKTOP-K0JN836,CP1H_C0_V1.00,FinalTest_2019.8.5.0,150620,CP1H 150620 000127,darsini,PASS,72.02,75.13,75.13,78.76,,
2020-06-15 11-32-13-356,DESKTOP-K0JN836,CP1H_C0_V1.00,FinalTest_2019.8.5.0,150620,CP1H 150620 000070,darsini,PASS,73.80,73.26,77.01,77.01,,
2020-06-15 11-33-04-245,DESKTOP-K0JN836,CP1H_C0_V1.00,FinalTest_2019.8.5.0,150620,CP1H 150620 000125,darsini,PASS,72.11,75.79,74.74,78.95,,
2020-06-15 11-33-49-213,DESKTOP-K0JN836,CP1H_C0_V1.00,FinalTest_2019.8.5.0,150620,CP1H 150620 000124,darsini,PASS,72.11,75.79,74.74,78.95,,
2020-06-15 11-34-39-424,DESKTOP-K0JN836,CP1H_C0_V1.00,FinalTest_2019.8.5.0,150620,CP1H 150620 000123,darsini,PASS,72.11,75.79,74.74,78.95,,
2020-06-15 11-36-47-819,DESKTOP-K0JN836,CP1H_C0_V1.00,FinalTest_2019.8.5.0,150620,CP1H 150620 000118,darsini,PASS,72.08,75.63,74.11,78.68,,
2020-06-15 11-37-34-994,DESKTOP-K0JN836,CP1H_C0_V1.00,FinalTest_2019.8.5.0,150620,CP1H 150620 000122,darsini,PASS,73.30,73.30,76.96,78.01,,
2020-06-15 11-38-23-436,DESKTOP-K0JN836,CP1H_C0_V1.00,FinalTest_2019.8.5.0,150620,CP1H 150620 000119,darsini,PASS,72.54,74.61,75.13,77.72,,
2020-06-15 11-39-05-400,DESKTOP-K0JN836,CP1H_C0_V1.00,FinalTest_2019.8.5.0,150620,CP1H 150620 000121,darsini,PASS,72.54,74.61,75.13,77.72,,
2020-06-15 11-39-54-182,DESKTOP-K0JN836,CP1H_C0_V1.00,FinalTest_2019.8.5.0,150620,CP1H 150620 000121,darsini,PASS,72.54,74.61,75.13,77.72,,
2020-06-15 11-42-10-113,DESKTOP-K0JN836,CP1H_C0_V1.00,FinalTest_2019.8.5.0,150620,CP1H 150620 000120,darsini,PASS,72.11,76.32,73.68,77.89,,
2020-06-15 11-46-58-575,DESKTOP-K0JN836,CP1H_C0_V1.00,FinalTest_2019.8.5.0,150620,CP1H 150620 000129,darsini,PASS,73.94,76.06,74.47,77.66,,
2020-06-15 11-47-43-841,DESKTOP-K0JN836,CP1H_C0_V1.00,FinalTest_2019.8.5.0,150620,CP1H 150620 000134,darsini,PASS,73.94,76.06,74.47,77.66,,
2020-06-15 11-49-45-107,DESKTOP-K0JN836,CP1H_C0_V1.00,FinalTest_2019.8.5.0,150620,CP1H 150620 000131,darsini,PASS,74.49,72.96,77.55,77.04,,
2020-06-15 11-50-26-466,DESKTOP-K0JN836,CP1H_C0_V1.00,FinalTest_2019.8.5.0,150620,CP1H 150620 000138,darsini,PASS,72.34,72.87,76.60,78.19,,
2020-06-15 11-51-09-299,DESKTOP-K0JN836,CP1H_C0_V1.00,FinalTest_2019.8.5.0,150620,CP1H 150620 000137,darsini,PASS,75.00,73.94,76.06,75.53,,
2020-06-15 11-51-53-581,DESKTOP-K0JN836,CP1H_C0_V1.00,FinalTest_2019.8.5.0,150620,CP1H 150620 000133,darsini,PASS,73.60,73.10,76.65,77.16,,
2020-06-15 11-52-36-451,DESKTOP-K0JN836,CP1H_C0_V1.00,FinalTest_2019.8.5.0,150620,CP1H 150620 000128,darsini,PASS,73.20,72.68,77.32,77.32,,
2020-06-15 11-53-23-623,DESKTOP-K0JN836,CP1H_C0_V1.00,FinalTest_2019.8.5.0,150620,CP1H 150620 000135,darsini,PASS,73.87,74.37,76.38,77.39,,
2020-06-15 11-54-07-590,DESKTOP-K0JN836,CP1H_C0_V1.00,FinalTest_2019.8.5.0,150620,CP1H 150620 000130,darsini,PASS,73.30,75.39,75.39,78.01,,
2020-06-15 11-54-50-837,DESKTOP-K0JN836,CP1H_C0_V1.00,FinalTest_2019.8.5.0,150620,CP1H 150620 000132,darsini,PASS,73.06,73.06,76.68,77.72,,
2020-06-15 11-55-32-796,DESKTOP-K0JN836,CP1H_C0_V1.00,FinalTest_2019.8.5.0,150620,CP1H 150620 000140,darsini,PASS,73.44,73.44,77.08,77.60,,
2020-06-15 11-56-16-365,DESKTOP-K0JN836,CP1H_C0_V1.00,FinalTest_2019.8.5.0,150620,CP1H 150620 000139,darsini,PASS,71.58,76.84,72.63,78.95,,
2020-06-15 11-56-58-903,DESKTOP-K0JN836,CP1H_C0_V1.00,FinalTest_2019.8.5.0,150620,CP1H 150620 000141,darsini,PASS,73.16,74.21,76.32,77.89,,
2020-06-15 11-57-40-261,DESKTOP-K0JN836,CP1H_C0_V1.00,FinalTest_2019.8.5.0,150620,CP1H 150620 000136,darsini,PASS,72.34,76.06,74.47,78.72,,
2020-06-15 11-58-22-516,DESKTOP-K0JN836,CP1H_C0_V1.00,FinalTest_2019.8.5.0,150620,CP1H 150620 000142,darsini,PASS,74.24,75.25,75.25,76.77,,
2020-06-15 11-59-03-073,DESKTOP-K0JN836,CP1H_C0_V1.00,FinalTest_2019.8.5.0,150620,CP1H 150620 000143,darsini,PASS,74.24,75.25,75.25,76.77,,
2020-06-15 11-59-49-630,DESKTOP-K0JN836,CP1H_C0_V1.00,FinalTest_2019.8.5.0,150620,CP1H 150620 000143,darsini,PASS,74.24,75.25,75.25,76.77,,
2020-06-15 12-37-54-193,DESKTOP-K0JN836,CP1H_C0_V1.00,FinalTest_2019.8.5.0,150620,CP1H 150620 000144,darsini,PASS,74.19,74.19,76.34,77.42,,
2020-06-15 12-40-18-790,DESKTOP-K0JN836,CP1H_C0_V1.00,FinalTest_2019.8.5.0,150620,CP1H 150620 000156,darsini,PASS,74.19,74.19,76.34,77.42,,
2020-06-15 12-41-12-185,DESKTOP-K0JN836,CP1H_C0_V1.00,FinalTest_2019.8.5.0,150620,CP1H 150620 000159,darsini,PASS,74.19,74.19,76.34,77.42,,
2020-06-15 12-42-06-581,DESKTOP-K0JN836,CP1H_C0_V1.00,FinalTest_2019.8.5.0,150620,CP1H 150620 000146,darsini,PASS,74.60,74.07,75.66,75.66,,
2020-06-15 12-42-55-154,DESKTOP-K0JN836,CP1H_C0_V1.00,FinalTest_2019.8.5.0,150620,CP1H 150620 000145,darsini,PASS,72.96,74.49,75.51,77.55,,
2020-06-15 12-43-44-445,DESKTOP-K0JN836,CP1H_C0_V1.00,FinalTest_2019.8.5.0,150620,CP1H 150620 000147,darsini,PASS,72.59,74.62,76.14,78.17,,
2020-06-15 12-44-29-572,DESKTOP-K0JN836,CP1H_C0_V1.00,FinalTest_2019.8.5.0,150620,CP1H 150620 000148,darsini,PASS,73.16,75.26,75.26,78.42,,
2020-06-15 12-45-15-524,DESKTOP-K0JN836,CP1H_C0_V1.00,FinalTest_2019.8.5.0,150620,CP1H 150620 000154,darsini,PASS,72.16,74.74,76.29,79.38,,
2020-06-15 12-46-02-101,DESKTOP-K0JN836,CP1H_C0_V1.00,FinalTest_2019.8.5.0,150620,CP1H 150620 000150,darsini,PASS,71.65,76.29,73.71,78.87,,
2020-06-15 12-46-50-295,DESKTOP-K0JN836,CP1H_C0_V1.00,FinalTest_2019.8.5.0,150620,CP1H 150620 000155,darsini,PASS,73.58,74.61,75.65,77.72,,
2020-06-15 12-47-35-079,DESKTOP-K0JN836,CP1H_C0_V1.00,FinalTest_2019.8.5.0,150620,CP1H 150620 000158,darsini,PASS,72.40,75.00,75.52,78.65,,
2020-06-15 12-48-34-710,DESKTOP-K0JN836,CP1H_C0_V1.00,FinalTest_2019.8.5.0,150620,CP1H 150620 000153,darsini,PASS,72.40,75.00,75.52,78.65,,
2020-06-15 12-49-21-782,DESKTOP-K0JN836,CP1H_C0_V1.00,FinalTest_2019.8.5.0,150620,CP1H 150620 000160,darsini,PASS,73.12,74.73,75.81,77.96,,
2020-06-15 12-50-08-845,DESKTOP-K0JN836,CP1H_C0_V1.00,FinalTest_2019.8.5.0,150620,CP1H 150620 000157,darsini,PASS,74.00,71.00,79.00,76.50,,
2020-06-15 12-50-52-846,DESKTOP-K0JN836,CP1H_C0_V1.00,FinalTest_2019.8.5.0,150620,CP1H 150620 000149,darsini,PASS,73.94,73.94,75.53,76.06,,
2020-06-15 12-51-39-097,DESKTOP-K0JN836,CP1H_C0_V1.00,FinalTest_2019.8.5.0,150620,CP1H 150620 000152,darsini,PASS,73.94,73.94,75.53,76.06,,
2020-06-15 12-52-27-851,DESKTOP-K0JN836,CP1H_C0_V1.00,FinalTest_2019.8.5.0,150620,CP1H 150620 000152,darsini,PASS,73.40,75.00,75.53,77.66,,
2020-06-15 12-53-13-833,DESKTOP-K0JN836,CP1H_C0_V1.00,FinalTest_2019.8.5.0,150620,CP1H 150620 000151,darsini,PASS,71.88,73.96,75.52,78.65,,
2020-06-15 12-56-39-633,DESKTOP-K0JN836,CP1H_C0_V1.00,FinalTest_2019.8.5.0,150620,CP1H 150620 000156,dasini,PASS,73.96,75.00,75.00,77.08,,
2020-06-15 12-58-09-767,DESKTOP-K0JN836,CP1H_C0_V1.00,FinalTest_2019.8.5.0,150620,CP1H 150620 000143,darsini,PASS,73.96,75.00,75.00,77.08,,
2020-06-15 12-58-46-104,DESKTOP-K0JN836,CP1H_C0_V1.00,FinalTest_2019.8.5.0,150620,CP1H 150620 000143,darsini,PASS,73.96,75.00,75.00,77.08,,
2020-06-15 12-59-26-750,DESKTOP-K0JN836,CP1H_C0_V1.00,FinalTest_2019.8.5.0,150620,CP1H 150620 000143,darsini,PASS,73.96,75.00,75.00,77.08,,
2020-06-15 13-01-28-081,DESKTOP-K0JN836,CP1H_C0_V1.00,FinalTest_2019.8.5.0,150620,CP1H 150620 000159,darsini,PASS,72.25,76.96,73.82,79.58,,
2020-06-15 13-03-01-663,DESKTOP-K0JN836,CP1H_C0_V1.00,FinalTest_2019.8.5.0,150620,CP1H 150620 000153,darsini,PASS,75.25,71.72,78.28,75.25,,
2020-06-15 13-10-24-564,DESKTOP-K0JN836,CP1H_C0_V1.00,FinalTest_2019.8.5.0,150620,CP1H 150620 000177,darsini,PASS,72.08,76.65,73.10,78.68,,
2020-06-15 13-11-05-800,DESKTOP-K0JN836,CP1H_C0_V1.00,FinalTest_2019.8.5.0,150620,CP1H 150620 000175,darsini,PASS,73.60,74.11,76.14,77.66,,
2020-06-15 13-11-47-462,DESKTOP-K0JN836,CP1H_C0_V1.00,FinalTest_2019.8.5.0,150620,CP1H 150620 000173,darsini,PASS,74.09,74.09,76.68,77.20,,
2020-06-15 13-12-30-010,DESKTOP-K0JN836,CP1H_C0_V1.00,FinalTest_2019.8.5.0,150620,CP1H 150620 000176,darsini,PASS,72.19,77.54,72.73,78.61,,
2020-06-15 13-13-15-457,DESKTOP-K0JN836,CP1H_C0_V1.00,FinalTest_2019.8.5.0,150620,CP1H 150620 000178,darsini,PASS,74.07,74.07,76.19,76.72,,
2020-06-15 13-14-08-766,DESKTOP-K0JN836,CP1H_C0_V1.00,FinalTest_2019.8.5.0,150620,CP1H 150620 000168,darsini,PASS,73.33,75.90,74.36,77.95,,
2020-06-15 13-14-53-142,DESKTOP-K0JN836,CP1H_C0_V1.00,FinalTest_2019.8.5.0,150620,CP1H 150620 000179,darsini,PASS,72.11,75.26,75.26,78.42,,
2020-06-15 13-15-36-606,DESKTOP-K0JN836,CP1H_C0_V1.00,FinalTest_2019.8.5.0,150620,CP1H 150620 000174,darsini,PASS,73.66,73.12,77.42,76.88,,
2020-06-15 13-16-21-061,DESKTOP-K0JN836,CP1H_C0_V1.00,FinalTest_2019.8.5.0,150620,CP1H 150620 000166,darsini,PASS,72.59,74.11,75.63,77.66,,
2020-06-15 13-17-08-972,DESKTOP-K0JN836,CP1H_C0_V1.00,FinalTest_2019.8.5.0,150620,CP1H 150620 000170,darsini,PASS,75.00,75.00,76.02,76.53,,
2020-06-15 13-17-54-856,DESKTOP-K0JN836,CP1H_C0_V1.00,FinalTest_2019.8.5.0,150620,CP1H 150620 000172,darsini,PASS,73.10,76.14,74.62,78.68,,
2020-06-15 13-18-44-834,DESKTOP-K0JN836,CP1H_C0_V1.00,FinalTest_2019.8.5.0,150620,CP1H 150620 000169,darsini,PASS,73.17,75.12,75.12,78.05,,
2020-06-15 13-19-32-412,DESKTOP-K0JN836,CP1H_C0_V1.00,FinalTest_2019.8.5.0,150620,CP1H 150620 000162,darsini,PASS,73.47,73.47,76.02,77.04,,
2020-06-15 13-20-20-493,DESKTOP-K0JN836,CP1H_C0_V1.00,FinalTest_2019.8.5.0,150620,CP1H 150620 000165,darsini,PASS,72.49,77.78,73.02,78.84,,
2020-06-15 13-21-16-324,DESKTOP-K0JN836,CP1H_C0_V1.00,FinalTest_2019.8.5.0,150620,CP1H 150620 000164,darsini,PASS,72.77,73.30,76.44,78.01,,
2020-06-15 13-22-05-622,DESKTOP-K0JN836,CP1H_C0_V1.00,FinalTest_2019.8.5.0,150620,CP1H 150620 000167,darsini,PASS,73.06,74.61,75.13,77.72,,
2020-06-15 13-22-49-409,DESKTOP-K0JN836,CP1H_C0_V1.00,FinalTest_2019.8.5.0,150620,CP1H 150620 000171,darsini,PASS,73.06,74.61,75.13,77.72,,
2020-06-15 13-23-34-778,DESKTOP-K0JN836,CP1H_C0_V1.00,FinalTest_2019.8.5.0,150620,CP1H 150620 000171,darsini,PASS,73.20,73.20,76.29,77.32,,
2020-06-15 13-24-20-231,DESKTOP-K0JN836,CP1H_C0_V1.00,FinalTest_2019.8.5.0,150620,CP1H 150620 000163,darsini,PASS,73.54,75.13,75.13,77.78,,
2020-06-15 13-25-42-513,DESKTOP-K0JN836,CP1H_C0_V1.00,FinalTest_2019.8.5.0,150620,CP1H 150620 000180,darsini,PASS,73.94,74.47,75.53,77.13,,
2020-06-15 13-26-28-138,DESKTOP-K0JN836,CP1H_C0_V1.00,FinalTest_2019.8.5.0,150620,CP1H 150620 000161,darsini,PASS,72.82,74.36,74.87,77.44,,
2020-06-15 13-27-34-415,DESKTOP-K0JN836,CP1H_C0_V1.00,FinalTest_2019.8.5.0,150620,CP1H 150620 000186,darsini,PASS,72.54,74.61,75.65,78.76,,
2020-06-15 13-28-23-598,DESKTOP-K0JN836,CP1H_C0_V1.00,FinalTest_2019.8.5.0,150620,CP1H 150620 000189,darsini,PASS,74.21,73.16,76.84,76.32,,
2020-06-15 13-29-11-708,DESKTOP-K0JN836,CP1H_C0_V1.00,FinalTest_2019.8.5.0,150620,CP1H 150620 000197,darsini,PASS,73.30,73.82,75.92,76.96,,
2020-06-15 13-29-57-108,DESKTOP-K0JN836,CP1H_C0_V1.00,FinalTest_2019.8.5.0,150620,CP1H 150620 000195,darsini,PASS,72.02,74.61,75.65,78.76,,
2020-06-15 13-30-43-112,DESKTOP-K0JN836,CP1H_C0_V1.00,FinalTest_2019.8.5.0,150620,CP1H 150620 000190,darsini,PASS,71.86,74.87,74.87,78.89,,
2020-06-15 13-31-39-947,DESKTOP-K0JN836,CP1H_C0_V1.00,FinalTest_2019.8.5.0,150620,CP1H 150620 000185,darsini,PASS,74.21,71.05,78.95,76.84,,
2020-06-15 13-32-37-660,DESKTOP-K0JN836,CP1H_C0_V1.00,FinalTest_2019.8.5.0,150620,CP1H 150620 000182,darsini,PASS,72.54,75.65,74.09,78.24,,
2020-06-15 13-33-22-442,DESKTOP-K0JN836,CP1H_C0_V1.00,FinalTest_2019.8.5.0,150620,CP1H 150620 000184,darsini,PASS,73.94,73.94,76.06,77.13,,
2020-06-15 13-34-05-784,DESKTOP-K0JN836,CP1H_C0_V1.00,FinalTest_2019.8.5.0,150620,CP1H 150620 000187,darsini,PASS,75.13,73.02,77.78,76.19,,
2020-06-15 13-34-52-576,DESKTOP-K0JN836,CP1H_C0_V1.00,FinalTest_2019.8.5.0,150620,CP1H 150620 000188,darsini,PASS,73.66,74.73,75.27,76.88,,
2020-06-15 13-35-54-251,DESKTOP-K0JN836,CP1H_C0_V1.00,FinalTest_2019.8.5.0,150620,CP1H 150620 000191,darsini,PASS,74.87,71.73,78.53,76.44,,
2020-06-15 13-36-52-567,DESKTOP-K0JN836,CP1H_C0_V1.00,FinalTest_2019.8.5.0,150620,CP1H 150620 000183,darsini,PASS,72.54,76.17,74.61,78.76,,
2020-06-15 13-37-36-616,DESKTOP-K0JN836,CP1H_C0_V1.00,FinalTest_2019.8.5.0,150620,CP1H 150620 000181,darsini,PASS,71.81,77.13,73.40,79.79,,
2020-06-15 13-38-23-589,DESKTOP-K0JN836,CP1H_C0_V1.00,FinalTest_2019.8.5.0,150620,CP1H 150620 000194,darsini,PASS,73.58,73.58,76.17,77.20,,
2020-06-15 13-39-21-933,DESKTOP-K0JN836,CP1H_C0_V1.00,FinalTest_2019.8.5.0,150620,CP1H 150620 000192,darsini,PASS,73.96,75.52,75.00,77.08,,
2020-06-15 13-40-33-694,DESKTOP-K0JN836,CP1H_C0_V1.00,FinalTest_2019.8.5.0,150620,CP1H 150620 000193,darsini,PASS,73.85,74.36,75.38,76.92,,
2020-06-15 13-43-09-365,DESKTOP-K0JN836,CP1H_C0_V1.00,FinalTest_2019.8.5.0,150620,CP1H 150620 000196,darsini,PASS,70.90,77.25,73.54,80.42,,
2020-06-15 13-45-13-564,DESKTOP-K0JN836,CP1H_C0_V1.00,FinalTest_2019.8.5.0,150620,CP1H 150620 000198,darsini,PASS,72.68,74.74,76.29,78.87,,
2020-06-15 13-46-06-583,DESKTOP-K0JN836,CP1H_C0_V1.00,FinalTest_2019.8.5.0,150620,CP1H 150620 000215,darsini,PASS,72.68,73.71,76.29,77.84,,
2020-06-15 13-47-32-555,DESKTOP-K0JN836,CP1H_C0_V1.00,FinalTest_2019.8.5.0,150620,CP1H 150620 000212,darsini,PASS,72.68,73.71,76.29,77.84,,
2020-06-15 13-48-33-884,DESKTOP-K0JN836,CP1H_C0_V1.00,FinalTest_2019.8.5.0,150620,CP1H 150620 000212,darsini,PASS,72.68,73.71,76.29,77.84,,
2020-06-15 13-49-46-683,DESKTOP-K0JN836,CP1H_C0_V1.00,FinalTest_2019.8.5.0,150620,CP1H 150620 000211,darsini,PASS,72.68,73.71,76.29,77.84,,
2020-06-15 13-51-10-412,DESKTOP-K0JN836,CP1H_C0_V1.00,FinalTest_2019.8.5.0,150620,CP1H 150620 000202,darsini,PASS,74.73,73.66,75.81,75.81,,
2020-06-15 13-51-55-964,DESKTOP-K0JN836,CP1H_C0_V1.00,FinalTest_2019.8.5.0,150620,CP1H 150620 000208,darsini,PASS,71.86,75.38,74.37,78.89,,
2020-06-15 13-52-52-777,DESKTOP-K0JN836,CP1H_C0_V1.00,FinalTest_2019.8.5.0,150620,CP1H 150620 000210,darsini,PASS,71.72,78.79,71.72,79.29,,
2020-06-15 13-53-37-520,DESKTOP-K0JN836,CP1H_C0_V1.00,FinalTest_2019.8.5.0,150620,CP1H 150620 000203,darsini,PASS,70.92,76.02,73.98,80.10,,
2020-06-15 13-54-23-193,DESKTOP-K0JN836,CP1H_C0_V1.00,FinalTest_2019.8.5.0,150620,CP1H 150620 000213,darsini,PASS,73.94,72.87,77.13,76.60,,
2020-06-15 13-55-11-587,DESKTOP-K0JN836,CP1H_C0_V1.00,FinalTest_2019.8.5.0,150620,CP1H 150620 000209,darsini,PASS,75.00,74.47,74.47,75.00,,
2020-06-15 13-55-59-351,DESKTOP-K0JN836,CP1H_C0_V1.00,FinalTest_2019.8.5.0,150620,CP1H 150620 000201,darsini,PASS,73.60,75.63,74.62,77.16,,
2020-06-15 13-58-55-655,DESKTOP-K0JN836,CP1H_C0_V1.00,FinalTest_2019.8.5.0,150620,CP1H 150620 000200,darsini,PASS,71.50,78.76,70.98,79.27,,
2020-06-15 13-59-47-326,DESKTOP-K0JN836,CP1H_C0_V1.00,FinalTest_2019.8.5.0,150620,CP1H 150620 000204,darsini,PASS,73.33,74.36,76.41,77.95,,
2020-06-15 14-00-40-630,DESKTOP-K0JN836,CP1H_C0_V1.00,FinalTest_2019.8.5.0,150620,CP1H 150620 000199,darsini,PASS,71.96,76.72,73.54,78.84,,
2020-06-15 14-01-27-607,DESKTOP-K0JN836,CP1H_C0_V1.00,FinalTest_2019.8.5.0,150620,CP1H 150620 000229,darsini,PASS,71.73,75.92,73.82,78.53,,
2020-06-15 14-02-16-902,DESKTOP-K0JN836,CP1H_C0_V1.00,FinalTest_2019.8.5.0,150620,CP1H 150620 000205,darsini,PASS,71.73,75.92,73.82,78.53,,
2020-06-15 14-03-06-184,DESKTOP-K0JN836,CP1H_C0_V1.00,FinalTest_2019.8.5.0,150620,CP1H 150620 000214,darsini,PASS,73.60,73.10,76.65,77.16,,
2020-06-15 14-04-04-807,DESKTOP-K0JN836,CP1H_C0_V1.00,FinalTest_2019.8.5.0,150620,CP1H 150620 000206,darsini,PASS,74.35,72.77,76.96,76.44,,
2020-06-15 14-04-58-747,DESKTOP-K0JN836,CP1H_C0_V1.00,FinalTest_2019.8.5.0,150620,CP1H 150620 000207,darsini,PASS,73.60,71.57,78.17,76.65,,
2020-06-15 14-05-45-048,DESKTOP-K0JN836,CP1H_C0_V1.00,FinalTest_2019.8.5.0,150620,CP1H 150620 000230,darsini,PASS,73.60,71.57,78.17,76.65,,
2020-06-15 14-06-48-225,DESKTOP-K0JN836,CP1H_C0_V1.00,FinalTest_2019.8.5.0,150620,CP1H 150620 000231,darsini,PASS,70.35,76.88,72.86,80.40,,
2020-06-15 14-07-53-769,DESKTOP-K0JN836,CP1H_C0_V1.00,FinalTest_2019.8.5.0,150620,CP1H 150620 000225,darsini,PASS,73.60,73.10,76.65,76.65,,
2020-06-15 14-08-43-547,DESKTOP-K0JN836,CP1H_C0_V1.00,FinalTest_2019.8.5.0,150620,CP1H 150620 000228,darsini,PASS,71.88,76.04,73.96,78.13,,
2020-06-15 14-09-39-007,DESKTOP-K0JN836,CP1H_C0_V1.00,FinalTest_2019.8.5.0,150620,CP1H 150620 000224,darsini,PASS,71.88,76.04,73.96,78.13,,
2020-06-15 14-10-18-227,DESKTOP-K0JN836,CP1H_C0_V1.00,FinalTest_2019.8.5.0,150620,CP1H 150620 000224,darsini,PASS,71.88,76.04,73.96,78.13,,
2020-06-15 14-11-23-793,DESKTOP-K0JN836,CP1H_C0_V1.00,FinalTest_2019.8.5.0,150620,CP1H 150620 000226,darsini,PASS,72.73,73.74,76.26,78.28,,
2020-06-15 14-12-09-372,DESKTOP-K0JN836,CP1H_C0_V1.00,FinalTest_2019.8.5.0,150620,CP1H 150620 000227,darsini,PASS,72.73,73.74,76.26,78.28,,
2020-06-15 14-13-25-393,DESKTOP-K0JN836,CP1H_C0_V1.00,FinalTest_2019.8.5.0,150620,CP1H 150620 000223,darsini,PASS,74.02,73.53,76.96,76.96,,
2020-06-15 14-15-11-048,DESKTOP-K0JN836,CP1H_C0_V1.00,FinalTest_2019.8.5.0,150620,CP1H 150620 000220,darsini,PASS,71.65,74.23,75.77,77.32,,
2020-06-15 14-16-03-669,DESKTOP-K0JN836,CP1H_C0_V1.00,FinalTest_2019.8.5.0,150620,CP1H 150620 000221,darsini,PASS,71.94,73.98,75.51,78.06,,
2020-06-15 14-16-56-360,DESKTOP-K0JN836,CP1H_C0_V1.00,FinalTest_2019.8.5.0,150620,CP1H 150620 000216,darsini,PASS,74.09,73.58,76.68,76.17,,
2020-06-15 14-17-55-292,DESKTOP-K0JN836,CP1H_C0_V1.00,FinalTest_2019.8.5.0,150620,CP1H 150620 000232,darsini,PASS,73.54,73.02,76.19,75.66,,
2020-06-15 14-18-45-185,DESKTOP-K0JN836,CP1H_C0_V1.00,FinalTest_2019.8.5.0,150620,CP1H 150620 000218,darsini,PASS,74.21,71.58,77.89,75.79,,
2020-06-15 14-19-40-083,DESKTOP-K0JN836,CP1H_C0_V1.00,FinalTest_2019.8.5.0,150620,CP1H 150620 000217,darsini,PASS,73.80,74.33,74.87,76.47,,
2020-06-15 14-20-41-539,DESKTOP-K0JN836,CP1H_C0_V1.00,FinalTest_2019.8.5.0,150620,CP1H 150620 000219,darsini,PASS,71.28,75.53,73.94,77.66,,
2020-06-15 14-21-27-412,DESKTOP-K0JN836,CP1H_C0_V1.00,FinalTest_2019.8.5.0,150620,CP1H 150620 000222,darsini,PASS,71.28,75.53,73.94,77.66,,
2020-06-15 14-22-01-956,DESKTOP-K0JN836,CP1H_C0_V1.00,FinalTest_2019.8.5.0,150620,CP1H 150620 000222,darsini,PASS,71.28,75.53,73.94,77.66,,
2020-06-15 14-25-57-280,DESKTOP-K0JN836,CP1H_C0_V1.00,FinalTest_2019.8.5.0,150620,150620 000238,darsini,PASS,73.87,76.38,73.87,77.39,,
2020-06-15 14-27-07-037,DESKTOP-K0JN836,CP1H_C0_V1.00,FinalTest_2019.8.5.0,150620,15062 000236,darsini,PASS,74.50,72.50,77.50,76.00,,
2020-06-15 14-28-10-685,DESKTOP-K0JN836,CP1H_C0_V1.00,FinalTest_2019.8.5.0,150620,CP1H 150620 000239,darsini,PASS,74.50,72.50,77.50,76.00,,
2020-06-15 14-29-00-763,DESKTOP-K0JN836,CP1H_C0_V1.00,FinalTest_2019.8.5.0,150620,CP1H 150620 000239,darsini,PASS,71.94,75.00,75.51,79.08,,
2020-06-15 14-29-48-643,DESKTOP-K0JN836,CP1H_C0_V1.00,FinalTest_2019.8.5.0,150620,CP1H 150620 000233,darsini,PASS,71.79,74.36,75.38,78.46,,
2020-06-15 14-31-05-794,DESKTOP-K0JN836,CP1H_C0_V1.00,FinalTest_2019.8.5.0,150620,CP1H 150620 000234,darsini,PASS,73.06,76.68,73.06,77.72,,
2020-06-15 14-32-06-209,DESKTOP-K0JN836,CP1H_C0_V1.00,FinalTest_2019.8.5.0,150620,CP1H 150620 000240,darsini,PASS,72.02,73.06,77.20,78.24,,
2020-06-15 14-34-44-916,DESKTOP-K0JN836,CP1H_C0_V1.00,FinalTest_2019.8.5.0,150620,CP1H 150620 000235,darsini,PASS,72.16,72.68,76.80,78.35,,
2020-06-15 14-36-01-703,DESKTOP-K0JN836,CP1H_C0_V1.00,FinalTest_2019.8.5.0,150620,CP1H 150620 000237,darsini,PASS,73.23,74.75,74.24,77.27,,
2020-06-15 14-47-08-524,DESKTOP-K0JN836,CP1H_C0_V1.00,FinalTest_2019.8.5.0,150620,CP1H 150620 000247,darsini,PASS,72.49,74.60,75.66,78.31,,
2020-06-15 14-48-12-581,DESKTOP-K0JN836,CP1H_C0_V1.00,FinalTest_2019.8.5.0,150620,CP1H 150620 000246,darsini,PASS,73.00,74.00,75.50,77.50,,
2020-06-15 14-49-20-629,DESKTOP-K0JN836,CP1H_C0_V1.00,FinalTest_2019.8.5.0,150620,CP1H 150620 000244,darsini,PASS,72.91,75.37,74.88,78.33,,
2020-06-15 14-55-47-147,DESKTOP-K0JN836,CP1H_C0_V1.00,FinalTest_2019.8.5.0,150620,CP1H 150620 000249,darsini,PASS,74.11,73.60,76.65,76.65,,
2020-06-15 14-56-48-252,DESKTOP-K0JN836,CP1H_C0_V1.00,FinalTest_2019.8.5.0,150620,CP1H 150620 000250,darsini,PASS,74.11,73.60,76.65,76.65,,
2020-06-15 14-58-20-704,DESKTOP-K0JN836,CP1H_C0_V1.00,FinalTest_2019.8.5.0,150620,CP1H 150620 000256,darsini,PASS,74.11,73.60,76.65,76.65,,
2020-06-15 14-59-42-963,DESKTOP-K0JN836,CP1H_C0_V1.00,FinalTest_2019.8.5.0,150620,CP1H 150620 000253,darsini,PASS,73.20,75.77,74.74,78.35,,
2020-06-15 15-00-23-621,DESKTOP-K0JN836,CP1H_C0_V1.00,FinalTest_2019.8.5.0,150620,CP1H 150620 000257,darsini,PASS,73.33,73.85,76.41,77.95,,
2020-06-15 15-01-06-261,DESKTOP-K0JN836,CP1H_C0_V1.00,FinalTest_2019.8.5.0,150620,CP1H 150620 000254,darsini,PASS,73.58,72.54,77.20,77.20,,
2020-06-15 15-01-50-641,DESKTOP-K0JN836,CP1H_C0_V1.00,FinalTest_2019.8.5.0,150620,CP1H 150620 000261,darsini,PASS,74.62,74.62,75.63,76.14,,
2020-06-15 15-03-04-510,DESKTOP-K0JN836,CP1H_C0_V1.00,FinalTest_2019.8.5.0,150620,CP1H 150620 000262,darsini,PASS,72.31,74.87,75.38,77.95,,
2020-06-15 15-03-57-310,DESKTOP-K0JN836,CP1H_C0_V1.00,FinalTest_2019.8.5.0,150620,CP1H 150620 000260,darsini,PASS,72.63,73.68,76.84,77.89,,
2020-06-15 15-14-23-479,DESKTOP-K0JN836,CP1H_C0_V1.00,FinalTest_2019.8.5.0,150620,CP1H 150620 000259,darsini,PASS,72.96,75.00,75.00,78.06,,
2020-06-15 15-15-06-641,DESKTOP-K0JN836,CP1H_C0_V1.00,FinalTest_2019.8.5.0,150620,CP1H 150620 000262,darsini,PASS,73.10,75.63,74.62,77.66,,
2020-06-15 15-15-46-585,DESKTOP-K0JN836,CP1H_C0_V1.00,FinalTest_2019.8.5.0,150620,CP1H 150620 000258,darsini,PASS,74.21,74.21,75.79,76.32,,
2020-06-15 15-16-31-366,DESKTOP-K0JN836,CP1H_C0_V1.00,FinalTest_2019.8.5.0,150620,CP1H 150620 000252,darsini,PASS,73.58,74.09,76.17,77.20,,
2020-06-15 15-17-19-227,DESKTOP-K0JN836,CP1H_C0_V1.00,FinalTest_2019.8.5.0,150620,CP1H 150620 000251,darsini,PASS,73.58,74.09,76.17,77.20,,
2020-06-15 15-18-07-724,DESKTOP-K0JN836,CP1H_C0_V1.00,FinalTest_2019.8.5.0,150620,CP1H 150620 000242,darsini,PASS,73.30,72.77,76.96,76.96,,
2020-06-15 15-18-50-168,DESKTOP-K0JN836,CP1H_C0_V1.00,FinalTest_2019.8.5.0,150620,CP1H 150620 000243,darsini,PASS,73.30,72.77,76.96,76.96,,
2020-06-15 15-19-43-477,DESKTOP-K0JN836,CP1H_C0_V1.00,FinalTest_2019.8.5.0,150620,CP1H 150620 000248,darsini,PASS,73.20,74.23,75.77,77.32,,
2020-06-15 15-20-32-049,DESKTOP-K0JN836,CP1H_C0_V1.00,FinalTest_2019.8.5.0,150620,CP1H 150620 000241,darsini,PASS,73.10,74.62,75.63,78.17,,
2020-06-15 15-21-41-220,DESKTOP-K0JN836,CP1H_C0_V1.00,FinalTest_2019.8.5.0,150620,CP1H 150620 000245,darsini,PASS,72.12,74.04,76.92,78.37,,
2020-06-15 15-22-33-036,DESKTOP-K0JN836,CP1H_C0_V1.00,FinalTest_2019.8.5.0,150620,CP1H 150620 000263,darsini,PASS,72.92,75.52,74.48,77.60,,
2020-06-15 15-23-41-390,DESKTOP-K0JN836,CP1H_C0_V1.00,FinalTest_2019.8.5.0,150620,CP1H 150620 000255,darsini,PASS,71.96,76.19,74.60,79.37,,
2020-06-15 15-52-09-874,DESKTOP-K0JN836,CP1H_C0_V1.00,FinalTest_2019.8.5.0,150620,CP1H 150620 000275,darsini,PASS,71.96,76.19,74.60,79.37,,
2020-06-15 15-53-06-493,DESKTOP-K0JN836,CP1H_C0_V1.00,FinalTest_2019.8.5.0,150620,CP1H 150620 000274,darsini,PASS,73.96,72.40,78.13,77.08,,
2020-06-15 15-53-55-477,DESKTOP-K0JN836,CP1H_C0_V1.00,FinalTest_2019.8.5.0,150620,CP1H 150620 000267,darsini,PASS,74.02,73.53,75.98,76.96,,
2020-06-15 16-05-25-729,DESKTOP-K0JN836,CP1H_C0_V1.00,FinalTest_2019.8.5.0,150620,CP1H 150620 000273,darsini,PASS,73.58,75.65,74.61,77.72,,
2020-06-15 16-06-15-022,DESKTOP-K0JN836,CP1H_C0_V1.00,FinalTest_2019.8.5.0,150620,CP1H 150620 000278,darsini,PASS,72.11,73.68,75.26,77.89,,
2020-06-15 16-07-00-981,DESKTOP-K0JN836,CP1H_C0_V1.00,FinalTest_2019.8.5.0,150620,CP1H 150620 000265,darsini,PASS,72.02,73.58,76.17,78.76,,
2020-06-15 16-07-48-752,DESKTOP-K0JN836,CP1H_C0_V1.00,FinalTest_2019.8.5.0,150620,CP1H 150620 000272,darsini,PASS,72.02,73.58,76.17,78.76,,
2020-06-15 16-08-30-125,DESKTOP-K0JN836,CP1H_C0_V1.00,FinalTest_2019.8.5.0,150620,CP1H 150620 000272,darsini,PASS,72.02,73.58,76.17,78.76,,
2020-06-15 16-10-01-178,DESKTOP-K0JN836,CP1H_C0_V1.00,FinalTest_2019.8.5.0,150620,CP1H 150620 000272,darsini,PASS,72.25,77.49,72.77,79.58,,
2020-06-15 16-11-01-096,DESKTOP-K0JN836,CP1H_C0_V1.00,FinalTest_2019.8.5.0,150620,CP1H 150620 000271,darsini,PASS,72.77,74.35,76.44,78.53,,
2020-06-15 16-11-45-191,DESKTOP-K0JN836,CP1H_C0_V1.00,FinalTest_2019.8.5.0,150620,CP1H 150620 000269,darsini,PASS,71.81,78.19,72.34,78.72,,
2020-06-15 16-12-27-316,DESKTOP-K0JN836,CP1H_C0_V1.00,FinalTest_2019.8.5.0,150620,CP1H 150620 000264,darsini,PASS,71.81,78.19,72.34,78.72,,
2020-06-15 16-13-25-147,DESKTOP-K0JN836,CP1H_C0_V1.00,FinalTest_2019.8.5.0,150620,CP1H 150620 000270,darsini,PASS,71.81,78.19,72.34,78.72,,
2020-06-15 16-14-15-139,DESKTOP-K0JN836,CP1H_C0_V1.00,FinalTest_2019.8.5.0,150620,CP1H 150620 000270,darsini,PASS,74.48,73.96,76.56,77.08,,
2020-06-15 16-14-56-499,DESKTOP-K0JN836,CP1H_C0_V1.00,FinalTest_2019.8.5.0,150620,CP1H 150620 000266,darsini,PASS,73.44,76.04,73.96,77.08,,
2020-06-15 16-15-44-760,DESKTOP-K0JN836,CP1H_C0_V1.00,FinalTest_2019.8.5.0,150620,CP1H 150620 000293,darsini,PASS,72.59,75.13,75.13,78.17,,
2020-06-15 16-16-29-032,DESKTOP-K0JN836,CP1H_C0_V1.00,FinalTest_2019.8.5.0,150620,CP1H 150620 000286,darsini,PASS,71.72,75.76,74.24,78.79,,
2020-06-15 16-17-13-238,DESKTOP-K0JN836,CP1H_C0_V1.00,FinalTest_2019.8.5.0,150620,CP1H 150620 000288,darsini,PASS,72.64,77.61,73.13,79.10,,
2020-06-15 16-17-55-687,DESKTOP-K0JN836,CP1H_C0_V1.00,FinalTest_2019.8.5.0,150620,CP1H 150620 000290,darsini,PASS,72.08,76.14,74.11,79.19,,
2020-06-15 16-18-40-327,DESKTOP-K0JN836,CP1H_C0_V1.00,FinalTest_2019.8.5.0,150620,CP1H 150620 000268,darsini,PASS,73.58,73.58,76.17,77.20,,
2020-06-15 16-19-28-017,DESKTOP-K0JN836,CP1H_C0_V1.00,FinalTest_2019.8.5.0,150620,CP1H 150620 000292,darsini,PASS,71.96,75.66,74.07,78.31,,
2020-06-15 16-20-11-198,DESKTOP-K0JN836,CP1H_C0_V1.00,FinalTest_2019.8.5.0,150620,CP1H 150620 000291,darsini,PASS,73.02,71.96,77.78,77.78,,
2020-06-15 16-20-58-179,DESKTOP-K0JN836,CP1H_C0_V1.00,FinalTest_2019.8.5.0,150620,CP1H 150620 000289,darsini,PASS,72.82,75.90,73.85,78.46,,
2020-06-15 16-21-46-685,DESKTOP-K0JN836,CP1H_C0_V1.00,FinalTest_2019.8.5.0,150620,CP1H 150620 000279,darsini,PASS,72.77,75.39,74.87,78.01,,
2020-06-15 16-22-38-445,DESKTOP-K0JN836,CP1H_C0_V1.00,FinalTest_2019.8.5.0,150620,CP1H 150620 000300,darsini,PASS,71.05,76.84,72.63,79.47,,
2020-06-15 16-23-23-328,DESKTOP-K0JN836,CP1H_C0_V1.00,FinalTest_2019.8.5.0,150620,CP1H 150620 000280,darsini,PASS,73.30,73.82,75.39,76.96,,
2020-06-15 16-24-07-066,DESKTOP-K0JN836,CP1H_C0_V1.00,FinalTest_2019.8.5.0,150620,CP1H 150620 000294,darsini,PASS,72.82,75.38,74.87,78.46,,
2020-06-15 16-24-57-085,DESKTOP-K0JN836,CP1H_C0_V1.00,FinalTest_2019.8.5.0,150620,CP1H 150620 000281,darsini,PASS,72.91,73.40,76.35,77.34,,
2020-06-15 16-25-44-450,DESKTOP-K0JN836,CP1H_C0_V1.00,FinalTest_2019.8.5.0,150620,CP1H 150620 000282,darsini,PASS,74.09,72.02,78.24,76.68,,
2020-06-15 16-26-26-892,DESKTOP-K0JN836,CP1H_C0_V1.00,FinalTest_2019.8.5.0,150620,CP1H 150620 000295,darsini,PASS,72.11,75.79,74.74,79.47,,
2020-06-15 16-27-10-532,DESKTOP-K0JN836,CP1H_C0_V1.00,FinalTest_2019.8.5.0,150620,CP1H 150620 000284,darsini,PASS,74.26,73.27,76.24,76.24,,
2020-06-15 16-27-54-671,DESKTOP-K0JN836,CP1H_C0_V1.00,FinalTest_2019.8.5.0,150620,CP1H 150620 000277,darsini,PASS,72.22,79.29,71.21,78.79,,
2020-06-15 16-28-37-447,DESKTOP-K0JN836,CP1H_C0_V1.00,FinalTest_2019.8.5.0,150620,CP1H 150620 000283,darsini,PASS,73.40,73.89,75.37,77.34,,
2020-06-15 16-29-20-510,DESKTOP-K0JN836,CP1H_C0_V1.00,FinalTest_2019.8.5.0,150620,CP1H 150620 000276,darsini,PASS,72.41,73.89,76.85,78.82,,
2020-06-15 16-30-05-173,DESKTOP-K0JN836,CP1H_C0_V1.00,FinalTest_2019.8.5.0,150620,CP1H 150620 000285,darsini,PASS,73.23,73.23,76.77,77.78,,
2020-06-15 16-30-48-830,DESKTOP-K0JN836,CP1H_C0_V1.00,FinalTest_2019.8.5.0,150620,CP1H 150620 000299,darsini,PASS,72.50,73.50,76.00,77.50,,
2020-06-15 16-31-32-704,DESKTOP-K0JN836,CP1H_C0_V1.00,FinalTest_2019.8.5.0,150620,CP1H 150620 000298,darsini,PASS,71.20,78.53,71.20,79.58,,
2020-06-15 16-32-15-967,DESKTOP-K0JN836,CP1H_C0_V1.00,FinalTest_2019.8.5.0,150620,CP1H 150620 000297,darsini,PASS,72.96,73.47,76.02,77.55,,
2020-06-15 16-32-57-635,DESKTOP-K0JN836,CP1H_C0_V1.00,FinalTest_2019.8.5.0,150620,CP1H 150620 000287,darsini,PASS,73.20,73.20,76.80,77.32,,
2020-06-15 16-33-40-848,DESKTOP-K0JN836,CP1H_C0_V1.00,FinalTest_2019.8.5.0,150620,CP1H 150620 000296,darsini,PASS,72.96,73.98,76.53,78.06,,
2020-06-15 16-38-15-905,DESKTOP-K0JN836,CP1H_C0_V1.00,FinalTest_2019.8.5.0,150620,CP1H 150620 000317,darsini,PASS,72.36,74.37,76.38,78.89,,
2020-06-15 16-39-04-963,DESKTOP-K0JN836,CP1H_C0_V1.00,FinalTest_2019.8.5.0,150620,CP1H 150620 000304,darsini,PASS,72.22,74.24,75.76,78.28,,
2020-06-15 16-39-49-026,DESKTOP-K0JN836,CP1H_C0_V1.00,FinalTest_2019.8.5.0,150620,CP1H 150620 000305,darsini,PASS,73.37,74.87,74.87,77.39,,
2020-06-15 16-40-45-745,DESKTOP-K0JN836,CP1H_C0_V1.00,FinalTest_2019.8.5.0,150620,CP1H 150620 000308,darsini,PASS,71.86,76.38,73.87,79.40,,
2020-06-15 16-42-28-987,DESKTOP-K0JN836,CP1H_C0_V1.00,FinalTest_2019.8.5.0,150620,CP1H 150620 000318,darsini,PASS,73.85,73.85,76.41,76.92,,
2020-06-15 16-45-31-662,DESKTOP-K0JN836,CP1H_C0_V1.00,FinalTest_2019.8.5.0,150620,CP1H 150620 000329,darsini,PASS,72.86,76.88,73.37,78.39,,
2020-06-15 16-46-36-636,DESKTOP-K0JN836,CP1H_C0_V1.00,FinalTest_2019.8.5.0,150620,CP1H 150620 000327,darsini,PASS,73.06,76.17,74.09,78.24,,
2020-06-15 16-47-23-997,DESKTOP-K0JN836,CP1H_C0_V1.00,FinalTest_2019.8.5.0,150620,CP1H 150620 000320,darsini,PASS,71.43,76.72,73.54,79.89,,
2020-06-15 16-48-11-365,DESKTOP-K0JN836,CP1H_C0_V1.00,FinalTest_2019.8.5.0,150620,CP1H 150620 000325,darsini,PASS,73.16,75.26,75.79,77.89,,
2020-06-15 16-49-01-853,DESKTOP-K0JN836,CP1H_C0_V1.00,FinalTest_2019.8.5.0,150620,CP1H 150620 000307,darsini,PASS,73.82,75.39,74.35,76.96,,
2020-06-15 16-49-52-868,DESKTOP-K0JN836,CP1H_C0_V1.00,FinalTest_2019.8.5.0,150620,CP1H 150620 000326,darsini,PASS,74.87,71.36,79.40,76.38,,
2020-06-15 16-50-57-430,DESKTOP-K0JN836,CP1H_C0_V1.00,FinalTest_2019.8.5.0,150620,CP1H 150620 000323,darsini,PASS,74.09,74.61,75.65,77.20,,
2020-06-15 16-51-53-952,DESKTOP-K0JN836,CP1H_C0_V1.00,FinalTest_2019.8.5.0,150620,CP1H 150620 000324,darsini,PASS,74.63,73.66,76.10,75.61,,
2020-06-15 16-52-51-080,DESKTOP-K0JN836,CP1H_C0_V1.00,FinalTest_2019.8.5.0,150620,CP1H 150620 000328,darsini,PASS,74.36,73.33,76.41,75.90,,
2020-06-15 16-53-33-358,DESKTOP-K0JN836,CP1H_C0_V1.00,FinalTest_2019.8.5.0,150620,CP1H 150620 000319,darsini,PASS,73.47,75.00,75.51,77.55,,
2020-06-15 16-54-18-801,DESKTOP-K0JN836,CP1H_C0_V1.00,FinalTest_2019.8.5.0,150620,CP1H 150620 000306,darsini,PASS,72.16,74.74,74.74,77.84,,
2020-06-15 16-55-04-578,DESKTOP-K0JN836,CP1H_C0_V1.00,FinalTest_2019.8.5.0,150620,CP1H 150620 000316,darsini,PASS,72.22,75.25,74.24,78.28,,
2020-06-15 16-56-46-012,DESKTOP-K0JN836,CP1H_C0_V1.00,FinalTest_2019.8.5.0,150620,CP1H 150620 000301,darsini,PASS,72.25,76.44,74.35,79.06,,
2020-06-15 16-57-43-512,DESKTOP-K0JN836,CP1H_C0_V1.00,FinalTest_2019.8.5.0,150620,CP1H 150620 000315,darsini,PASS,72.73,75.76,74.75,78.28,,
2020-06-15 16-58-37-364,DESKTOP-K0JN836,CP1H_C0_V1.00,FinalTest_2019.8.5.0,150620,CP1H 150620 000322,darsini,PASS,72.73,75.25,74.24,77.78,,
2020-06-15 16-59-21-695,DESKTOP-K0JN836,CP1H_C0_V1.00,FinalTest_2019.8.5.0,150620,CP1H 150620 000321,darsini,PASS,72.73,75.25,74.24,77.78,,
2020-06-15 17-00-12-290,DESKTOP-K0JN836,CP1H_C0_V1.00,FinalTest_2019.8.5.0,150620,CP1H 150620 000310,darsini,PASS,73.02,74.07,76.19,77.78,,
2020-06-15 17-00-56-084,DESKTOP-K0JN836,CP1H_C0_V1.00,FinalTest_2019.8.5.0,150620,CP1H 150620 000311,darsini,PASS,71.86,74.37,74.87,78.89,,
2020-06-15 17-01-40-357,DESKTOP-K0JN836,CP1H_C0_V1.00,FinalTest_2019.8.5.0,150620,CP1H 150620 000309,darsini,PASS,74.24,73.23,76.77,76.77,,
2020-06-15 17-02-28-329,DESKTOP-K0JN836,CP1H_C0_V1.00,FinalTest_2019.8.5.0,150620,CP1H 150620 000313,darsini,PASS,74.24,77.27,73.23,76.77,,
2020-06-15 17-03-11-982,DESKTOP-K0JN836,CP1H_C0_V1.00,FinalTest_2019.8.5.0,150620,CP1H 150620 000302,darsini,PASS,72.45,75.51,74.49,78.06,,
2020-06-15 17-04-00-197,DESKTOP-K0JN836,CP1H_C0_V1.00,FinalTest_2019.8.5.0,150620,CP1H 150620 000312,darsini,PASS,73.02,75.66,74.60,77.78,,
2020-06-15 17-04-45-459,DESKTOP-K0JN836,CP1H_C0_V1.00,FinalTest_2019.8.5.0,150620,CP1H 150620 000303,darsini,PASS,74.24,75.25,74.75,76.77,,
2020-06-15 17-05-27-410,DESKTOP-K0JN836,CP1H_C0_V1.00,FinalTest_2019.8.5.0,150620,CP1H 150620 000314,darsini,PASS,72.68,74.23,76.29,78.87,,
2020-06-15 17-06-39-639,DESKTOP-K0JN836,CP1H_C0_V1.00,FinalTest_2019.8.5.0,150620,CP1H 150620 000351,darsini,PASS,72.45,75.00,74.49,77.55,,
2020-06-15 17-07-19-559,DESKTOP-K0JN836,CP1H_C0_V1.00,FinalTest_2019.8.5.0,150620,CP1H 150620 000352,darsini,PASS,74.24,72.73,77.27,76.26,,
2020-06-15 17-08-02-132,DESKTOP-K0JN836,CP1H_C0_V1.00,FinalTest_2019.8.5.0,150620,CP1H 150620 000350,darsini,PASS,73.26,78.07,71.66,77.54,,
2020-06-15 17-08-43-299,DESKTOP-K0JN836,CP1H_C0_V1.00,FinalTest_2019.8.5.0,150620,CP1H 150620 000348,darsini,PASS,72.34,73.94,76.60,77.66,,
2020-06-15 17-09-26-648,DESKTOP-K0JN836,CP1H_C0_V1.00,FinalTest_2019.8.5.0,150620,CP1H 150620 000341,darsini,PASS,74.61,72.02,78.24,76.17,,
2020-06-15 17-10-11-232,DESKTOP-K0JN836,CP1H_C0_V1.00,FinalTest_2019.8.5.0,150620,CP1H 150620 000353,darsini,PASS,74.61,72.02,78.24,76.17,,
2020-06-15 17-10-55-990,DESKTOP-K0JN836,CP1H_C0_V1.00,FinalTest_2019.8.5.0,150620,CP1H 150620 000347,darsini,PASS,72.58,75.81,73.66,77.96,,
2020-06-15 17-11-38-379,DESKTOP-K0JN836,CP1H_C0_V1.00,FinalTest_2019.8.5.0,150620,CP1H 150620 000343,darsini,PASS,74.35,70.16,79.06,75.39,,
2020-06-15 17-12-22-307,DESKTOP-K0JN836,CP1H_C0_V1.00,FinalTest_2019.8.5.0,150620,CP1H 150620 000349,darsini,PASS,72.87,75.00,75.53,78.19,,
2020-06-15 17-13-03-250,DESKTOP-K0JN836,CP1H_C0_V1.00,FinalTest_2019.8.5.0,150620,CP1H 150620 000354,darsini,PASS,72.77,73.82,75.39,78.01,,
2020-06-15 17-13-44-398,DESKTOP-K0JN836,CP1H_C0_V1.00,FinalTest_2019.8.5.0,150620,CP1H 150620 000356,darsini,PASS,72.59,74.11,75.63,78.17,,
2020-06-15 17-14-25-345,DESKTOP-K0JN836,CP1H_C0_V1.00,FinalTest_2019.8.5.0,150620,CP1H 150620 000355,darsini,PASS,73.02,74.07,75.66,77.25,,
2020-06-15 17-15-06-701,DESKTOP-K0JN836,CP1H_C0_V1.00,FinalTest_2019.8.5.0,150620,CP1H 150620 000357,darsini,PASS,75.00,72.40,77.60,76.04,,
2020-06-15 17-15-50-650,DESKTOP-K0JN836,CP1H_C0_V1.00,FinalTest_2019.8.5.0,150620,CP1H 150620 000345,darsini,PASS,73.02,72.49,76.72,77.78,,
2020-06-15 17-16-29-584,DESKTOP-K0JN836,CP1H_C0_V1.00,FinalTest_2019.8.5.0,150620,CP1H 150620 000358,darsini,PASS,72.87,73.94,76.06,78.19,,
2020-06-15 17-17-16-086,DESKTOP-K0JN836,CP1H_C0_V1.00,FinalTest_2019.8.5.0,150620,CP1H 150620 000342,darsini,PASS,71.96,76.72,73.54,78.84,,
2020-06-15 17-18-48-473,DESKTOP-K0JN836,CP1H_C0_V1.00,FinalTest_2019.8.5.0,150620,150620 000359,darsini,PASS,71.65,77.32,73.20,79.38,,
2020-06-15 17-19-34-647,DESKTOP-K0JN836,CP1H_C0_V1.00,FinalTest_2019.8.5.0,150620,CP1H 150620 000346,darsini,PASS,72.08,76.65,73.10,78.68,,
2020-06-15 17-20-21-922,DESKTOP-K0JN836,CP1H_C0_V1.00,FinalTest_2019.8.5.0,150620,CP1H 150620 000340,darsini,PASS,73.20,73.71,76.29,77.32,,
2020-06-15 17-21-07-300,DESKTOP-K0JN836,CP1H_C0_V1.00,FinalTest_2019.8.5.0,150620,CP1H 150620 000332,darsini,PASS,72.92,73.44,76.04,77.60,,
2020-06-15 17-21-48-139,DESKTOP-K0JN836,CP1H_C0_V1.00,FinalTest_2019.8.5.0,150620,CP1H 150620 000330,darsini,PASS,73.16,75.79,74.21,77.37,,
2020-06-15 17-22-31-327,DESKTOP-K0JN836,CP1H_C0_V1.00,FinalTest_2019.8.5.0,150620,CP1H 150620 000338,darsini,PASS,71.81,73.94,75.00,78.19,,
2020-06-15 17-23-17-797,DESKTOP-K0JN836,CP1H_C0_V1.00,FinalTest_2019.8.5.0,150620,CP1H 150620 000360,darsini,PASS,74.09,75.13,75.13,76.68,,
2020-06-15 17-24-00-541,DESKTOP-K0JN836,CP1H_C0_V1.00,FinalTest_2019.8.5.0,150620,CP1H 150620 000333,darsini,PASS,73.02,76.19,74.07,78.31,,
2020-06-15 17-24-47-239,DESKTOP-K0JN836,CP1H_C0_V1.00,FinalTest_2019.8.5.0,150620,CP1H 150620 000337,darsini,PASS,73.02,73.54,76.19,77.78,,
2020-06-15 17-25-29-298,DESKTOP-K0JN836,CP1H_C0_V1.00,FinalTest_2019.8.5.0,150620,CP1H 150620 000331,darsini,PASS,71.20,76.96,73.30,80.10,,
2020-06-15 17-26-19-009,DESKTOP-K0JN836,CP1H_C0_V1.00,FinalTest_2019.8.5.0,150620,CP1H 150620 000339,darsini,PASS,73.20,74.74,75.26,77.32,,
2020-06-15 17-27-07-993,DESKTOP-K0JN836,CP1H_C0_V1.00,FinalTest_2019.8.5.0,150620,CP1H 150620 000334,darsini,PASS,73.94,72.34,77.66,76.60,,
2020-06-15 17-27-54-434,DESKTOP-K0JN836,CP1H_C0_V1.00,FinalTest_2019.8.5.0,150620,CP1H 150620 000344,darsini,PASS,74.33,73.80,74.87,75.40,,
2020-06-15 17-28-37-698,DESKTOP-K0JN836,CP1H_C0_V1.00,FinalTest_2019.8.5.0,150620,CP1H 150620 000335,darsini,PASS,73.20,73.71,75.77,77.32,,
2020-06-15 17-29-27-718,DESKTOP-K0JN836,CP1H_C0_V1.00,FinalTest_2019.8.5.0,150620,CP1H 150620 000336,darsini,PASS,73.68,75.79,74.74,77.37,,
