Time,Equipment,Model,SWVersion,LotName,Barcode,Operator,Result,Initalize,Current,CenterPoint,Rotate,Color,Reverse,EIAJ,Angle,Stain,Particle,DefectPixel,Brightness,IR Filter,Finalize,,
2020-06-30 15-34-29-116,DESKTOP-K0JN836,CP1H_C0_V1.00,FinalTest_2019.8.5.0,200630,CP1P 020620 000057,ee,FAIL,PASS,FAIL,X,X,X,X,X,X,X,X,X,X,X,PASS,,
2020-06-30 15-43-22-105,DESKTOP-K0JN836,CP1H_C0_V1.00,FinalTest_2019.8.5.0,200630,CP1H 300620 000206,ee,FAIL,PASS,PASS,PASS,PASS,PASS,PASS,FAIL,PASS,PASS,X,PASS,PASS,PASS,PASS,,
2020-06-30 15-44-04-951,DESKTOP-K0JN836,CP1H_C0_V1.00,FinalTest_2019.8.5.0,200630,CP1H 300620 000206,ee,FAIL,PASS,PASS,PASS,PASS,FAIL,PASS,FAIL,PASS,PASS,X,PASS,PASS,PASS,PASS,,
2020-06-30 15-44-38-142,DESKTOP-K0JN836,CP1H_C0_V1.00,FinalTest_2019.8.5.0,200630,,ee,NO BARCODE,X,PASS,PASS,PASS,FAIL,PASS,FAIL,PASS,PASS,X,PASS,PASS,PASS,X,,
2020-06-30 15-44-48-807,DESKTOP-K0JN836,CP1H_C0_V1.00,FinalTest_2019.8.5.0,200630,CP1H 300620 000206,ee,FAIL,PASS,PASS,PASS,PASS,PASS,PASS,FAIL,PASS,PASS,X,PASS,PASS,PASS,PASS,,
2020-06-30 15-45-43-373,DESKTOP-K0JN836,CP1H_C0_V1.00,FinalTest_2019.8.5.0,200630,CP1H 300620 000210,ee,PASS,PASS,PASS,PASS,PASS,PASS,PASS,PASS,PASS,PASS,X,PASS,PASS,PASS,PASS,,
