Time,Equipment,Model,SWVersion,LotName,Barcode,Operator,Result,mA,,
2020-06-18 08-12-41-633,DESKTOP-K0JN836,CP1H_C0_V1.00,FinalTest_2019.8.5.0,18062020,CP1H 050620 000055,umie,PASS,61.0,,
2020-06-18 08-14-59-416,DESKTOP-K0JN836,CP1H_C0_V1.00,FinalTest_2019.8.5.0,18062020,CP1H 050620 000081,umie,PASS,64.0,,
2020-06-18 08-17-29-874,DESKTOP-K0JN836,CP1H_C0_V1.00,FinalTest_2019.8.5.0,18062020,CP1H 020620 000014,umie,PASS,62.0,,
2020-06-18 08-20-45-677,DESKTOP-K0JN836,CP1H_C0_V1.00,FinalTest_2019.8.5.0,18062020,CP1H 020620 000050,umie,PASS,64.0,,
2020-06-18 08-22-15-523,DESKTOP-K0JN836,CP1H_C0_V1.00,FinalTest_2019.8.5.0,18062020,CP1H 020620 000061,umie,PASS,63.0,,
2020-06-18 08-23-39-383,DESKTOP-K0JN836,CP1H_C0_V1.00,FinalTest_2019.8.5.0,18062020,CP1H 020620 000055,umie,PASS,65.0,,
2020-06-18 08-27-12-396,DESKTOP-K0JN836,CP1H_C0_V1.00,FinalTest_2019.8.5.0,18062020,CP1H 050620 000207,umie,PASS,64.0,,
2020-06-18 08-28-43-591,DESKTOP-K0JN836,CP1H_C0_V1.00,FinalTest_2019.8.5.0,18062020,CP1H 050620 000033,umie,PASS,62.0,,
2020-06-18 08-30-09-842,DESKTOP-K0JN836,CP1H_C0_V1.00,FinalTest_2019.8.5.0,18062020,CP1H 050620 000151,umie,PASS,63.0,,
2020-06-18 08-31-28-852,DESKTOP-K0JN836,CP1H_C0_V1.00,FinalTest_2019.8.5.0,18062020,CP1H 050620 000077,umie,PASS,63.0,,
2020-06-18 08-32-49-132,DESKTOP-K0JN836,CP1H_C0_V1.00,FinalTest_2019.8.5.0,18062020,CP1H 050620 000016,umie,PASS,62.0,,
2020-06-18 08-33-56-801,DESKTOP-K0JN836,CP1H_C0_V1.00,FinalTest_2019.8.5.0,18062020,CP1H 050620 000114,umie,PASS,62.0,,
2020-06-18 08-35-35-722,DESKTOP-K0JN836,CP1H_C0_V1.00,FinalTest_2019.8.5.0,18062020,CP1H 110620 000306,umie,PASS,64.0,,
2020-06-18 08-38-44-668,DESKTOP-K0JN836,CP1H_C0_V1.00,FinalTest_2019.8.5.0,18062020,CP1H 110620 000331,umie,PASS,63.0,,
2020-06-18 08-40-17-752,DESKTOP-K0JN836,CP1H_C0_V1.00,FinalTest_2019.8.5.0,18062020,CP1H 110620 000329,umie,PASS,63.0,,
2020-06-18 08-41-40-781,DESKTOP-K0JN836,CP1H_C0_V1.00,FinalTest_2019.8.5.0,18062020,CP1H 110620 000113,umie,PASS,63.0,,
2020-06-18 08-43-32-158,DESKTOP-K0JN836,CP1H_C0_V1.00,FinalTest_2019.8.5.0,18062020,CP1H 110620 000185,umie,PASS,59.0,,
2020-06-18 08-44-46-062,DESKTOP-K0JN836,CP1H_C0_V1.00,FinalTest_2019.8.5.0,18062020,CP1H 110620 000144,umie,PASS,62.0,,
2020-06-18 08-46-26-659,DESKTOP-K0JN836,CP1H_C0_V1.00,FinalTest_2019.8.5.0,18062020,CP1H 110620 000023,umie,PASS,63.0,,
2020-06-18 08-47-30-321,DESKTOP-K0JN836,CP1H_C0_V1.00,FinalTest_2019.8.5.0,18062020,CP1H 110620 000023,umie,PASS,63.0,,
2020-06-18 08-48-43-154,DESKTOP-K0JN836,CP1H_C0_V1.00,FinalTest_2019.8.5.0,18062020,CP1H 090620 000072,umie,PASS,61.0,,
2020-06-18 08-54-27-323,DESKTOP-K0JN836,CP1H_C0_V1.00,FinalTest_2019.8.5.0,18062020,CP1H 090620 000339,umie,PASS,62.0,,
2020-06-18 08-55-17-607,DESKTOP-K0JN836,CP1H_C0_V1.00,FinalTest_2019.8.5.0,18062020,CP1H 110620 000087,umie,PASS,63.0,,
2020-06-18 08-56-49-165,DESKTOP-K0JN836,CP1H_C0_V1.00,FinalTest_2019.8.5.0,18062020,CP1H 090620 000320,umie,PASS,64.0,,
2020-06-18 08-57-48-805,DESKTOP-K0JN836,CP1H_C0_V1.00,FinalTest_2019.8.5.0,18062020,CP1H 110620 000360,umie,FAIL,46.0,,
2020-06-18 08-58-20-313,DESKTOP-K0JN836,CP1H_C0_V1.00,FinalTest_2019.8.5.0,18062020,CP1H 110620 000360,umie,FAIL,45.0,,
2020-06-18 08-59-32-575,DESKTOP-K0JN836,CP1H_C0_V1.00,FinalTest_2019.8.5.0,18062020,CP1H 090620 000252,umie,PASS,62.0,,
2020-06-18 09-00-30-781,DESKTOP-K0JN836,CP1H_C0_V1.00,FinalTest_2019.8.5.0,18062020,CP1H 110620 000360,umie,PASS,64.0,,
2020-06-18 09-01-46-196,DESKTOP-K0JN836,CP1H_C0_V1.00,FinalTest_2019.8.5.0,18062020,CP1H 090620 000241,umie,PASS,63.0,,
2020-06-18 09-03-05-297,DESKTOP-K0JN836,CP1H_C0_V1.00,FinalTest_2019.8.5.0,18062020,CP1H 090620 000062,umie,PASS,61.0,,
2020-06-18 09-05-05-719,DESKTOP-K0JN836,CP1H_C0_V1.00,FinalTest_2019.8.5.0,18062020,CP1H 090620 000064,umie,PASS,62.0,,
2020-06-18 09-05-52-382,DESKTOP-K0JN836,CP1H_C0_V1.00,FinalTest_2019.8.5.0,18062020,CP1H 090620 000064,umie,PASS,62.0,,
2020-06-18 09-06-55-946,DESKTOP-K0JN836,CP1H_C0_V1.00,FinalTest_2019.8.5.0,18062020,CP1H 090620 000257,umie,PASS,62.0,,
2020-06-18 09-08-12-074,DESKTOP-K0JN836,CP1H_C0_V1.00,FinalTest_2019.8.5.0,18062020,CP1H 090620 000243,umie,PASS,62.0,,
2020-06-18 09-09-42-754,DESKTOP-K0JN836,CP1H_C0_V1.00,FinalTest_2019.8.5.0,18062020,CP1H 090620 000315,umie,PASS,63.0,,
2020-06-18 09-10-50-245,DESKTOP-K0JN836,CP1H_C0_V1.00,FinalTest_2019.8.5.0,18062020,CP1H 090620 000341,umie,PASS,63.0,,
2020-06-18 09-11-45-552,DESKTOP-K0JN836,CP1H_C0_V1.00,FinalTest_2019.8.5.0,18062020,CP1H 090620 000341,umie,PASS,63.0,,
2020-06-18 09-12-36-741,DESKTOP-K0JN836,CP1H_C0_V1.00,FinalTest_2019.8.5.0,18062020,CP1H 090620 000341,umie,PASS,63.0,,
2020-06-18 09-13-38-258,DESKTOP-K0JN836,CP1H_C0_V1.00,FinalTest_2019.8.5.0,18062020,CP1H 090620 000306,umie,PASS,61.0,,
2020-06-18 09-15-20-843,DESKTOP-K0JN836,CP1H_C0_V1.00,FinalTest_2019.8.5.0,18062020,CP1H 090620 000314,umie,PASS,62.0,,
2020-06-18 09-18-18-410,DESKTOP-K0JN836,CP1H_C0_V1.00,FinalTest_2019.8.5.0,18062020,CP1H 090620 000026,umie,PASS,63.0,,
2020-06-18 09-19-06-662,DESKTOP-K0JN836,CP1H_C0_V1.00,FinalTest_2019.8.5.0,18062020,CP1H 090620 000026,umie,PASS,62.0,,
2020-06-18 09-20-13-947,DESKTOP-K0JN836,CP1H_C0_V1.00,FinalTest_2019.8.5.0,18062020,CP1H 010620 000271,umie,PASS,64.0,,
2020-06-18 09-21-51-122,DESKTOP-K0JN836,CP1H_C0_V1.00,FinalTest_2019.8.5.0,18062020,CP1H 010620 000190,umie,PASS,63.0,,
2020-06-18 09-22-52-980,DESKTOP-K0JN836,CP1H_C0_V1.00,FinalTest_2019.8.5.0,18062020,CP1H 010620 000190,umie,PASS,62.0,,
2020-06-18 09-23-58-759,DESKTOP-K0JN836,CP1H_C0_V1.00,FinalTest_2019.8.5.0,18062020,CP1H 010620 000128,umie,PASS,62.0,,
2020-06-18 09-25-24-994,DESKTOP-K0JN836,CP1H_C0_V1.00,FinalTest_2019.8.5.0,18062020,CP1H 010620 000046,umie,PASS,63.0,,
2020-06-18 09-26-21-328,DESKTOP-K0JN836,CP1H_C0_V1.00,FinalTest_2019.8.5.0,18062020,CP1H 010620 000046,umie,PASS,63.0,,
2020-06-18 09-27-27-916,DESKTOP-K0JN836,CP1H_C0_V1.00,FinalTest_2019.8.5.0,18062020,CP1H 010620 000081,umie,PASS,62.0,,
2020-06-18 09-28-30-155,DESKTOP-K0JN836,CP1H_C0_V1.00,FinalTest_2019.8.5.0,18062020,CP1H 010620 000291,umie,PASS,62.0,,
2020-06-18 09-30-02-359,DESKTOP-K0JN836,CP1H_C0_V1.00,FinalTest_2019.8.5.0,18062020,CP1H 010620 000343,umie,PASS,64.0,,
2020-06-18 09-31-56-515,DESKTOP-K0JN836,CP1H_C0_V1.00,FinalTest_2019.8.5.0,18062020,CP1H 220520 000031,umie,PASS,62.0,,
2020-06-18 09-33-46-564,DESKTOP-K0JN836,CP1H_C0_V1.00,FinalTest_2019.8.5.0,18062020,CP1H 010620 000135,umie,PASS,61.0,,
2020-06-18 09-36-11-007,DESKTOP-K0JN836,CP1H_C0_V1.00,FinalTest_2019.8.5.0,18062020,CP1H 010620 000120,umie,PASS,66.0,,
2020-06-18 09-37-32-843,DESKTOP-K0JN836,CP1H_C0_V1.00,FinalTest_2019.8.5.0,18062020,CP1H 010620 000055,umie,PASS,63.0,,
2020-06-18 09-38-38-915,DESKTOP-K0JN836,CP1H_C0_V1.00,FinalTest_2019.8.5.0,18062020,CP1H 280520 000066,umie,PASS,65.0,,
2020-06-18 09-39-48-385,DESKTOP-K0JN836,CP1H_C0_V1.00,FinalTest_2019.8.5.0,18062020,CP1H 010620 000091,umie,PASS,65.0,,
2020-06-18 09-41-05-541,DESKTOP-K0JN836,CP1H_C0_V1.00,FinalTest_2019.8.5.0,18062020,CP1H 010620 000268,umie,PASS,63.0,,
2020-06-18 09-42-13-493,DESKTOP-K0JN836,CP1H_C0_V1.00,FinalTest_2019.8.5.0,18062020,CP1H 110620 000312,umie,PASS,62.0,,
2020-06-18 09-43-55-945,DESKTOP-K0JN836,CP1H_C0_V1.00,FinalTest_2019.8.5.0,18062020,CP1H 110620 000075,umie,PASS,62.0,,
2020-06-18 09-45-24-508,DESKTOP-K0JN836,CP1H_C0_V1.00,FinalTest_2019.8.5.0,18062020,CP1H 110620 000360,umie,PASS,66.0,,
2020-06-18 09-46-49-072,DESKTOP-K0JN836,CP1H_C0_V1.00,FinalTest_2019.8.5.0,18062020,CP1H 110620 000102,umie,PASS,63.0,,
2020-06-18 09-47-39-778,DESKTOP-K0JN836,CP1H_C0_V1.00,FinalTest_2019.8.5.0,18062020,CP1H 110620 000102,umie,PASS,64.0,,
2020-06-18 09-48-33-396,DESKTOP-K0JN836,CP1H_C0_V1.00,FinalTest_2019.8.5.0,18062020,CP1H 110620 000102,umie,PASS,65.0,,
2020-06-18 09-49-32-643,DESKTOP-K0JN836,CP1H_C0_V1.00,FinalTest_2019.8.5.0,18062020,CP1H 110620 000353,umie,PASS,61.0,,
2020-06-18 09-51-14-579,DESKTOP-K0JN836,CP1H_C0_V1.00,FinalTest_2019.8.5.0,18062020,CP1H 110620 000245,umie,PASS,61.0,,
2020-06-18 09-52-24-659,DESKTOP-K0JN836,CP1H_C0_V1.00,FinalTest_2019.8.5.0,18062020,CP1H 110620 000301,umie,PASS,61.0,,
