Time,Equipment,Model,SWVersion,LotName,Barcode,Operator,Result,mA,,
2020-10-19 16-33-56-569,DESKTOP-K0JN836,CP1P_V1,FinalTest_2020.9.23.0,191020,CP1P 150920 000133,inderjit,PASS,61.0,,
2020-10-19 16-36-23-538,DESKTOP-K0JN836,CP1P_V1,FinalTest_2020.9.23.0,191020,CP1P 120820 000019,inderjit,PASS,61.0,,
2020-10-19 16-37-41-113,DESKTOP-K0JN836,CP1P_V1,FinalTest_2020.9.23.0,191020,CP1P 110820 000058,inderjit,PASS,62.0,,
2020-10-19 16-39-08-247,DESKTOP-K0JN836,CP1P_V1,FinalTest_2020.9.23.0,191020,CP1P 170920 000151,inderjit,PASS,62.0,,
2020-10-19 16-44-10-392,DESKTOP-K0JN836,CP1P_V1,FinalTest_2020.9.23.0,191020,CP1P 191020 000001,inderjit,PASS,61.0,,
2020-10-19 16-45-53-213,DESKTOP-K0JN836,CP1P_V1,FinalTest_2020.9.23.0,191020,CP1P 191020 000004,inderjit,PASS,62.0,,
2020-10-19 16-46-53-375,DESKTOP-K0JN836,CP1P_V1,FinalTest_2020.9.23.0,191020,CP1P 191020 000002,inderjit,PASS,62.0,,
2020-10-19 16-48-23-796,DESKTOP-K0JN836,CP1P_V1,FinalTest_2020.9.23.0,191020,CP1P 191020 000003,inderjit,PASS,61.0,,
2020-10-19 16-49-31-216,DESKTOP-K0JN836,CP1P_V1,FinalTest_2020.9.23.0,191020,CP1P 191020 000005,inderjit,PASS,61.0,,
2020-10-19 16-51-51-553,DESKTOP-K0JN836,CP1P_V1,FinalTest_2020.9.23.0,191020,CP1P 191020 000009,inderjit,PASS,61.0,,
2020-10-19 16-53-15-564,DESKTOP-K0JN836,CP1P_V1,FinalTest_2020.9.23.0,191020,CP1P 191020 000010,inderjit,PASS,60.0,,
2020-10-19 16-54-35-962,DESKTOP-K0JN836,CP1P_V1,FinalTest_2020.9.23.0,191020,CP1P 191020 000013,inderjit,PASS,60.0,,
2020-10-19 16-55-56-257,DESKTOP-K0JN836,CP1P_V1,FinalTest_2020.9.23.0,191020,CP1P 191020 000016,inderjit,PASS,62.0,,
2020-10-19 16-56-53-919,DESKTOP-K0JN836,CP1P_V1,FinalTest_2020.9.23.0,191020,CP1P 191020 000016,inderjit,PASS,61.0,,
2020-10-19 16-58-53-380,DESKTOP-K0JN836,CP1P_V1,FinalTest_2020.9.23.0,191020,CP1P 191020 000021,inderjit,PASS,61.0,,
2020-10-19 16-59-35-429,DESKTOP-K0JN836,CP1P_V1,FinalTest_2020.9.23.0,191020,CP1P 191020 000019,inderjit,PASS,61.0,,
2020-10-19 17-00-21-477,DESKTOP-K0JN836,CP1P_V1,FinalTest_2020.9.23.0,191020,CP1P 191020 000020,inderjit,PASS,61.0,,
2020-10-19 17-01-21-156,DESKTOP-K0JN836,CP1P_V1,FinalTest_2020.9.23.0,191020,CP1P 191020 000018,inderjit,PASS,61.0,,
2020-10-19 17-02-31-775,DESKTOP-K0JN836,CP1P_V1,FinalTest_2020.9.23.0,191020,CP1P 191020 000014,inderjit,PASS,62.0,,
2020-10-19 17-03-22-310,DESKTOP-K0JN836,CP1P_V1,FinalTest_2020.9.23.0,191020,CP1P 191020 000014,inderjit,PASS,62.0,,
2020-10-19 17-04-02-298,DESKTOP-K0JN836,CP1P_V1,FinalTest_2020.9.23.0,191020,CP1P 191020 000014,inderjit,PASS,62.0,,
2020-10-19 17-04-57-428,DESKTOP-K0JN836,CP1P_V1,FinalTest_2020.9.23.0,191020,CP1P 191020 000022,inderjit,PASS,62.0,,
2020-10-19 17-05-34-608,DESKTOP-K0JN836,CP1P_V1,FinalTest_2020.9.23.0,191020,CP1P 191020 000022,inderjit,PASS,62.0,,
2020-10-19 17-06-28-641,DESKTOP-K0JN836,CP1P_V1,FinalTest_2020.9.23.0,191020,CP1P 191020 000015,inderjit,PASS,61.0,,
2020-10-19 17-07-36-542,DESKTOP-K0JN836,CP1P_V1,FinalTest_2020.9.23.0,191020,CP1P 191020 000017,inderjit,PASS,61.0,,
2020-10-19 17-08-57-048,DESKTOP-K0JN836,CP1P_V1,FinalTest_2020.9.23.0,191020,CP1P 191020 000012,inderjit,PASS,61.0,,
2020-10-19 17-10-03-105,DESKTOP-K0JN836,CP1P_V1,FinalTest_2020.9.23.0,191020,CP1P 191020 000063,inderjit,PASS,61.0,,
2020-10-19 17-11-24-296,DESKTOP-K0JN836,CP1P_V1,FinalTest_2020.9.23.0,191020,CP1P 191020 000011,inderjit,PASS,61.0,,
2020-10-19 17-12-37-823,DESKTOP-K0JN836,CP1P_V1,FinalTest_2020.9.23.0,191020,CP1P 191020 000054,inderjit,PASS,61.0,,
2020-10-19 17-13-49-868,DESKTOP-K0JN836,CP1P_V1,FinalTest_2020.9.23.0,191020,CP1P 191020 000072,inderjit,PASS,60.0,,
2020-10-19 17-15-03-287,DESKTOP-K0JN836,CP1P_V1,FinalTest_2020.9.23.0,191020,CP1P 191020 000090,inderjit,PASS,61.0,,
2020-10-19 17-16-21-862,DESKTOP-K0JN836,CP1P_V1,FinalTest_2020.9.23.0,191020,CP1P 191020 000081,inderjit,PASS,62.0,,
2020-10-19 17-17-36-148,DESKTOP-K0JN836,CP1P_V1,FinalTest_2020.9.23.0,191020,CP1P 191020 000008,inderjit,PASS,61.0,,
2020-10-19 17-23-27-651,DESKTOP-K0JN836,CP1P_V1,FinalTest_2020.9.23.0,191020,CP1P 191020 000006,anis,PASS,61.0,,
2020-10-19 17-24-27-628,DESKTOP-K0JN836,CP1P_V1,FinalTest_2020.9.23.0,191020,CP1P 191020 000007,anis,PASS,61.0,,
2020-10-19 17-26-14-254,DESKTOP-K0JN836,CP1P_V1,FinalTest_2020.9.23.0,191020,CP1P 191020 000060,anis,PASS,61.0,,
2020-10-19 17-26-59-201,DESKTOP-K0JN836,CP1P_V1,FinalTest_2020.9.23.0,191020,CP1P 191020 000061,anis,PASS,60.0,,
2020-10-19 17-31-26-430,DESKTOP-K0JN836,CP1P_V1,FinalTest_2020.9.23.0,191020,CP1P 191020 000058,hanis,PASS,61.0,,
2020-10-19 17-32-12-786,DESKTOP-K0JN836,CP1P_V1,FinalTest_2020.9.23.0,191020,CP1P 191020 000059,hanis,PASS,60.0,,
2020-10-19 17-33-05-151,DESKTOP-K0JN836,CP1P_V1,FinalTest_2020.9.23.0,191020,CP1P 191020 000059,hanis,PASS,61.0,,
2020-10-19 17-34-09-439,DESKTOP-K0JN836,CP1P_V1,FinalTest_2020.9.23.0,191020,CP1P 191020 000057,hanis,PASS,60.0,,
2020-10-19 17-35-25-527,DESKTOP-K0JN836,CP1P_V1,FinalTest_2020.9.23.0,191020,CP1P 191020 000056,hanis,PASS,62.0,,
2020-10-19 17-37-02-547,DESKTOP-K0JN836,CP1P_V1,FinalTest_2020.9.23.0,191020,CP1P 191020 000057,hanis,PASS,60.0,,
2020-10-19 17-37-50-695,DESKTOP-K0JN836,CP1P_V1,FinalTest_2020.9.23.0,191020,CP1P 191020 000062,hanis,PASS,61.0,,
