Time,Equipment,Model,SWVersion,LotName,Barcode,Operator,Result,Side 1,Side 2,Side 3,Side 4,,
2020-06-17 16-04-24-003,DESKTOP-K0JN836,CP1H_C0_V1.00,FinalTest_2019.8.5.0,17062020,CP1H 160620 000115,sara,EMPTY,0.00,0.00,0.00,0.00,,
2020-06-17 16-09-48-791,DESKTOP-K0JN836,CP1H_C0_V1.00,FinalTest_2019.8.5.0,17062020,CP1H 160620 000218,sara,EMPTY,0.00,0.00,0.00,0.00,,
2020-06-17 16-13-38-119,DESKTOP-K0JN836,CP1H_C0_V1.00,FinalTest_2019.8.5.0,17062020,CP1H 150620 000212,sara,EMPTY,0.00,0.00,0.00,0.00,,
2020-06-17 16-23-27-396,DESKTOP-K0JN836,CP1H_C0_V1.00,FinalTest_2019.8.5.0,17062020,CP1H 150620 000092,sara,PASS,72.34,76.60,73.40,78.19,,
2020-06-17 16-25-33-094,DESKTOP-K0JN836,CP1H_C0_V1.00,FinalTest_2019.8.5.0,17062020,CP1H 150620 000054,sara,PASS,71.21,76.77,73.74,79.80,,
2020-06-17 16-26-51-320,DESKTOP-K0JN836,CP1H_C0_V1.00,FinalTest_2019.8.5.0,17062020,CP1H 150620 000040,sara,PASS,72.87,76.06,73.94,77.66,,
2020-06-17 16-28-16-978,DESKTOP-K0JN836,CP1H_C0_V1.00,FinalTest_2019.8.5.0,17062020,CP1H 150620 000256,sara,PASS,73.94,73.94,75.00,75.53,,
2020-06-17 16-29-21-739,DESKTOP-K0JN836,CP1H_C0_V1.00,FinalTest_2019.8.5.0,17062020,CP1H 150620 000123,sara,PASS,71.43,76.19,73.54,79.37,,
2020-06-17 16-30-44-589,DESKTOP-K0JN836,CP1H_C0_V1.00,FinalTest_2019.8.5.0,17062020,CP1H 150620 000124,sara,PASS,74.07,73.02,77.25,76.19,,
2020-06-17 16-32-12-653,DESKTOP-K0JN836,CP1H_C0_V1.00,FinalTest_2019.8.5.0,17062020,CP1H 150620 000078,sara,PASS,72.96,72.45,77.04,77.55,,
2020-06-17 16-33-29-354,DESKTOP-K0JN836,CP1H_C0_V1.00,FinalTest_2019.8.5.0,17062020,CP1H 150620 000078,sara,PASS,71.88,78.65,71.35,78.65,,
2020-06-17 16-34-38-245,DESKTOP-K0JN836,CP1H_C0_V1.00,FinalTest_2019.8.5.0,17062020,CP1H 150620 000008,sara,PASS,73.68,73.16,75.79,76.32,,
2020-06-17 16-35-32-875,DESKTOP-K0JN836,CP1H_C0_V1.00,FinalTest_2019.8.5.0,17062020,CP1H 150620 000063,sara,PASS,73.40,72.87,76.60,77.13,,
2020-06-17 16-36-39-022,DESKTOP-K0JN836,CP1H_C0_V1.00,FinalTest_2019.8.5.0,17062020,CP1H 150620 000134,sara,PASS,72.58,73.66,75.27,77.42,,
2020-06-17 16-37-54-134,DESKTOP-K0JN836,CP1H_C0_V1.00,FinalTest_2019.8.5.0,17062020,CP1H 150620 000143,sara,PASS,72.11,75.79,73.16,77.89,,
2020-06-17 16-38-46-224,DESKTOP-K0JN836,CP1H_C0_V1.00,FinalTest_2019.8.5.0,17062020,CP1H 150620 000121,sara,PASS,72.11,75.79,73.16,77.89,,
2020-06-17 16-39-46-163,DESKTOP-K0JN836,CP1H_C0_V1.00,FinalTest_2019.8.5.0,17062020,CP1H 150620 000121,sara,PASS,72.34,77.13,73.40,78.72,,
2020-06-17 16-40-41-862,DESKTOP-K0JN836,CP1H_C0_V1.00,FinalTest_2019.8.5.0,17062020,CP1H 150620 000083,sara,PASS,74.74,73.16,76.84,75.79,,
2020-06-17 16-41-27-045,DESKTOP-K0JN836,CP1H_C0_V1.00,FinalTest_2019.8.5.0,17062020,CP1H 150620 000227,sara,PASS,71.43,77.25,71.96,78.84,,
2020-06-17 16-43-10-705,DESKTOP-K0JN836,CP1H_C0_V1.00,FinalTest_2019.8.5.0,17062020,CP1H 150620 000043,sara,PASS,71.43,77.25,71.96,78.84,,
2020-06-17 16-43-48-860,DESKTOP-K0JN836,CP1H_C0_V1.00,FinalTest_2019.8.5.0,17062020,CP1H 150620 000043,sara,PASS,72.87,77.13,72.87,77.66,,
2020-06-17 16-47-20-091,DESKTOP-K0JN836,CP1H_C0_V1.00,FinalTest_2019.8.5.0,17062020,CP1H 150620 000205,sara,PASS,72.73,77.01,73.26,78.61,,
2020-06-17 16-49-50-603,DESKTOP-K0JN836,CP1H_C0_V1.00,FinalTest_2019.8.5.0,17062020,CP1H 150620 000211,sara,PASS,72.73,77.01,73.26,78.61,,
2020-06-17 16-50-26-228,DESKTOP-K0JN836,CP1H_C0_V1.00,FinalTest_2019.8.5.0,17062020,CP1H 150620 000211,sara,PASS,72.73,77.01,73.26,78.61,,
2020-06-17 16-51-51-593,DESKTOP-K0JN836,CP1H_C0_V1.00,FinalTest_2019.8.5.0,17062020,CP1H 150620 000211,sara,PASS,72.73,77.01,73.26,78.61,,
2020-06-17 16-55-31-642,DESKTOP-K0JN836,CP1H_C0_V1.00,FinalTest_2019.8.5.0,17062020,CP1H 120620 000036,sara,PASS,70.90,75.66,74.07,78.84,,
2020-06-17 16-57-24-022,DESKTOP-K0JN836,CP1H_C0_V1.00,FinalTest_2019.8.5.0,17062020,CP1H 120620 000140,sara,PASS,71.05,76.84,73.16,80.00,,
2020-06-17 16-58-30-898,DESKTOP-K0JN836,CP1H_C0_V1.00,FinalTest_2019.8.5.0,17062020,CP1H 120620 000097,sara,PASS,71.05,76.84,73.16,80.00,,
2020-06-17 17-00-23-479,DESKTOP-K0JN836,CP1H_C0_V1.00,FinalTest_2019.8.5.0,17062020,CP1H 120620 000097,sara,PASS,70.21,77.66,72.34,81.38,,
2020-06-17 17-01-19-797,DESKTOP-K0JN836,CP1H_C0_V1.00,FinalTest_2019.8.5.0,17062020,CP1H 120620 000154,sara,PASS,70.21,77.66,72.34,81.38,,
2020-06-17 17-01-49-039,DESKTOP-K0JN836,CP1H_C0_V1.00,FinalTest_2019.8.5.0,17062020,CP1H 120620 000154,sara,PASS,70.90,78.31,71.96,80.42,,
2020-06-17 17-02-37-713,DESKTOP-K0JN836,CP1H_C0_V1.00,FinalTest_2019.8.5.0,17062020,CP1H 120620 000190,sara,PASS,70.90,77.25,73.02,79.89,,
2020-06-17 17-03-26-214,DESKTOP-K0JN836,CP1H_C0_V1.00,FinalTest_2019.8.5.0,17062020,CP1H 090620 000042,sara,PASS,72.82,74.36,75.90,77.95,,
2020-06-17 17-04-44-641,DESKTOP-K0JN836,CP1H_C0_V1.00,FinalTest_2019.8.5.0,17062020,CP1H 010620 000258,sara,PASS,71.43,75.00,74.49,79.08,,
2020-06-17 17-06-27-095,DESKTOP-K0JN836,CP1H_C0_V1.00,FinalTest_2019.8.5.0,17062020,CP1H 010620 000349,sara,PASS,72.34,76.06,74.47,78.72,,
2020-06-17 17-07-58-542,DESKTOP-K0JN836,CP1H_C0_V1.00,FinalTest_2019.8.5.0,17062020,CP1H 050620 000182,sara,PASS,72.11,77.37,72.63,78.42,,
2020-06-17 17-09-24-686,DESKTOP-K0JN836,CP1H_C0_V1.00,FinalTest_2019.8.5.0,17062020,CP1H 020620 000015,sara,PASS,70.59,77.01,72.73,80.21,,
2020-06-17 17-10-22-408,DESKTOP-K0JN836,CP1H_C0_V1.00,FinalTest_2019.8.5.0,17062020,CP1H 020620 000052,sara,PASS,73.98,72.96,76.53,76.02,,
2020-06-17 17-11-11-367,DESKTOP-K0JN836,CP1H_C0_V1.00,FinalTest_2019.8.5.0,17062020,CP1H 160620 000038,sara,PASS,71.58,76.32,73.68,78.95,,
2020-06-17 17-12-18-241,DESKTOP-K0JN836,CP1H_C0_V1.00,FinalTest_2019.8.5.0,17062020,CP1H 020620 000133,sara,PASS,71.58,76.32,73.68,78.95,,
2020-06-17 17-12-51-361,DESKTOP-K0JN836,CP1H_C0_V1.00,FinalTest_2019.8.5.0,17062020,CP1H 020620 000133,sara,PASS,71.58,76.32,73.68,78.95,,
2020-06-17 17-13-19-861,DESKTOP-K0JN836,CP1H_C0_V1.00,FinalTest_2019.8.5.0,17062020,CP1H 020620 000133,sara,PASS,76.22,69.73,80.00,74.05,,
2020-06-17 17-14-13-373,DESKTOP-K0JN836,CP1H_C0_V1.00,FinalTest_2019.8.5.0,17062020,CP1H 020620 000104,sara,PASS,73.80,72.73,76.47,75.94,,
2020-06-17 17-15-10-888,DESKTOP-K0JN836,CP1H_C0_V1.00,FinalTest_2019.8.5.0,17062020,CP1H 160620 000212,sara,PASS,71.81,75.00,74.47,78.72,,
2020-06-17 17-15-58-364,DESKTOP-K0JN836,CP1H_C0_V1.00,FinalTest_2019.8.5.0,17062020,CP1H 160620 000170,sara,PASS,71.81,75.00,74.47,78.72,,
2020-06-17 17-16-34-306,DESKTOP-K0JN836,CP1H_C0_V1.00,FinalTest_2019.8.5.0,17062020,CP1H 160620 000170,sara,PASS,71.81,75.00,74.47,78.72,,
2020-06-17 17-19-18-713,DESKTOP-K0JN836,CP1H_C0_V1.00,FinalTest_2019.8.5.0,17062020,CP1H 160620 000013,sara,PASS,72.19,75.94,74.33,79.14,,
2020-06-17 17-20-05-061,DESKTOP-K0JN836,CP1H_C0_V1.00,FinalTest_2019.8.5.0,17062020,CP1H 160620 000086,sara,PASS,72.87,75.00,75.00,77.13,,
2020-06-17 17-20-51-049,DESKTOP-K0JN836,CP1H_C0_V1.00,FinalTest_2019.8.5.0,17062020,CP1H 160620 000218,sara,PASS,73.66,74.73,75.27,76.88,,
2020-06-17 17-21-36-922,DESKTOP-K0JN836,CP1H_C0_V1.00,FinalTest_2019.8.5.0,17062020,CP1H 160620 000115,sara,PASS,73.66,74.19,75.27,76.88,,
2020-06-17 17-22-25-822,DESKTOP-K0JN836,CP1H_C0_V1.00,FinalTest_2019.8.5.0,17062020,CP1H 160620 000048,sara,PASS,73.66,74.19,75.27,76.88,,
2020-06-17 17-23-10-702,DESKTOP-K0JN836,CP1H_C0_V1.00,FinalTest_2019.8.5.0,17062020,CP1H 160620 000048,sara,PASS,72.11,76.84,73.16,78.95,,
2020-06-17 17-24-43-366,DESKTOP-K0JN836,CP1H_C0_V1.00,FinalTest_2019.8.5.0,17062020,CP1H 160620 000027,sara,PASS,72.11,76.84,73.16,78.95,,
2020-06-17 17-25-29-318,DESKTOP-K0JN836,CP1H_C0_V1.00,FinalTest_2019.8.5.0,17062020,CP1H 160620 000027,sara,PASS,71.81,75.53,73.94,78.72,,
2020-06-17 17-26-38-062,DESKTOP-K0JN836,CP1H_C0_V1.00,FinalTest_2019.8.5.0,17062020,CP1H 160620 000220,sara,PASS,71.81,75.53,73.94,78.72,,
2020-06-17 17-27-13-277,DESKTOP-K0JN836,CP1H_C0_V1.00,FinalTest_2019.8.5.0,17062020,CP1H 160620 000220,sara,PASS,71.81,75.53,73.94,78.72,,
2020-06-17 17-34-57-498,DESKTOP-K0JN836,CP1H_C0_V1.00,FinalTest_2019.8.5.0,17062020,CP1H 050620 000079,sara,PASS,73.66,73.66,75.81,76.34,,
2020-06-17 17-35-55-314,DESKTOP-K0JN836,CP1H_C0_V1.00,FinalTest_2019.8.5.0,17062020,CP1H 050620 000189,sara,PASS,72.19,72.73,75.94,76.47,,
