Time,Equipment,Model,SWVersion,LotName,Barcode,Operator,Result,mA,,
2020-06-17 16-04-24-003,DESKTOP-K0JN836,CP1H_C0_V1.00,FinalTest_2019.8.5.0,17062020,CP1H 160620 000115,sara,EMPTY,0,,
2020-06-17 16-09-48-791,DESKTOP-K0JN836,CP1H_C0_V1.00,FinalTest_2019.8.5.0,17062020,CP1H 160620 000218,sara,EMPTY,0,,
2020-06-17 16-13-38-119,DESKTOP-K0JN836,CP1H_C0_V1.00,FinalTest_2019.8.5.0,17062020,CP1H 150620 000212,sara,EMPTY,0,,
2020-06-17 16-23-27-396,DESKTOP-K0JN836,CP1H_C0_V1.00,FinalTest_2019.8.5.0,17062020,CP1H 150620 000092,sara,PASS,33,,
2020-06-17 16-25-33-094,DESKTOP-K0JN836,CP1H_C0_V1.00,FinalTest_2019.8.5.0,17062020,CP1H 150620 000054,sara,PASS,31,,
2020-06-17 16-26-51-320,DESKTOP-K0JN836,CP1H_C0_V1.00,FinalTest_2019.8.5.0,17062020,CP1H 150620 000040,sara,PASS,35,,
2020-06-17 16-28-16-978,DESKTOP-K0JN836,CP1H_C0_V1.00,FinalTest_2019.8.5.0,17062020,CP1H 150620 000256,sara,PASS,33,,
2020-06-17 16-29-21-739,DESKTOP-K0JN836,CP1H_C0_V1.00,FinalTest_2019.8.5.0,17062020,CP1H 150620 000123,sara,PASS,33,,
2020-06-17 16-30-44-589,DESKTOP-K0JN836,CP1H_C0_V1.00,FinalTest_2019.8.5.0,17062020,CP1H 150620 000124,sara,PASS,31,,
2020-06-17 16-32-12-653,DESKTOP-K0JN836,CP1H_C0_V1.00,FinalTest_2019.8.5.0,17062020,CP1H 150620 000078,sara,PASS,31,,
2020-06-17 16-33-29-354,DESKTOP-K0JN836,CP1H_C0_V1.00,FinalTest_2019.8.5.0,17062020,CP1H 150620 000078,sara,PASS,31,,
2020-06-17 16-34-38-245,DESKTOP-K0JN836,CP1H_C0_V1.00,FinalTest_2019.8.5.0,17062020,CP1H 150620 000008,sara,PASS,32,,
2020-06-17 16-35-32-875,DESKTOP-K0JN836,CP1H_C0_V1.00,FinalTest_2019.8.5.0,17062020,CP1H 150620 000063,sara,PASS,34,,
2020-06-17 16-36-39-022,DESKTOP-K0JN836,CP1H_C0_V1.00,FinalTest_2019.8.5.0,17062020,CP1H 150620 000134,sara,PASS,32,,
2020-06-17 16-37-54-134,DESKTOP-K0JN836,CP1H_C0_V1.00,FinalTest_2019.8.5.0,17062020,CP1H 150620 000143,sara,PASS,32,,
2020-06-17 16-38-46-224,DESKTOP-K0JN836,CP1H_C0_V1.00,FinalTest_2019.8.5.0,17062020,CP1H 150620 000121,sara,PASS,32,,
2020-06-17 16-39-46-163,DESKTOP-K0JN836,CP1H_C0_V1.00,FinalTest_2019.8.5.0,17062020,CP1H 150620 000121,sara,PASS,34,,
2020-06-17 16-40-41-862,DESKTOP-K0JN836,CP1H_C0_V1.00,FinalTest_2019.8.5.0,17062020,CP1H 150620 000083,sara,PASS,31,,
2020-06-17 16-41-27-045,DESKTOP-K0JN836,CP1H_C0_V1.00,FinalTest_2019.8.5.0,17062020,CP1H 150620 000227,sara,PASS,32,,
2020-06-17 16-43-10-705,DESKTOP-K0JN836,CP1H_C0_V1.00,FinalTest_2019.8.5.0,17062020,CP1H 150620 000043,sara,PASS,32,,
2020-06-17 16-43-48-860,DESKTOP-K0JN836,CP1H_C0_V1.00,FinalTest_2019.8.5.0,17062020,CP1H 150620 000043,sara,PASS,33,,
2020-06-17 16-47-20-091,DESKTOP-K0JN836,CP1H_C0_V1.00,FinalTest_2019.8.5.0,17062020,CP1H 150620 000205,sara,PASS,31,,
2020-06-17 16-49-50-603,DESKTOP-K0JN836,CP1H_C0_V1.00,FinalTest_2019.8.5.0,17062020,CP1H 150620 000211,sara,PASS,31,,
2020-06-17 16-50-26-228,DESKTOP-K0JN836,CP1H_C0_V1.00,FinalTest_2019.8.5.0,17062020,CP1H 150620 000211,sara,PASS,31,,
2020-06-17 16-51-51-593,DESKTOP-K0JN836,CP1H_C0_V1.00,FinalTest_2019.8.5.0,17062020,CP1H 150620 000211,sara,PASS,31,,
2020-06-17 16-55-31-642,DESKTOP-K0JN836,CP1H_C0_V1.00,FinalTest_2019.8.5.0,17062020,CP1H 120620 000036,sara,PASS,32,,
2020-06-17 16-57-24-022,DESKTOP-K0JN836,CP1H_C0_V1.00,FinalTest_2019.8.5.0,17062020,CP1H 120620 000140,sara,PASS,33,,
2020-06-17 16-58-30-898,DESKTOP-K0JN836,CP1H_C0_V1.00,FinalTest_2019.8.5.0,17062020,CP1H 120620 000097,sara,PASS,33,,
2020-06-17 17-00-23-479,DESKTOP-K0JN836,CP1H_C0_V1.00,FinalTest_2019.8.5.0,17062020,CP1H 120620 000097,sara,PASS,32,,
2020-06-17 17-01-19-797,DESKTOP-K0JN836,CP1H_C0_V1.00,FinalTest_2019.8.5.0,17062020,CP1H 120620 000154,sara,PASS,32,,
2020-06-17 17-01-49-039,DESKTOP-K0JN836,CP1H_C0_V1.00,FinalTest_2019.8.5.0,17062020,CP1H 120620 000154,sara,PASS,33,,
2020-06-17 17-02-37-713,DESKTOP-K0JN836,CP1H_C0_V1.00,FinalTest_2019.8.5.0,17062020,CP1H 120620 000190,sara,PASS,33,,
2020-06-17 17-03-26-214,DESKTOP-K0JN836,CP1H_C0_V1.00,FinalTest_2019.8.5.0,17062020,CP1H 090620 000042,sara,PASS,33,,
2020-06-17 17-04-44-641,DESKTOP-K0JN836,CP1H_C0_V1.00,FinalTest_2019.8.5.0,17062020,CP1H 010620 000258,sara,PASS,33,,
2020-06-17 17-06-27-095,DESKTOP-K0JN836,CP1H_C0_V1.00,FinalTest_2019.8.5.0,17062020,CP1H 010620 000349,sara,PASS,32,,
2020-06-17 17-07-58-542,DESKTOP-K0JN836,CP1H_C0_V1.00,FinalTest_2019.8.5.0,17062020,CP1H 050620 000182,sara,PASS,32,,
2020-06-17 17-09-24-686,DESKTOP-K0JN836,CP1H_C0_V1.00,FinalTest_2019.8.5.0,17062020,CP1H 020620 000015,sara,PASS,31,,
2020-06-17 17-10-22-408,DESKTOP-K0JN836,CP1H_C0_V1.00,FinalTest_2019.8.5.0,17062020,CP1H 020620 000052,sara,PASS,33,,
2020-06-17 17-11-11-367,DESKTOP-K0JN836,CP1H_C0_V1.00,FinalTest_2019.8.5.0,17062020,CP1H 160620 000038,sara,PASS,33,,
2020-06-17 17-12-18-241,DESKTOP-K0JN836,CP1H_C0_V1.00,FinalTest_2019.8.5.0,17062020,CP1H 020620 000133,sara,PASS,33,,
2020-06-17 17-12-51-361,DESKTOP-K0JN836,CP1H_C0_V1.00,FinalTest_2019.8.5.0,17062020,CP1H 020620 000133,sara,PASS,33,,
2020-06-17 17-13-19-861,DESKTOP-K0JN836,CP1H_C0_V1.00,FinalTest_2019.8.5.0,17062020,CP1H 020620 000133,sara,PASS,30,,
2020-06-17 17-14-13-373,DESKTOP-K0JN836,CP1H_C0_V1.00,FinalTest_2019.8.5.0,17062020,CP1H 020620 000104,sara,PASS,33,,
2020-06-17 17-15-10-888,DESKTOP-K0JN836,CP1H_C0_V1.00,FinalTest_2019.8.5.0,17062020,CP1H 160620 000212,sara,PASS,32,,
2020-06-17 17-15-58-364,DESKTOP-K0JN836,CP1H_C0_V1.00,FinalTest_2019.8.5.0,17062020,CP1H 160620 000170,sara,PASS,32,,
2020-06-17 17-16-34-306,DESKTOP-K0JN836,CP1H_C0_V1.00,FinalTest_2019.8.5.0,17062020,CP1H 160620 000170,sara,PASS,32,,
2020-06-17 17-19-18-713,DESKTOP-K0JN836,CP1H_C0_V1.00,FinalTest_2019.8.5.0,17062020,CP1H 160620 000013,sara,PASS,33,,
2020-06-17 17-20-05-061,DESKTOP-K0JN836,CP1H_C0_V1.00,FinalTest_2019.8.5.0,17062020,CP1H 160620 000086,sara,PASS,33,,
2020-06-17 17-20-51-049,DESKTOP-K0JN836,CP1H_C0_V1.00,FinalTest_2019.8.5.0,17062020,CP1H 160620 000218,sara,PASS,32,,
2020-06-17 17-21-36-922,DESKTOP-K0JN836,CP1H_C0_V1.00,FinalTest_2019.8.5.0,17062020,CP1H 160620 000115,sara,PASS,33,,
2020-06-17 17-22-25-822,DESKTOP-K0JN836,CP1H_C0_V1.00,FinalTest_2019.8.5.0,17062020,CP1H 160620 000048,sara,PASS,33,,
2020-06-17 17-23-10-702,DESKTOP-K0JN836,CP1H_C0_V1.00,FinalTest_2019.8.5.0,17062020,CP1H 160620 000048,sara,PASS,31,,
2020-06-17 17-24-43-366,DESKTOP-K0JN836,CP1H_C0_V1.00,FinalTest_2019.8.5.0,17062020,CP1H 160620 000027,sara,PASS,31,,
2020-06-17 17-25-29-318,DESKTOP-K0JN836,CP1H_C0_V1.00,FinalTest_2019.8.5.0,17062020,CP1H 160620 000027,sara,PASS,33,,
2020-06-17 17-26-38-062,DESKTOP-K0JN836,CP1H_C0_V1.00,FinalTest_2019.8.5.0,17062020,CP1H 160620 000220,sara,PASS,33,,
2020-06-17 17-27-13-277,DESKTOP-K0JN836,CP1H_C0_V1.00,FinalTest_2019.8.5.0,17062020,CP1H 160620 000220,sara,PASS,33,,
2020-06-17 17-34-57-498,DESKTOP-K0JN836,CP1H_C0_V1.00,FinalTest_2019.8.5.0,17062020,CP1H 050620 000079,sara,PASS,32,,
2020-06-17 17-35-55-314,DESKTOP-K0JN836,CP1H_C0_V1.00,FinalTest_2019.8.5.0,17062020,CP1H 050620 000189,sara,PASS,33,,
