Time,Equipment,Model,SWVersion,LotName,Barcode,Operator,Result,Side 1,Side 2,Side 3,Side 4,,
2019-01-29 18-19-04-494,Final Test,CP4X_190128,FinalTest_2018.12.11.0,1111,Empty,1111,EMPTY,0.00,0.00,0.00,0.00,,
2019-01-29 18-20-48-650,Final Test,CP4X_190128,FinalTest_2018.12.11.0,1111,Empty,1111,EMPTY,0.00,0.00,0.00,0.00,,
2019-01-29 18-22-22-954,Final Test,CP4X_190128,FinalTest_2018.12.11.0,1111,Empty,1111,EMPTY,0.00,0.00,0.00,0.00,,
