Time,Equipment,Model,SWVersion,LotName,Barcode,Operator,Result,Degree,,
2020-10-12 14-10-13-421,DESKTOP-K0JN836,CP4Pe,FinalTest_2020.9.23.0,121020,D55L 121020 000001,sara,PASS,0.68,,
2020-10-12 14-11-05-810,DESKTOP-K0JN836,CP4Pe,FinalTest_2020.9.23.0,121020,D55L 121020 000002,sara,PASS,0.42,,
2020-10-12 14-11-56-563,DESKTOP-K0JN836,CP4Pe,FinalTest_2020.9.23.0,121020,D55L 121020 000003,sara,PASS,0.60,,
2020-10-12 14-12-46-078,DESKTOP-K0JN836,CP4Pe,FinalTest_2020.9.23.0,121020,D55L 121020 000004,sara,PASS,0.60,,
2020-10-12 14-13-32-951,DESKTOP-K0JN836,CP4Pe,FinalTest_2020.9.23.0,121020,D55L 121020 000005,sara,PASS,0.84,,
2020-10-12 14-14-22-931,DESKTOP-K0JN836,CP4Pe,FinalTest_2020.9.23.0,121020,D55L 121020 000006,sara,PASS,0.58,,
2020-10-12 14-15-19-938,DESKTOP-K0JN836,CP4Pe,FinalTest_2020.9.23.0,121020,D55L 121020 000007,sara,PASS,0.17,,
2020-10-12 14-16-11-927,DESKTOP-K0JN836,CP4Pe,FinalTest_2020.9.23.0,121020,D55L 121020 000008,sara,PASS,0.60,,
2020-10-12 14-17-06-646,DESKTOP-K0JN836,CP4Pe,FinalTest_2020.9.23.0,121020,D55L 121020 000009,sara,PASS,0.34,,
2020-10-12 14-17-58-301,DESKTOP-K0JN836,CP4Pe,FinalTest_2020.9.23.0,121020,D55L 121020 000010,sara,PASS,0.34,,
2020-10-12 14-18-49-053,DESKTOP-K0JN836,CP4Pe,FinalTest_2020.9.23.0,121020,D55L 121020 000011,sara,PASS,0.60,,
2020-10-12 14-19-36-240,DESKTOP-K0JN836,CP4Pe,FinalTest_2020.9.23.0,121020,D55L 121020 000012,sara,PASS,1.19,,
2020-10-12 14-20-34-876,DESKTOP-K0JN836,CP4Pe,FinalTest_2020.9.23.0,121020,D55L 121020 000013,sara,PASS,0.93,,
2020-10-12 14-26-59-575,DESKTOP-K0JN836,CP4Pe,FinalTest_2020.9.23.0,121020,D55L 121020 000011,sara,PASS,0.51,,
2020-10-12 14-27-39-527,DESKTOP-K0JN836,CP4Pe,FinalTest_2020.9.23.0,121020,D55L 121020 000011,sara,PASS,0.51,,
2020-10-12 14-29-16-005,DESKTOP-K0JN836,CP4Pe,FinalTest_2020.9.23.0,121020,D55L 121020 000006,sara,PASS,0.51,,
