Time,Equipment,Model,SWVersion,LotName,Barcode,Operator,Result,C1,C2,C3,C4,S1,S2,S3,S4,S5,S6,S7,S8,,
2020-06-10 12-44-32-031,DESKTOP-K0JN836,CP1H_C0_V1.00,FinalTest_2019.8.5.0,100620,CP1H 090620 000132,darsini,PASS,497,496,496,496,X,290,284,X,X,244,241,X,,
2020-06-10 12-44-32-031,DESKTOP-K0JN836,CP1H_C0_V1.00,FinalTest_2019.8.5.0,100620,CP1H 090620 000132,darsini,PASS,497,496,496,496,X,290,284,X,X,244,241,X,,
2020-06-10 12-46-09-109,DESKTOP-K0JN836,CP1H_C0_V1.00,FinalTest_2019.8.5.0,100620,CP1H 090620 000124,darsini,PASS,496,497,475,496,X,259,275,X,X,258,288,X,,
2020-06-10 12-46-09-109,DESKTOP-K0JN836,CP1H_C0_V1.00,FinalTest_2019.8.5.0,100620,CP1H 090620 000124,darsini,PASS,496,497,475,496,X,259,275,X,X,258,288,X,,
2020-06-10 12-46-59-368,DESKTOP-K0JN836,CP1H_C0_V1.00,FinalTest_2019.8.5.0,100620,CP1H 090620 000128,darsini,PASS,481,435,468,496,X,256,267,X,X,249,261,X,,
2020-06-10 12-46-59-368,DESKTOP-K0JN836,CP1H_C0_V1.00,FinalTest_2019.8.5.0,100620,CP1H 090620 000128,darsini,PASS,481,435,468,496,X,256,267,X,X,249,261,X,,
2020-06-10 12-47-47-573,DESKTOP-K0JN836,CP1H_C0_V1.00,FinalTest_2019.8.5.0,100620,CP1H 090620 000122,darsini,FAIL,497,497,439,496,X,0,209,X,X,257,297,X,,
2020-06-10 12-47-47-573,DESKTOP-K0JN836,CP1H_C0_V1.00,FinalTest_2019.8.5.0,100620,CP1H 090620 000122,darsini,FAIL,497,497,439,496,X,0,209,X,X,257,297,X,,
2020-06-10 12-48-25-406,DESKTOP-K0JN836,CP1H_C0_V1.00,FinalTest_2019.8.5.0,100620,CP1H 090620 000122,darsini,FAIL,497,494,430,490,X,0,232,X,X,240,269,X,,
2020-06-10 12-48-25-406,DESKTOP-K0JN836,CP1H_C0_V1.00,FinalTest_2019.8.5.0,100620,CP1H 090620 000122,darsini,FAIL,497,494,430,490,X,0,232,X,X,240,269,X,,
2020-06-10 12-49-10-864,DESKTOP-K0JN836,CP1H_C0_V1.00,FinalTest_2019.8.5.0,100620,CP1H 090620 000133,darsini,PASS,496,497,496,496,X,335,356,X,X,302,330,X,,
2020-06-10 12-49-10-864,DESKTOP-K0JN836,CP1H_C0_V1.00,FinalTest_2019.8.5.0,100620,CP1H 090620 000133,darsini,PASS,496,497,496,496,X,335,356,X,X,302,330,X,,
2020-06-10 12-49-55-753,DESKTOP-K0JN836,CP1H_C0_V1.00,FinalTest_2019.8.5.0,100620,CP1H 090620 000129,darsini,PASS,497,497,496,496,X,299,279,X,X,272,262,X,,
2020-06-10 12-49-55-753,DESKTOP-K0JN836,CP1H_C0_V1.00,FinalTest_2019.8.5.0,100620,CP1H 090620 000129,darsini,PASS,497,497,496,496,X,299,279,X,X,272,262,X,,
2020-06-10 12-57-46-476,DESKTOP-K0JN836,CP1H_C0_V1.00,FinalTest_2019.8.5.0,100620,,darsini,PASS,497,497,496,496,X,299,279,X,X,272,262,X,,
2020-06-10 12-58-00-739,DESKTOP-K0JN836,CP1H_C0_V1.00,FinalTest_2019.8.5.0,100620,CP1H 090620 000130,darsini,PASS,494,496,496,496,X,258,226,X,X,277,259,X,,
2020-06-10 12-58-00-739,DESKTOP-K0JN836,CP1H_C0_V1.00,FinalTest_2019.8.5.0,100620,CP1H 090620 000130,darsini,PASS,494,496,496,496,X,258,226,X,X,277,259,X,,
2020-06-10 12-58-58-169,DESKTOP-K0JN836,CP1H_C0_V1.00,FinalTest_2019.8.5.0,100620,CP1H 090620 000127,darsini,PASS,497,496,496,496,X,253,255,X,X,299,307,X,,
2020-06-10 12-58-58-169,DESKTOP-K0JN836,CP1H_C0_V1.00,FinalTest_2019.8.5.0,100620,CP1H 090620 000127,darsini,PASS,497,496,496,496,X,253,255,X,X,299,307,X,,
2020-06-10 12-59-43-640,DESKTOP-K0JN836,CP1H_C0_V1.00,FinalTest_2019.8.5.0,100620,CP1H 090620 000131,darsini,PASS,497,496,496,496,X,270,253,X,X,294,306,X,,
2020-06-10 12-59-43-640,DESKTOP-K0JN836,CP1H_C0_V1.00,FinalTest_2019.8.5.0,100620,CP1H 090620 000131,darsini,PASS,497,496,496,496,X,270,253,X,X,294,306,X,,
2020-06-10 13-00-34-046,DESKTOP-K0JN836,CP1H_C0_V1.00,FinalTest_2019.8.5.0,100620,CP1H 090620 000126,darsini,PASS,496,496,496,496,X,300,297,X,X,240,262,X,,
2020-06-10 13-00-34-046,DESKTOP-K0JN836,CP1H_C0_V1.00,FinalTest_2019.8.5.0,100620,CP1H 090620 000126,darsini,PASS,496,496,496,496,X,300,297,X,X,240,262,X,,
2020-06-10 13-01-23-126,DESKTOP-K0JN836,CP1H_C0_V1.00,FinalTest_2019.8.5.0,100620,CP1H 090620 000134,darsini,PASS,497,497,496,496,X,229,242,X,X,283,319,X,,
2020-06-10 13-01-23-126,DESKTOP-K0JN836,CP1H_C0_V1.00,FinalTest_2019.8.5.0,100620,CP1H 090620 000134,darsini,PASS,497,497,496,496,X,229,242,X,X,283,319,X,,
2020-06-10 13-02-13-118,DESKTOP-K0JN836,CP1H_C0_V1.00,FinalTest_2019.8.5.0,100620,CP1H 090620 000145,darsini,PASS,495,497,496,496,X,277,276,X,X,267,276,X,,
2020-06-10 13-02-13-118,DESKTOP-K0JN836,CP1H_C0_V1.00,FinalTest_2019.8.5.0,100620,CP1H 090620 000145,darsini,PASS,495,497,496,496,X,277,276,X,X,267,276,X,,
2020-06-10 13-02-54-381,DESKTOP-K0JN836,CP1H_C0_V1.00,FinalTest_2019.8.5.0,100620,CP1H 090620 000125,darsini,PASS,497,496,496,492,X,224,224,X,X,300,299,X,,
2020-06-10 13-02-54-381,DESKTOP-K0JN836,CP1H_C0_V1.00,FinalTest_2019.8.5.0,100620,CP1H 090620 000125,darsini,PASS,497,496,496,492,X,224,224,X,X,300,299,X,,
2020-06-10 13-03-40-728,DESKTOP-K0JN836,CP1H_C0_V1.00,FinalTest_2019.8.5.0,100620,CP1H 090620 000149,darsini,PASS,497,496,496,496,X,259,267,X,X,253,268,X,,
2020-06-10 13-03-40-728,DESKTOP-K0JN836,CP1H_C0_V1.00,FinalTest_2019.8.5.0,100620,CP1H 090620 000149,darsini,PASS,497,496,496,496,X,259,267,X,X,253,268,X,,
2020-06-10 13-04-27-239,DESKTOP-K0JN836,CP1H_C0_V1.00,FinalTest_2019.8.5.0,100620,CP1H 090620 000143,darsini,PASS,497,495,496,493,X,358,277,X,X,271,275,X,,
2020-06-10 13-04-27-239,DESKTOP-K0JN836,CP1H_C0_V1.00,FinalTest_2019.8.5.0,100620,CP1H 090620 000143,darsini,PASS,497,495,496,493,X,358,277,X,X,271,275,X,,
2020-06-10 13-05-11-452,DESKTOP-K0JN836,CP1H_C0_V1.00,FinalTest_2019.8.5.0,100620,CP1H 090620 000148,darsini,PASS,497,495,496,493,X,358,277,X,X,271,275,X,,
2020-06-10 13-05-11-452,DESKTOP-K0JN836,CP1H_C0_V1.00,FinalTest_2019.8.5.0,100620,CP1H 090620 000148,darsini,PASS,497,495,496,493,X,358,277,X,X,271,275,X,,
2020-06-10 13-05-42-502,DESKTOP-K0JN836,CP1H_C0_V1.00,FinalTest_2019.8.5.0,100620,CP1H 090620 000148,darsini,PASS,496,497,496,495,X,288,298,X,X,283,289,X,,
2020-06-10 13-05-42-502,DESKTOP-K0JN836,CP1H_C0_V1.00,FinalTest_2019.8.5.0,100620,CP1H 090620 000148,darsini,PASS,496,497,496,495,X,288,298,X,X,283,289,X,,
2020-06-10 13-06-26-550,DESKTOP-K0JN836,CP1H_C0_V1.00,FinalTest_2019.8.5.0,100620,CP1H 090620 000144,darsini,PASS,497,497,496,496,X,295,292,X,X,233,256,X,,
2020-06-10 13-06-26-550,DESKTOP-K0JN836,CP1H_C0_V1.00,FinalTest_2019.8.5.0,100620,CP1H 090620 000144,darsini,PASS,497,497,496,496,X,295,292,X,X,233,256,X,,
2020-06-10 13-07-10-466,DESKTOP-K0JN836,CP1H_C0_V1.00,FinalTest_2019.8.5.0,100620,CP1H 090620 000146,darsini,PASS,497,497,495,494,X,298,312,X,X,263,249,X,,
2020-06-10 13-07-10-466,DESKTOP-K0JN836,CP1H_C0_V1.00,FinalTest_2019.8.5.0,100620,CP1H 090620 000146,darsini,PASS,497,497,495,494,X,298,312,X,X,263,249,X,,
2020-06-10 13-07-55-311,DESKTOP-K0JN836,CP1H_C0_V1.00,FinalTest_2019.8.5.0,100620,CP1H 090620 000141,darsini,PASS,497,496,496,496,X,250,239,X,X,301,295,X,,
2020-06-10 13-07-55-311,DESKTOP-K0JN836,CP1H_C0_V1.00,FinalTest_2019.8.5.0,100620,CP1H 090620 000141,darsini,PASS,497,496,496,496,X,250,239,X,X,301,295,X,,
2020-06-10 13-08-40-314,DESKTOP-K0JN836,CP1H_C0_V1.00,FinalTest_2019.8.5.0,100620,CP1H 090620 000136,darsini,PASS,497,496,496,496,X,247,246,X,X,305,321,X,,
2020-06-10 13-08-40-314,DESKTOP-K0JN836,CP1H_C0_V1.00,FinalTest_2019.8.5.0,100620,CP1H 090620 000136,darsini,PASS,497,496,496,496,X,247,246,X,X,305,321,X,,
2020-06-10 13-09-26-873,DESKTOP-K0JN836,CP1H_C0_V1.00,FinalTest_2019.8.5.0,100620,CP1H 090620 000140,darsini,PASS,497,496,496,496,X,291,276,X,X,296,325,X,,
2020-06-10 13-09-26-873,DESKTOP-K0JN836,CP1H_C0_V1.00,FinalTest_2019.8.5.0,100620,CP1H 090620 000140,darsini,PASS,497,496,496,496,X,291,276,X,X,296,325,X,,
2020-06-10 13-10-13-177,DESKTOP-K0JN836,CP1H_C0_V1.00,FinalTest_2019.8.5.0,100620,CP1H 090620 000139,darsini,PASS,497,496,496,496,X,256,272,X,X,302,288,X,,
2020-06-10 13-10-13-177,DESKTOP-K0JN836,CP1H_C0_V1.00,FinalTest_2019.8.5.0,100620,CP1H 090620 000139,darsini,PASS,497,496,496,496,X,256,272,X,X,302,288,X,,
2020-06-10 13-10-58-612,DESKTOP-K0JN836,CP1H_C0_V1.00,FinalTest_2019.8.5.0,100620,CP1H 090620 000142,darsini,PASS,497,497,495,496,X,292,260,X,X,287,272,X,,
2020-06-10 13-10-58-612,DESKTOP-K0JN836,CP1H_C0_V1.00,FinalTest_2019.8.5.0,100620,CP1H 090620 000142,darsini,PASS,497,497,495,496,X,292,260,X,X,287,272,X,,
2020-06-10 13-11-42-977,DESKTOP-K0JN836,CP1H_C0_V1.00,FinalTest_2019.8.5.0,100620,CP1H 090620 000135,darsini,PASS,494,496,496,496,X,274,284,X,X,244,249,X,,
2020-06-10 13-11-42-977,DESKTOP-K0JN836,CP1H_C0_V1.00,FinalTest_2019.8.5.0,100620,CP1H 090620 000135,darsini,PASS,494,496,496,496,X,274,284,X,X,244,249,X,,
2020-06-10 13-12-26-071,DESKTOP-K0JN836,CP1H_C0_V1.00,FinalTest_2019.8.5.0,100620,CP1H 090620 000137,darsini,PASS,496,497,496,496,X,246,277,X,X,258,277,X,,
2020-06-10 13-12-26-071,DESKTOP-K0JN836,CP1H_C0_V1.00,FinalTest_2019.8.5.0,100620,CP1H 090620 000137,darsini,PASS,496,497,496,496,X,246,277,X,X,258,277,X,,
2020-06-10 13-13-19-584,DESKTOP-K0JN836,CP1H_C0_V1.00,FinalTest_2019.8.5.0,100620,CP1H 090620 000138,darsini,PASS,497,497,496,496,X,251,236,X,X,375,312,X,,
2020-06-10 13-13-19-584,DESKTOP-K0JN836,CP1H_C0_V1.00,FinalTest_2019.8.5.0,100620,CP1H 090620 000138,darsini,PASS,497,497,496,496,X,251,236,X,X,375,312,X,,
2020-06-10 13-18-17-811,DESKTOP-K0JN836,CP1H_C0_V1.00,FinalTest_2019.8.5.0,100620,CP1H 090620 000176,darsini,PASS,497,496,495,496,X,265,241,X,X,284,281,X,,
2020-06-10 13-18-17-811,DESKTOP-K0JN836,CP1H_C0_V1.00,FinalTest_2019.8.5.0,100620,CP1H 090620 000176,darsini,PASS,497,496,495,496,X,265,241,X,X,284,281,X,,
2020-06-10 13-19-01-480,DESKTOP-K0JN836,CP1H_C0_V1.00,FinalTest_2019.8.5.0,100620,CP1H 090620 000173,darsini,PASS,496,495,496,496,X,272,246,X,X,276,258,X,,
2020-06-10 13-19-01-480,DESKTOP-K0JN836,CP1H_C0_V1.00,FinalTest_2019.8.5.0,100620,CP1H 090620 000173,darsini,PASS,496,495,496,496,X,272,246,X,X,276,258,X,,
2020-06-10 13-19-47-858,DESKTOP-K0JN836,CP1H_C0_V1.00,FinalTest_2019.8.5.0,100620,CP1H 090620 000152,darsini,PASS,497,495,496,496,X,266,251,X,X,303,286,X,,
2020-06-10 13-19-47-858,DESKTOP-K0JN836,CP1H_C0_V1.00,FinalTest_2019.8.5.0,100620,CP1H 090620 000152,darsini,PASS,497,495,496,496,X,266,251,X,X,303,286,X,,
2020-06-10 13-20-31-432,DESKTOP-K0JN836,CP1H_C0_V1.00,FinalTest_2019.8.5.0,100620,CP1H 090620 000163,darsini,PASS,497,496,496,496,X,288,297,X,X,257,263,X,,
2020-06-10 13-20-31-432,DESKTOP-K0JN836,CP1H_C0_V1.00,FinalTest_2019.8.5.0,100620,CP1H 090620 000163,darsini,PASS,497,496,496,496,X,288,297,X,X,257,263,X,,
2020-06-10 13-21-17-299,DESKTOP-K0JN836,CP1H_C0_V1.00,FinalTest_2019.8.5.0,100620,CP1H 090620 000151,darsini,PASS,495,496,495,493,X,285,236,X,X,273,261,X,,
2020-06-10 13-21-17-299,DESKTOP-K0JN836,CP1H_C0_V1.00,FinalTest_2019.8.5.0,100620,CP1H 090620 000151,darsini,PASS,495,496,495,493,X,285,236,X,X,273,261,X,,
2020-06-10 13-21-58-374,DESKTOP-K0JN836,CP1H_C0_V1.00,FinalTest_2019.8.5.0,100620,CP1H 090620 000171,darsini,PASS,494,497,496,496,X,302,274,X,X,263,243,X,,
2020-06-10 13-21-58-374,DESKTOP-K0JN836,CP1H_C0_V1.00,FinalTest_2019.8.5.0,100620,CP1H 090620 000171,darsini,PASS,494,497,496,496,X,302,274,X,X,263,243,X,,
2020-06-10 13-22-47-459,DESKTOP-K0JN836,CP1H_C0_V1.00,FinalTest_2019.8.5.0,100620,CP1H 090620 000155,darsini,PASS,497,496,496,496,X,275,212,X,X,305,314,X,,
2020-06-10 13-22-47-459,DESKTOP-K0JN836,CP1H_C0_V1.00,FinalTest_2019.8.5.0,100620,CP1H 090620 000155,darsini,PASS,497,496,496,496,X,275,212,X,X,305,314,X,,
2020-06-10 13-23-32-333,DESKTOP-K0JN836,CP1H_C0_V1.00,FinalTest_2019.8.5.0,100620,CP1H 090620 000168,darsini,PASS,497,496,496,497,X,281,308,X,X,260,266,X,,
2020-06-10 13-23-32-333,DESKTOP-K0JN836,CP1H_C0_V1.00,FinalTest_2019.8.5.0,100620,CP1H 090620 000168,darsini,PASS,497,496,496,497,X,281,308,X,X,260,266,X,,
2020-06-10 13-24-42-723,DESKTOP-K0JN836,CP1H_C0_V1.00,FinalTest_2019.8.5.0,100620,CP1H 090620 000157,darsini,PASS,497,496,496,497,X,302,319,X,X,247,258,X,,
2020-06-10 13-24-42-723,DESKTOP-K0JN836,CP1H_C0_V1.00,FinalTest_2019.8.5.0,100620,CP1H 090620 000157,darsini,PASS,497,496,496,497,X,302,319,X,X,247,258,X,,
2020-06-10 13-25-29-089,DESKTOP-K0JN836,CP1H_C0_V1.00,FinalTest_2019.8.5.0,100620,CP1H 090620 000166,darsini,PASS,497,495,484,496,X,299,306,X,X,267,259,X,,
2020-06-10 13-25-29-089,DESKTOP-K0JN836,CP1H_C0_V1.00,FinalTest_2019.8.5.0,100620,CP1H 090620 000166,darsini,PASS,497,495,484,496,X,299,306,X,X,267,259,X,,
2020-06-10 13-26-15-975,DESKTOP-K0JN836,CP1H_C0_V1.00,FinalTest_2019.8.5.0,100620,CP1H 090620 000169,darsini,PASS,497,497,496,496,X,297,299,X,X,260,254,X,,
2020-06-10 13-27-10-020,DESKTOP-K0JN836,CP1H_C0_V1.00,FinalTest_2019.8.5.0,100620,CP1H 090620 000165,darsini,PASS,497,496,496,496,X,252,248,X,X,296,283,X,,
2020-06-10 13-27-10-020,DESKTOP-K0JN836,CP1H_C0_V1.00,FinalTest_2019.8.5.0,100620,CP1H 090620 000165,darsini,PASS,497,496,496,496,X,252,248,X,X,296,283,X,,
2020-06-10 13-27-52-680,DESKTOP-K0JN836,CP1H_C0_V1.00,FinalTest_2019.8.5.0,100620,CP1H 090620 000179,darsini,PASS,497,497,474,480,X,240,236,X,X,284,282,X,,
2020-06-10 13-27-52-680,DESKTOP-K0JN836,CP1H_C0_V1.00,FinalTest_2019.8.5.0,100620,CP1H 090620 000179,darsini,PASS,497,497,474,480,X,240,236,X,X,284,282,X,,
2020-06-10 13-28-42-484,DESKTOP-K0JN836,CP1H_C0_V1.00,FinalTest_2019.8.5.0,100620,CP1H 090620 000154,darsini,PASS,497,496,487,496,X,266,222,X,X,313,310,X,,
2020-06-10 13-28-42-484,DESKTOP-K0JN836,CP1H_C0_V1.00,FinalTest_2019.8.5.0,100620,CP1H 090620 000154,darsini,PASS,497,496,487,496,X,266,222,X,X,313,310,X,,
2020-06-10 13-29-39-116,DESKTOP-K0JN836,CP1H_C0_V1.00,FinalTest_2019.8.5.0,100620,CP1H 090620 000162,darsini,PASS,481,424,462,495,X,253,263,X,X,249,272,X,,
2020-06-10 13-29-39-116,DESKTOP-K0JN836,CP1H_C0_V1.00,FinalTest_2019.8.5.0,100620,CP1H 090620 000162,darsini,PASS,481,424,462,495,X,253,263,X,X,249,272,X,,
2020-06-10 13-30-36-021,DESKTOP-K0JN836,CP1H_C0_V1.00,FinalTest_2019.8.5.0,100620,CP1H 090620 000187,darsini,PASS,497,496,495,496,X,300,292,X,X,300,294,X,,
2020-06-10 13-30-36-021,DESKTOP-K0JN836,CP1H_C0_V1.00,FinalTest_2019.8.5.0,100620,CP1H 090620 000187,darsini,PASS,497,496,495,496,X,300,292,X,X,300,294,X,,
2020-06-10 13-31-20-996,DESKTOP-K0JN836,CP1H_C0_V1.00,FinalTest_2019.8.5.0,100620,CP1H 090620 000147,darsini,PASS,497,496,495,496,X,282,365,X,X,261,247,X,,
2020-06-10 13-31-20-996,DESKTOP-K0JN836,CP1H_C0_V1.00,FinalTest_2019.8.5.0,100620,CP1H 090620 000147,darsini,PASS,497,496,495,496,X,282,365,X,X,261,247,X,,
2020-06-10 13-32-09-332,DESKTOP-K0JN836,CP1H_C0_V1.00,FinalTest_2019.8.5.0,100620,CP1H 090620 000178,darsini,PASS,497,497,493,496,X,268,258,X,X,263,272,X,,
2020-06-10 13-32-09-332,DESKTOP-K0JN836,CP1H_C0_V1.00,FinalTest_2019.8.5.0,100620,CP1H 090620 000178,darsini,PASS,497,497,493,496,X,268,258,X,X,263,272,X,,
2020-06-10 13-32-54-132,DESKTOP-K0JN836,CP1H_C0_V1.00,FinalTest_2019.8.5.0,100620,CP1H 090620 000174,darsini,PASS,497,495,496,475,X,252,246,X,X,299,297,X,,
2020-06-10 13-32-54-132,DESKTOP-K0JN836,CP1H_C0_V1.00,FinalTest_2019.8.5.0,100620,CP1H 090620 000174,darsini,PASS,497,495,496,475,X,252,246,X,X,299,297,X,,
2020-06-10 13-33-38-426,DESKTOP-K0JN836,CP1H_C0_V1.00,FinalTest_2019.8.5.0,100620,CP1H 090620 000177,darsini,PASS,497,496,493,481,X,296,280,X,X,263,262,X,,
2020-06-10 13-33-38-426,DESKTOP-K0JN836,CP1H_C0_V1.00,FinalTest_2019.8.5.0,100620,CP1H 090620 000177,darsini,PASS,497,496,493,481,X,296,280,X,X,263,262,X,,
2020-06-10 13-34-27-316,DESKTOP-K0JN836,CP1H_C0_V1.00,FinalTest_2019.8.5.0,100620,CP1H 090620 000172,darsini,PASS,497,496,496,496,X,265,288,X,X,268,266,X,,
2020-06-10 13-34-27-316,DESKTOP-K0JN836,CP1H_C0_V1.00,FinalTest_2019.8.5.0,100620,CP1H 090620 000172,darsini,PASS,497,496,496,496,X,265,288,X,X,268,266,X,,
2020-06-10 13-35-11-832,DESKTOP-K0JN836,CP1H_C0_V1.00,FinalTest_2019.8.5.0,100620,CP1H 090620 000153,darsini,PASS,497,496,496,496,X,277,270,X,X,263,265,X,,
2020-06-10 13-35-11-832,DESKTOP-K0JN836,CP1H_C0_V1.00,FinalTest_2019.8.5.0,100620,CP1H 090620 000153,darsini,PASS,497,496,496,496,X,277,270,X,X,263,265,X,,
2020-06-10 13-36-23-092,DESKTOP-K0JN836,CP1H_C0_V1.00,FinalTest_2019.8.5.0,100620,CP1H 090620 000184,darsini,PASS,497,496,493,496,X,255,259,X,X,276,304,X,,
2020-06-10 13-36-23-092,DESKTOP-K0JN836,CP1H_C0_V1.00,FinalTest_2019.8.5.0,100620,CP1H 090620 000184,darsini,PASS,497,496,493,496,X,255,259,X,X,276,304,X,,
2020-06-10 13-38-08-803,DESKTOP-K0JN836,CP1H_C0_V1.00,FinalTest_2019.8.5.0,100620,cp1p 090620 000182,darsini,PASS,497,497,496,496,X,303,288,X,X,294,287,X,,
2020-06-10 13-38-08-803,DESKTOP-K0JN836,CP1H_C0_V1.00,FinalTest_2019.8.5.0,100620,cp1p 090620 000182,darsini,PASS,497,497,496,496,X,303,288,X,X,294,287,X,,
2020-06-10 13-38-51-965,DESKTOP-K0JN836,CP1H_C0_V1.00,FinalTest_2019.8.5.0,100620,CP1H 090620 000181,darsini,PASS,497,495,496,496,X,274,269,X,X,277,248,X,,
2020-06-10 13-38-51-965,DESKTOP-K0JN836,CP1H_C0_V1.00,FinalTest_2019.8.5.0,100620,CP1H 090620 000181,darsini,PASS,497,495,496,496,X,274,269,X,X,277,248,X,,
2020-06-10 13-39-36-518,DESKTOP-K0JN836,CP1H_C0_V1.00,FinalTest_2019.8.5.0,100620,CP1H 090620 000183,darsini,PASS,497,497,495,493,X,302,392,X,X,284,271,X,,
2020-06-10 13-39-36-518,DESKTOP-K0JN836,CP1H_C0_V1.00,FinalTest_2019.8.5.0,100620,CP1H 090620 000183,darsini,PASS,497,497,495,493,X,302,392,X,X,284,271,X,,
2020-06-10 13-40-21-995,DESKTOP-K0JN836,CP1H_C0_V1.00,FinalTest_2019.8.5.0,100620,CP1H 090620 000150,darsini,PASS,497,496,496,496,X,297,305,X,X,255,267,X,,
2020-06-10 13-40-21-995,DESKTOP-K0JN836,CP1H_C0_V1.00,FinalTest_2019.8.5.0,100620,CP1H 090620 000150,darsini,PASS,497,496,496,496,X,297,305,X,X,255,267,X,,
2020-06-10 13-41-17-821,DESKTOP-K0JN836,CP1H_C0_V1.00,FinalTest_2019.8.5.0,100620,CP1H 090620 000164,darsini,PASS,497,496,496,496,X,300,272,X,X,277,252,X,,
2020-06-10 13-41-17-821,DESKTOP-K0JN836,CP1H_C0_V1.00,FinalTest_2019.8.5.0,100620,CP1H 090620 000164,darsini,PASS,497,496,496,496,X,300,272,X,X,277,252,X,,
2020-06-10 13-42-20-159,DESKTOP-K0JN836,CP1H_C0_V1.00,FinalTest_2019.8.5.0,100620,CP1H 090620 000160,darsini,PASS,497,497,493,496,X,305,288,X,X,293,283,X,,
2020-06-10 13-42-20-159,DESKTOP-K0JN836,CP1H_C0_V1.00,FinalTest_2019.8.5.0,100620,CP1H 090620 000160,darsini,PASS,497,497,493,496,X,305,288,X,X,293,283,X,,
2020-06-10 13-43-02-207,DESKTOP-K0JN836,CP1H_C0_V1.00,FinalTest_2019.8.5.0,100620,CP1H 090620 000159,darsini,PASS,497,494,496,496,X,282,265,X,X,278,260,X,,
2020-06-10 13-43-02-207,DESKTOP-K0JN836,CP1H_C0_V1.00,FinalTest_2019.8.5.0,100620,CP1H 090620 000159,darsini,PASS,497,494,496,496,X,282,265,X,X,278,260,X,,
2020-06-10 13-43-54-334,DESKTOP-K0JN836,CP1H_C0_V1.00,FinalTest_2019.8.5.0,100620,CP1H 090620 000191,darsini,PASS,497,495,493,496,X,313,277,X,X,275,259,X,,
2020-06-10 13-43-54-334,DESKTOP-K0JN836,CP1H_C0_V1.00,FinalTest_2019.8.5.0,100620,CP1H 090620 000191,darsini,PASS,497,495,493,496,X,313,277,X,X,275,259,X,,
2020-06-10 13-45-34-672,DESKTOP-K0JN836,CP1H_C0_V1.00,FinalTest_2019.8.5.0,100620,CP1H 090620 000186,darsini,PASS,497,495,493,496,X,307,292,X,X,301,285,X,,
2020-06-10 13-45-34-672,DESKTOP-K0JN836,CP1H_C0_V1.00,FinalTest_2019.8.5.0,100620,CP1H 090620 000186,darsini,PASS,497,495,493,496,X,307,292,X,X,301,285,X,,
2020-06-10 13-46-26-732,DESKTOP-K0JN836,CP1H_C0_V1.00,FinalTest_2019.8.5.0,100620,CP1H 090620 000188,darsini,PASS,497,496,496,496,X,279,272,X,X,293,295,X,,
2020-06-10 13-46-26-732,DESKTOP-K0JN836,CP1H_C0_V1.00,FinalTest_2019.8.5.0,100620,CP1H 090620 000188,darsini,PASS,497,496,496,496,X,279,272,X,X,293,295,X,,
2020-06-10 13-47-13-322,DESKTOP-K0JN836,CP1H_C0_V1.00,FinalTest_2019.8.5.0,100620,CP1H 090620 000185,darsini,PASS,497,497,496,496,X,263,224,X,X,292,279,X,,
2020-06-10 13-47-13-322,DESKTOP-K0JN836,CP1H_C0_V1.00,FinalTest_2019.8.5.0,100620,CP1H 090620 000185,darsini,PASS,497,497,496,496,X,263,224,X,X,292,279,X,,
2020-06-10 13-48-01-112,DESKTOP-K0JN836,CP1H_C0_V1.00,FinalTest_2019.8.5.0,100620,CP1H 090620 000192,darsini,PASS,497,496,496,496,X,288,266,X,X,303,298,X,,
2020-06-10 13-48-01-112,DESKTOP-K0JN836,CP1H_C0_V1.00,FinalTest_2019.8.5.0,100620,CP1H 090620 000192,darsini,PASS,497,496,496,496,X,288,266,X,X,303,298,X,,
2020-06-10 13-48-42-488,DESKTOP-K0JN836,CP1H_C0_V1.00,FinalTest_2019.8.5.0,100620,CP1H 090620 000190,darsini,PASS,497,496,494,496,X,286,239,X,X,275,256,X,,
2020-06-10 13-48-42-488,DESKTOP-K0JN836,CP1H_C0_V1.00,FinalTest_2019.8.5.0,100620,CP1H 090620 000190,darsini,PASS,497,496,494,496,X,286,239,X,X,275,256,X,,
2020-06-10 13-49-27-356,DESKTOP-K0JN836,CP1H_C0_V1.00,FinalTest_2019.8.5.0,100620,CP1H 090620 000193,darsini,PASS,495,497,451,496,X,291,267,X,X,270,253,X,,
2020-06-10 13-49-27-356,DESKTOP-K0JN836,CP1H_C0_V1.00,FinalTest_2019.8.5.0,100620,CP1H 090620 000193,darsini,PASS,495,497,451,496,X,291,267,X,X,270,253,X,,
2020-06-10 13-50-30-075,DESKTOP-K0JN836,CP1H_C0_V1.00,FinalTest_2019.8.5.0,100620,CP1H 090620 000189,darsini,PASS,497,496,478,496,X,266,260,X,X,249,261,X,,
2020-06-10 13-50-30-075,DESKTOP-K0JN836,CP1H_C0_V1.00,FinalTest_2019.8.5.0,100620,CP1H 090620 000189,darsini,PASS,497,496,478,496,X,266,260,X,X,249,261,X,,
2020-06-10 13-51-14-549,DESKTOP-K0JN836,CP1H_C0_V1.00,FinalTest_2019.8.5.0,100620,CP1H 090620 000156,darsini,PASS,497,496,496,496,X,240,286,X,X,266,249,X,,
2020-06-10 13-51-14-549,DESKTOP-K0JN836,CP1H_C0_V1.00,FinalTest_2019.8.5.0,100620,CP1H 090620 000156,darsini,PASS,497,496,496,496,X,240,286,X,X,266,249,X,,
2020-06-10 13-53-45-755,DESKTOP-K0JN836,CP1H_C0_V1.00,FinalTest_2019.8.5.0,100620,CP1H 090620 000158,darsini,PASS,497,497,493,487,X,273,285,X,X,204,237,X,,
2020-06-10 13-53-45-755,DESKTOP-K0JN836,CP1H_C0_V1.00,FinalTest_2019.8.5.0,100620,CP1H 090620 000158,darsini,PASS,497,497,493,487,X,273,285,X,X,204,237,X,,
2020-06-10 13-54-27-348,DESKTOP-K0JN836,CP1H_C0_V1.00,FinalTest_2019.8.5.0,100620,CP1H 090620 000175,darsini,PASS,497,497,496,496,X,276,260,X,X,274,255,X,,
2020-06-10 13-54-27-348,DESKTOP-K0JN836,CP1H_C0_V1.00,FinalTest_2019.8.5.0,100620,CP1H 090620 000175,darsini,PASS,497,497,496,496,X,276,260,X,X,274,255,X,,
2020-06-10 13-55-18-240,DESKTOP-K0JN836,CP1H_C0_V1.00,FinalTest_2019.8.5.0,100620,CP1H 090620 000161,darsini,PASS,496,496,496,496,X,260,239,X,X,295,314,X,,
2020-06-10 13-55-18-240,DESKTOP-K0JN836,CP1H_C0_V1.00,FinalTest_2019.8.5.0,100620,CP1H 090620 000161,darsini,PASS,496,496,496,496,X,260,239,X,X,295,314,X,,
2020-06-10 13-56-07-508,DESKTOP-K0JN836,CP1H_C0_V1.00,FinalTest_2019.8.5.0,100620,CP1H 090620 000167,darsini,PASS,497,497,496,496,X,259,241,X,X,316,338,X,,
2020-06-10 13-56-07-508,DESKTOP-K0JN836,CP1H_C0_V1.00,FinalTest_2019.8.5.0,100620,CP1H 090620 000167,darsini,PASS,497,497,496,496,X,259,241,X,X,316,338,X,,
2020-06-10 13-56-59-105,DESKTOP-K0JN836,CP1H_C0_V1.00,FinalTest_2019.8.5.0,100620,CP1H 090620 000180,darsini,PASS,497,496,495,496,X,254,219,X,X,289,292,X,,
2020-06-10 13-56-59-105,DESKTOP-K0JN836,CP1H_C0_V1.00,FinalTest_2019.8.5.0,100620,CP1H 090620 000180,darsini,PASS,497,496,495,496,X,254,219,X,X,289,292,X,,
2020-06-10 13-57-42-477,DESKTOP-K0JN836,CP1H_C0_V1.00,FinalTest_2019.8.5.0,100620,CP1H 090620 000170,darsini,PASS,497,496,496,496,X,256,272,X,X,276,311,X,,
2020-06-10 13-57-42-477,DESKTOP-K0JN836,CP1H_C0_V1.00,FinalTest_2019.8.5.0,100620,CP1H 090620 000170,darsini,PASS,497,496,496,496,X,256,272,X,X,276,311,X,,
2020-06-10 14-09-09-133,DESKTOP-K0JN836,CP1H_C0_V1.00,FinalTest_2019.8.5.0,100620,CP1H 090620 000230,darsini,PASS,497,497,496,496,X,279,272,X,X,260,272,X,,
2020-06-10 14-09-09-133,DESKTOP-K0JN836,CP1H_C0_V1.00,FinalTest_2019.8.5.0,100620,CP1H 090620 000230,darsini,PASS,497,497,496,496,X,279,272,X,X,260,272,X,,
2020-06-10 14-09-51-503,DESKTOP-K0JN836,CP1H_C0_V1.00,FinalTest_2019.8.5.0,100620,CP1H 090620 000231,darsini,PASS,470,497,496,489,X,211,217,X,X,262,289,X,,
2020-06-10 14-09-51-503,DESKTOP-K0JN836,CP1H_C0_V1.00,FinalTest_2019.8.5.0,100620,CP1H 090620 000231,darsini,PASS,470,497,496,489,X,211,217,X,X,262,289,X,,
2020-06-10 14-11-02-838,DESKTOP-K0JN836,CP1H_C0_V1.00,FinalTest_2019.8.5.0,100620,CP1H 090620 000237,darsini,PASS,496,486,408,496,X,219,212,X,X,230,266,X,,
2020-06-10 14-11-02-838,DESKTOP-K0JN836,CP1H_C0_V1.00,FinalTest_2019.8.5.0,100620,CP1H 090620 000237,darsini,PASS,496,486,408,496,X,219,212,X,X,230,266,X,,
2020-06-10 14-12-55-632,DESKTOP-K0JN836,CP1H_C0_V1.00,FinalTest_2019.8.5.0,100620,CP1H 090620 000238,darsini,FAIL,406,497,460,465,X,209,0,X,X,327,314,X,,
2020-06-10 14-12-55-632,DESKTOP-K0JN836,CP1H_C0_V1.00,FinalTest_2019.8.5.0,100620,CP1H 090620 000238,darsini,FAIL,406,497,460,465,X,209,0,X,X,327,314,X,,
2020-06-10 14-13-34-949,DESKTOP-K0JN836,CP1H_C0_V1.00,FinalTest_2019.8.5.0,100620,CP1H 090620 000238,darsini,FAIL,400,449,481,445,X,216,0,X,X,289,288,X,,
2020-06-10 14-13-34-949,DESKTOP-K0JN836,CP1H_C0_V1.00,FinalTest_2019.8.5.0,100620,CP1H 090620 000238,darsini,FAIL,400,449,481,445,X,216,0,X,X,289,288,X,,
2020-06-10 14-14-28-358,DESKTOP-K0JN836,CP1H_C0_V1.00,FinalTest_2019.8.5.0,100620,CP1H 090620 000227,darsini,PASS,497,496,496,496,X,278,261,X,X,283,262,X,,
2020-06-10 14-14-28-358,DESKTOP-K0JN836,CP1H_C0_V1.00,FinalTest_2019.8.5.0,100620,CP1H 090620 000227,darsini,PASS,497,496,496,496,X,278,261,X,X,283,262,X,,
2020-06-10 14-15-23-191,DESKTOP-K0JN836,CP1H_C0_V1.00,FinalTest_2019.8.5.0,100620,CP1H 090620 000234,darsini,PASS,497,496,496,496,X,297,288,X,X,272,257,X,,
2020-06-10 14-15-23-191,DESKTOP-K0JN836,CP1H_C0_V1.00,FinalTest_2019.8.5.0,100620,CP1H 090620 000234,darsini,PASS,497,496,496,496,X,297,288,X,X,272,257,X,,
2020-06-10 14-16-27-738,DESKTOP-K0JN836,CP1H_C0_V1.00,FinalTest_2019.8.5.0,100620,CP1H 090620 000194,darsini,PASS,497,496,496,496,X,289,297,X,X,259,265,X,,
2020-06-10 14-16-27-738,DESKTOP-K0JN836,CP1H_C0_V1.00,FinalTest_2019.8.5.0,100620,CP1H 090620 000194,darsini,PASS,497,496,496,496,X,289,297,X,X,259,265,X,,
2020-06-10 14-22-56-266,DESKTOP-K0JN836,CP1H_C0_V1.00,FinalTest_2019.8.5.0,100620,CP1H 090620 000235,darsini,PASS,497,496,496,496,X,312,276,X,X,272,249,X,,
2020-06-10 14-22-56-266,DESKTOP-K0JN836,CP1H_C0_V1.00,FinalTest_2019.8.5.0,100620,CP1H 090620 000235,darsini,PASS,497,496,496,496,X,312,276,X,X,272,249,X,,
2020-06-10 14-25-49-749,DESKTOP-K0JN836,CP1H_C0_V1.00,FinalTest_2019.8.5.0,100620,CP1H 090620 000235,darsini,PASS,497,497,474,496,X,301,266,X,X,275,265,X,,
2020-06-10 14-25-49-749,DESKTOP-K0JN836,CP1H_C0_V1.00,FinalTest_2019.8.5.0,100620,CP1H 090620 000235,darsini,PASS,497,497,474,496,X,301,266,X,X,275,265,X,,
2020-06-10 14-27-41-461,DESKTOP-K0JN836,CP1H_C0_V1.00,FinalTest_2019.8.5.0,100620,CP1H 090620 000232,darsini,PASS,497,495,495,496,X,268,265,X,X,267,271,X,,
2020-06-10 14-27-41-461,DESKTOP-K0JN836,CP1H_C0_V1.00,FinalTest_2019.8.5.0,100620,CP1H 090620 000232,darsini,PASS,497,495,495,496,X,268,265,X,X,267,271,X,,
2020-06-10 14-28-59-183,DESKTOP-K0JN836,CP1H_C0_V1.00,FinalTest_2019.8.5.0,100620,CP1H 090620 000195,darsini,PASS,497,497,496,496,X,261,286,X,X,276,288,X,,
2020-06-10 14-28-59-183,DESKTOP-K0JN836,CP1H_C0_V1.00,FinalTest_2019.8.5.0,100620,CP1H 090620 000195,darsini,PASS,497,497,496,496,X,261,286,X,X,276,288,X,,
2020-06-10 14-29-47-033,DESKTOP-K0JN836,CP1H_C0_V1.00,FinalTest_2019.8.5.0,100620,CP1H 090620 000196,darsini,PASS,497,497,484,496,X,298,297,X,X,264,251,X,,
2020-06-10 14-29-47-033,DESKTOP-K0JN836,CP1H_C0_V1.00,FinalTest_2019.8.5.0,100620,CP1H 090620 000196,darsini,PASS,497,497,484,496,X,298,297,X,X,264,251,X,,
2020-06-10 14-30-30-114,DESKTOP-K0JN836,CP1H_C0_V1.00,FinalTest_2019.8.5.0,100620,CP1H 090620 000233,darsini,PASS,497,497,496,493,X,281,287,X,X,254,279,X,,
2020-06-10 14-30-30-114,DESKTOP-K0JN836,CP1H_C0_V1.00,FinalTest_2019.8.5.0,100620,CP1H 090620 000233,darsini,PASS,497,497,496,493,X,281,287,X,X,254,279,X,,
2020-06-10 14-31-18-173,DESKTOP-K0JN836,CP1H_C0_V1.00,FinalTest_2019.8.5.0,100620,CP1H 090620 000226,darsini,PASS,497,496,453,493,X,270,255,X,X,290,290,X,,
2020-06-10 14-31-18-173,DESKTOP-K0JN836,CP1H_C0_V1.00,FinalTest_2019.8.5.0,100620,CP1H 090620 000226,darsini,PASS,497,496,453,493,X,270,255,X,X,290,290,X,,
2020-06-10 14-32-04-262,DESKTOP-K0JN836,CP1H_C0_V1.00,FinalTest_2019.8.5.0,100620,CP1H 090620 000228,darsini,PASS,497,497,496,493,X,249,212,X,X,281,258,X,,
2020-06-10 14-32-04-262,DESKTOP-K0JN836,CP1H_C0_V1.00,FinalTest_2019.8.5.0,100620,CP1H 090620 000228,darsini,PASS,497,497,496,493,X,249,212,X,X,281,258,X,,
2020-06-10 14-32-48-805,DESKTOP-K0JN836,CP1H_C0_V1.00,FinalTest_2019.8.5.0,100620,CP1H 090620 000229,darsini,PASS,497,497,496,493,X,311,258,X,X,274,263,X,,
2020-06-10 14-32-48-805,DESKTOP-K0JN836,CP1H_C0_V1.00,FinalTest_2019.8.5.0,100620,CP1H 090620 000229,darsini,PASS,497,497,496,493,X,311,258,X,X,274,263,X,,
2020-06-10 14-33-42-258,DESKTOP-K0JN836,CP1H_C0_V1.00,FinalTest_2019.8.5.0,100620,CP1H 090620 000213,darsini,PASS,497,497,496,493,X,311,258,X,X,274,263,X,,
2020-06-10 14-34-14-887,DESKTOP-K0JN836,CP1H_C0_V1.00,FinalTest_2019.8.5.0,100620,,darsini,PASS,497,497,496,493,X,311,258,X,X,274,263,X,,
2020-06-10 14-34-16-100,DESKTOP-K0JN836,CP1H_C0_V1.00,FinalTest_2019.8.5.0,100620,CP1H 090620 000213,darsini,PASS,494,496,496,496,X,263,260,X,X,285,303,X,,
2020-06-10 14-34-16-100,DESKTOP-K0JN836,CP1H_C0_V1.00,FinalTest_2019.8.5.0,100620,CP1H 090620 000213,darsini,PASS,494,496,496,496,X,263,260,X,X,285,303,X,,
2020-06-10 14-35-02-464,DESKTOP-K0JN836,CP1H_C0_V1.00,FinalTest_2019.8.5.0,100620,CP1H 090620 000239,darsini,PASS,497,497,484,496,X,233,209,X,X,332,325,X,,
2020-06-10 14-35-02-464,DESKTOP-K0JN836,CP1H_C0_V1.00,FinalTest_2019.8.5.0,100620,CP1H 090620 000239,darsini,PASS,497,497,484,496,X,233,209,X,X,332,325,X,,
2020-06-10 14-35-48-885,DESKTOP-K0JN836,CP1H_C0_V1.00,FinalTest_2019.8.5.0,100620,CP1H 090620 000243,darsini,FAIL,422,486,389,496,X,0,0,X,X,275,296,X,,
2020-06-10 14-35-48-885,DESKTOP-K0JN836,CP1H_C0_V1.00,FinalTest_2019.8.5.0,100620,CP1H 090620 000243,darsini,FAIL,422,486,389,496,X,0,0,X,X,275,296,X,,
2020-06-10 14-36-41-023,DESKTOP-K0JN836,CP1H_C0_V1.00,FinalTest_2019.8.5.0,100620,CP1H 090620 000236,darsini,FAIL,497,497,496,496,X,0,241,X,X,330,299,X,,
2020-06-10 14-36-41-023,DESKTOP-K0JN836,CP1H_C0_V1.00,FinalTest_2019.8.5.0,100620,CP1H 090620 000236,darsini,FAIL,497,497,496,496,X,0,241,X,X,330,299,X,,
2020-06-10 14-37-12-143,DESKTOP-K0JN836,CP1H_C0_V1.00,FinalTest_2019.8.5.0,100620,CP1H 090620 000236,darsini,PASS,496,496,486,495,X,216,217,X,X,335,287,X,,
2020-06-10 14-37-12-143,DESKTOP-K0JN836,CP1H_C0_V1.00,FinalTest_2019.8.5.0,100620,CP1H 090620 000236,darsini,PASS,496,496,486,495,X,216,217,X,X,335,287,X,,
2020-06-10 14-37-58-109,DESKTOP-K0JN836,CP1H_C0_V1.00,FinalTest_2019.8.5.0,100620,CP1H 090620 000240,darsini,PASS,497,429,493,496,X,214,232,X,X,248,271,X,,
2020-06-10 14-37-58-109,DESKTOP-K0JN836,CP1H_C0_V1.00,FinalTest_2019.8.5.0,100620,CP1H 090620 000240,darsini,PASS,497,429,493,496,X,214,232,X,X,248,271,X,,
2020-06-10 14-38-42-186,DESKTOP-K0JN836,CP1H_C0_V1.00,FinalTest_2019.8.5.0,100620,CP1H 090620 000241,darsini,FAIL,497,496,483,496,X,0,227,X,X,263,267,X,,
2020-06-10 14-38-42-186,DESKTOP-K0JN836,CP1H_C0_V1.00,FinalTest_2019.8.5.0,100620,CP1H 090620 000241,darsini,FAIL,497,496,483,496,X,0,227,X,X,263,267,X,,
2020-06-10 14-39-18-715,DESKTOP-K0JN836,CP1H_C0_V1.00,FinalTest_2019.8.5.0,100620,CP1H 090620 000241,darsini,FAIL,471,495,496,496,X,0,207,X,X,279,260,X,,
2020-06-10 14-39-18-715,DESKTOP-K0JN836,CP1H_C0_V1.00,FinalTest_2019.8.5.0,100620,CP1H 090620 000241,darsini,FAIL,471,495,496,496,X,0,207,X,X,279,260,X,,
2020-06-10 14-40-05-892,DESKTOP-K0JN836,CP1H_C0_V1.00,FinalTest_2019.8.5.0,100620,CP1H 090620 000203,darsini,PASS,497,496,384,481,X,289,233,X,X,256,235,X,,
2020-06-10 14-40-05-892,DESKTOP-K0JN836,CP1H_C0_V1.00,FinalTest_2019.8.5.0,100620,CP1H 090620 000203,darsini,PASS,497,496,384,481,X,289,233,X,X,256,235,X,,
2020-06-10 14-40-49-244,DESKTOP-K0JN836,CP1H_C0_V1.00,FinalTest_2019.8.5.0,100620,CP1H 090620 000242,darsini,PASS,497,497,496,496,X,281,270,X,X,254,264,X,,
2020-06-10 14-40-49-244,DESKTOP-K0JN836,CP1H_C0_V1.00,FinalTest_2019.8.5.0,100620,CP1H 090620 000242,darsini,PASS,497,497,496,496,X,281,270,X,X,254,264,X,,
2020-06-10 14-41-32-820,DESKTOP-K0JN836,CP1H_C0_V1.00,FinalTest_2019.8.5.0,100620,CP1H 090620 000200,darsini,PASS,496,497,496,496,X,295,281,X,X,303,296,X,,
2020-06-10 14-41-32-820,DESKTOP-K0JN836,CP1H_C0_V1.00,FinalTest_2019.8.5.0,100620,CP1H 090620 000200,darsini,PASS,496,497,496,496,X,295,281,X,X,303,296,X,,
2020-06-10 14-42-20-868,DESKTOP-K0JN836,CP1H_C0_V1.00,FinalTest_2019.8.5.0,100620,CP1H 090620 000197,darsini,PASS,497,497,496,496,X,233,249,X,X,287,276,X,,
2020-06-10 14-42-20-868,DESKTOP-K0JN836,CP1H_C0_V1.00,FinalTest_2019.8.5.0,100620,CP1H 090620 000197,darsini,PASS,497,497,496,496,X,233,249,X,X,287,276,X,,
2020-06-10 14-43-06-481,DESKTOP-K0JN836,CP1H_C0_V1.00,FinalTest_2019.8.5.0,100620,CP1H 090620 000207,darsini,PASS,495,497,496,496,X,317,294,X,X,278,255,X,,
2020-06-10 14-43-06-481,DESKTOP-K0JN836,CP1H_C0_V1.00,FinalTest_2019.8.5.0,100620,CP1H 090620 000207,darsini,PASS,495,497,496,496,X,317,294,X,X,278,255,X,,
2020-06-10 14-43-51-741,DESKTOP-K0JN836,CP1H_C0_V1.00,FinalTest_2019.8.5.0,100620,CP1H 090620 000210,darsini,PASS,497,496,496,496,X,294,284,X,X,272,270,X,,
2020-06-10 14-43-51-741,DESKTOP-K0JN836,CP1H_C0_V1.00,FinalTest_2019.8.5.0,100620,CP1H 090620 000210,darsini,PASS,497,496,496,496,X,294,284,X,X,272,270,X,,
2020-06-10 14-44-48-951,DESKTOP-K0JN836,CP1H_C0_V1.00,FinalTest_2019.8.5.0,100620,CP1H 090620 000209,darsini,PASS,497,494,486,496,X,279,289,X,X,279,281,X,,
2020-06-10 14-44-48-951,DESKTOP-K0JN836,CP1H_C0_V1.00,FinalTest_2019.8.5.0,100620,CP1H 090620 000209,darsini,PASS,497,494,486,496,X,279,289,X,X,279,281,X,,
2020-06-10 14-45-32-778,DESKTOP-K0JN836,CP1H_C0_V1.00,FinalTest_2019.8.5.0,100620,CP1H 090620 000245,darsini,PASS,497,496,495,496,X,274,251,X,X,283,263,X,,
2020-06-10 14-45-32-778,DESKTOP-K0JN836,CP1H_C0_V1.00,FinalTest_2019.8.5.0,100620,CP1H 090620 000245,darsini,PASS,497,496,495,496,X,274,251,X,X,283,263,X,,
2020-06-10 14-46-23-351,DESKTOP-K0JN836,CP1H_C0_V1.00,FinalTest_2019.8.5.0,100620,CP1H 090620 000244,darsini,PASS,497,496,496,496,X,292,289,X,X,296,290,X,,
2020-06-10 14-46-23-351,DESKTOP-K0JN836,CP1H_C0_V1.00,FinalTest_2019.8.5.0,100620,CP1H 090620 000244,darsini,PASS,497,496,496,496,X,292,289,X,X,296,290,X,,
2020-06-10 14-47-10-213,DESKTOP-K0JN836,CP1H_C0_V1.00,FinalTest_2019.8.5.0,100620,CP1H 090620 000202,darsini,PASS,497,497,496,496,X,255,269,X,X,290,291,X,,
2020-06-10 14-47-10-213,DESKTOP-K0JN836,CP1H_C0_V1.00,FinalTest_2019.8.5.0,100620,CP1H 090620 000202,darsini,PASS,497,497,496,496,X,255,269,X,X,290,291,X,,
2020-06-10 14-48-01-416,DESKTOP-K0JN836,CP1H_C0_V1.00,FinalTest_2019.8.5.0,100620,CP1H 090620 000212,darsini,PASS,497,497,493,496,X,392,289,X,X,300,328,X,,
2020-06-10 14-48-01-416,DESKTOP-K0JN836,CP1H_C0_V1.00,FinalTest_2019.8.5.0,100620,CP1H 090620 000212,darsini,PASS,497,497,493,496,X,392,289,X,X,300,328,X,,
2020-06-10 14-48-53-116,DESKTOP-K0JN836,CP1H_C0_V1.00,FinalTest_2019.8.5.0,100620,CP1H 090620 000214,darsini,PASS,494,497,496,496,X,268,254,X,X,276,283,X,,
2020-06-10 14-48-53-116,DESKTOP-K0JN836,CP1H_C0_V1.00,FinalTest_2019.8.5.0,100620,CP1H 090620 000214,darsini,PASS,494,497,496,496,X,268,254,X,X,276,283,X,,
2020-06-10 14-49-40-972,DESKTOP-K0JN836,CP1H_C0_V1.00,FinalTest_2019.8.5.0,100620,CP1H 090620 000205,darsini,PASS,497,496,441,496,X,231,249,X,X,262,265,X,,
2020-06-10 14-49-40-972,DESKTOP-K0JN836,CP1H_C0_V1.00,FinalTest_2019.8.5.0,100620,CP1H 090620 000205,darsini,PASS,497,496,441,496,X,231,249,X,X,262,265,X,,
2020-06-10 14-50-34-474,DESKTOP-K0JN836,CP1H_C0_V1.00,FinalTest_2019.8.5.0,100620,CP1H 090620 000215,darsini,PASS,497,495,496,496,X,268,270,X,X,264,271,X,,
2020-06-10 14-50-34-474,DESKTOP-K0JN836,CP1H_C0_V1.00,FinalTest_2019.8.5.0,100620,CP1H 090620 000215,darsini,PASS,497,495,496,496,X,268,270,X,X,264,271,X,,
2020-06-10 14-51-20-253,DESKTOP-K0JN836,CP1H_C0_V1.00,FinalTest_2019.8.5.0,100620,CP1H 090620 000204,darsini,PASS,497,495,496,496,X,281,374,X,X,254,265,X,,
2020-06-10 14-51-20-253,DESKTOP-K0JN836,CP1H_C0_V1.00,FinalTest_2019.8.5.0,100620,CP1H 090620 000204,darsini,PASS,497,495,496,496,X,281,374,X,X,254,265,X,,
2020-06-10 14-52-09-150,DESKTOP-K0JN836,CP1H_C0_V1.00,FinalTest_2019.8.5.0,100620,CP1H 090620 000199,darsini,PASS,403,417,399,496,X,228,245,X,X,226,209,X,,
2020-06-10 14-52-09-150,DESKTOP-K0JN836,CP1H_C0_V1.00,FinalTest_2019.8.5.0,100620,CP1H 090620 000199,darsini,PASS,403,417,399,496,X,228,245,X,X,226,209,X,,
2020-06-10 14-52-56-824,DESKTOP-K0JN836,CP1H_C0_V1.00,FinalTest_2019.8.5.0,100620,CP1H 090620 000198,darsini,PASS,497,497,496,492,X,247,246,X,X,239,254,X,,
2020-06-10 14-52-56-824,DESKTOP-K0JN836,CP1H_C0_V1.00,FinalTest_2019.8.5.0,100620,CP1H 090620 000198,darsini,PASS,497,497,496,492,X,247,246,X,X,239,254,X,,
2020-06-10 14-53-43-067,DESKTOP-K0JN836,CP1H_C0_V1.00,FinalTest_2019.8.5.0,100620,CP1H 090620 000201,darsini,PASS,497,496,496,496,X,288,297,X,X,265,252,X,,
2020-06-10 14-53-43-067,DESKTOP-K0JN836,CP1H_C0_V1.00,FinalTest_2019.8.5.0,100620,CP1H 090620 000201,darsini,PASS,497,496,496,496,X,288,297,X,X,265,252,X,,
2020-06-10 14-54-28-131,DESKTOP-K0JN836,CP1H_C0_V1.00,FinalTest_2019.8.5.0,100620,CP1H 090620 000216,darsini,PASS,497,496,493,496,X,297,291,X,X,273,256,X,,
2020-06-10 14-54-28-131,DESKTOP-K0JN836,CP1H_C0_V1.00,FinalTest_2019.8.5.0,100620,CP1H 090620 000216,darsini,PASS,497,496,493,496,X,297,291,X,X,273,256,X,,
2020-06-10 14-55-11-128,DESKTOP-K0JN836,CP1H_C0_V1.00,FinalTest_2019.8.5.0,100620,CP1H 090620 000222,darsini,PASS,497,496,496,496,X,292,303,X,X,313,358,X,,
2020-06-10 14-55-11-128,DESKTOP-K0JN836,CP1H_C0_V1.00,FinalTest_2019.8.5.0,100620,CP1H 090620 000222,darsini,PASS,497,496,496,496,X,292,303,X,X,313,358,X,,
2020-06-10 14-56-09-804,DESKTOP-K0JN836,CP1H_C0_V1.00,FinalTest_2019.8.5.0,100620,CP1H 090620 000218,darsini,PASS,497,497,496,496,X,296,270,X,X,290,295,X,,
2020-06-10 14-56-09-804,DESKTOP-K0JN836,CP1H_C0_V1.00,FinalTest_2019.8.5.0,100620,CP1H 090620 000218,darsini,PASS,497,497,496,496,X,296,270,X,X,290,295,X,,
2020-06-10 14-56-57-016,DESKTOP-K0JN836,CP1H_C0_V1.00,FinalTest_2019.8.5.0,100620,CP1H 090620 000208,darsini,PASS,494,496,496,496,X,282,295,X,X,284,314,X,,
2020-06-10 14-56-57-016,DESKTOP-K0JN836,CP1H_C0_V1.00,FinalTest_2019.8.5.0,100620,CP1H 090620 000208,darsini,PASS,494,496,496,496,X,282,295,X,X,284,314,X,,
2020-06-10 14-57-37-860,DESKTOP-K0JN836,CP1H_C0_V1.00,FinalTest_2019.8.5.0,100620,CP1H 090620 000217,darsini,PASS,496,497,475,496,X,246,342,X,X,318,293,X,,
2020-06-10 14-57-37-860,DESKTOP-K0JN836,CP1H_C0_V1.00,FinalTest_2019.8.5.0,100620,CP1H 090620 000217,darsini,PASS,496,497,475,496,X,246,342,X,X,318,293,X,,
2020-06-10 14-58-27-888,DESKTOP-K0JN836,CP1H_C0_V1.00,FinalTest_2019.8.5.0,100620,CP1H 090620 000221,darsini,PASS,494,497,496,496,X,238,224,X,X,268,267,X,,
2020-06-10 14-58-27-888,DESKTOP-K0JN836,CP1H_C0_V1.00,FinalTest_2019.8.5.0,100620,CP1H 090620 000221,darsini,PASS,494,497,496,496,X,238,224,X,X,268,267,X,,
2020-06-10 14-59-11-601,DESKTOP-K0JN836,CP1H_C0_V1.00,FinalTest_2019.8.5.0,100620,CP1H 090620 000224,darsini,PASS,494,496,451,457,X,242,238,X,X,251,235,X,,
2020-06-10 14-59-11-601,DESKTOP-K0JN836,CP1H_C0_V1.00,FinalTest_2019.8.5.0,100620,CP1H 090620 000224,darsini,PASS,494,496,451,457,X,242,238,X,X,251,235,X,,
2020-06-10 14-59-54-862,DESKTOP-K0JN836,CP1H_C0_V1.00,FinalTest_2019.8.5.0,100620,CP1H 090620 000220,darsini,PASS,497,496,495,496,X,283,328,X,X,297,294,X,,
2020-06-10 14-59-54-862,DESKTOP-K0JN836,CP1H_C0_V1.00,FinalTest_2019.8.5.0,100620,CP1H 090620 000220,darsini,PASS,497,496,495,496,X,283,328,X,X,297,294,X,,
2020-06-10 15-00-39-954,DESKTOP-K0JN836,CP1H_C0_V1.00,FinalTest_2019.8.5.0,100620,CP1H 090620 000206,darsini,PASS,497,496,495,496,X,283,328,X,X,297,294,X,,
2020-06-10 15-01-35-843,DESKTOP-K0JN836,CP1H_C0_V1.00,FinalTest_2019.8.5.0,100620,CP1H 090620 000211,darsini,PASS,497,495,496,496,X,290,251,X,X,271,260,X,,
2020-06-10 15-01-35-843,DESKTOP-K0JN836,CP1H_C0_V1.00,FinalTest_2019.8.5.0,100620,CP1H 090620 000211,darsini,PASS,497,495,496,496,X,290,251,X,X,271,260,X,,
2020-06-10 15-02-25-680,DESKTOP-K0JN836,CP1H_C0_V1.00,FinalTest_2019.8.5.0,100620,CP1H 090620 000225,darsini,PASS,497,497,496,496,X,269,291,X,X,271,298,X,,
2020-06-10 15-02-25-680,DESKTOP-K0JN836,CP1H_C0_V1.00,FinalTest_2019.8.5.0,100620,CP1H 090620 000225,darsini,PASS,497,497,496,496,X,269,291,X,X,271,298,X,,
2020-06-10 15-03-18-805,DESKTOP-K0JN836,CP1H_C0_V1.00,FinalTest_2019.8.5.0,100620,CP1H 090620 000219,darsini,PASS,496,496,496,496,X,281,272,X,X,290,289,X,,
2020-06-10 15-03-18-805,DESKTOP-K0JN836,CP1H_C0_V1.00,FinalTest_2019.8.5.0,100620,CP1H 090620 000219,darsini,PASS,496,496,496,496,X,281,272,X,X,290,289,X,,
2020-06-10 15-04-06-167,DESKTOP-K0JN836,CP1H_C0_V1.00,FinalTest_2019.8.5.0,100620,CP1H 090620 000223,darsini,PASS,497,496,496,496,X,296,255,X,X,242,269,X,,
2020-06-10 15-04-06-167,DESKTOP-K0JN836,CP1H_C0_V1.00,FinalTest_2019.8.5.0,100620,CP1H 090620 000223,darsini,PASS,497,496,496,496,X,296,255,X,X,242,269,X,,
2020-06-10 15-06-41-799,DESKTOP-K0JN836,CP1H_C0_V1.00,FinalTest_2019.8.5.0,100620,CP1H 090620 000308,darsini,PASS,497,496,495,496,X,310,293,X,X,279,267,X,,
2020-06-10 15-06-41-799,DESKTOP-K0JN836,CP1H_C0_V1.00,FinalTest_2019.8.5.0,100620,CP1H 090620 000308,darsini,PASS,497,496,495,496,X,310,293,X,X,279,267,X,,
2020-06-10 15-08-29-223,DESKTOP-K0JN836,CP1H_C0_V1.00,FinalTest_2019.8.5.0,100620,CP1H 090620 000302,darsini,PASS,497,494,495,496,X,217,236,X,X,299,323,X,,
2020-06-10 15-08-29-223,DESKTOP-K0JN836,CP1H_C0_V1.00,FinalTest_2019.8.5.0,100620,CP1H 090620 000302,darsini,PASS,497,494,495,496,X,217,236,X,X,299,323,X,,
2020-06-10 15-09-17-511,DESKTOP-K0JN836,CP1H_C0_V1.00,FinalTest_2019.8.5.0,100620,CP1H 090620 000305,darsini,PASS,495,496,496,493,X,269,246,X,X,300,319,X,,
2020-06-10 15-09-17-511,DESKTOP-K0JN836,CP1H_C0_V1.00,FinalTest_2019.8.5.0,100620,CP1H 090620 000305,darsini,PASS,495,496,496,493,X,269,246,X,X,300,319,X,,
2020-06-10 15-10-11-973,DESKTOP-K0JN836,CP1H_C0_V1.00,FinalTest_2019.8.5.0,100620,CP1H 090620 000256,darsini,PASS,430,456,463,496,X,281,260,X,X,268,253,X,,
2020-06-10 15-10-11-973,DESKTOP-K0JN836,CP1H_C0_V1.00,FinalTest_2019.8.5.0,100620,CP1H 090620 000256,darsini,PASS,430,456,463,496,X,281,260,X,X,268,253,X,,
2020-06-10 15-11-05-452,DESKTOP-K0JN836,CP1H_C0_V1.00,FinalTest_2019.8.5.0,100620,CP1H 090620 000263,darsini,PASS,497,496,495,496,X,239,267,X,X,292,294,X,,
2020-06-10 15-11-05-452,DESKTOP-K0JN836,CP1H_C0_V1.00,FinalTest_2019.8.5.0,100620,CP1H 090620 000263,darsini,PASS,497,496,495,496,X,239,267,X,X,292,294,X,,
2020-06-10 15-11-48-293,DESKTOP-K0JN836,CP1H_C0_V1.00,FinalTest_2019.8.5.0,100620,CP1H 090620 000257,darsini,FAIL,497,496,496,496,X,0,234,X,X,277,267,X,,
2020-06-10 15-11-48-293,DESKTOP-K0JN836,CP1H_C0_V1.00,FinalTest_2019.8.5.0,100620,CP1H 090620 000257,darsini,FAIL,497,496,496,496,X,0,234,X,X,277,267,X,,
2020-06-10 15-12-28-843,DESKTOP-K0JN836,CP1H_C0_V1.00,FinalTest_2019.8.5.0,100620,CP1H 090620 000257,darsini,FAIL,494,496,435,496,X,0,224,X,X,270,261,X,,
2020-06-10 15-12-28-843,DESKTOP-K0JN836,CP1H_C0_V1.00,FinalTest_2019.8.5.0,100620,CP1H 090620 000257,darsini,FAIL,494,496,435,496,X,0,224,X,X,270,261,X,,
2020-06-10 15-13-25-687,DESKTOP-K0JN836,CP1H_C0_V1.00,FinalTest_2019.8.5.0,100620,CP1H 090620 000258,darsini,PASS,494,497,484,496,X,269,286,X,X,274,301,X,,
2020-06-10 15-13-25-687,DESKTOP-K0JN836,CP1H_C0_V1.00,FinalTest_2019.8.5.0,100620,CP1H 090620 000258,darsini,PASS,494,497,484,496,X,269,286,X,X,274,301,X,,
2020-06-10 15-14-08-141,DESKTOP-K0JN836,CP1H_C0_V1.00,FinalTest_2019.8.5.0,100620,CP1H 090620 000303,darsini,PASS,497,497,496,496,X,260,261,X,X,282,300,X,,
2020-06-10 15-14-08-141,DESKTOP-K0JN836,CP1H_C0_V1.00,FinalTest_2019.8.5.0,100620,CP1H 090620 000303,darsini,PASS,497,497,496,496,X,260,261,X,X,282,300,X,,
2020-06-10 15-14-50-189,DESKTOP-K0JN836,CP1H_C0_V1.00,FinalTest_2019.8.5.0,100620,CP1H 090620 000254,darsini,PASS,497,497,496,496,X,256,231,X,X,298,299,X,,
2020-06-10 15-14-50-189,DESKTOP-K0JN836,CP1H_C0_V1.00,FinalTest_2019.8.5.0,100620,CP1H 090620 000254,darsini,PASS,497,497,496,496,X,256,231,X,X,298,299,X,,
2020-06-10 15-15-32-836,DESKTOP-K0JN836,CP1H_C0_V1.00,FinalTest_2019.8.5.0,100620,CP1H 090620 000264,darsini,PASS,497,496,496,496,X,282,286,X,X,309,316,X,,
2020-06-10 15-15-32-836,DESKTOP-K0JN836,CP1H_C0_V1.00,FinalTest_2019.8.5.0,100620,CP1H 090620 000264,darsini,PASS,497,496,496,496,X,282,286,X,X,309,316,X,,
2020-06-10 15-16-18-120,DESKTOP-K0JN836,CP1H_C0_V1.00,FinalTest_2019.8.5.0,100620,CP1H 090620 000265,darsini,PASS,497,496,496,496,X,231,231,X,X,302,342,X,,
2020-06-10 15-16-18-120,DESKTOP-K0JN836,CP1H_C0_V1.00,FinalTest_2019.8.5.0,100620,CP1H 090620 000265,darsini,PASS,497,496,496,496,X,231,231,X,X,302,342,X,,
2020-06-10 15-17-00-941,DESKTOP-K0JN836,CP1H_C0_V1.00,FinalTest_2019.8.5.0,100620,CP1H 090620 000260,darsini,PASS,495,496,496,496,X,245,227,X,X,310,296,X,,
2020-06-10 15-17-00-941,DESKTOP-K0JN836,CP1H_C0_V1.00,FinalTest_2019.8.5.0,100620,CP1H 090620 000260,darsini,PASS,495,496,496,496,X,245,227,X,X,310,296,X,,
2020-06-10 15-17-42-624,DESKTOP-K0JN836,CP1H_C0_V1.00,FinalTest_2019.8.5.0,100620,CP1H 090620 000253,darsini,PASS,497,496,496,496,X,250,236,X,X,302,293,X,,
2020-06-10 15-17-42-624,DESKTOP-K0JN836,CP1H_C0_V1.00,FinalTest_2019.8.5.0,100620,CP1H 090620 000253,darsini,PASS,497,496,496,496,X,250,236,X,X,302,293,X,,
2020-06-10 15-18-30-744,DESKTOP-K0JN836,CP1H_C0_V1.00,FinalTest_2019.8.5.0,100620,CP1H 090620 000261,darsini,PASS,497,495,496,496,X,295,283,X,X,310,327,X,,
2020-06-10 15-18-30-744,DESKTOP-K0JN836,CP1H_C0_V1.00,FinalTest_2019.8.5.0,100620,CP1H 090620 000261,darsini,PASS,497,495,496,496,X,295,283,X,X,310,327,X,,
2020-06-10 15-19-22-020,DESKTOP-K0JN836,CP1H_C0_V1.00,FinalTest_2019.8.5.0,100620,CP1H 090620 000262,darsini,FAIL,497,497,437,493,X,219,200,X,X,288,326,X,,
2020-06-10 15-19-22-020,DESKTOP-K0JN836,CP1H_C0_V1.00,FinalTest_2019.8.5.0,100620,CP1H 090620 000262,darsini,FAIL,497,497,437,493,X,219,200,X,X,288,326,X,,
2020-06-10 15-19-58-884,DESKTOP-K0JN836,CP1H_C0_V1.00,FinalTest_2019.8.5.0,100620,CP1H 090620 000262,darsini,FAIL,497,496,429,460,X,0,217,X,X,289,310,X,,
2020-06-10 15-19-58-884,DESKTOP-K0JN836,CP1H_C0_V1.00,FinalTest_2019.8.5.0,100620,CP1H 090620 000262,darsini,FAIL,497,496,429,460,X,0,217,X,X,289,310,X,,
2020-06-10 15-20-46-269,DESKTOP-K0JN836,CP1H_C0_V1.00,FinalTest_2019.8.5.0,100620,CP1H 090620 000255,darsini,PASS,495,495,496,495,X,288,272,X,X,296,300,X,,
2020-06-10 15-20-46-269,DESKTOP-K0JN836,CP1H_C0_V1.00,FinalTest_2019.8.5.0,100620,CP1H 090620 000255,darsini,PASS,495,495,496,495,X,288,272,X,X,296,300,X,,
2020-06-10 15-21-37-821,DESKTOP-K0JN836,CP1H_C0_V1.00,FinalTest_2019.8.5.0,100620,CP1H 090620 000295,darsini,PASS,497,483,456,496,X,293,273,X,X,228,212,X,,
2020-06-10 15-21-37-821,DESKTOP-K0JN836,CP1H_C0_V1.00,FinalTest_2019.8.5.0,100620,CP1H 090620 000295,darsini,PASS,497,483,456,496,X,293,273,X,X,228,212,X,,
2020-06-10 15-22-19-620,DESKTOP-K0JN836,CP1H_C0_V1.00,FinalTest_2019.8.5.0,100620,CP1H 090620 000266,darsini,PASS,497,497,469,496,X,273,337,X,X,255,265,X,,
2020-06-10 15-22-19-620,DESKTOP-K0JN836,CP1H_C0_V1.00,FinalTest_2019.8.5.0,100620,CP1H 090620 000266,darsini,PASS,497,497,469,496,X,273,337,X,X,255,265,X,,
2020-06-10 15-23-09-008,DESKTOP-K0JN836,CP1H_C0_V1.00,FinalTest_2019.8.5.0,100620,CP1H 090620 000268,darsini,PASS,497,495,496,496,X,243,229,X,X,286,286,X,,
2020-06-10 15-23-09-008,DESKTOP-K0JN836,CP1H_C0_V1.00,FinalTest_2019.8.5.0,100620,CP1H 090620 000268,darsini,PASS,497,495,496,496,X,243,229,X,X,286,286,X,,
2020-06-10 15-23-56-227,DESKTOP-K0JN836,CP1H_C0_V1.00,FinalTest_2019.8.5.0,100620,CP1H 090620 000293,darsini,PASS,497,497,496,496,X,292,286,X,X,299,303,X,,
2020-06-10 15-23-56-227,DESKTOP-K0JN836,CP1H_C0_V1.00,FinalTest_2019.8.5.0,100620,CP1H 090620 000293,darsini,PASS,497,497,496,496,X,292,286,X,X,299,303,X,,
2020-06-10 15-24-47-783,DESKTOP-K0JN836,CP1H_C0_V1.00,FinalTest_2019.8.5.0,100620,CP1H 090620 000280,darsini,PASS,497,497,496,496,X,290,277,X,X,266,255,X,,
2020-06-10 15-24-47-783,DESKTOP-K0JN836,CP1H_C0_V1.00,FinalTest_2019.8.5.0,100620,CP1H 090620 000280,darsini,PASS,497,497,496,496,X,290,277,X,X,266,255,X,,
2020-06-10 15-25-42-416,DESKTOP-K0JN836,CP1H_C0_V1.00,FinalTest_2019.8.5.0,100620,CP1H 090620 000285,darsini,PASS,497,496,495,496,X,298,265,X,X,270,261,X,,
2020-06-10 15-25-42-416,DESKTOP-K0JN836,CP1H_C0_V1.00,FinalTest_2019.8.5.0,100620,CP1H 090620 000285,darsini,PASS,497,496,495,496,X,298,265,X,X,270,261,X,,
2020-06-10 15-26-28-983,DESKTOP-K0JN836,CP1H_C0_V1.00,FinalTest_2019.8.5.0,100620,CP1H 090620 000288,darsini,PASS,497,497,493,496,X,279,277,X,X,283,276,X,,
2020-06-10 15-26-28-983,DESKTOP-K0JN836,CP1H_C0_V1.00,FinalTest_2019.8.5.0,100620,CP1H 090620 000288,darsini,PASS,497,497,493,496,X,279,277,X,X,283,276,X,,
2020-06-10 15-27-14-760,DESKTOP-K0JN836,CP1H_C0_V1.00,FinalTest_2019.8.5.0,100620,CP1H 090620 000289,darsini,PASS,494,497,496,496,X,284,256,X,X,289,279,X,,
2020-06-10 15-27-14-760,DESKTOP-K0JN836,CP1H_C0_V1.00,FinalTest_2019.8.5.0,100620,CP1H 090620 000289,darsini,PASS,494,497,496,496,X,284,256,X,X,289,279,X,,
2020-06-10 15-54-16-720,DESKTOP-K0JN836,CP1H_C0_V1.00,FinalTest_2019.8.5.0,100620,CP1H 090620 000259,darsini,PASS,497,497,496,496,X,290,295,X,X,304,283,X,,
2020-06-10 15-54-16-720,DESKTOP-K0JN836,CP1H_C0_V1.00,FinalTest_2019.8.5.0,100620,CP1H 090620 000259,darsini,PASS,497,497,496,496,X,290,295,X,X,304,283,X,,
2020-06-10 15-55-07-976,DESKTOP-K0JN836,CP1H_C0_V1.00,FinalTest_2019.8.5.0,100620,CP1H 090620 000250,darsini,PASS,497,496,493,496,X,275,270,X,X,302,310,X,,
2020-06-10 15-55-07-976,DESKTOP-K0JN836,CP1H_C0_V1.00,FinalTest_2019.8.5.0,100620,CP1H 090620 000250,darsini,PASS,497,496,493,496,X,275,270,X,X,302,310,X,,
2020-06-10 15-55-58-173,DESKTOP-K0JN836,CP1H_C0_V1.00,FinalTest_2019.8.5.0,100620,CP1H 090620 000249,darsini,PASS,497,496,481,496,X,304,272,X,X,293,326,X,,
2020-06-10 15-55-58-173,DESKTOP-K0JN836,CP1H_C0_V1.00,FinalTest_2019.8.5.0,100620,CP1H 090620 000249,darsini,PASS,497,496,481,496,X,304,272,X,X,293,326,X,,
2020-06-10 15-56-47-961,DESKTOP-K0JN836,CP1H_C0_V1.00,FinalTest_2019.8.5.0,100620,CP1H 090620 000252,darsini,FAIL,372,403,392,426,X,0,232,X,X,252,253,X,,
2020-06-10 15-56-47-961,DESKTOP-K0JN836,CP1H_C0_V1.00,FinalTest_2019.8.5.0,100620,CP1H 090620 000252,darsini,FAIL,372,403,392,426,X,0,232,X,X,252,253,X,,
2020-06-10 15-57-26-492,DESKTOP-K0JN836,CP1H_C0_V1.00,FinalTest_2019.8.5.0,100620,CP1H 090620 000252,darsini,FAIL,363,392,380,437,X,0,209,X,X,242,250,X,,
2020-06-10 15-57-26-492,DESKTOP-K0JN836,CP1H_C0_V1.00,FinalTest_2019.8.5.0,100620,CP1H 090620 000252,darsini,FAIL,363,392,380,437,X,0,209,X,X,242,250,X,,
2020-06-10 15-58-24-194,DESKTOP-K0JN836,CP1H_C0_V1.00,FinalTest_2019.8.5.0,100620,CP1H 090620 000251,darsini,PASS,497,496,496,496,X,231,219,X,X,293,327,X,,
2020-06-10 15-58-24-194,DESKTOP-K0JN836,CP1H_C0_V1.00,FinalTest_2019.8.5.0,100620,CP1H 090620 000251,darsini,PASS,497,496,496,496,X,231,219,X,X,293,327,X,,
2020-06-10 15-59-11-446,DESKTOP-K0JN836,CP1H_C0_V1.00,FinalTest_2019.8.5.0,100620,CP1H 090620 000248,darsini,PASS,496,497,496,497,X,391,391,X,X,287,293,X,,
2020-06-10 15-59-11-446,DESKTOP-K0JN836,CP1H_C0_V1.00,FinalTest_2019.8.5.0,100620,CP1H 090620 000248,darsini,PASS,496,497,496,497,X,391,391,X,X,287,293,X,,
2020-06-10 15-59-58-313,DESKTOP-K0JN836,CP1H_C0_V1.00,FinalTest_2019.8.5.0,100620,CP1H 090620 000246,darsini,PASS,497,496,496,496,X,304,268,X,X,265,275,X,,
2020-06-10 15-59-58-313,DESKTOP-K0JN836,CP1H_C0_V1.00,FinalTest_2019.8.5.0,100620,CP1H 090620 000246,darsini,PASS,497,496,496,496,X,304,268,X,X,265,275,X,,
2020-06-10 16-00-45-943,DESKTOP-K0JN836,CP1H_C0_V1.00,FinalTest_2019.8.5.0,100620,CP1H 090620 000291,darsini,PASS,494,480,435,496,X,287,296,X,X,271,235,X,,
2020-06-10 16-00-45-943,DESKTOP-K0JN836,CP1H_C0_V1.00,FinalTest_2019.8.5.0,100620,CP1H 090620 000291,darsini,PASS,494,480,435,496,X,287,296,X,X,271,235,X,,
2020-06-10 16-01-35-541,DESKTOP-K0JN836,CP1H_C0_V1.00,FinalTest_2019.8.5.0,100620,CP1H 090620 000247,darsini,PASS,495,497,495,496,X,247,249,X,X,317,316,X,,
2020-06-10 16-01-35-541,DESKTOP-K0JN836,CP1H_C0_V1.00,FinalTest_2019.8.5.0,100620,CP1H 090620 000247,darsini,PASS,495,497,495,496,X,247,249,X,X,317,316,X,,
2020-06-10 16-02-21-975,DESKTOP-K0JN836,CP1H_C0_V1.00,FinalTest_2019.8.5.0,100620,CP1H 090620 000289,darsini,PASS,497,497,493,496,X,266,253,X,X,318,284,X,,
2020-06-10 16-02-21-975,DESKTOP-K0JN836,CP1H_C0_V1.00,FinalTest_2019.8.5.0,100620,CP1H 090620 000289,darsini,PASS,497,497,493,496,X,266,253,X,X,318,284,X,,
2020-06-10 16-06-56-378,DESKTOP-K0JN836,CP1H_C0_V1.00,FinalTest_2019.8.5.0,100620,CP1H 090620 000300,darsini,PASS,497,496,496,493,X,300,291,X,X,266,274,X,,
2020-06-10 16-06-56-378,DESKTOP-K0JN836,CP1H_C0_V1.00,FinalTest_2019.8.5.0,100620,CP1H 090620 000300,darsini,PASS,497,496,496,493,X,300,291,X,X,266,274,X,,
2020-06-10 16-07-44-092,DESKTOP-K0JN836,CP1H_C0_V1.00,FinalTest_2019.8.5.0,100620,CP1H 090620 000284,darsini,PASS,495,495,496,496,X,272,235,X,X,297,297,X,,
2020-06-10 16-07-44-092,DESKTOP-K0JN836,CP1H_C0_V1.00,FinalTest_2019.8.5.0,100620,CP1H 090620 000284,darsini,PASS,495,495,496,496,X,272,235,X,X,297,297,X,,
2020-06-10 16-08-33-041,DESKTOP-K0JN836,CP1H_C0_V1.00,FinalTest_2019.8.5.0,100620,CP1H 090620 000292,darsini,PASS,497,496,496,495,X,241,276,X,X,280,287,X,,
2020-06-10 16-08-33-041,DESKTOP-K0JN836,CP1H_C0_V1.00,FinalTest_2019.8.5.0,100620,CP1H 090620 000292,darsini,PASS,497,496,496,495,X,241,276,X,X,280,287,X,,
2020-06-10 16-09-20-236,DESKTOP-K0JN836,CP1H_C0_V1.00,FinalTest_2019.8.5.0,100620,CP1H 090620 000294,darsini,PASS,494,497,496,496,X,268,274,X,X,261,253,X,,
2020-06-10 16-09-20-236,DESKTOP-K0JN836,CP1H_C0_V1.00,FinalTest_2019.8.5.0,100620,CP1H 090620 000294,darsini,PASS,494,497,496,496,X,268,274,X,X,261,253,X,,
2020-06-10 16-10-11-453,DESKTOP-K0JN836,CP1H_C0_V1.00,FinalTest_2019.8.5.0,100620,CP1H 090620 000290,darsini,PASS,497,459,495,496,X,290,269,X,X,286,286,X,,
2020-06-10 16-10-11-453,DESKTOP-K0JN836,CP1H_C0_V1.00,FinalTest_2019.8.5.0,100620,CP1H 090620 000290,darsini,PASS,497,459,495,496,X,290,269,X,X,286,286,X,,
2020-06-10 16-10-58-529,DESKTOP-K0JN836,CP1H_C0_V1.00,FinalTest_2019.8.5.0,100620,CP1H 090620 000296,darsini,PASS,497,497,496,496,X,276,248,X,X,289,258,X,,
2020-06-10 16-10-58-529,DESKTOP-K0JN836,CP1H_C0_V1.00,FinalTest_2019.8.5.0,100620,CP1H 090620 000296,darsini,PASS,497,497,496,496,X,276,248,X,X,289,258,X,,
2020-06-10 16-11-45-934,DESKTOP-K0JN836,CP1H_C0_V1.00,FinalTest_2019.8.5.0,100620,CP1H 090620 000282,darsini,PASS,497,496,496,496,X,287,361,X,X,280,275,X,,
2020-06-10 16-11-45-934,DESKTOP-K0JN836,CP1H_C0_V1.00,FinalTest_2019.8.5.0,100620,CP1H 090620 000282,darsini,PASS,497,496,496,496,X,287,361,X,X,280,275,X,,
2020-06-10 16-12-29-574,DESKTOP-K0JN836,CP1H_C0_V1.00,FinalTest_2019.8.5.0,100620,CP1H 090620 000287,darsini,PASS,496,497,496,496,X,239,277,X,X,285,308,X,,
2020-06-10 16-12-29-574,DESKTOP-K0JN836,CP1H_C0_V1.00,FinalTest_2019.8.5.0,100620,CP1H 090620 000287,darsini,PASS,496,497,496,496,X,239,277,X,X,285,308,X,,
2020-06-10 16-13-18-468,DESKTOP-K0JN836,CP1H_C0_V1.00,FinalTest_2019.8.5.0,100620,CP1H 090620 000281,darsini,PASS,495,495,481,496,X,216,224,X,X,265,265,X,,
2020-06-10 16-13-18-468,DESKTOP-K0JN836,CP1H_C0_V1.00,FinalTest_2019.8.5.0,100620,CP1H 090620 000281,darsini,PASS,495,495,481,496,X,216,224,X,X,265,265,X,,
2020-06-10 16-14-14-934,DESKTOP-K0JN836,CP1H_C0_V1.00,FinalTest_2019.8.5.0,100620,CP1H 090620 000298,darsini,PASS,497,497,496,496,X,289,260,X,X,292,281,X,,
2020-06-10 16-14-14-934,DESKTOP-K0JN836,CP1H_C0_V1.00,FinalTest_2019.8.5.0,100620,CP1H 090620 000298,darsini,PASS,497,497,496,496,X,289,260,X,X,292,281,X,,
2020-06-10 16-15-01-475,DESKTOP-K0JN836,CP1H_C0_V1.00,FinalTest_2019.8.5.0,100620,CP1H 090620 000299,darsini,PASS,497,497,496,496,X,229,226,X,X,283,341,X,,
2020-06-10 16-15-01-475,DESKTOP-K0JN836,CP1H_C0_V1.00,FinalTest_2019.8.5.0,100620,CP1H 090620 000299,darsini,PASS,497,497,496,496,X,229,226,X,X,283,341,X,,
2020-06-10 16-15-47-638,DESKTOP-K0JN836,CP1H_C0_V1.00,FinalTest_2019.8.5.0,100620,CP1H 090620 000286,darsini,PASS,494,497,496,496,X,303,362,X,X,305,293,X,,
2020-06-10 16-15-47-638,DESKTOP-K0JN836,CP1H_C0_V1.00,FinalTest_2019.8.5.0,100620,CP1H 090620 000286,darsini,PASS,494,497,496,496,X,303,362,X,X,305,293,X,,
2020-06-10 16-16-48-237,DESKTOP-K0JN836,CP1H_C0_V1.00,FinalTest_2019.8.5.0,100620,CP1H 090620 000297,darsini,PASS,496,497,496,496,X,276,277,X,X,263,279,X,,
2020-06-10 16-16-48-237,DESKTOP-K0JN836,CP1H_C0_V1.00,FinalTest_2019.8.5.0,100620,CP1H 090620 000297,darsini,PASS,496,497,496,496,X,276,277,X,X,263,279,X,,
2020-06-10 16-17-40-588,DESKTOP-K0JN836,CP1H_C0_V1.00,FinalTest_2019.8.5.0,100620,CP1H 090620 000309,darsini,PASS,494,497,496,494,X,226,244,X,X,323,272,X,,
2020-06-10 16-17-40-588,DESKTOP-K0JN836,CP1H_C0_V1.00,FinalTest_2019.8.5.0,100620,CP1H 090620 000309,darsini,PASS,494,497,496,494,X,226,244,X,X,323,272,X,,
2020-06-10 16-18-23-992,DESKTOP-K0JN836,CP1H_C0_V1.00,FinalTest_2019.8.5.0,100620,CP1H 090620 000307,darsini,PASS,494,497,496,494,X,226,244,X,X,323,272,X,,
2020-06-10 16-18-41-815,DESKTOP-K0JN836,CP1H_C0_V1.00,FinalTest_2019.8.5.0,100620,CP1H 090620 000307,darsini,PASS,496,497,496,496,X,260,251,X,X,274,278,X,,
2020-06-10 16-18-41-815,DESKTOP-K0JN836,CP1H_C0_V1.00,FinalTest_2019.8.5.0,100620,CP1H 090620 000307,darsini,PASS,496,497,496,496,X,260,251,X,X,274,278,X,,
2020-06-10 16-19-31-410,DESKTOP-K0JN836,CP1H_C0_V1.00,FinalTest_2019.8.5.0,100620,CP1H 090620 000279,darsini,PASS,497,496,496,496,X,233,236,X,X,316,322,X,,
2020-06-10 16-19-31-410,DESKTOP-K0JN836,CP1H_C0_V1.00,FinalTest_2019.8.5.0,100620,CP1H 090620 000279,darsini,PASS,497,496,496,496,X,233,236,X,X,316,322,X,,
2020-06-10 16-20-18-382,DESKTOP-K0JN836,CP1H_C0_V1.00,FinalTest_2019.8.5.0,100620,CP1H 090620 000276,darsini,PASS,497,494,496,496,X,269,269,X,X,291,391,X,,
2020-06-10 16-20-18-382,DESKTOP-K0JN836,CP1H_C0_V1.00,FinalTest_2019.8.5.0,100620,CP1H 090620 000276,darsini,PASS,497,494,496,496,X,269,269,X,X,291,391,X,,
2020-06-10 16-21-04-371,DESKTOP-K0JN836,CP1H_C0_V1.00,FinalTest_2019.8.5.0,100620,CP1H 090620 000275,darsini,PASS,497,496,496,496,X,285,287,X,X,307,302,X,,
2020-06-10 16-21-04-371,DESKTOP-K0JN836,CP1H_C0_V1.00,FinalTest_2019.8.5.0,100620,CP1H 090620 000275,darsini,PASS,497,496,496,496,X,285,287,X,X,307,302,X,,
2020-06-10 16-21-47-708,DESKTOP-K0JN836,CP1H_C0_V1.00,FinalTest_2019.8.5.0,100620,CP1H 090620 000283,darsini,PASS,497,497,496,496,X,256,222,X,X,279,264,X,,
2020-06-10 16-21-47-708,DESKTOP-K0JN836,CP1H_C0_V1.00,FinalTest_2019.8.5.0,100620,CP1H 090620 000283,darsini,PASS,497,497,496,496,X,256,222,X,X,279,264,X,,
2020-06-10 16-22-33-135,DESKTOP-K0JN836,CP1H_C0_V1.00,FinalTest_2019.8.5.0,100620,CP1H 090620 000278,darsini,PASS,497,497,496,496,X,244,246,X,X,292,289,X,,
2020-06-10 16-22-33-135,DESKTOP-K0JN836,CP1H_C0_V1.00,FinalTest_2019.8.5.0,100620,CP1H 090620 000278,darsini,PASS,497,497,496,496,X,244,246,X,X,292,289,X,,
2020-06-10 16-23-30-219,DESKTOP-K0JN836,CP1H_C0_V1.00,FinalTest_2019.8.5.0,100620,CP1H 090620 000304,darsini,PASS,497,497,474,479,X,219,244,X,X,256,279,X,,
2020-06-10 16-23-30-219,DESKTOP-K0JN836,CP1H_C0_V1.00,FinalTest_2019.8.5.0,100620,CP1H 090620 000304,darsini,PASS,497,497,474,479,X,219,244,X,X,256,279,X,,
2020-06-10 16-24-24-768,DESKTOP-K0JN836,CP1H_C0_V1.00,FinalTest_2019.8.5.0,100620,CP1H 090620 000270,darsini,PASS,497,497,493,496,X,264,283,X,X,365,291,X,,
2020-06-10 16-24-24-768,DESKTOP-K0JN836,CP1H_C0_V1.00,FinalTest_2019.8.5.0,100620,CP1H 090620 000270,darsini,PASS,497,497,493,496,X,264,283,X,X,365,291,X,,
2020-06-10 16-25-26-213,DESKTOP-K0JN836,CP1H_C0_V1.00,FinalTest_2019.8.5.0,100620,CP1H 090620 000277,darsini,PASS,497,496,472,496,X,266,241,X,X,283,295,X,,
2020-06-10 16-25-26-213,DESKTOP-K0JN836,CP1H_C0_V1.00,FinalTest_2019.8.5.0,100620,CP1H 090620 000277,darsini,PASS,497,496,472,496,X,266,241,X,X,283,295,X,,
2020-06-10 16-26-12-978,DESKTOP-K0JN836,CP1H_C0_V1.00,FinalTest_2019.8.5.0,100620,CP1H 090620 000273,darsini,PASS,496,497,496,496,X,287,347,X,X,285,285,X,,
2020-06-10 16-26-12-978,DESKTOP-K0JN836,CP1H_C0_V1.00,FinalTest_2019.8.5.0,100620,CP1H 090620 000273,darsini,PASS,496,497,496,496,X,287,347,X,X,285,285,X,,
2020-06-10 16-26-57-991,DESKTOP-K0JN836,CP1H_C0_V1.00,FinalTest_2019.8.5.0,100620,CP1H 090620 000301,darsini,PASS,497,496,496,496,X,277,393,X,X,248,266,X,,
2020-06-10 16-26-57-991,DESKTOP-K0JN836,CP1H_C0_V1.00,FinalTest_2019.8.5.0,100620,CP1H 090620 000301,darsini,PASS,497,496,496,496,X,277,393,X,X,248,266,X,,
2020-06-10 16-27-45-573,DESKTOP-K0JN836,CP1H_C0_V1.00,FinalTest_2019.8.5.0,100620,CP1H 090620 000306,darsini,PASS,497,496,496,496,X,277,393,X,X,248,266,X,,
2020-06-10 16-28-10-136,DESKTOP-K0JN836,CP1H_C0_V1.00,FinalTest_2019.8.5.0,100620,,darsini,PASS,497,496,496,496,X,277,393,X,X,248,266,X,,
2020-06-10 16-28-11-766,DESKTOP-K0JN836,CP1H_C0_V1.00,FinalTest_2019.8.5.0,100620,CP1H 090620 000306,darsini,PASS,497,496,496,496,X,277,393,X,X,248,266,X,,
2020-06-10 16-28-49-467,DESKTOP-K0JN836,CP1H_C0_V1.00,FinalTest_2019.8.5.0,100620,CP1H 090620 000274,darsini,PASS,497,496,496,496,X,281,267,X,X,293,314,X,,
2020-06-10 16-28-49-467,DESKTOP-K0JN836,CP1H_C0_V1.00,FinalTest_2019.8.5.0,100620,CP1H 090620 000274,darsini,PASS,497,496,496,496,X,281,267,X,X,293,314,X,,
2020-06-10 16-29-40-648,DESKTOP-K0JN836,CP1H_C0_V1.00,FinalTest_2019.8.5.0,100620,CP1H 090620 000271,darsini,PASS,442,496,496,496,X,248,255,X,X,284,332,X,,
2020-06-10 16-29-40-648,DESKTOP-K0JN836,CP1H_C0_V1.00,FinalTest_2019.8.5.0,100620,CP1H 090620 000271,darsini,PASS,442,496,496,496,X,248,255,X,X,284,332,X,,
2020-06-10 16-30-29-719,DESKTOP-K0JN836,CP1H_C0_V1.00,FinalTest_2019.8.5.0,100620,CP1H 090620 000272,darsini,PASS,497,496,462,496,X,291,289,X,X,300,292,X,,
2020-06-10 16-30-29-719,DESKTOP-K0JN836,CP1H_C0_V1.00,FinalTest_2019.8.5.0,100620,CP1H 090620 000272,darsini,PASS,497,496,462,496,X,291,289,X,X,300,292,X,,
2020-06-10 16-31-14-730,DESKTOP-K0JN836,CP1H_C0_V1.00,FinalTest_2019.8.5.0,100620,CP1H 090620 000269,darsini,PASS,497,496,462,496,X,291,289,X,X,300,292,X,,
2020-06-10 16-31-32-075,DESKTOP-K0JN836,CP1H_C0_V1.00,FinalTest_2019.8.5.0,100620,,darsini,PASS,497,496,462,496,X,291,289,X,X,300,292,X,,
2020-06-10 16-31-32-973,DESKTOP-K0JN836,CP1H_C0_V1.00,FinalTest_2019.8.5.0,100620,,darsini,PASS,497,496,462,496,X,291,289,X,X,300,292,X,,
2020-06-10 16-31-34-092,DESKTOP-K0JN836,CP1H_C0_V1.00,FinalTest_2019.8.5.0,100620,CP1H 090620 000269,darsini,PASS,494,496,496,496,X,290,260,X,X,296,298,X,,
2020-06-10 16-31-34-092,DESKTOP-K0JN836,CP1H_C0_V1.00,FinalTest_2019.8.5.0,100620,CP1H 090620 000269,darsini,PASS,494,496,496,496,X,290,260,X,X,296,298,X,,
2020-06-10 16-32-28-914,DESKTOP-K0JN836,CP1H_C0_V1.00,FinalTest_2019.8.5.0,100620,CP1H 090620 000267,darsini,PASS,497,496,490,496,X,274,224,X,X,314,295,X,,
2020-06-10 16-32-28-914,DESKTOP-K0JN836,CP1H_C0_V1.00,FinalTest_2019.8.5.0,100620,CP1H 090620 000267,darsini,PASS,497,496,490,496,X,274,224,X,X,314,295,X,,
2020-06-10 16-35-25-707,DESKTOP-K0JN836,CP1H_C0_V1.00,FinalTest_2019.8.5.0,100620,CP1H 090620 000327,darsini,PASS,495,496,496,496,X,279,279,X,X,214,207,X,,
2020-06-10 16-35-25-707,DESKTOP-K0JN836,CP1H_C0_V1.00,FinalTest_2019.8.5.0,100620,CP1H 090620 000327,darsini,PASS,495,496,496,496,X,279,279,X,X,214,207,X,,
2020-06-10 16-36-26-424,DESKTOP-K0JN836,CP1H_C0_V1.00,FinalTest_2019.8.5.0,100620,CP1H 090620 000306,darsini,FAIL,373,414,478,417,X,0,0,X,X,275,256,X,,
2020-06-10 16-36-26-424,DESKTOP-K0JN836,CP1H_C0_V1.00,FinalTest_2019.8.5.0,100620,CP1H 090620 000306,darsini,FAIL,373,414,478,417,X,0,0,X,X,275,256,X,,
2020-06-10 16-37-38-715,DESKTOP-K0JN836,CP1H_C0_V1.00,FinalTest_2019.8.5.0,100620,CP1H 090620 000348,darsini,PASS,497,497,496,496,X,320,325,X,X,316,342,X,,
2020-06-10 16-37-38-715,DESKTOP-K0JN836,CP1H_C0_V1.00,FinalTest_2019.8.5.0,100620,CP1H 090620 000348,darsini,PASS,497,497,496,496,X,320,325,X,X,316,342,X,,
2020-06-10 16-38-23-879,DESKTOP-K0JN836,CP1H_C0_V1.00,FinalTest_2019.8.5.0,100620,CP1H 090620 000349,darsini,PASS,497,497,478,497,X,276,393,X,X,292,283,X,,
2020-06-10 16-38-23-879,DESKTOP-K0JN836,CP1H_C0_V1.00,FinalTest_2019.8.5.0,100620,CP1H 090620 000349,darsini,PASS,497,497,478,497,X,276,393,X,X,292,283,X,,
2020-06-10 16-39-06-934,DESKTOP-K0JN836,CP1H_C0_V1.00,FinalTest_2019.8.5.0,100620,CP1H 090620 000338,darsini,PASS,497,496,496,496,X,344,275,X,X,298,294,X,,
2020-06-10 16-39-06-934,DESKTOP-K0JN836,CP1H_C0_V1.00,FinalTest_2019.8.5.0,100620,CP1H 090620 000338,darsini,PASS,497,496,496,496,X,344,275,X,X,298,294,X,,
2020-06-10 16-39-53-786,DESKTOP-K0JN836,CP1H_C0_V1.00,FinalTest_2019.8.5.0,100620,CP1H 090620 000342,darsini,PASS,496,496,496,493,X,310,282,X,X,270,277,X,,
2020-06-10 16-39-53-786,DESKTOP-K0JN836,CP1H_C0_V1.00,FinalTest_2019.8.5.0,100620,CP1H 090620 000342,darsini,PASS,496,496,496,493,X,310,282,X,X,270,277,X,,
2020-06-10 16-40-39-835,DESKTOP-K0JN836,CP1H_C0_V1.00,FinalTest_2019.8.5.0,100620,CP1H 090620 000339,darsini,FAIL,497,496,481,497,X,0,0,X,X,293,303,X,,
2020-06-10 16-40-39-835,DESKTOP-K0JN836,CP1H_C0_V1.00,FinalTest_2019.8.5.0,100620,CP1H 090620 000339,darsini,FAIL,497,496,481,497,X,0,0,X,X,293,303,X,,
2020-06-10 16-41-33-560,DESKTOP-K0JN836,CP1H_C0_V1.00,FinalTest_2019.8.5.0,100620,CP1H 090620 000344,darsini,PASS,497,496,496,493,X,287,278,X,X,270,263,X,,
2020-06-10 16-41-33-560,DESKTOP-K0JN836,CP1H_C0_V1.00,FinalTest_2019.8.5.0,100620,CP1H 090620 000344,darsini,PASS,497,496,496,493,X,287,278,X,X,270,263,X,,
2020-06-10 16-42-20-236,DESKTOP-K0JN836,CP1H_C0_V1.00,FinalTest_2019.8.5.0,100620,CP1H 090620 000311,darsini,PASS,494,496,496,495,X,236,244,X,X,275,283,X,,
2020-06-10 16-42-20-236,DESKTOP-K0JN836,CP1H_C0_V1.00,FinalTest_2019.8.5.0,100620,CP1H 090620 000311,darsini,PASS,494,496,496,495,X,236,244,X,X,275,283,X,,
2020-06-10 16-43-03-848,DESKTOP-K0JN836,CP1H_C0_V1.00,FinalTest_2019.8.5.0,100620,CP1H 090620 000337,darsini,PASS,497,496,496,496,X,264,257,X,X,284,310,X,,
2020-06-10 16-43-03-848,DESKTOP-K0JN836,CP1H_C0_V1.00,FinalTest_2019.8.5.0,100620,CP1H 090620 000337,darsini,PASS,497,496,496,496,X,264,257,X,X,284,310,X,,
2020-06-10 16-43-57-659,DESKTOP-K0JN836,CP1H_C0_V1.00,FinalTest_2019.8.5.0,100620,CP1H 090620 000353,darsini,PASS,497,497,496,496,X,235,234,X,X,316,301,X,,
2020-06-10 16-43-57-659,DESKTOP-K0JN836,CP1H_C0_V1.00,FinalTest_2019.8.5.0,100620,CP1H 090620 000353,darsini,PASS,497,497,496,496,X,235,234,X,X,316,301,X,,
2020-06-10 16-44-44-691,DESKTOP-K0JN836,CP1H_C0_V1.00,FinalTest_2019.8.5.0,100620,CP1H 090620 000355,darsini,PASS,497,496,496,496,X,283,284,X,X,296,283,X,,
2020-06-10 16-44-44-691,DESKTOP-K0JN836,CP1H_C0_V1.00,FinalTest_2019.8.5.0,100620,CP1H 090620 000355,darsini,PASS,497,496,496,496,X,283,284,X,X,296,283,X,,
2020-06-10 16-45-34-170,DESKTOP-K0JN836,CP1H_C0_V1.00,FinalTest_2019.8.5.0,100620,CP1H 090620 000345,darsini,PASS,497,496,496,496,X,292,257,X,X,282,288,X,,
2020-06-10 16-45-34-170,DESKTOP-K0JN836,CP1H_C0_V1.00,FinalTest_2019.8.5.0,100620,CP1H 090620 000345,darsini,PASS,497,496,496,496,X,292,257,X,X,282,288,X,,
2020-06-10 16-46-18-873,DESKTOP-K0JN836,CP1H_C0_V1.00,FinalTest_2019.8.5.0,100620,CP1H 090620 000356,darsini,PASS,497,497,496,494,X,297,289,X,X,284,299,X,,
2020-06-10 16-46-18-873,DESKTOP-K0JN836,CP1H_C0_V1.00,FinalTest_2019.8.5.0,100620,CP1H 090620 000356,darsini,PASS,497,497,496,494,X,297,289,X,X,284,299,X,,
2020-06-10 16-47-04-349,DESKTOP-K0JN836,CP1H_C0_V1.00,FinalTest_2019.8.5.0,100620,CP1H 090620 000328,darsini,PASS,497,496,496,496,X,293,312,X,X,308,296,X,,
2020-06-10 16-47-04-349,DESKTOP-K0JN836,CP1H_C0_V1.00,FinalTest_2019.8.5.0,100620,CP1H 090620 000328,darsini,PASS,497,496,496,496,X,293,312,X,X,308,296,X,,
2020-06-10 16-47-52-625,DESKTOP-K0JN836,CP1H_C0_V1.00,FinalTest_2019.8.5.0,100620,CP1H 090620 000360,darsini,PASS,497,496,496,496,X,279,284,X,X,392,322,X,,
2020-06-10 16-47-52-625,DESKTOP-K0JN836,CP1H_C0_V1.00,FinalTest_2019.8.5.0,100620,CP1H 090620 000360,darsini,PASS,497,496,496,496,X,279,284,X,X,392,322,X,,
2020-06-10 16-48-42-011,DESKTOP-K0JN836,CP1H_C0_V1.00,FinalTest_2019.8.5.0,100620,CP1H 090620 000331,darsini,PASS,496,497,447,463,X,246,260,X,X,238,250,X,,
2020-06-10 16-48-42-011,DESKTOP-K0JN836,CP1H_C0_V1.00,FinalTest_2019.8.5.0,100620,CP1H 090620 000331,darsini,PASS,496,497,447,463,X,246,260,X,X,238,250,X,,
2020-06-10 16-50-07-341,DESKTOP-K0JN836,CP1H_C0_V1.00,FinalTest_2019.8.5.0,100620,CP1H 090620 000326,darsini,PASS,497,496,496,496,X,285,295,X,X,294,393,X,,
2020-06-10 16-50-07-341,DESKTOP-K0JN836,CP1H_C0_V1.00,FinalTest_2019.8.5.0,100620,CP1H 090620 000326,darsini,PASS,497,496,496,496,X,285,295,X,X,294,393,X,,
2020-06-10 16-51-05-371,DESKTOP-K0JN836,CP1H_C0_V1.00,FinalTest_2019.8.5.0,100620,CP1H 090620 000326,darsini,PASS,497,496,496,496,X,348,304,X,X,288,295,X,,
2020-06-10 16-51-05-371,DESKTOP-K0JN836,CP1H_C0_V1.00,FinalTest_2019.8.5.0,100620,CP1H 090620 000326,darsini,PASS,497,496,496,496,X,348,304,X,X,288,295,X,,
2020-06-10 16-51-51-734,DESKTOP-K0JN836,CP1H_C0_V1.00,FinalTest_2019.8.5.0,100620,CP1H 090620 000325,darsini,PASS,497,496,496,496,X,287,277,X,X,315,336,X,,
2020-06-10 16-51-51-734,DESKTOP-K0JN836,CP1H_C0_V1.00,FinalTest_2019.8.5.0,100620,CP1H 090620 000325,darsini,PASS,497,496,496,496,X,287,277,X,X,315,336,X,,
2020-06-10 16-52-37-096,DESKTOP-K0JN836,CP1H_C0_V1.00,FinalTest_2019.8.5.0,100620,CP1H 090620 000334,darsini,PASS,460,404,429,496,X,214,244,X,X,216,249,X,,
2020-06-10 16-52-37-096,DESKTOP-K0JN836,CP1H_C0_V1.00,FinalTest_2019.8.5.0,100620,CP1H 090620 000334,darsini,PASS,460,404,429,496,X,214,244,X,X,216,249,X,,
2020-06-10 16-53-19-300,DESKTOP-K0JN836,CP1H_C0_V1.00,FinalTest_2019.8.5.0,100620,CP1H 090620 000336,darsini,FAIL,497,431,446,496,X,268,277,X,X,0,258,X,,
2020-06-10 16-53-19-300,DESKTOP-K0JN836,CP1H_C0_V1.00,FinalTest_2019.8.5.0,100620,CP1H 090620 000336,darsini,FAIL,497,431,446,496,X,268,277,X,X,0,258,X,,
2020-06-10 16-53-56-622,DESKTOP-K0JN836,CP1H_C0_V1.00,FinalTest_2019.8.5.0,100620,CP1H 090620 000336,darsini,PASS,497,444,449,481,X,286,281,X,X,216,260,X,,
2020-06-10 16-53-56-622,DESKTOP-K0JN836,CP1H_C0_V1.00,FinalTest_2019.8.5.0,100620,CP1H 090620 000336,darsini,PASS,497,444,449,481,X,286,281,X,X,216,260,X,,
2020-06-10 16-54-43-680,DESKTOP-K0JN836,CP1H_C0_V1.00,FinalTest_2019.8.5.0,100620,CP1H 090620 000359,darsini,PASS,497,496,496,496,X,263,256,X,X,279,283,X,,
2020-06-10 16-54-43-680,DESKTOP-K0JN836,CP1H_C0_V1.00,FinalTest_2019.8.5.0,100620,CP1H 090620 000359,darsini,PASS,497,496,496,496,X,263,256,X,X,279,283,X,,
2020-06-10 16-55-30-953,DESKTOP-K0JN836,CP1H_C0_V1.00,FinalTest_2019.8.5.0,100620,CP1H 090620 000357,darsini,FAIL,497,496,472,496,X,0,217,X,X,278,284,X,,
2020-06-10 16-55-30-953,DESKTOP-K0JN836,CP1H_C0_V1.00,FinalTest_2019.8.5.0,100620,CP1H 090620 000357,darsini,FAIL,497,496,472,496,X,0,217,X,X,278,284,X,,
2020-06-10 16-56-05-347,DESKTOP-K0JN836,CP1H_C0_V1.00,FinalTest_2019.8.5.0,100620,CP1H 090620 000357,darsini,FAIL,494,496,463,496,X,0,204,X,X,278,274,X,,
2020-06-10 16-56-05-347,DESKTOP-K0JN836,CP1H_C0_V1.00,FinalTest_2019.8.5.0,100620,CP1H 090620 000357,darsini,FAIL,494,496,463,496,X,0,204,X,X,278,274,X,,
2020-06-10 16-56-55-159,DESKTOP-K0JN836,CP1H_C0_V1.00,FinalTest_2019.8.5.0,100620,CP1H 090620 000347,darsini,PASS,496,497,495,496,X,288,283,X,X,302,300,X,,
2020-06-10 16-56-55-159,DESKTOP-K0JN836,CP1H_C0_V1.00,FinalTest_2019.8.5.0,100620,CP1H 090620 000347,darsini,PASS,496,497,495,496,X,288,283,X,X,302,300,X,,
2020-06-10 16-57-46-228,DESKTOP-K0JN836,CP1H_C0_V1.00,FinalTest_2019.8.5.0,100620,CP1H 090620 000350,darsini,PASS,497,497,496,496,X,279,283,X,X,279,282,X,,
2020-06-10 16-57-46-228,DESKTOP-K0JN836,CP1H_C0_V1.00,FinalTest_2019.8.5.0,100620,CP1H 090620 000350,darsini,PASS,497,497,496,496,X,279,283,X,X,279,282,X,,
2020-06-10 16-58-33-581,DESKTOP-K0JN836,CP1H_C0_V1.00,FinalTest_2019.8.5.0,100620,CP1H 090620 000351,darsini,PASS,495,496,496,496,X,240,265,X,X,247,269,X,,
2020-06-10 16-58-33-581,DESKTOP-K0JN836,CP1H_C0_V1.00,FinalTest_2019.8.5.0,100620,CP1H 090620 000351,darsini,PASS,495,496,496,496,X,240,265,X,X,247,269,X,,
2020-06-10 16-59-21-514,DESKTOP-K0JN836,CP1H_C0_V1.00,FinalTest_2019.8.5.0,100620,CP1H 090620 000314,darsini,FAIL,497,494,496,496,X,0,229,X,X,272,311,X,,
2020-06-10 16-59-21-514,DESKTOP-K0JN836,CP1H_C0_V1.00,FinalTest_2019.8.5.0,100620,CP1H 090620 000314,darsini,FAIL,497,494,496,496,X,0,229,X,X,272,311,X,,
2020-06-10 16-59-50-630,DESKTOP-K0JN836,CP1H_C0_V1.00,FinalTest_2019.8.5.0,100620,CP1H 090620 000314,darsini,FAIL,462,496,435,496,X,0,232,X,X,262,293,X,,
2020-06-10 16-59-50-630,DESKTOP-K0JN836,CP1H_C0_V1.00,FinalTest_2019.8.5.0,100620,CP1H 090620 000314,darsini,FAIL,462,496,435,496,X,0,232,X,X,262,293,X,,
2020-06-10 17-00-49-149,DESKTOP-K0JN836,CP1H_C0_V1.00,FinalTest_2019.8.5.0,100620,CP1H 090620 000317,darsini,PASS,497,496,489,496,X,276,255,X,X,297,312,X,,
2020-06-10 17-00-49-149,DESKTOP-K0JN836,CP1H_C0_V1.00,FinalTest_2019.8.5.0,100620,CP1H 090620 000317,darsini,PASS,497,496,489,496,X,276,255,X,X,297,312,X,,
2020-06-10 17-01-30-362,DESKTOP-K0JN836,CP1H_C0_V1.00,FinalTest_2019.8.5.0,100620,CP1H 090620 000316,darsini,PASS,496,496,496,496,X,244,267,X,X,282,290,X,,
2020-06-10 17-01-30-362,DESKTOP-K0JN836,CP1H_C0_V1.00,FinalTest_2019.8.5.0,100620,CP1H 090620 000316,darsini,PASS,496,496,496,496,X,244,267,X,X,282,290,X,,
2020-06-10 17-02-14-859,DESKTOP-K0JN836,CP1H_C0_V1.00,FinalTest_2019.8.5.0,100620,CP1H 090620 000319,darsini,PASS,496,496,496,496,X,263,273,X,X,298,284,X,,
2020-06-10 17-02-14-859,DESKTOP-K0JN836,CP1H_C0_V1.00,FinalTest_2019.8.5.0,100620,CP1H 090620 000319,darsini,PASS,496,496,496,496,X,263,273,X,X,298,284,X,,
2020-06-10 17-03-03-338,DESKTOP-K0JN836,CP1H_C0_V1.00,FinalTest_2019.8.5.0,100620,CP1H 090620 000318,darsini,PASS,497,497,496,496,X,274,284,X,X,300,314,X,,
2020-06-10 17-03-03-338,DESKTOP-K0JN836,CP1H_C0_V1.00,FinalTest_2019.8.5.0,100620,CP1H 090620 000318,darsini,PASS,497,497,496,496,X,274,284,X,X,300,314,X,,
2020-06-10 17-03-48-057,DESKTOP-K0JN836,CP1H_C0_V1.00,FinalTest_2019.8.5.0,100620,CP1H 090620 000315,darsini,FAIL,414,404,490,496,X,245,0,X,X,269,290,X,,
2020-06-10 17-03-48-057,DESKTOP-K0JN836,CP1H_C0_V1.00,FinalTest_2019.8.5.0,100620,CP1H 090620 000315,darsini,FAIL,414,404,490,496,X,245,0,X,X,269,290,X,,
2020-06-10 17-04-45-665,DESKTOP-K0JN836,CP1H_C0_V1.00,FinalTest_2019.8.5.0,100620,CP1H 090620 000321,darsini,PASS,497,496,496,496,X,327,249,X,X,309,315,X,,
2020-06-10 17-04-45-665,DESKTOP-K0JN836,CP1H_C0_V1.00,FinalTest_2019.8.5.0,100620,CP1H 090620 000321,darsini,PASS,497,496,496,496,X,327,249,X,X,309,315,X,,
2020-06-10 17-05-41-862,DESKTOP-K0JN836,CP1H_C0_V1.00,FinalTest_2019.8.5.0,100620,CP1H 090620 000329,darsini,PASS,495,497,496,496,X,258,253,X,X,333,290,X,,
2020-06-10 17-05-41-862,DESKTOP-K0JN836,CP1H_C0_V1.00,FinalTest_2019.8.5.0,100620,CP1H 090620 000329,darsini,PASS,495,497,496,496,X,258,253,X,X,333,290,X,,
2020-06-10 17-06-28-873,DESKTOP-K0JN836,CP1H_C0_V1.00,FinalTest_2019.8.5.0,100620,CP1H 090620 000320,darsini,FAIL,480,496,480,496,X,0,0,X,X,274,269,X,,
2020-06-10 17-06-28-873,DESKTOP-K0JN836,CP1H_C0_V1.00,FinalTest_2019.8.5.0,100620,CP1H 090620 000320,darsini,FAIL,480,496,480,496,X,0,0,X,X,274,269,X,,
2020-06-10 17-07-31-431,DESKTOP-K0JN836,CP1H_C0_V1.00,FinalTest_2019.8.5.0,100620,CP1H 090620 000323,darsini,PASS,497,496,496,494,X,292,294,X,X,281,268,X,,
2020-06-10 17-07-31-431,DESKTOP-K0JN836,CP1H_C0_V1.00,FinalTest_2019.8.5.0,100620,CP1H 090620 000323,darsini,PASS,497,496,496,494,X,292,294,X,X,281,268,X,,
2020-06-10 17-08-17-983,DESKTOP-K0JN836,CP1H_C0_V1.00,FinalTest_2019.8.5.0,100620,CP1H 090620 000322,darsini,PASS,496,497,496,496,X,282,284,X,X,297,291,X,,
2020-06-10 17-08-17-983,DESKTOP-K0JN836,CP1H_C0_V1.00,FinalTest_2019.8.5.0,100620,CP1H 090620 000322,darsini,PASS,496,497,496,496,X,282,284,X,X,297,291,X,,
