Time,Equipment,Model,SWVersion,LotName,Barcode,Operator,Result,Count,,
2020-06-04 08-30-47-239,DESKTOP-K0JN836,CP1H_C0_V1.00,FinalTest_2019.8.5.0,4620,030620 000033,darsini,EMPTY,0,,
2020-06-04 08-32-37-004,DESKTOP-K0JN836,CP1H_C0_V1.00,FinalTest_2019.8.5.0,4620,030620 00059,darsini,PASS,0,,
2020-06-04 08-34-10-327,DESKTOP-K0JN836,CP1H_C0_V1.00,FinalTest_2019.8.5.0,4620,030620 000060,darsini,PASS,0,,
2020-06-04 08-35-57-412,DESKTOP-K0JN836,CP1H_C0_V1.00,FinalTest_2019.8.5.0,4620,030620 000052,darsini,PASS,0,,
2020-06-04 08-38-08-546,DESKTOP-K0JN836,CP1H_C0_V1.00,FinalTest_2019.8.5.0,4620,030620 000057,darsini,PASS,0,,
2020-06-04 08-39-49-088,DESKTOP-K0JN836,CP1H_C0_V1.00,FinalTest_2019.8.5.0,4620,030620 00067,darsini,PASS,0,,
2020-06-04 08-41-50-596,DESKTOP-K0JN836,CP1H_C0_V1.00,FinalTest_2019.8.5.0,4620,030620 000069,darsini,PASS,0,,
2020-06-04 08-43-28-280,DESKTOP-K0JN836,CP1H_C0_V1.00,FinalTest_2019.8.5.0,4620,030620 000063,darsini,PASS,0,,
2020-06-04 08-45-11-514,DESKTOP-K0JN836,CP1H_C0_V1.00,FinalTest_2019.8.5.0,4620,030620 000056,darsini,PASS,0,,
2020-06-04 08-47-17-131,DESKTOP-K0JN836,CP1H_C0_V1.00,FinalTest_2019.8.5.0,4620,030620 000064,darsini,PASS,0,,
2020-06-04 08-49-13-003,DESKTOP-K0JN836,CP1H_C0_V1.00,FinalTest_2019.8.5.0,4620,030620 000025 ,darsini,PASS,0,,
2020-06-04 08-50-35-664,DESKTOP-K0JN836,CP1H_C0_V1.00,FinalTest_2019.8.5.0,4620,030620 000053,darsini,PASS,0,,
2020-06-04 08-52-11-059,DESKTOP-K0JN836,CP1H_C0_V1.00,FinalTest_2019.8.5.0,4620,030620 000061,darsini,PASS,0,,
2020-06-04 08-53-37-731,DESKTOP-K0JN836,CP1H_C0_V1.00,FinalTest_2019.8.5.0,4620,030620 000058,darsini,PASS,0,,
2020-06-04 09-02-35-352,DESKTOP-K0JN836,CP1H_C0_V1.00,FinalTest_2019.8.5.0,4620,030620 000117,darsini,PASS,0,,
2020-06-04 09-05-14-032,DESKTOP-K0JN836,CP1H_C0_V1.00,FinalTest_2019.8.5.0,4620,030620 000120,darsini,PASS,0,,
2020-06-04 09-06-52-031,DESKTOP-K0JN836,CP1H_C0_V1.00,FinalTest_2019.8.5.0,4620,030620 000074,darsini,PASS,0,,
2020-06-04 09-08-42-698,DESKTOP-K0JN836,CP1H_C0_V1.00,FinalTest_2019.8.5.0,4620,030620 000088,darsini,PASS,0,,
2020-06-04 09-10-14-511,DESKTOP-K0JN836,CP1H_C0_V1.00,FinalTest_2019.8.5.0,4620,030620 000115,darsini,PASS,0,,
2020-06-04 09-12-52-521,DESKTOP-K0JN836,CP1H_C0_V1.00,FinalTest_2019.8.5.0,4620,030620 000118,darsini,PASS,0,,
2020-06-04 09-14-53-906,DESKTOP-K0JN836,CP1H_C0_V1.00,FinalTest_2019.8.5.0,4620,030620 000114,darsini,PASS,0,,
2020-06-04 09-17-06-577,DESKTOP-K0JN836,CP1H_C0_V1.00,FinalTest_2019.8.5.0,4620,030620 000093,darsini,PASS,0,,
2020-06-04 09-18-55-524,DESKTOP-K0JN836,CP1H_C0_V1.00,FinalTest_2019.8.5.0,4620,030620 000081,darsini,PASS,0,,
2020-06-04 09-22-12-662,DESKTOP-K0JN836,CP1H_C0_V1.00,FinalTest_2019.8.5.0,4620,030620 000087,darsini,PASS,0,,
2020-06-04 09-24-17-218,DESKTOP-K0JN836,CP1H_C0_V1.00,FinalTest_2019.8.5.0,4620,030620 000091,darsini,PASS,0,,
2020-06-04 09-26-22-673,DESKTOP-K0JN836,CP1H_C0_V1.00,FinalTest_2019.8.5.0,4620,030620 000083,darsini,PASS,0,,
2020-06-04 09-27-07-745,DESKTOP-K0JN836,CP1H_C0_V1.00,FinalTest_2019.8.5.0,4620,030620 000083,darsini,PASS,0,,
2020-06-04 09-33-32-012,DESKTOP-K0JN836,CP1H_C0_V1.00,FinalTest_2019.8.5.0,4620,030620 00100,darsini,PASS,0,,
2020-06-04 09-36-06-897,DESKTOP-K0JN836,CP1H_C0_V1.00,FinalTest_2019.8.5.0,4620,030620 000085,darsini,PASS,0,,
2020-06-04 09-38-48-567,DESKTOP-K0JN836,CP1H_C0_V1.00,FinalTest_2019.8.5.0,4620,030620 000079,darsini,PASS,0,,
2020-06-04 09-41-25-856,DESKTOP-K0JN836,CP1H_C0_V1.00,FinalTest_2019.8.5.0,4620,030620 000094,darsini,PASS,0,,
2020-06-04 09-43-26-391,DESKTOP-K0JN836,CP1H_C0_V1.00,FinalTest_2019.8.5.0,4620,030620 000071,darsini,PASS,0,,
2020-06-04 09-45-04-556,DESKTOP-K0JN836,CP1H_C0_V1.00,FinalTest_2019.8.5.0,4620,030620 000116,darsini,PASS,0,,
2020-06-04 10-07-49-466,DESKTOP-K0JN836,CP1H_C0_V1.00,FinalTest_2019.8.5.0,4620,0360 000099,darsini,PASS,0,,
2020-06-04 10-10-19-199,DESKTOP-K0JN836,CP1H_C0_V1.00,FinalTest_2019.8.5.0,4620,030620 000077,darsini,PASS,0,,
2020-06-04 10-14-41-841,DESKTOP-K0JN836,CP1H_C0_V1.00,FinalTest_2019.8.5.0,4620,030620 00086,darsini,PASS,0,,
2020-06-04 10-16-15-031,DESKTOP-K0JN836,CP1H_C0_V1.00,FinalTest_2019.8.5.0,4620,030620 000073,darsini,PASS,0,,
2020-06-04 10-17-26-631,DESKTOP-K0JN836,CP1H_C0_V1.00,FinalTest_2019.8.5.0,4620,030620 000105,darsini,PASS,0,,
2020-06-04 10-18-37-797,DESKTOP-K0JN836,CP1H_C0_V1.00,FinalTest_2019.8.5.0,4620,030620 000075,darsini,PASS,0,,
2020-06-04 10-20-26-792,DESKTOP-K0JN836,CP1H_C0_V1.00,FinalTest_2019.8.5.0,4620,030620 000090,darsini,PASS,0,,
2020-06-04 10-21-41-901,DESKTOP-K0JN836,CP1H_C0_V1.00,FinalTest_2019.8.5.0,4620,030620 000106,darsini,PASS,0,,
2020-06-04 10-23-40-070,DESKTOP-K0JN836,CP1H_C0_V1.00,FinalTest_2019.8.5.0,4620,030620 000109,darsini,PASS,0,,
2020-06-04 10-25-29-813,DESKTOP-K0JN836,CP1H_C0_V1.00,FinalTest_2019.8.5.0,4620,030620 000112,darsini,PASS,0,,
2020-06-04 10-26-52-865,DESKTOP-K0JN836,CP1H_C0_V1.00,FinalTest_2019.8.5.0,4620,030620 000076,darsini,PASS,0,,
2020-06-04 10-27-48-081,DESKTOP-K0JN836,CP1H_C0_V1.00,FinalTest_2019.8.5.0,4620,CP1P 030620 000078,darsini,PASS,0,,
2020-06-04 10-28-44-306,DESKTOP-K0JN836,CP1H_C0_V1.00,FinalTest_2019.8.5.0,4620,CP1P 030620 000103,darsini,PASS,0,,
2020-06-04 10-29-42-196,DESKTOP-K0JN836,CP1H_C0_V1.00,FinalTest_2019.8.5.0,4620,CP1P 030620 000104,darsini,PASS,0,,
2020-06-04 10-30-23-571,DESKTOP-K0JN836,CP1H_C0_V1.00,FinalTest_2019.8.5.0,4620,CP1P 030620 000104,darsini,PASS,0,,
2020-06-04 10-31-25-359,DESKTOP-K0JN836,CP1H_C0_V1.00,FinalTest_2019.8.5.0,4620,CP1P 030620 000108,darsini,PASS,0,,
2020-06-04 10-32-46-613,DESKTOP-K0JN836,CP1H_C0_V1.00,FinalTest_2019.8.5.0,4620,CP1P 030620 000110,darsini,FAIL,1,,
2020-06-04 10-33-30-764,DESKTOP-K0JN836,CP1H_C0_V1.00,FinalTest_2019.8.5.0,4620,CP1P 030620 000110,darsini,FAIL,1,,
2020-06-04 10-34-15-628,DESKTOP-K0JN836,CP1H_C0_V1.00,FinalTest_2019.8.5.0,4620,CP1P 030620 000110,darsini,PASS,0,,
2020-06-04 10-35-26-916,DESKTOP-K0JN836,CP1H_C0_V1.00,FinalTest_2019.8.5.0,4620,CP1P 030620 000082,darsini,PASS,0,,
2020-06-04 10-47-59-361,DESKTOP-K0JN836,CP1H_C0_V1.00,FinalTest_2019.8.5.0,4620,CP1P 030620 000119,darsini,PASS,0,,
2020-06-04 10-48-44-033,DESKTOP-K0JN836,CP1H_C0_V1.00,FinalTest_2019.8.5.0,4620,CP1P 030620 000084,darsini,PASS,0,,
2020-06-04 10-49-38-736,DESKTOP-K0JN836,CP1H_C0_V1.00,FinalTest_2019.8.5.0,4620,CP1P 030620 000095,darsini,PASS,0,,
2020-06-04 10-54-32-444,DESKTOP-K0JN836,CP1H_C0_V1.00,FinalTest_2019.8.5.0,4620,CP1P 030620 000107,darsini,PASS,0,,
2020-06-04 10-55-48-568,DESKTOP-K0JN836,CP1H_C0_V1.00,FinalTest_2019.8.5.0,4620,CP1P 030620 000092,darsini,PASS,0,,
2020-06-04 10-56-41-854,DESKTOP-K0JN836,CP1H_C0_V1.00,FinalTest_2019.8.5.0,4620,CP1P 030620 000072,darsini,PASS,0,,
2020-06-04 10-57-28-038,DESKTOP-K0JN836,CP1H_C0_V1.00,FinalTest_2019.8.5.0,4620,CP1P 030620 000089,darsini,PASS,0,,
2020-06-04 10-58-19-526,DESKTOP-K0JN836,CP1H_C0_V1.00,FinalTest_2019.8.5.0,4620,CP1P 030620 000096,darsini,PASS,0,,
2020-06-04 10-59-25-800,DESKTOP-K0JN836,CP1H_C0_V1.00,FinalTest_2019.8.5.0,4620,CP1P 030620 000113,darsini,PASS,0,,
2020-06-04 11-00-07-265,DESKTOP-K0JN836,CP1H_C0_V1.00,FinalTest_2019.8.5.0,4620,CP1P 030620 000098,darsini,PASS,0,,
2020-06-04 11-00-52-844,DESKTOP-K0JN836,CP1H_C0_V1.00,FinalTest_2019.8.5.0,4620,CP1P 030620 000111,darsini,PASS,0,,
2020-06-04 11-02-00-539,DESKTOP-K0JN836,CP1H_C0_V1.00,FinalTest_2019.8.5.0,4620,CP1P 030620 000080,darsini,PASS,0,,
2020-06-04 11-02-42-688,DESKTOP-K0JN836,CP1H_C0_V1.00,FinalTest_2019.8.5.0,4620,CP1P 030620 000101,darsini,PASS,0,,
2020-06-04 11-03-44-932,DESKTOP-K0JN836,CP1H_C0_V1.00,FinalTest_2019.8.5.0,4620,CP1P 030620 000102,darsini,PASS,0,,
2020-06-04 11-04-29-205,DESKTOP-K0JN836,CP1H_C0_V1.00,FinalTest_2019.8.5.0,4620,CP1P 030620 000097,darsini,PASS,0,,
2020-06-04 11-08-45-508,DESKTOP-K0JN836,CP1H_C0_V1.00,FinalTest_2019.8.5.0,4620,CP1P 030620 000033,darsini,PASS,0,,
2020-06-04 11-10-29-887,DESKTOP-K0JN836,CP1H_C0_V1.00,FinalTest_2019.8.5.0,4620,CP1P 030620 000089,darsini,PASS,0,,
2020-06-04 11-11-14-666,DESKTOP-K0JN836,CP1H_C0_V1.00,FinalTest_2019.8.5.0,4620,CP1P 030620 000068,darsini,PASS,0,,
2020-06-04 11-11-59-664,DESKTOP-K0JN836,CP1H_C0_V1.00,FinalTest_2019.8.5.0,4620,CP1P 030620 000081,darsini,PASS,0,,
2020-06-04 11-12-40-090,DESKTOP-K0JN836,CP1H_C0_V1.00,FinalTest_2019.8.5.0,4620,CP1P 030620 000025,darsini,FAIL,1,,
2020-06-04 11-13-55-345,DESKTOP-K0JN836,CP1H_C0_V1.00,FinalTest_2019.8.5.0,4620,CP1P 030620 000025,darsini,FAIL,1,,
2020-06-04 11-15-09-864,DESKTOP-K0JN836,CP1H_C0_V1.00,FinalTest_2019.8.5.0,4620,CP1P 030620 000104,darsini,PASS,0,,
2020-06-04 11-16-17-318,DESKTOP-K0JN836,CP1H_C0_V1.00,FinalTest_2019.8.5.0,4620,CP1P 030620 000085,darsini,PASS,0,,
2020-06-04 11-18-50-614,DESKTOP-K0JN836,CP1H_C0_V1.00,FinalTest_2019.8.5.0,4620,CP1P 030620 000050,b,PASS,0,,
2020-06-04 11-23-49-606,DESKTOP-K0JN836,CP1H_C0_V1.00,FinalTest_2019.8.5.0,4620,CP1P 020620 000053,v,PASS,0,,
2020-06-04 11-44-15-601,DESKTOP-K0JN836,CP1H_C0_V1.00,FinalTest_2019.8.5.0,4620,CP1P 040620 000042,darsini,PASS,0,,
2020-06-04 11-45-35-935,DESKTOP-K0JN836,CP1H_C0_V1.00,FinalTest_2019.8.5.0,4620,CP1P 040620 000019,darsini,PASS,0,,
2020-06-04 11-46-22-744,DESKTOP-K0JN836,CP1H_C0_V1.00,FinalTest_2019.8.5.0,4620,CP1P 040620 000012,darsini,PASS,0,,
2020-06-04 11-47-06-552,DESKTOP-K0JN836,CP1H_C0_V1.00,FinalTest_2019.8.5.0,4620,CP1P 040620 000021,darsini,PASS,0,,
2020-06-04 11-47-52-915,DESKTOP-K0JN836,CP1H_C0_V1.00,FinalTest_2019.8.5.0,4620,CP1P 040620 000024,darsini,PASS,0,,
2020-06-04 11-48-36-683,DESKTOP-K0JN836,CP1H_C0_V1.00,FinalTest_2019.8.5.0,4620,CP1P 040620 000023,darsini,PASS,0,,
2020-06-04 11-51-07-976,DESKTOP-K0JN836,CP1H_C0_V1.00,FinalTest_2019.8.5.0,4620,CP1P 040620 000016,darsini,PASS,0,,
2020-06-04 11-51-49-704,DESKTOP-K0JN836,CP1H_C0_V1.00,FinalTest_2019.8.5.0,4620,CP1P 040620 000013,darsini,PASS,0,,
2020-06-04 11-52-30-985,DESKTOP-K0JN836,CP1H_C0_V1.00,FinalTest_2019.8.5.0,4620,CP1P 040620 000018,darsini,PASS,0,,
2020-06-04 11-53-19-775,DESKTOP-K0JN836,CP1H_C0_V1.00,FinalTest_2019.8.5.0,4620,CP1P 040620 000022,darsini,PASS,0,,
2020-06-04 11-54-25-950,DESKTOP-K0JN836,CP1H_C0_V1.00,FinalTest_2019.8.5.0,4620,CP1P 040620 000014,darsini,PASS,0,,
2020-06-04 11-55-13-914,DESKTOP-K0JN836,CP1H_C0_V1.00,FinalTest_2019.8.5.0,4620,CP1P 040620 000058,darsini,PASS,0,,
2020-06-04 11-55-59-588,DESKTOP-K0JN836,CP1H_C0_V1.00,FinalTest_2019.8.5.0,4620,CP1P 040620 000005,darsini,PASS,0,,
2020-06-04 11-56-51-065,DESKTOP-K0JN836,CP1H_C0_V1.00,FinalTest_2019.8.5.0,4620,CP1P 040620 000004,darsini,PASS,0,,
2020-06-04 11-57-31-682,DESKTOP-K0JN836,CP1H_C0_V1.00,FinalTest_2019.8.5.0,4620,CP1P 040620 000008,darsini,PASS,0,,
2020-06-04 11-58-12-928,DESKTOP-K0JN836,CP1H_C0_V1.00,FinalTest_2019.8.5.0,4620,CP1P 040620 000001,darsini,PASS,0,,
2020-06-04 11-59-00-411,DESKTOP-K0JN836,CP1H_C0_V1.00,FinalTest_2019.8.5.0,4620,CP1P 040620 000011,darsini,PASS,0,,
2020-06-04 11-59-59-446,DESKTOP-K0JN836,CP1H_C0_V1.00,FinalTest_2019.8.5.0,4620,CP1P 040620 000017,darsini,PASS,0,,
2020-06-04 12-38-47-185,DESKTOP-K0JN836,CP1H_C0_V1.00,FinalTest_2019.8.5.0,4620,CP1P 040620 000020,darsini,PASS,0,,
2020-06-04 12-43-15-006,DESKTOP-K0JN836,CP1H_C0_V1.00,FinalTest_2019.8.5.0,4620,CP1P 040620 000046,darsini,PASS,0,,
2020-06-04 12-44-07-589,DESKTOP-K0JN836,CP1H_C0_V1.00,FinalTest_2019.8.5.0,4620,CP1P 040620 000015,darsini,PASS,0,,
2020-06-04 12-45-52-343,DESKTOP-K0JN836,CP1H_C0_V1.00,FinalTest_2019.8.5.0,4620,CP1P 040620 000006,darsini,PASS,0,,
2020-06-04 12-46-38-092,DESKTOP-K0JN836,CP1H_C0_V1.00,FinalTest_2019.8.5.0,4620,CP1P 040620 000009,darsini,PASS,0,,
2020-06-04 12-47-35-487,DESKTOP-K0JN836,CP1H_C0_V1.00,FinalTest_2019.8.5.0,4620,CP1P 040620 000052,darsini,PASS,0,,
2020-06-04 12-48-19-977,DESKTOP-K0JN836,CP1H_C0_V1.00,FinalTest_2019.8.5.0,4620,CP1P 040620 000057,darsini,PASS,0,,
2020-06-04 12-49-03-616,DESKTOP-K0JN836,CP1H_C0_V1.00,FinalTest_2019.8.5.0,4620,CP1P 040620 000049,darsini,PASS,0,,
2020-06-04 12-49-48-886,DESKTOP-K0JN836,CP1H_C0_V1.00,FinalTest_2019.8.5.0,4620,CP1P 040620 000050,darsini,PASS,0,,
2020-06-04 12-50-34-376,DESKTOP-K0JN836,CP1H_C0_V1.00,FinalTest_2019.8.5.0,4620,CP1P 040620 000061,darsini,PASS,0,,
2020-06-04 12-51-23-337,DESKTOP-K0JN836,CP1H_C0_V1.00,FinalTest_2019.8.5.0,4620,CP1P 040620 000060,darsini,PASS,0,,
2020-06-04 13-07-54-174,DESKTOP-K0JN836,CP1H_C0_V1.00,FinalTest_2019.8.5.0,4620,CP1P 040620 000030,darsini,PASS,0,,
2020-06-04 13-08-35-317,DESKTOP-K0JN836,CP1H_C0_V1.00,FinalTest_2019.8.5.0,4620,CP1P 040620 000055,darsini,PASS,0,,
2020-06-04 13-09-23-103,DESKTOP-K0JN836,CP1H_C0_V1.00,FinalTest_2019.8.5.0,4620,CP1P 040620 000035,darsini,PASS,0,,
2020-06-04 13-10-09-803,DESKTOP-K0JN836,CP1H_C0_V1.00,FinalTest_2019.8.5.0,4620,CP1P 040620 000051,darsini,PASS,0,,
2020-06-04 13-11-00-897,DESKTOP-K0JN836,CP1H_C0_V1.00,FinalTest_2019.8.5.0,4620,CP1P 040620 000059,darsini,PASS,0,,
2020-06-04 13-12-00-807,DESKTOP-K0JN836,CP1H_C0_V1.00,FinalTest_2019.8.5.0,4620,CP1P 040620 000032,darsini,PASS,0,,
2020-06-04 13-12-32-376,DESKTOP-K0JN836,CP1H_C0_V1.00,FinalTest_2019.8.5.0,4620,CP1P 040620 000032,darsini,PASS,0,,
2020-06-04 13-13-19-800,DESKTOP-K0JN836,CP1H_C0_V1.00,FinalTest_2019.8.5.0,4620,CP1P 040620 000029,darsini,PASS,0,,
2020-06-04 13-14-07-975,DESKTOP-K0JN836,CP1H_C0_V1.00,FinalTest_2019.8.5.0,4620,CP1P 040620 000010,darsini,PASS,0,,
2020-06-04 13-16-25-362,DESKTOP-K0JN836,CP1H_C0_V1.00,FinalTest_2019.8.5.0,4620,CP1P 040620 000036,darsini,PASS,0,,
2020-06-04 13-17-34-675,DESKTOP-K0JN836,CP1H_C0_V1.00,FinalTest_2019.8.5.0,4620,CP1P 040620 000027,darsini,PASS,0,,
2020-06-04 13-18-22-141,DESKTOP-K0JN836,CP1H_C0_V1.00,FinalTest_2019.8.5.0,4620,CP1P 040620 000007,darsini,PASS,0,,
2020-06-04 13-19-20-268,DESKTOP-K0JN836,CP1H_C0_V1.00,FinalTest_2019.8.5.0,4620,CP1P 040620 000025,darsini,PASS,0,,
2020-06-04 13-19-54-087,DESKTOP-K0JN836,CP1H_C0_V1.00,FinalTest_2019.8.5.0,4620,CP1P 040620 000025,darsini,PASS,0,,
2020-06-04 13-20-34-869,DESKTOP-K0JN836,CP1H_C0_V1.00,FinalTest_2019.8.5.0,4620,CP1P 040620 000026,darsini,PASS,0,,
2020-06-04 13-21-17-033,DESKTOP-K0JN836,CP1H_C0_V1.00,FinalTest_2019.8.5.0,4620,CP1P 040620 000003,darsini,PASS,0,,
2020-06-04 13-22-01-458,DESKTOP-K0JN836,CP1H_C0_V1.00,FinalTest_2019.8.5.0,4620,CP1P 040620 000002,darsini,PASS,0,,
2020-06-04 13-22-47-437,DESKTOP-K0JN836,CP1H_C0_V1.00,FinalTest_2019.8.5.0,4620,CP1P 040620 000034,darsini,PASS,0,,
2020-06-04 13-23-34-105,DESKTOP-K0JN836,CP1H_C0_V1.00,FinalTest_2019.8.5.0,4620,CP1P 040620 000053,darsini,PASS,0,,
2020-06-04 13-24-18-372,DESKTOP-K0JN836,CP1H_C0_V1.00,FinalTest_2019.8.5.0,4620,CP1P 040620 000028,darsini,PASS,0,,
2020-06-04 13-25-05-253,DESKTOP-K0JN836,CP1H_C0_V1.00,FinalTest_2019.8.5.0,4620,CP1P 040620 000056,darsini,PASS,0,,
2020-06-04 13-26-03-672,DESKTOP-K0JN836,CP1H_C0_V1.00,FinalTest_2019.8.5.0,4620,CP1P 040620 000031,darsini,PASS,0,,
2020-06-04 13-26-54-050,DESKTOP-K0JN836,CP1H_C0_V1.00,FinalTest_2019.8.5.0,4620,CP1P 040620 000062,darsini,PASS,0,,
2020-06-04 13-27-48-768,DESKTOP-K0JN836,CP1H_C0_V1.00,FinalTest_2019.8.5.0,4620,CP1P 040620 000073,darsini,PASS,0,,
2020-06-04 13-28-45-980,DESKTOP-K0JN836,CP1H_C0_V1.00,FinalTest_2019.8.5.0,4620,CP1P 040620 000064,darsini,PASS,0,,
2020-06-04 13-29-34-857,DESKTOP-K0JN836,CP1H_C0_V1.00,FinalTest_2019.8.5.0,4620,CP1P 040620 000077,darsini,PASS,0,,
2020-06-04 13-30-20-408,DESKTOP-K0JN836,CP1H_C0_V1.00,FinalTest_2019.8.5.0,4620,CP1P 040620 000038,darsini,PASS,0,,
2020-06-04 13-31-09-714,DESKTOP-K0JN836,CP1H_C0_V1.00,FinalTest_2019.8.5.0,4620,CP1P 040620 000078,darsini,PASS,0,,
2020-06-04 13-32-01-541,DESKTOP-K0JN836,CP1H_C0_V1.00,FinalTest_2019.8.5.0,4620,CP1P 040620 000076,darsini,PASS,0,,
2020-06-04 13-32-53-914,DESKTOP-K0JN836,CP1H_C0_V1.00,FinalTest_2019.8.5.0,4620,CP1P 040620 000072,darsini,PASS,0,,
2020-06-04 13-33-41-108,DESKTOP-K0JN836,CP1H_C0_V1.00,FinalTest_2019.8.5.0,4620,CP1P 040620 000048,darsini,PASS,0,,
2020-06-04 13-34-30-903,DESKTOP-K0JN836,CP1H_C0_V1.00,FinalTest_2019.8.5.0,4620,CP1P 040620 000063,darsini,PASS,0,,
2020-06-04 13-35-24-567,DESKTOP-K0JN836,CP1H_C0_V1.00,FinalTest_2019.8.5.0,4620,CP1P 040620 000063,darsini,PASS,0,,
2020-06-04 13-36-45-401,DESKTOP-K0JN836,CP1H_C0_V1.00,FinalTest_2019.8.5.0,4620,CP1P 040620 000075,darsini,PASS,0,,
2020-06-04 13-37-53-878,DESKTOP-K0JN836,CP1H_C0_V1.00,FinalTest_2019.8.5.0,4620,CP1P 040620 000071,darsini,PASS,0,,
2020-06-04 13-38-49-085,DESKTOP-K0JN836,CP1H_C0_V1.00,FinalTest_2019.8.5.0,4620,CP1P 040620 000045,darsini,PASS,0,,
2020-06-04 13-39-48-806,DESKTOP-K0JN836,CP1H_C0_V1.00,FinalTest_2019.8.5.0,4620,CP1P 040620 000070,darsini,PASS,0,,
2020-06-04 13-40-33-097,DESKTOP-K0JN836,CP1H_C0_V1.00,FinalTest_2019.8.5.0,4620,CP1P 040620 000074,darsini,PASS,0,,
2020-06-04 13-41-16-640,DESKTOP-K0JN836,CP1H_C0_V1.00,FinalTest_2019.8.5.0,4620,CP1P 040620 000040,darsini,PASS,0,,
2020-06-04 13-42-25-325,DESKTOP-K0JN836,CP1H_C0_V1.00,FinalTest_2019.8.5.0,4620,CP1P 040620 000047,darsini,PASS,0,,
2020-06-04 13-43-12-479,DESKTOP-K0JN836,CP1H_C0_V1.00,FinalTest_2019.8.5.0,4620,CP1P 040620 000044,darsini,PASS,0,,
2020-06-04 13-44-04-230,DESKTOP-K0JN836,CP1H_C0_V1.00,FinalTest_2019.8.5.0,4620,CP1P 040620 000043,darsini,PASS,0,,
2020-06-04 13-44-54-933,DESKTOP-K0JN836,CP1H_C0_V1.00,FinalTest_2019.8.5.0,4620,CP1P 040620 000068,darsini,PASS,0,,
2020-06-04 13-45-41-710,DESKTOP-K0JN836,CP1H_C0_V1.00,FinalTest_2019.8.5.0,4620,CP1P 040620 000041,darsini,PASS,0,,
2020-06-04 13-46-35-991,DESKTOP-K0JN836,CP1H_C0_V1.00,FinalTest_2019.8.5.0,4620,CP1P 040620 000069,darsini,PASS,0,,
2020-06-04 13-47-21-573,DESKTOP-K0JN836,CP1H_C0_V1.00,FinalTest_2019.8.5.0,4620,CP1P 040620 000065,darsini,PASS,0,,
2020-06-04 13-48-12-352,DESKTOP-K0JN836,CP1H_C0_V1.00,FinalTest_2019.8.5.0,4620,CP1P 040620 000037,darsini,PASS,0,,
2020-06-04 13-49-00-647,DESKTOP-K0JN836,CP1H_C0_V1.00,FinalTest_2019.8.5.0,4620,CP1P 040620 000066,darsini,PASS,0,,
2020-06-04 13-50-09-583,DESKTOP-K0JN836,CP1H_C0_V1.00,FinalTest_2019.8.5.0,4620,CP1P 040620 000067,darsini,PASS,0,,
2020-06-04 13-51-55-140,DESKTOP-K0JN836,CP1H_C0_V1.00,FinalTest_2019.8.5.0,4620,CP1P 040620 000039,darsini,PASS,0,,
2020-06-04 13-55-01-018,DESKTOP-K0JN836,CP1H_C0_V1.00,FinalTest_2019.8.5.0,4620,CP1P 040620 000111,darsini,PASS,0,,
2020-06-04 13-55-49-197,DESKTOP-K0JN836,CP1H_C0_V1.00,FinalTest_2019.8.5.0,4620,CP1P 040620 000117,darsini,PASS,0,,
2020-06-04 13-57-26-975,DESKTOP-K0JN836,CP1H_C0_V1.00,FinalTest_2019.8.5.0,4620,CP1P 040620 000115,darsini,PASS,0,,
2020-06-04 13-58-44-400,DESKTOP-K0JN836,CP1H_C0_V1.00,FinalTest_2019.8.5.0,4620,CP1P 040620 000115,darsini,PASS,0,,
2020-06-04 13-59-42-432,DESKTOP-K0JN836,CP1H_C0_V1.00,FinalTest_2019.8.5.0,4620,CP1P 030620 000081,darsini,PASS,0,,
2020-06-04 14-00-36-155,DESKTOP-K0JN836,CP1H_C0_V1.00,FinalTest_2019.8.5.0,4620,CP1P 040620 000119,darsini,PASS,0,,
2020-06-04 14-01-36-491,DESKTOP-K0JN836,CP1H_C0_V1.00,FinalTest_2019.8.5.0,4620,CP1P 040620 000116,darsini,PASS,0,,
2020-06-04 14-02-35-439,DESKTOP-K0JN836,CP1H_C0_V1.00,FinalTest_2019.8.5.0,4620,CP1P 040620 000112,darsini,PASS,0,,
2020-06-04 14-03-34-677,DESKTOP-K0JN836,CP1H_C0_V1.00,FinalTest_2019.8.5.0,4620,CP1P 040620 000088,darsini,PASS,0,,
2020-06-04 14-04-43-858,DESKTOP-K0JN836,CP1H_C0_V1.00,FinalTest_2019.8.5.0,4620,CP1P 040620 000118,darsini,PASS,0,,
2020-06-04 14-05-35-367,DESKTOP-K0JN836,CP1H_C0_V1.00,FinalTest_2019.8.5.0,4620,CP1P 040620 000108,darsini,PASS,0,,
2020-06-04 14-07-22-621,DESKTOP-K0JN836,CP1H_C0_V1.00,FinalTest_2019.8.5.0,4620,CP1P 040620 000114,darsini,PASS,0,,
2020-06-04 14-08-55-123,DESKTOP-K0JN836,CP1H_C0_V1.00,FinalTest_2019.8.5.0,4620,CP1P 040620 000124,darsini,PASS,0,,
2020-06-04 14-09-43-792,DESKTOP-K0JN836,CP1H_C0_V1.00,FinalTest_2019.8.5.0,4620,CP1P 040620 000124,darsini,PASS,0,,
2020-06-04 14-10-41-319,DESKTOP-K0JN836,CP1H_C0_V1.00,FinalTest_2019.8.5.0,4620,CP1P 040620 000120,darsini,PASS,0,,
2020-06-04 14-22-47-278,DESKTOP-K0JN836,CP1H_C0_V1.00,FinalTest_2019.8.5.0,4620,CP1P 040620 000122,darsini,PASS,0,,
2020-06-04 14-26-11-757,DESKTOP-K0JN836,CP1H_C0_V1.00,FinalTest_2019.8.5.0,4620,CP1P 040620 000105,   t,PASS,0,,
2020-06-04 14-27-26-814,DESKTOP-K0JN836,CP1H_C0_V1.00,FinalTest_2019.8.5.0,4620,CP1P 040620 000110,   t,PASS,0,,
2020-06-04 14-28-25-852,DESKTOP-K0JN836,CP1H_C0_V1.00,FinalTest_2019.8.5.0,4620,CP1P 040620 000080,   t,PASS,0,,
2020-06-04 14-29-36-131,DESKTOP-K0JN836,CP1H_C0_V1.00,FinalTest_2019.8.5.0,4620,CP1P 040620 000103,   t,PASS,0,,
2020-06-04 14-30-33-979,DESKTOP-K0JN836,CP1H_C0_V1.00,FinalTest_2019.8.5.0,4620,CP1P 040620 000083,   t,PASS,0,,
2020-06-04 14-31-32-937,DESKTOP-K0JN836,CP1H_C0_V1.00,FinalTest_2019.8.5.0,4620,CP1P 040620 000083,   t,PASS,0,,
2020-06-04 14-32-27-320,DESKTOP-K0JN836,CP1H_C0_V1.00,FinalTest_2019.8.5.0,4620,CP1P 040620 000109,   t,PASS,0,,
2020-06-04 14-33-34-982,DESKTOP-K0JN836,CP1H_C0_V1.00,FinalTest_2019.8.5.0,4620,CP1P 040620 000107,   t,PASS,0,,
2020-06-04 14-36-43-798,DESKTOP-K0JN836,CP1H_C0_V1.00,FinalTest_2019.8.5.0,4620,CP1P 040620 000086,   t,PASS,0,,
2020-06-04 14-37-36-026,DESKTOP-K0JN836,CP1H_C0_V1.00,FinalTest_2019.8.5.0,4620,CP1P 040620 000104,   t,PASS,0,,
2020-06-04 14-38-14-650,DESKTOP-K0JN836,CP1H_C0_V1.00,FinalTest_2019.8.5.0,4620,CP1P 040620 000104,   t,PASS,0,,
2020-06-04 14-39-30-279,DESKTOP-K0JN836,CP1H_C0_V1.00,FinalTest_2019.8.5.0,4620,CP1P 040620 000098,   t,PASS,0,,
2020-06-04 14-40-21-366,DESKTOP-K0JN836,CP1H_C0_V1.00,FinalTest_2019.8.5.0,4620,CP1P 040620 000094,   t,PASS,0,,
2020-06-04 14-41-09-533,DESKTOP-K0JN836,CP1H_C0_V1.00,FinalTest_2019.8.5.0,4620,CP1P 040620 000081,   t,PASS,0,,
2020-06-04 14-41-55-640,DESKTOP-K0JN836,CP1H_C0_V1.00,FinalTest_2019.8.5.0,4620,CP1P 040620 000079,   t,PASS,0,,
2020-06-04 14-43-16-889,DESKTOP-K0JN836,CP1H_C0_V1.00,FinalTest_2019.8.5.0,4620,CP1P 040620 000099,   t,PASS,0,,
2020-06-04 14-44-15-510,DESKTOP-K0JN836,CP1H_C0_V1.00,FinalTest_2019.8.5.0,4620,CP1P 040620 000087,   t,PASS,0,,
2020-06-04 14-45-06-509,DESKTOP-K0JN836,CP1H_C0_V1.00,FinalTest_2019.8.5.0,4620,CP1P 040620 000084,   t,PASS,0,,
2020-06-04 14-45-56-282,DESKTOP-K0JN836,CP1H_C0_V1.00,FinalTest_2019.8.5.0,4620,CP1P 040620 000102,   t,PASS,0,,
2020-06-04 14-46-47-816,DESKTOP-K0JN836,CP1H_C0_V1.00,FinalTest_2019.8.5.0,4620,CP1P 040620 000113,   t,PASS,0,,
2020-06-04 14-47-39-718,DESKTOP-K0JN836,CP1H_C0_V1.00,FinalTest_2019.8.5.0,4620,CP1P 040620 000101,   t,PASS,0,,
2020-06-04 14-53-54-712,DESKTOP-K0JN836,CP1H_C0_V1.00,FinalTest_2019.8.5.0,4620,CP1P 030620 000081,   t,PASS,0,,
2020-06-04 14-59-30-662,DESKTOP-K0JN836,CP1H_C0_V1.00,FinalTest_2019.8.5.0,4620,CP1P 040620 000123,m,PASS,0,,
2020-06-04 15-00-28-984,DESKTOP-K0JN836,CP1H_C0_V1.00,FinalTest_2019.8.5.0,4620,CP1P 040620 000085,m,PASS,0,,
2020-06-04 15-01-43-188,DESKTOP-K0JN836,CP1H_C0_V1.00,FinalTest_2019.8.5.0,4620,CP1P 040620 000089,m,PASS,0,,
2020-06-04 15-02-44-038,DESKTOP-K0JN836,CP1H_C0_V1.00,FinalTest_2019.8.5.0,4620,CP1P 040620 000093,m,PASS,0,,
2020-06-04 15-03-39-556,DESKTOP-K0JN836,CP1H_C0_V1.00,FinalTest_2019.8.5.0,4620,CP1P 040620 000100,m,PASS,0,,
2020-06-04 15-04-33-171,DESKTOP-K0JN836,CP1H_C0_V1.00,FinalTest_2019.8.5.0,4620,CP1P 040620 000082,m,PASS,0,,
2020-06-04 15-05-33-897,DESKTOP-K0JN836,CP1H_C0_V1.00,FinalTest_2019.8.5.0,4620,CP1P 040620 000096,m,PASS,0,,
2020-06-04 15-06-23-676,DESKTOP-K0JN836,CP1H_C0_V1.00,FinalTest_2019.8.5.0,4620,CP1P 040620 000097,m,PASS,0,,
2020-06-04 15-07-08-370,DESKTOP-K0JN836,CP1H_C0_V1.00,FinalTest_2019.8.5.0,4620,CP1P 040620 000095,m,PASS,0,,
2020-06-04 15-07-45-111,DESKTOP-K0JN836,CP1H_C0_V1.00,FinalTest_2019.8.5.0,4620,CP1P 040620 000095,m,PASS,0,,
2020-06-04 15-08-40-140,DESKTOP-K0JN836,CP1H_C0_V1.00,FinalTest_2019.8.5.0,4620,CP1P 040620 000106,m,PASS,0,,
2020-06-04 15-09-37-971,DESKTOP-K0JN836,CP1H_C0_V1.00,FinalTest_2019.8.5.0,4620,CP1P 040620 000091,m,PASS,0,,
2020-06-04 15-10-29-647,DESKTOP-K0JN836,CP1H_C0_V1.00,FinalTest_2019.8.5.0,4620,CP1P 040620 000092,m,PASS,0,,
2020-06-04 15-11-26-396,DESKTOP-K0JN836,CP1H_C0_V1.00,FinalTest_2019.8.5.0,4620,CP1P 040620 000090,m,PASS,0,,
2020-06-04 15-12-22-229,DESKTOP-K0JN836,CP1H_C0_V1.00,FinalTest_2019.8.5.0,4620,CP1P 040620 000121,m,PASS,0,,
2020-06-04 16-01-13-144,DESKTOP-K0JN836,CP1H_C0_V1.00,FinalTest_2019.8.5.0,4620,CP1P 040620 000136,m,PASS,0,,
2020-06-04 16-02-05-909,DESKTOP-K0JN836,CP1H_C0_V1.00,FinalTest_2019.8.5.0,4620,CP1P 040620 000127,m,PASS,0,,
2020-06-04 16-02-57-714,DESKTOP-K0JN836,CP1H_C0_V1.00,FinalTest_2019.8.5.0,4620,CP1P 040620 000142,m,PASS,0,,
2020-06-04 16-03-53-748,DESKTOP-K0JN836,CP1H_C0_V1.00,FinalTest_2019.8.5.0,4620,CP1P 040620 000142,m,PASS,0,,
2020-06-04 16-04-43-352,DESKTOP-K0JN836,CP1H_C0_V1.00,FinalTest_2019.8.5.0,4620,CP1P 040620 000128,m,PASS,0,,
2020-06-04 16-05-19-107,DESKTOP-K0JN836,CP1H_C0_V1.00,FinalTest_2019.8.5.0,4620,CP1P 040620 000128,m,PASS,0,,
2020-06-04 16-06-07-338,DESKTOP-K0JN836,CP1H_C0_V1.00,FinalTest_2019.8.5.0,4620,CP1P 040620 000141,m,PASS,0,,
2020-06-04 16-07-03-298,DESKTOP-K0JN836,CP1H_C0_V1.00,FinalTest_2019.8.5.0,4620,CP1P 040620 000132,m,PASS,0,,
2020-06-04 16-07-54-459,DESKTOP-K0JN836,CP1H_C0_V1.00,FinalTest_2019.8.5.0,4620,CP1P 040620 000133,m,PASS,0,,
2020-06-04 16-08-33-350,DESKTOP-K0JN836,CP1H_C0_V1.00,FinalTest_2019.8.5.0,4620,CP1P 040620 000133,m,PASS,0,,
2020-06-04 16-10-03-090,DESKTOP-K0JN836,CP1H_C0_V1.00,FinalTest_2019.8.5.0,4620,CP1P 040620 000131,m,PASS,0,,
2020-06-04 16-10-48-095,DESKTOP-K0JN836,CP1H_C0_V1.00,FinalTest_2019.8.5.0,4620,CP1P 040620 000143,m,PASS,0,,
2020-06-04 16-11-35-191,DESKTOP-K0JN836,CP1H_C0_V1.00,FinalTest_2019.8.5.0,4620,CP1P 040620 000130,m,PASS,0,,
2020-06-04 16-12-31-701,DESKTOP-K0JN836,CP1H_C0_V1.00,FinalTest_2019.8.5.0,4620,CP1P 040620 000145,m,PASS,0,,
2020-06-04 16-13-34-892,DESKTOP-K0JN836,CP1H_C0_V1.00,FinalTest_2019.8.5.0,4620,CP1P 040620 000126,m,PASS,0,,
2020-06-04 16-14-37-937,DESKTOP-K0JN836,CP1H_C0_V1.00,FinalTest_2019.8.5.0,4620,CP1P 040620 000146,m,PASS,0,,
2020-06-04 16-16-21-389,DESKTOP-K0JN836,CP1H_C0_V1.00,FinalTest_2019.8.5.0,4620,CP1P 040620 000147,m,PASS,0,,
2020-06-04 16-18-45-819,DESKTOP-K0JN836,CP1H_C0_V1.00,FinalTest_2019.8.5.0,4620,CP1P 040620 000151,m,PASS,0,,
2020-06-04 16-19-50-887,DESKTOP-K0JN836,CP1H_C0_V1.00,FinalTest_2019.8.5.0,4620,CP1P 040620 000138,m,PASS,0,,
2020-06-04 16-20-45-886,DESKTOP-K0JN836,CP1H_C0_V1.00,FinalTest_2019.8.5.0,4620,CP1P 040620 000139,m,PASS,0,,
2020-06-04 16-21-46-230,DESKTOP-K0JN836,CP1H_C0_V1.00,FinalTest_2019.8.5.0,4620,CP1P 040620 000137,m,PASS,0,,
2020-06-04 16-22-39-957,DESKTOP-K0JN836,CP1H_C0_V1.00,FinalTest_2019.8.5.0,4620,CP1P 040620 000134,m,PASS,0,,
2020-06-04 16-23-32-835,DESKTOP-K0JN836,CP1H_C0_V1.00,FinalTest_2019.8.5.0,4620,CP1P 040620 000157,m,PASS,0,,
2020-06-04 16-24-23-247,DESKTOP-K0JN836,CP1H_C0_V1.00,FinalTest_2019.8.5.0,4620,CP1P 040620 000144,m,PASS,0,,
2020-06-04 16-25-09-838,DESKTOP-K0JN836,CP1H_C0_V1.00,FinalTest_2019.8.5.0,4620,CP1P 040620 000144,m,PASS,0,,
2020-06-04 16-26-00-117,DESKTOP-K0JN836,CP1H_C0_V1.00,FinalTest_2019.8.5.0,4620,CP1P 040620 000135,m,PASS,0,,
2020-06-04 16-26-43-023,DESKTOP-K0JN836,CP1H_C0_V1.00,FinalTest_2019.8.5.0,4620,CP1P 040620 000135,m,PASS,0,,
2020-06-04 16-27-44-727,DESKTOP-K0JN836,CP1H_C0_V1.00,FinalTest_2019.8.5.0,4620,CP1P 040620 000140,m,PASS,0,,
2020-06-04 16-29-31-100,DESKTOP-K0JN836,CP1H_C0_V1.00,FinalTest_2019.8.5.0,4620,CP1P 040620 000156,m,PASS,0,,
2020-06-04 16-30-47-223,DESKTOP-K0JN836,CP1H_C0_V1.00,FinalTest_2019.8.5.0,4620,CP1P 040620 000156,m,PASS,0,,
2020-06-04 16-32-10-669,DESKTOP-K0JN836,CP1H_C0_V1.00,FinalTest_2019.8.5.0,4620,CP1P 040620 000148,m,PASS,0,,
2020-06-04 16-33-05-968,DESKTOP-K0JN836,CP1H_C0_V1.00,FinalTest_2019.8.5.0,4620,CP1P 040620 000160,m,PASS,0,,
2020-06-04 16-36-39-995,DESKTOP-K0JN836,CP1H_C0_V1.00,FinalTest_2019.8.5.0,4620,CP1P 040620 000160,m,PASS,0,,
2020-06-04 16-37-33-625,DESKTOP-K0JN836,CP1H_C0_V1.00,FinalTest_2019.8.5.0,4620,CP1P 040620 000159,m,PASS,0,,
2020-06-04 16-38-26-837,DESKTOP-K0JN836,CP1H_C0_V1.00,FinalTest_2019.8.5.0,4620,CP1P 040620 000153,m,PASS,0,,
2020-06-04 16-39-19-344,DESKTOP-K0JN836,CP1H_C0_V1.00,FinalTest_2019.8.5.0,4620,CP1P 040620 000158,m,PASS,0,,
2020-06-04 16-40-17-183,DESKTOP-K0JN836,CP1H_C0_V1.00,FinalTest_2019.8.5.0,4620,CP1P 040620 000129,m,PASS,0,,
2020-06-04 16-41-21-848,DESKTOP-K0JN836,CP1H_C0_V1.00,FinalTest_2019.8.5.0,4620,CP1P 040620 000161,m,PASS,0,,
2020-06-04 16-42-16-369,DESKTOP-K0JN836,CP1H_C0_V1.00,FinalTest_2019.8.5.0,4620,CP1P 040620 000162,m,PASS,0,,
2020-06-04 16-43-07-487,DESKTOP-K0JN836,CP1H_C0_V1.00,FinalTest_2019.8.5.0,4620,CP1P 040620 000162,m,PASS,0,,
2020-06-04 16-43-52-155,DESKTOP-K0JN836,CP1H_C0_V1.00,FinalTest_2019.8.5.0,4620,CP1P 040620 000162,m,PASS,0,,
2020-06-04 16-44-55-241,DESKTOP-K0JN836,CP1H_C0_V1.00,FinalTest_2019.8.5.0,4620,CP1P 040620 000155,m,PASS,0,,
2020-06-04 16-46-00-815,DESKTOP-K0JN836,CP1H_C0_V1.00,FinalTest_2019.8.5.0,4620,CP1P 040620 000150,m,PASS,0,,
2020-06-04 16-49-01-322,DESKTOP-K0JN836,CP1H_C0_V1.00,FinalTest_2019.8.5.0,4620,CP1P 040620 000149,m,PASS,0,,
2020-06-04 16-50-42-362,DESKTOP-K0JN836,CP1H_C0_V1.00,FinalTest_2019.8.5.0,4620,CP1P 040620 000154,m,PASS,0,,
2020-06-04 16-51-41-896,DESKTOP-K0JN836,CP1H_C0_V1.00,FinalTest_2019.8.5.0,4620,CP1P 040620 000154,m,PASS,0,,
2020-06-04 16-52-45-830,DESKTOP-K0JN836,CP1H_C0_V1.00,FinalTest_2019.8.5.0,4620,CP1P 040620 000163,m,PASS,0,,
2020-06-04 16-53-36-634,DESKTOP-K0JN836,CP1H_C0_V1.00,FinalTest_2019.8.5.0,4620,CP1P 040620 000125,m,PASS,0,,
2020-06-04 16-54-24-898,DESKTOP-K0JN836,CP1H_C0_V1.00,FinalTest_2019.8.5.0,4620,CP1P 040620 000125,m,PASS,0,,
2020-06-04 16-55-27-778,DESKTOP-K0JN836,CP1H_C0_V1.00,FinalTest_2019.8.5.0,4620,CP1P 040620 000152,m,PASS,0,,
