Time,Equipment,Model,SWVersion,LotName,Barcode,Operator,Result,Center X,Center Y,Offset X,Offset Y,,
2020-12-04 08-47-09-292,DESKTOP-K0JN836,CP1P_V1,FinalTest_2020.11.4.0,041220,CP1P 041220 000005,sanha,PASS,354,246,-6,6,,
2020-12-04 08-49-11-229,DESKTOP-K0JN836,CP1P_V1,FinalTest_2020.11.4.0,041220,CP1P 041220 000009,sanha,PASS,355,247,-5,7,,
2020-12-04 08-49-51-779,DESKTOP-K0JN836,CP1P_V1,FinalTest_2020.11.4.0,041220,CP1P 041220 000009,sanha,PASS,356,246,-4,6,,
2020-12-04 08-50-29-509,DESKTOP-K0JN836,CP1P_V1,FinalTest_2020.11.4.0,041220,CP1P 041220 000007,sanha,PASS,359,246,-1,6,,
2020-12-04 08-51-17-156,DESKTOP-K0JN836,CP1P_V1,FinalTest_2020.11.4.0,041220,CP1P 041220 000007,sanha,PASS,357,242,-3,2,,
2020-12-04 08-52-15-826,DESKTOP-K0JN836,CP1P_V1,FinalTest_2020.11.4.0,041220,CP1P 041220 000008,sanha,PASS,356,242,-4,2,,
2020-12-04 08-54-08-913,DESKTOP-K0JN836,CP1P_V1,FinalTest_2020.11.4.0,041220,CP1P 041220 000002,sanha,PASS,359,242,-1,2,,
2020-12-04 08-54-48-910,DESKTOP-K0JN836,CP1P_V1,FinalTest_2020.11.4.0,041220,CP1P 041220 000002,sanha,PASS,358,241,-2,1,,
2020-12-04 08-55-32-042,DESKTOP-K0JN836,CP1P_V1,FinalTest_2020.11.4.0,041220,CP1P 041220 000011,sanha,PASS,354,244,-6,4,,
2020-12-04 08-56-39-748,DESKTOP-K0JN836,CP1P_V1,FinalTest_2020.11.4.0,041220,CP1P 031220 000062,sanha,PASS,355,246,-5,6,,
2020-12-04 08-57-30-412,DESKTOP-K0JN836,CP1P_V1,FinalTest_2020.11.4.0,041220,CP1P 041220 000010,sanha,PASS,358,244,-2,4,,
2020-12-04 08-58-31-552,DESKTOP-K0JN836,CP1P_V1,FinalTest_2020.11.4.0,041220,CP1P 041220 000012,sanha,PASS,358,243,-2,3,,
2020-12-04 08-59-39-272,DESKTOP-K0JN836,CP1P_V1,FinalTest_2020.11.4.0,041220,CP1P 041220 000013,sanha,PASS,362,247,2,7,,
2020-12-04 09-00-43-760,DESKTOP-K0JN836,CP1P_V1,FinalTest_2020.11.4.0,041220,CP1P 041220 000003,sanha,PASS,359,242,-1,2,,
2020-12-04 09-01-48-048,DESKTOP-K0JN836,CP1P_V1,FinalTest_2020.11.4.0,041220,CP1P 041220 000004,sanha,PASS,356,245,-4,5,,
2020-12-04 09-02-35-213,DESKTOP-K0JN836,CP1P_V1,FinalTest_2020.11.4.0,041220,CP1P 041220 000001,sanha,PASS,353,244,-7,4,,
2020-12-04 09-03-23-735,DESKTOP-K0JN836,CP1P_V1,FinalTest_2020.11.4.0,041220,CP1P 041220 000006,sanha,PASS,354,248,-6,8,,
2020-12-04 09-06-15-843,DESKTOP-K0JN836,CP1P_V1,FinalTest_2020.11.4.0,041220,CP1P 041220 000022,sanha,PASS,360,245,0,5,,
2020-12-04 09-07-01-448,DESKTOP-K0JN836,CP1P_V1,FinalTest_2020.11.4.0,041220,CP1P 041220 000023,sanha,PASS,356,246,-4,6,,
2020-12-04 09-07-58-629,DESKTOP-K0JN836,CP1P_V1,FinalTest_2020.11.4.0,041220,CP1P 041220 000020,sanha,PASS,358,240,-2,0,,
2020-12-04 09-09-06-709,DESKTOP-K0JN836,CP1P_V1,FinalTest_2020.11.4.0,041220,CP1P 041220 000019,sanha,PASS,355,245,-5,5,,
2020-12-04 09-09-55-474,DESKTOP-K0JN836,CP1P_V1,FinalTest_2020.11.4.0,041220,CP1P 041220 000021,sanha,PASS,356,246,-4,6,,
2020-12-04 09-11-09-128,DESKTOP-K0JN836,CP1P_V1,FinalTest_2020.11.4.0,041220,CP1P 041220 000014,sanha,PASS,356,245,-4,5,,
2020-12-04 09-12-00-785,DESKTOP-K0JN836,CP1P_V1,FinalTest_2020.11.4.0,041220,CP1P 041220 000017,sanha,PASS,352,244,-8,4,,
2020-12-04 09-12-47-790,DESKTOP-K0JN836,CP1P_V1,FinalTest_2020.11.4.0,041220,CP1P 041220 000015,sanha,PASS,354,245,-6,5,,
2020-12-04 09-13-36-747,DESKTOP-K0JN836,CP1P_V1,FinalTest_2020.11.4.0,041220,CP1P 041220 000015,sanha,PASS,354,244,-6,4,,
2020-12-04 09-15-02-283,DESKTOP-K0JN836,CP1P_V1,FinalTest_2020.11.4.0,041220,CP1P 041220 000016,sanha,PASS,358,246,-2,6,,
2020-12-04 09-15-56-772,DESKTOP-K0JN836,CP1P_V1,FinalTest_2020.11.4.0,041220,CP1P 041220 000018,sanha,PASS,356,244,-4,4,,
2020-12-04 09-16-35-704,DESKTOP-K0JN836,CP1P_V1,FinalTest_2020.11.4.0,041220,CP1P 041220 000018,sanha,PASS,355,244,-5,4,,
2020-12-04 09-17-23-369,DESKTOP-K0JN836,CP1P_V1,FinalTest_2020.11.4.0,041220,CP1P 041220 000030,sanha,PASS,359,246,-1,6,,
2020-12-04 09-18-56-247,DESKTOP-K0JN836,CP1P_V1,FinalTest_2020.11.4.0,041220,CP1P 041220 000033,sanha,PASS,360,245,0,5,,
2020-12-04 09-20-15-775,DESKTOP-K0JN836,CP1P_V1,FinalTest_2020.11.4.0,041220,CP1P 041220 000031,sanha,PASS,358,242,-2,2,,
2020-12-04 09-21-06-139,DESKTOP-K0JN836,CP1P_V1,FinalTest_2020.11.4.0,041220,CP1P 041220 000032,sanha,PASS,357,245,-3,5,,
2020-12-04 09-22-15-736,DESKTOP-K0JN836,CP1P_V1,FinalTest_2020.11.4.0,041220,CP1P 041220 000027,sanha,PASS,359,245,-1,5,,
2020-12-04 09-23-29-350,DESKTOP-K0JN836,CP1P_V1,FinalTest_2020.11.4.0,041220,CP1P 041220 000024,sanha,PASS,358,242,-2,2,,
2020-12-04 09-24-37-477,DESKTOP-K0JN836,CP1P_V1,FinalTest_2020.11.4.0,041220,CP1P 041220 000026,sanha,PASS,358,242,-2,2,,
2020-12-04 09-25-47-349,DESKTOP-K0JN836,CP1P_V1,FinalTest_2020.11.4.0,041220,CP1P 041220 000028,sanha,PASS,360,247,0,7,,
2020-12-04 09-26-35-365,DESKTOP-K0JN836,CP1P_V1,FinalTest_2020.11.4.0,041220,CP1P 041220 000025,sanha,PASS,356,244,-4,4,,
2020-12-04 09-27-24-987,DESKTOP-K0JN836,CP1P_V1,FinalTest_2020.11.4.0,041220,CP1P 041220 000029,sanha,PASS,357,242,-3,2,,
2020-12-04 09-28-15-400,DESKTOP-K0JN836,CP1P_V1,FinalTest_2020.11.4.0,041220,CP1P 041220 000034,sanha,PASS,359,242,-1,2,,
2020-12-04 09-31-26-650,DESKTOP-K0JN836,CP1P_V1,FinalTest_2020.11.4.0,041220,CP1P 041220 000036,sara,PASS,359,256,-1,16,,
2020-12-04 09-32-15-345,DESKTOP-K0JN836,CP1P_V1,FinalTest_2020.11.4.0,041220,CP1P 041220 000045,sara,PASS,363,258,3,18,,
2020-12-04 09-33-08-477,DESKTOP-K0JN836,CP1P_V1,FinalTest_2020.11.4.0,041220,CP1P 041220 000044,sara,PASS,366,265,6,25,,
2020-12-04 09-34-29-242,DESKTOP-K0JN836,CP1P_V1,FinalTest_2020.11.4.0,041220,CP1P 041220 000050,sara,PASS,364,257,4,17,,
2020-12-04 09-39-28-815,DESKTOP-K0JN836,CP1P_V1,FinalTest_2020.11.4.0,041220,CP1P 041220 000037,sara,PASS,365,263,5,23,,
2020-12-04 09-40-11-840,DESKTOP-K0JN836,CP1P_V1,FinalTest_2020.11.4.0,041220,CP1P 041220 000035,sara,PASS,359,259,-1,19,,
2020-12-04 09-41-02-647,DESKTOP-K0JN836,CP1P_V1,FinalTest_2020.11.4.0,041220,CP1P 041220 000046,sara,PASS,367,261,7,21,,
2020-12-04 09-42-09-626,DESKTOP-K0JN836,CP1P_V1,FinalTest_2020.11.4.0,041220,CP1P 041220 000038,sara,PASS,363,265,3,25,,
2020-12-04 09-43-02-140,DESKTOP-K0JN836,CP1P_V1,FinalTest_2020.11.4.0,041220,CP1P 041220 000039,sara,PASS,352,268,-8,28,,
2020-12-04 09-43-58-830,DESKTOP-K0JN836,CP1P_V1,FinalTest_2020.11.4.0,041220,CP1P 041220 000042,sara,PASS,357,250,-3,10,,
2020-12-04 09-45-01-200,DESKTOP-K0JN836,CP1P_V1,FinalTest_2020.11.4.0,041220,CP1P 041220 000042,sara,PASS,360,242,0,2,,
2020-12-04 09-46-04-271,DESKTOP-K0JN836,CP1P_V1,FinalTest_2020.11.4.0,041220,CP1P 041220 000043,sara,PASS,367,265,7,25,,
2020-12-04 09-46-52-744,DESKTOP-K0JN836,CP1P_V1,FinalTest_2020.11.4.0,041220,CP1P 041220 000040,sara,PASS,372,262,12,22,,
2020-12-04 09-48-34-583,DESKTOP-K0JN836,CP1P_V1,FinalTest_2020.11.4.0,041220,CP1P 041220 000041,sara,PASS,366,262,6,22,,
2020-12-04 09-49-22-036,DESKTOP-K0JN836,CP1P_V1,FinalTest_2020.11.4.0,041220,CP1P 041220 000041,sara,PASS,363,243,3,3,,
2020-12-04 09-51-06-366,DESKTOP-K0JN836,CP1P_V1,FinalTest_2020.11.4.0,041220,CP1P 041220 000048,sara,PASS,363,261,3,21,,
2020-12-04 09-52-22-977,DESKTOP-K0JN836,CP1P_V1,FinalTest_2020.11.4.0,041220,CP1P 041220 000052,sara,PASS,367,258,7,18,,
2020-12-04 09-53-32-949,DESKTOP-K0JN836,CP1P_V1,FinalTest_2020.11.4.0,041220,CP1P 041220 000051,sara,PASS,370,259,10,19,,
2020-12-04 09-54-21-064,DESKTOP-K0JN836,CP1P_V1,FinalTest_2020.11.4.0,041220,CP1P 041220 000049,sara,PASS,361,264,1,24,,
2020-12-04 09-54-53-661,DESKTOP-K0JN836,CP1P_V1,FinalTest_2020.11.4.0,041220,CP1P 041220 000049,sara,PASS,354,238,-6,-2,,
2020-12-04 09-56-04-556,DESKTOP-K0JN836,CP1P_V1,FinalTest_2020.11.4.0,041220,CP1P 041220 000050,sara,PASS,367,260,7,20,,
2020-12-04 09-56-54-765,DESKTOP-K0JN836,CP1P_V1,FinalTest_2020.11.4.0,041220,CP1P 041220 000047,sara,PASS,368,255,8,15,,
2020-12-04 09-57-39-963,DESKTOP-K0JN836,CP1P_V1,FinalTest_2020.11.4.0,041220,CP1P 041220 000047,sara,PASS,359,237,-1,-3,,
2020-12-04 09-58-58-065,DESKTOP-K0JN836,CP1P_V1,FinalTest_2020.11.4.0,041220,CP1P 041220 000053,sara,PASS,367,259,7,19,,
2020-12-04 11-06-39-410,DESKTOP-K0JN836,CP1P_V1,FinalTest_2020.11.4.0,041220,CP1P 041220 000068,sara,PASS,364,260,4,20,,
2020-12-04 11-07-19-456,DESKTOP-K0JN836,CP1P_V1,FinalTest_2020.11.4.0,041220,CP1P 041220 000068,sara,PASS,353,246,-7,6,,
2020-12-04 11-08-42-960,DESKTOP-K0JN836,CP1P_V1,FinalTest_2020.11.4.0,041220,CP1P 041220 000066,sara,PASS,358,241,-2,1,,
2020-12-04 11-09-59-491,DESKTOP-K0JN836,CP1P_V1,FinalTest_2020.11.4.0,041220,CP1P 041220 000067,sara,PASS,355,244,-5,4,,
2020-12-04 11-10-56-322,DESKTOP-K0JN836,CP1P_V1,FinalTest_2020.11.4.0,041220,CP1P 041220 000059,sara,FAIL,-1,-16,-361,-256,,
2020-12-04 11-11-42-118,DESKTOP-K0JN836,CP1P_V1,FinalTest_2020.11.4.0,041220,CP1P 041220 000059,sara,PASS,358,244,-2,4,,
2020-12-04 11-12-17-733,DESKTOP-K0JN836,CP1P_V1,FinalTest_2020.11.4.0,041220,CP1P 041220 000059,sara,PASS,358,243,-2,3,,
2020-12-04 11-13-12-071,DESKTOP-K0JN836,CP1P_V1,FinalTest_2020.11.4.0,041220,CP1P 041220 000062,sara,PASS,363,256,3,16,,
2020-12-04 11-13-50-253,DESKTOP-K0JN836,CP1P_V1,FinalTest_2020.11.4.0,041220,CP1P 041220 000062,sara,PASS,362,258,2,18,,
2020-12-04 11-14-38-774,DESKTOP-K0JN836,CP1P_V1,FinalTest_2020.11.4.0,041220,CP1P 041220 000056,sara,PASS,365,257,5,17,,
2020-12-04 11-15-28-156,DESKTOP-K0JN836,CP1P_V1,FinalTest_2020.11.4.0,041220,CP1P 041220 000056,sara,PASS,358,243,-2,3,,
2020-12-04 11-16-40-861,DESKTOP-K0JN836,CP1P_V1,FinalTest_2020.11.4.0,041220,CP1P 041220 000055,sara,PASS,369,259,9,19,,
2020-12-04 11-17-27-718,DESKTOP-K0JN836,CP1P_V1,FinalTest_2020.11.4.0,041220,CP1P 041220 000055,sara,PASS,359,249,-1,9,,
2020-12-04 11-18-33-396,DESKTOP-K0JN836,CP1P_V1,FinalTest_2020.11.4.0,041220,CP1P 041220 000061,sara,PASS,357,267,-3,27,,
2020-12-04 11-19-17-851,DESKTOP-K0JN836,CP1P_V1,FinalTest_2020.11.4.0,041220,CP1P 041220 000065,sara,PASS,364,266,4,26,,
2020-12-04 11-20-08-967,DESKTOP-K0JN836,CP1P_V1,FinalTest_2020.11.4.0,041220,CP1P 041220 000065,sara,PASS,355,248,-5,8,,
2020-12-04 11-21-14-264,DESKTOP-K0JN836,CP1P_V1,FinalTest_2020.11.4.0,041220,CP1P 041220 000054,sara,PASS,362,262,2,22,,
2020-12-04 11-21-48-505,DESKTOP-K0JN836,CP1P_V1,FinalTest_2020.11.4.0,041220,CP1P 041220 000054,sara,PASS,361,243,1,3,,
2020-12-04 11-22-48-142,DESKTOP-K0JN836,CP1P_V1,FinalTest_2020.11.4.0,041220,CP1P 041220 000060,sara,PASS,368,261,8,21,,
2020-12-04 11-23-21-410,DESKTOP-K0JN836,CP1P_V1,FinalTest_2020.11.4.0,041220,CP1P 041220 000060,sara,PASS,360,241,0,1,,
2020-12-04 11-24-28-745,DESKTOP-K0JN836,CP1P_V1,FinalTest_2020.11.4.0,041220,CP1P 041220 000064,sara,PASS,403,270,43,30,,
2020-12-04 11-25-19-694,DESKTOP-K0JN836,CP1P_V1,FinalTest_2020.11.4.0,041220,CP1P 041220 000063,sara,PASS,364,262,4,22,,
2020-12-04 11-26-05-164,DESKTOP-K0JN836,CP1P_V1,FinalTest_2020.11.4.0,041220,CP1P 041220 000057,sara,PASS,359,264,-1,24,,
2020-12-04 11-27-23-754,DESKTOP-K0JN836,CP1P_V1,FinalTest_2020.11.4.0,041220,CP1P 041220 000058,sara,PASS,365,263,5,23,,
2020-12-04 11-28-34-866,DESKTOP-K0JN836,CP1P_V1,FinalTest_2020.11.4.0,041220,CP1P 041220 000058,sara,PASS,357,243,-3,3,,
2020-12-04 11-29-40-465,DESKTOP-K0JN836,CP1P_V1,FinalTest_2020.11.4.0,041220,CP1P 041220 000057,sara,PASS,358,244,-2,4,,
