Time,Equipment,Model,SWVersion,LotName,Barcode,Operator,Result,Left ? Center,Right ? Center,Top ? Center,Bottom ? Center,,
2020-10-09 10-59-25-850,DESKTOP-K0JN836,CP4Pe,FinalTest_2020.9.23.0,091020,D55L 091020 000001,darsini,PASS,207.00,207.00,184.00,183.00,,
2020-10-09 11-00-29-978,DESKTOP-K0JN836,CP4Pe,FinalTest_2020.9.23.0,091020,D55L 091020 000002,darsini,PASS,208.00,206.00,182.00,460.68,,
2020-10-09 11-01-22-972,DESKTOP-K0JN836,CP4Pe,FinalTest_2020.9.23.0,091020,D55L 091020 000002,darsini,PASS,208.00,206.00,182.00,460.68,,
2020-10-09 11-02-18-065,DESKTOP-K0JN836,CP4Pe,FinalTest_2020.9.23.0,091020,D55L 091020 000004,darsini,PASS,208.01,206.00,184.01,182.00,,
2020-10-09 11-03-15-376,DESKTOP-K0JN836,CP4Pe,FinalTest_2020.9.23.0,091020,D55L 091020 000003,darsini,PASS,207.00,208.00,184.02,183.00,,
2020-10-09 11-04-41-670,DESKTOP-K0JN836,CP4Pe,FinalTest_2020.9.23.0,091020,D55L 091020 000005,darsini,PASS,207.00,209.00,183.00,182.00,,
