Time,Equipment,Model,SWVersion,LotName,Barcode,Operator,Result,Side 1,Side 2,Side 3,Side 4,,
2020-10-19 11-06-13-739,DESKTOP-K0JN836,CP1H_C0_V1.00,FinalTest_2020.9.23.0,191020,CP1H 191020 000054,interjit,PASS,74.07,75.13,75.13,76.72,,
2020-10-19 11-08-06-455,DESKTOP-K0JN836,CP1H_C0_V1.00,FinalTest_2020.9.23.0,191020,CP1H 191020 000047,interjit,PASS,76.56,72.92,78.13,74.48,,
2020-10-19 11-11-06-995,DESKTOP-K0JN836,CP1H_C0_V1.00,FinalTest_2020.9.23.0,191020,CP1H 191020 000055,interjit,PASS,73.85,73.85,76.41,77.44,,
2020-10-19 11-13-08-537,DESKTOP-K0JN836,CP1H_C0_V1.00,FinalTest_2020.9.23.0,191020,CP1H 191020 000044,interjit,PASS,73.68,75.26,74.74,77.37,,
2020-10-19 11-14-57-056,DESKTOP-K0JN836,CP1H_C0_V1.00,FinalTest_2020.9.23.0,191020,CP1H 191020 000051,interjit,PASS,76.14,74.11,77.16,75.63,,
2020-10-19 11-16-35-483,DESKTOP-K0JN836,CP1H_C0_V1.00,FinalTest_2020.9.23.0,191020,CP1H 191020 000046,interjit,PASS,74.49,73.47,77.55,77.04,,
2020-10-19 11-21-32-586,DESKTOP-K0JN836,CP1H_C0_V1.00,FinalTest_2020.9.23.0,191020,CP1H 191020 000040,interjit,PASS,74.02,75.00,75.98,77.94,,
2020-10-19 11-23-09-996,DESKTOP-K0JN836,CP1H_C0_V1.00,FinalTest_2020.9.23.0,191020,CP1H 191020 000061,interjit,PASS,73.47,76.53,75.00,78.57,,
2020-10-19 11-24-47-418,DESKTOP-K0JN836,CP1H_C0_V1.00,FinalTest_2020.9.23.0,191020,CP1H 191020 000075,interjit,PASS,73.47,76.53,75.00,78.57,,
2020-10-19 11-26-42-853,DESKTOP-K0JN836,CP1H_C0_V1.00,FinalTest_2020.9.23.0,191020,CP1H 191020 000076,interjit,PASS,75.38,76.41,75.38,76.92,,
2020-10-19 11-28-17-998,DESKTOP-K0JN836,CP1H_C0_V1.00,FinalTest_2020.9.23.0,191020,CP1H 191020 000068,interjit,PASS,73.85,76.92,74.36,77.95,,
2020-10-19 11-29-53-944,DESKTOP-K0JN836,CP1H_C0_V1.00,FinalTest_2020.9.23.0,191020,CP1H 191020 000071,interjit,PASS,73.20,75.77,75.26,78.35,,
2020-10-19 11-31-42-821,DESKTOP-K0JN836,CP1H_C0_V1.00,FinalTest_2020.9.23.0,191020,CP1H 191020 000066,interjit,PASS,74.47,74.47,76.60,77.13,,
2020-10-19 11-34-21-612,DESKTOP-K0JN836,CP1H_C0_V1.00,FinalTest_2020.9.23.0,191020,CP1H 191020 000060,interjit,PASS,73.98,73.47,77.04,77.04,,
2020-10-19 11-35-50-483,DESKTOP-K0JN836,CP1H_C0_V1.00,FinalTest_2020.9.23.0,191020,CP1H 191020 000065,interjit,PASS,74.36,73.33,77.44,77.44,,
2020-10-19 11-37-54-576,DESKTOP-K0JN836,CP1H_C0_V1.00,FinalTest_2020.9.23.0,191020,CP1H 191020 000048,interjit,PASS,73.26,75.94,73.80,77.54,,
2020-10-19 11-39-26-357,DESKTOP-K0JN836,CP1H_C0_V1.00,FinalTest_2020.9.23.0,191020,CP1H 191020 000093,interjit,PASS,74.23,74.74,75.77,76.80,,
2020-10-19 11-41-34-464,DESKTOP-K0JN836,CP1H_C0_V1.00,FinalTest_2020.9.23.0,191020,CP1H 191020 000073,interjit,PASS,75.13,73.58,77.20,76.68,,
2020-10-19 11-43-11-686,DESKTOP-K0JN836,CP1H_C0_V1.00,FinalTest_2020.9.23.0,191020,CP1H 191020 000043,interjit,PASS,73.94,73.94,76.60,77.13,,
2020-10-19 11-45-16-313,DESKTOP-K0JN836,CP1H_C0_V1.00,FinalTest_2020.9.23.0,191020,CP1H 191020 000098,interjit,PASS,73.30,76.44,74.35,78.01,,
2020-10-19 11-46-50-916,DESKTOP-K0JN836,CP1H_C0_V1.00,FinalTest_2020.9.23.0,191020,CP1H 191020 000097,interjit,PASS,72.49,74.60,75.66,78.31,,
2020-10-19 11-48-31-871,DESKTOP-K0JN836,CP1H_C0_V1.00,FinalTest_2020.9.23.0,191020,CP1H 191020 000057,interjit,PASS,73.98,77.55,73.47,77.55,,
2020-10-19 11-49-53-381,DESKTOP-K0JN836,CP1H_C0_V1.00,FinalTest_2020.9.23.0,191020,CP1H 191020 000077,interjit,PASS,75.90,73.85,76.92,74.87,,
2020-10-19 11-51-29-777,DESKTOP-K0JN836,CP1H_C0_V1.00,FinalTest_2020.9.23.0,191020,CP1H 191020 000063,interjit,PASS,75.50,74.50,77.00,76.00,,
2020-10-19 11-53-08-080,DESKTOP-K0JN836,CP1H_C0_V1.00,FinalTest_2020.9.23.0,191020,CP1H 191020 000080,interjit,PASS,73.60,75.63,75.63,78.17,,
2020-10-19 11-54-45-525,DESKTOP-K0JN836,CP1H_C0_V1.00,FinalTest_2020.9.23.0,191020,CP1H 191020 000096,interjit,PASS,72.82,75.90,74.87,78.46,,
2020-10-19 11-56-27-144,DESKTOP-K0JN836,CP1H_C0_V1.00,FinalTest_2020.9.23.0,191020,CP1H 191020 000095,interjit,PASS,75.00,75.00,75.53,76.60,,
2020-10-19 12-41-31-756,DESKTOP-K0JN836,CP1H_C0_V1.00,FinalTest_2020.9.23.0,191020,CP1H 191020 000062,interjit,PASS,74.87,76.47,74.87,77.01,,
2020-10-19 12-45-40-369,DESKTOP-K0JN836,CP1H_C0_V1.00,FinalTest_2020.9.23.0,191020,CP1H 191020 000079,interjit,PASS,72.22,75.76,73.23,77.27,,
2020-10-19 12-48-49-317,DESKTOP-K0JN836,CP1H_C0_V1.00,FinalTest_2020.9.23.0,191020,CP1H 191020 000067,interjit,PASS,73.68,75.26,76.32,77.89,,
2020-10-19 12-50-51-021,DESKTOP-K0JN836,CP1H_C0_V1.00,FinalTest_2020.9.23.0,191020,CP1H 191020 000064,interjit,PASS,75.13,75.13,77.25,77.78,,
2020-10-19 12-53-12-302,DESKTOP-K0JN836,CP1H_C0_V1.00,FinalTest_2020.9.23.0,191020,CP1H 191020 000092,interjit,PASS,75.25,73.74,77.78,76.26,,
2020-10-19 12-55-03-305,DESKTOP-K0JN836,CP1H_C0_V1.00,FinalTest_2020.9.23.0,191020,CP1H 191020 000070,interjit,PASS,74.60,74.60,76.19,76.72,,
2020-10-19 12-58-14-621,DESKTOP-K0JN836,CP1H_C0_V1.00,FinalTest_2020.9.23.0,191020,CP1H 191020 000039,interjit,PASS,73.44,76.04,74.48,77.60,,
2020-10-19 13-00-03-965,DESKTOP-K0JN836,CP1H_C0_V1.00,FinalTest_2020.9.23.0,191020,CP1H 191020 000041,interjit,PASS,72.54,77.20,73.58,78.24,,
2020-10-19 13-01-50-319,DESKTOP-K0JN836,CP1H_C0_V1.00,FinalTest_2020.9.23.0,191020,CP1H 191020 000036,interjit,PASS,73.44,74.48,76.04,77.60,,
2020-10-19 13-04-05-252,DESKTOP-K0JN836,CP1H_C0_V1.00,FinalTest_2020.9.23.0,191020,CP1H 191020 000033,interjit,PASS,75.14,76.22,76.22,78.92,,
2020-10-19 13-05-59-939,DESKTOP-K0JN836,CP1H_C0_V1.00,FinalTest_2020.9.23.0,191020,CP1H 191020 000027,interjit,PASS,72.68,76.80,74.23,78.87,,
2020-10-19 13-07-28-611,DESKTOP-K0JN836,CP1H_C0_V1.00,FinalTest_2020.9.23.0,191020,CP1H 191020 000074,interjit,PASS,74.48,73.96,77.08,76.56,,
2020-10-19 13-09-15-086,DESKTOP-K0JN836,CP1H_C0_V1.00,FinalTest_2020.9.23.0,191020,CP1H 191020 000031,interjit,PASS,73.58,74.09,76.17,77.20,,
2020-10-19 13-10-42-956,DESKTOP-K0JN836,CP1H_C0_V1.00,FinalTest_2020.9.23.0,191020,CP1H 191020 000034,interjit,PASS,74.07,75.66,74.60,77.25,,
2020-10-19 13-15-58-683,DESKTOP-K0JN836,CP1H_C0_V1.00,FinalTest_2020.9.23.0,191020,CP1H 191020 000045,interjit,PASS,73.80,76.47,74.33,77.54,,
2020-10-19 13-18-00-077,DESKTOP-K0JN836,CP1H_C0_V1.00,FinalTest_2020.9.23.0,191020,CP1H 191020 000029,interjit,PASS,74.07,74.07,76.72,77.25,,
2020-10-19 13-19-36-688,DESKTOP-K0JN836,CP1H_C0_V1.00,FinalTest_2020.9.23.0,191020,CP1H 191020 000069,interjit,PASS,75.79,73.16,77.37,75.26,,
2020-10-19 13-21-02-602,DESKTOP-K0JN836,CP1H_C0_V1.00,FinalTest_2020.9.23.0,191020,CP1H 191020 000078,interjit,PASS,71.35,76.04,75.00,79.17,,
2020-10-19 13-22-59-161,DESKTOP-K0JN836,CP1H_C0_V1.00,FinalTest_2020.9.23.0,191020,CP1H 191020 000084,interjit,PASS,73.94,76.06,75.00,77.66,,
2020-10-19 13-24-44-766,DESKTOP-K0JN836,CP1H_C0_V1.00,FinalTest_2020.9.23.0,191020,CP1H 191020 000100,interjit,PASS,73.16,74.74,75.26,77.89,,
2020-10-19 13-26-47-594,DESKTOP-K0JN836,CP1H_C0_V1.00,FinalTest_2020.9.23.0,191020,CP1H 191020 000106,interjit,PASS,72.54,73.06,77.72,79.27,,
2020-10-19 13-28-43-777,DESKTOP-K0JN836,CP1H_C0_V1.00,FinalTest_2020.9.23.0,191020,CP1H 191020 000105,interjit,PASS,75.00,74.49,75.51,76.02,,
2020-10-19 13-30-45-479,DESKTOP-K0JN836,CP1H_C0_V1.00,FinalTest_2020.9.23.0,191020,CP1H 191020 000082,interjit,PASS,73.85,76.92,73.85,77.44,,
2020-10-19 13-32-59-832,DESKTOP-K0JN836,CP1H_C0_V1.00,FinalTest_2020.9.23.0,191020,CP1H 191020 000108,interjit,PASS,73.85,76.92,73.85,77.44,,
2020-10-19 13-35-46-206,DESKTOP-K0JN836,CP1H_C0_V1.00,FinalTest_2020.9.23.0,191020,CP1H 191020 000108,interjit,PASS,73.85,76.92,73.85,77.44,,
2020-10-19 13-36-38-169,DESKTOP-K0JN836,CP1H_C0_V1.00,FinalTest_2020.9.23.0,191020,CP1H 191020 000108,interjit,PASS,75.00,73.98,77.04,76.53,,
2020-10-19 13-38-28-298,DESKTOP-K0JN836,CP1H_C0_V1.00,FinalTest_2020.9.23.0,191020,CP1H 191020 000110,interjit,PASS,75.38,72.86,77.39,75.88,,
2020-10-19 13-40-04-336,DESKTOP-K0JN836,CP1H_C0_V1.00,FinalTest_2020.9.23.0,191020,CP1H 191020 000117,interjit,PASS,74.07,74.60,76.19,77.78,,
2020-10-19 13-41-40-104,DESKTOP-K0JN836,CP1H_C0_V1.00,FinalTest_2020.9.23.0,191020,CP1H 191020 000112,interjit,PASS,74.33,75.94,74.33,77.01,,
2020-10-19 13-43-50-899,DESKTOP-K0JN836,CP1H_C0_V1.00,FinalTest_2020.9.23.0,191020,CP1H 191020 000114,interjit,PASS,75.26,73.20,77.84,76.29,,
2020-10-19 13-47-13-488,DESKTOP-K0JN836,CP1H_C0_V1.00,FinalTest_2020.9.23.0,191020,CP1H 191020 000119,interjit,PASS,73.98,75.51,75.51,77.55,,
2020-10-19 13-48-47-025,DESKTOP-K0JN836,CP1H_C0_V1.00,FinalTest_2020.9.23.0,191020,CP1H 191020 000118,interjit,PASS,75.39,72.25,77.49,75.39,,
2020-10-19 13-50-24-588,DESKTOP-K0JN836,CP1H_C0_V1.00,FinalTest_2020.9.23.0,191020,CP1H 191020 000109,interjit,PASS,75.13,74.60,75.66,76.72,,
2020-10-19 13-52-10-289,DESKTOP-K0JN836,CP1H_C0_V1.00,FinalTest_2020.9.23.0,191020,CP1H 191020 000111,interjit,PASS,75.52,75.00,76.56,76.04,,
2020-10-19 14-02-55-622,DESKTOP-K0JN836,CP1H_C0_V1.00,FinalTest_2020.9.23.0,191020,CP1H 191020 000115,interjit,PASS,74.61,73.06,77.72,77.20,,
2020-10-19 14-04-53-292,DESKTOP-K0JN836,CP1H_C0_V1.00,FinalTest_2020.9.23.0,191020,CP1H 191020 000116,interjit,PASS,75.38,73.85,76.92,75.90,,
2020-10-19 14-06-15-846,DESKTOP-K0JN836,CP1H_C0_V1.00,FinalTest_2020.9.23.0,191020,CP1H 191020 000102,interjit,PASS,75.38,73.85,76.92,75.90,,
2020-10-19 14-07-11-934,DESKTOP-K0JN836,CP1H_C0_V1.00,FinalTest_2020.9.23.0,191020,CP1H 191020 000102,interjit,PASS,75.38,73.85,76.92,75.90,,
2020-10-19 14-09-08-077,DESKTOP-K0JN836,CP1H_C0_V1.00,FinalTest_2020.9.23.0,191020,CP1H 191020 000104,interjit,PASS,73.47,75.51,75.00,78.06,,
2020-10-19 14-10-56-764,DESKTOP-K0JN836,CP1H_C0_V1.00,FinalTest_2020.9.23.0,191020,CP1H 191020 000101,interjit,PASS,76.44,73.30,78.01,75.39,,
2020-10-19 14-12-37-284,DESKTOP-K0JN836,CP1H_C0_V1.00,FinalTest_2020.9.23.0,191020,CP1H 191020 000103,interjit,PASS,74.33,73.26,77.01,77.01,,
2020-10-19 14-15-54-865,DESKTOP-K0JN836,CP1H_C0_V1.00,FinalTest_2020.9.23.0,191020,CP1H 191020 000113,interjit,PASS,73.58,73.06,76.17,77.20,,
2020-10-19 14-18-38-393,DESKTOP-K0JN836,CP1H_C0_V1.00,FinalTest_2020.9.23.0,191020,CP1H 191020 000099,interjit,PASS,75.92,73.30,76.96,75.39,,
2020-10-19 14-21-46-230,DESKTOP-K0JN836,CP1H_C0_V1.00,FinalTest_2020.9.23.0,191020,CP1H 191020 000058,interjit,PASS,73.54,75.66,75.13,77.78,,
2020-10-19 14-25-54-034,DESKTOP-K0JN836,CP1H_C0_V1.00,FinalTest_2020.9.23.0,191020,CP1H 191020 000059,interjit,PASS,73.33,75.90,74.87,77.95,,
2020-10-19 14-28-24-011,DESKTOP-K0JN836,CP1H_C0_V1.00,FinalTest_2020.9.23.0,191020,CP1H 191020 000085,interjit,PASS,73.33,75.90,74.87,77.95,,
2020-10-19 14-29-19-632,DESKTOP-K0JN836,CP1H_C0_V1.00,FinalTest_2020.9.23.0,191020,CP1H 191020 000085,interjit,PASS,75.51,73.98,76.53,76.02,,
2020-10-19 14-31-08-019,DESKTOP-K0JN836,CP1H_C0_V1.00,FinalTest_2020.9.23.0,191020,CP1H 191020 000035,interjit,PASS,73.96,75.52,76.04,77.60,,
2020-10-19 14-32-31-190,DESKTOP-K0JN836,CP1H_C0_V1.00,FinalTest_2020.9.23.0,191020,CP1H 191020 000042,interjit,PASS,74.21,75.79,75.79,77.37,,
2020-10-19 14-34-32-475,DESKTOP-K0JN836,CP1H_C0_V1.00,FinalTest_2020.9.23.0,191020,CP1H 191020 000088,interjit,PASS,74.24,74.75,76.77,77.27,,
2020-10-19 14-36-21-387,DESKTOP-K0JN836,CP1H_C0_V1.00,FinalTest_2020.9.23.0,191020,CP1H 191020 000086,interjit,PASS,74.24,74.75,76.77,77.27,,
2020-10-19 14-37-01-909,DESKTOP-K0JN836,CP1H_C0_V1.00,FinalTest_2020.9.23.0,191020,CP1H 191020 000086,interjit,PASS,74.24,74.75,76.77,77.27,,
2020-10-19 14-39-00-419,DESKTOP-K0JN836,CP1H_C0_V1.00,FinalTest_2020.9.23.0,191020,CP1H 191020 000038,interjit,PASS,76.92,72.31,78.46,74.36,,
2020-10-19 14-42-41-401,DESKTOP-K0JN836,CP1H_C0_V1.00,FinalTest_2020.9.23.0,191020,CP1H 191020 000025,interjit,PASS,74.49,73.98,77.04,77.04,,
2020-10-19 14-46-29-321,DESKTOP-K0JN836,CP1H_C0_V1.00,FinalTest_2020.9.23.0,191020,CP1H 191020 0000107,interjit,PASS,75.39,75.92,75.39,76.44,,
2020-10-19 14-48-27-765,DESKTOP-K0JN836,CP1H_C0_V1.00,FinalTest_2020.9.23.0,191020,CP1H 191020 000072,interjit,PASS,73.68,74.74,76.32,77.89,,
2020-10-19 14-50-01-885,DESKTOP-K0JN836,CP1H_C0_V1.00,FinalTest_2020.9.23.0,191020,CP1H 191020 000081,interjit,PASS,73.71,74.74,76.29,77.84,,
2020-10-19 14-51-56-186,DESKTOP-K0JN836,CP1H_C0_V1.00,FinalTest_2020.9.23.0,191020,CP1H 191020 000024,interjit,PASS,75.79,73.16,77.37,75.26,,
2020-10-19 14-53-25-592,DESKTOP-K0JN836,CP1H_C0_V1.00,FinalTest_2020.9.23.0,191020,CP1H 191020 000026,interjit,PASS,72.25,77.49,72.77,79.06,,
2020-10-19 14-54-58-971,DESKTOP-K0JN836,CP1H_C0_V1.00,FinalTest_2020.9.23.0,191020,CP1H 191020 000021,interjit,PASS,74.48,72.40,78.65,76.56,,
2020-10-19 14-57-28-421,DESKTOP-K0JN836,CP1H_C0_V1.00,FinalTest_2020.9.23.0,191020,CP1H 191020 000028,interjit,PASS,74.23,75.26,75.77,77.32,,
2020-10-19 14-59-22-640,DESKTOP-K0JN836,CP1H_C0_V1.00,FinalTest_2020.9.23.0,191020,CP1H 191020 000089,interjit,PASS,76.04,71.35,78.65,76.04,,
2020-10-19 15-00-54-668,DESKTOP-K0JN836,CP1H_C0_V1.00,FinalTest_2020.9.23.0,191020,CP1H 191020 000030,interjit,PASS,73.60,76.65,74.11,78.17,,
2020-10-19 15-02-11-864,DESKTOP-K0JN836,CP1H_C0_V1.00,FinalTest_2020.9.23.0,191020,CP1H 191020 000052,interjit,PASS,74.35,76.44,74.87,78.01,,
2020-10-19 15-03-40-561,DESKTOP-K0JN836,CP1H_C0_V1.00,FinalTest_2020.9.23.0,191020,CP1H 191020 000005,interjit,PASS,74.60,77.25,73.02,76.72,,
2020-10-19 15-04-49-190,DESKTOP-K0JN836,CP1H_C0_V1.00,FinalTest_2020.9.23.0,191020,CP1H 191020 000049,interjit,PASS,74.87,73.80,77.01,76.47,,
2020-10-19 15-06-01-244,DESKTOP-K0JN836,CP1H_C0_V1.00,FinalTest_2020.9.23.0,191020,CP1H 191020 000050,interjit,PASS,73.44,77.08,73.96,77.60,,
2020-10-19 15-07-16-432,DESKTOP-K0JN836,CP1H_C0_V1.00,FinalTest_2020.9.23.0,191020,CP1H 191020 000004,interjit,PASS,74.09,74.09,76.68,77.20,,
2020-10-19 15-08-19-272,DESKTOP-K0JN836,CP1H_C0_V1.00,FinalTest_2020.9.23.0,191020,CP1H 191020 000032,interjit,PASS,74.61,73.58,76.17,76.68,,
2020-10-19 15-09-26-601,DESKTOP-K0JN836,CP1H_C0_V1.00,FinalTest_2020.9.23.0,191020,CP1H 101920 000003,interjit,PASS,74.26,75.74,75.74,77.72,,
2020-10-19 15-10-41-255,DESKTOP-K0JN836,CP1H_C0_V1.00,FinalTest_2020.9.23.0,191020,CP1H 191020 000016,interjit,PASS,73.54,76.72,73.54,77.25,,
2020-10-19 15-12-10-334,DESKTOP-K0JN836,CP1H_C0_V1.00,FinalTest_2020.9.23.0,191020,CP1H 191020 000013,interjit,PASS,73.58,75.13,75.65,77.72,,
2020-10-19 15-13-09-372,DESKTOP-K0JN836,CP1H_C0_V1.00,FinalTest_2020.9.23.0,191020,CP1H 191020 000011,interjit,PASS,73.12,75.81,75.27,78.49,,
2020-10-19 15-14-09-602,DESKTOP-K0JN836,CP1H_C0_V1.00,FinalTest_2020.9.23.0,191020,CP1H 191020 000010,interjit,PASS,75.13,71.50,79.79,76.68,,
2020-10-19 15-17-16-176,DESKTOP-K0JN836,CP1H_C0_V1.00,FinalTest_2020.9.23.0,191020,CP1H 191020 000002,interjit,PASS,73.82,76.44,75.39,78.53,,
2020-10-19 15-18-40-680,DESKTOP-K0JN836,CP1H_C0_V1.00,FinalTest_2020.9.23.0,191020,CP1H 191020 000006,interjit,PASS,74.35,75.92,74.87,77.49,,
2020-10-19 15-20-13-251,DESKTOP-K0JN836,CP1H_C0_V1.00,FinalTest_2020.9.23.0,191020,CP1H 191020 000009,interjit,PASS,74.74,73.20,76.80,76.29,,
2020-10-19 15-21-55-222,DESKTOP-K0JN836,CP1H_C0_V1.00,FinalTest_2020.9.23.0,191020,CP1H 191020 000007,interjit,PASS,74.49,77.04,73.98,77.04,,
2020-10-19 15-24-23-355,DESKTOP-K0JN836,CP1H_C0_V1.00,FinalTest_2020.9.23.0,191020,CP1H 191020 000001,interjit,PASS,73.12,76.88,74.19,78.49,,
2020-10-19 15-26-38-864,DESKTOP-K0JN836,CP1H_C0_V1.00,FinalTest_2020.9.23.0,191020,CP1H 191020 000015,interjit,PASS,75.79,74.74,76.32,75.79,,
2020-10-19 15-28-41-361,DESKTOP-K0JN836,CP1H_C0_V1.00,FinalTest_2020.9.23.0,191020,CP1H 191020 000020,interjit,PASS,73.30,75.39,74.87,77.49,,
2020-10-19 15-52-03-603,DESKTOP-K0JN836,CP1H_C0_V1.00,FinalTest_2020.9.23.0,191020,CP1H 191020 000012,interjit,PASS,73.16,76.84,74.21,78.42,,
2020-10-19 15-53-17-326,DESKTOP-K0JN836,CP1H_C0_V1.00,FinalTest_2020.9.23.0,191020,CP1H 191020 000008,interjit,PASS,75.25,72.73,78.28,76.26,,
2020-10-19 15-54-42-611,DESKTOP-K0JN836,CP1H_C0_V1.00,FinalTest_2020.9.23.0,191020,CP1H 191020 000014,interjit,PASS,75.26,73.71,77.32,76.29,,
2020-10-19 15-55-50-869,DESKTOP-K0JN836,CP1H_C0_V1.00,FinalTest_2020.9.23.0,191020,CP1H 191020 000017,interjit,PASS,73.68,75.26,75.79,77.89,,
2020-10-19 15-57-06-737,DESKTOP-K0JN836,CP1H_C0_V1.00,FinalTest_2020.9.23.0,191020,CP1H 191020 000018,interjit,PASS,73.71,75.77,75.26,78.35,,
2020-10-19 15-58-18-110,DESKTOP-K0JN836,CP1H_C0_V1.00,FinalTest_2020.9.23.0,191020,CP1H 191020 000019,interjit,PASS,76.06,74.47,76.60,75.00,,
2020-10-19 16-00-04-687,DESKTOP-K0JN836,CP1H_C0_V1.00,FinalTest_2020.9.23.0,191020,CP1H 191020 000037,interjit,PASS,76.60,72.87,78.19,75.00,,
2020-10-19 16-01-15-006,DESKTOP-K0JN836,CP1H_C0_V1.00,FinalTest_2020.9.23.0,191020,CP1H 191020 000022,interjit,PASS,75.92,75.39,75.92,75.92,,
2020-10-19 16-02-57-236,DESKTOP-K0JN836,CP1H_C0_V1.00,FinalTest_2020.9.23.0,191020,CP1H 191020 000023,interjit,PASS,74.47,73.40,76.06,75.53,,
