Time,Equipment,Model,SWVersion,LotName,Barcode,Operator,Result,mA,,
2019-01-23 20-50-37-918,Final Test,Default,FinalTest_2018.12.11.0,,Administrator Mode,,PASS,5.3,,
2019-01-23 20-52-46-495,Final Test,Default,FinalTest_2018.12.11.0,,Administrator Mode,,PASS,5.3,,
2019-01-23 20-53-32-018,Final Test,Default,FinalTest_2018.12.11.0,,Administrator Mode,,PASS,5.3,,
