Time,Equipment,Model,SWVersion,LotName,Barcode,Operator,Result,C1,C2,C3,C4,S1,S2,S3,S4,S5,S6,S7,S8,,
2019-01-23 15-40-55-338,Final Test,Default,FinalTest_2018.12.11.0,,Administrator Mode,,PASS,673,592,895,824,X,X,X,X,X,X,X,X,,
2019-01-23 15-55-25-972,Final Test,Default,FinalTest_2018.12.11.0,,Administrator Mode,,PASS,663,685,895,801,X,X,X,X,X,X,X,X,,
2019-01-23 16-13-31-609,Final Test,Default,FinalTest_2018.12.11.0,,Administrator Mode,,PASS,663,700,895,797,X,X,X,X,X,X,X,X,,
2019-01-23 16-14-04-908,Final Test,Default,FinalTest_2018.12.11.0,,Administrator Mode,,PASS,663,695,895,802,X,X,X,X,X,X,X,X,,
2019-01-23 16-14-39-673,Final Test,Default,FinalTest_2018.12.11.0,,Administrator Mode,,PASS,663,695,895,802,X,X,X,X,X,X,X,X,,
2019-01-23 16-41-50-525,Final Test,Default,FinalTest_2018.12.11.0,,Administrator Mode,,PASS,673,700,895,819,X,X,X,X,X,X,X,X,,
2019-01-23 16-44-13-275,Final Test,Default,FinalTest_2018.12.11.0,,Administrator Mode,,PASS,652,695,895,801,X,X,X,X,X,X,X,X,,
2019-01-23 19-16-49-365,Final Test,Default,FinalTest_2018.12.11.0,,Administrator Mode,,PASS,612,610,895,717,X,X,X,X,X,X,X,X,,
2019-01-23 20-50-37-918,Final Test,Default,FinalTest_2018.12.11.0,,Administrator Mode,,EMPTY,2,2,0,0,X,X,X,X,X,X,X,X,,
2019-01-23 20-52-46-495,Final Test,Default,FinalTest_2018.12.11.0,,Administrator Mode,,EMPTY,2,2,0,0,X,X,X,X,X,X,X,X,,
2019-01-23 20-53-32-018,Final Test,Default,FinalTest_2018.12.11.0,,Administrator Mode,,PASS,410,452,444,483,X,X,X,X,X,X,X,X,,
