Time,Equipment,Model,SWVersion,LotName,Barcode,Operator,Result,mA,,
2019-01-23 15-40-55-338,Final Test,Default,FinalTest_2018.12.11.0,,Administrator Mode,,PASS,59,,
2019-01-23 15-55-25-972,Final Test,Default,FinalTest_2018.12.11.0,,Administrator Mode,,PASS,55,,
2019-01-23 16-13-31-609,Final Test,Default,FinalTest_2018.12.11.0,,Administrator Mode,,PASS,54,,
2019-01-23 16-14-04-908,Final Test,Default,FinalTest_2018.12.11.0,,Administrator Mode,,PASS,52,,
2019-01-23 16-14-39-673,Final Test,Default,FinalTest_2018.12.11.0,,Administrator Mode,,PASS,53,,
2019-01-23 16-41-50-525,Final Test,Default,FinalTest_2018.12.11.0,,Administrator Mode,,PASS,52,,
2019-01-23 16-44-13-275,Final Test,Default,FinalTest_2018.12.11.0,,Administrator Mode,,PASS,54,,
2019-01-23 20-50-37-918,Final Test,Default,FinalTest_2018.12.11.0,,Administrator Mode,,EMPTY,0,,
2019-01-23 20-52-46-495,Final Test,Default,FinalTest_2018.12.11.0,,Administrator Mode,,EMPTY,0,,
2019-01-23 20-53-32-018,Final Test,Default,FinalTest_2018.12.11.0,,Administrator Mode,,PASS,56,,
