Time,Equipment,Model,SWVersion,LotName,Barcode,Operator,Result,Side 1,Side 2,Side 3,Side 4,,
2019-01-30 10-45-40-676,123,CP1H_190130,FinalTest_2019.1.31.0,ssaaa,Empty,aa,EMPTY,0.00,0.00,0.00,0.00,,
2019-01-30 10-46-43-647,123,CP1H_190130,FinalTest_2019.1.31.0,ssaaa,Empty,aa,EMPTY,0.00,0.00,0.00,0.00,,
