Time,Equipment,Model,SWVersion,LotName,Barcode,Operator,Result,Center X,Center Y,Offset X,Offset Y,Write X,Write Y,,
2019-01-30 10-45-40-676,123,CP1H_190130,FinalTest_2019.1.31.0,ssaaa,Empty,aa,EMPTY,-1,-1,0,0,0,0,,
2019-01-30 10-46-43-647,123,CP1H_190130,FinalTest_2019.1.31.0,ssaaa,Empty,aa,EMPTY,-1,-1,0,0,0,0,,
