Time,Equipment,Model,SWVersion,LotName,Barcode,Operator,Result,Left ? Center,Right ? Center,Top ? Center,Bottom ? Center,,
2019-01-30 10-27-25-075,123,CP1H_190130,FinalTest_2019.1.31.0,,Administrator Mode,,FAIL,0.00,0.00,0.00,0.00,,
2019-01-30 10-27-48-183,123,CP1H_190130,FinalTest_2019.1.31.0,,Administrator Mode,,FAIL,0.00,0.00,0.00,0.00,,
