Time,Equipment,Model,SWVersion,LotName,Barcode,Operator,Result,,
2019-01-30 10-27-25-075,Final Test,CP1H_190130,FinalTest_2019.1.31.0,,Administrator Mode,,EMPTY,,
2019-01-30 10-27-48-183,Final Test,CP1H_190130,FinalTest_2019.1.31.0,,Administrator Mode,,EMPTY,,
